Ticker,Degree
AAC,0
AADR,0
AAII,1
AAN,1
AAT,0
ABAC,0
ABCS,0
ABH,0
ABUS,0
ACEL,1
ACET,1
ACMP,0
ACNB,0
ACO,1
ACP,0
ACRX,0
ACTV,0
ACUR,1
ADG,1
ADM,1
ADPT,1
ADX,12
AEGR,0
AEPI,1
AERL,0
AFT,0
AG,0
AGII,1
AGLS,0
AGOL,0
AGRG,0
AGRO,0
AIM,1
AIN,1
AIRM,1
AIRT,1
AKRX,1
AL,0
ALAN,1
ALCO,1
ALD,0
ALEX,1
ALRN,0
ALTA,0
ALUM,0
AMAG,1
AMAP,0
AMBO,0
AMBT,0
AMCE,1
AMCX,0
AMFI,0
AMID,0
AMLP,0
AMPE,0
AMRC,0
AMRS,0
AMTG,0
AMWD,1
ANAC,0
ANCB,0
AND,0
APO,0
APPA,1
APTS,0
ARCO,0
ARGT,0
ARX,0
ASBI,1
ASEA,0
ASMB,0
ASMI,1
ASTE,1
AT,0
ATNY,0
ATRI,1
ATU,1
AVAN,1
AVD,1
AVL,0
AWAY,0
AXB,1
AXDI,0
AXEN,0
AXGN,0
AXHE,0
AXID,0
AXIT,0
AXMT,0
AXSL,0
AXTE,0
AXUT,0
AYE,1
BABZ,0
BAH,0
BARN,0
BBN,0
BBRG,0
BC,1
BCDS,0
BCPC,1
BCX,0
BEAM,0
BGMD,0
BGX,0
BITA,0
BKLN,0
BKSC,1
BKU,0
BLRX,0
BMC,1
BNHNA,1
BNT,1
BODY,0
BONA,0
BONE,0
BONO,0
BOX,0
BRAF,0
BRAQ,0
BRL,1
BRLI,1
BRP,0
BRY,3
BSJC,0
BSJD,0
BSJE,0
BSJF,0
BTFG,1
BWC,0
BWINB,1
BWS,1
BWXT,0
CADA,1
CAL,0
CAMD,1
CARB,0
CARZ,0
CATO,1
CAU,1
CAZA,0
CBM,1
CBND,0
CBP,0
CBRX,1
CCC,1
CCG,0
CCIH,0
CCLP,0
CCSC,0
CCX,0
CDM,0
CDNS,1
CDR,1
CEBK,1
CECE,1
CELG,1
CERN,1
CFD,0
CFNB,1
CGEI,0
CHCO,6
CHEF,0
CHFC,16
CHKM,0
CHTR,0
CIS,0
CJES,0
CLDX,1
CLFD,1
CLH,1
CLHB,1
CLZR,1
CMRE,0
CMRG,1
CMVT,0
CNBKA,1
CNMD,1
CNPF,0
CNTR,0
COKE,1
COLX,0
CONG,0
COR,0
CORP,0
COWL,0
COWS,0
CPF,1
CPGI,0
CPSH,0
CRK,3
CRMB,0
CRMT,1
CROP,0
CRUD,0
CSBR,0
CSOD,0
CSRE,0
CTBI,13
CTE,0
CTEK,0
CTP,0
CTR,1
CURE,0
CVRT,0
CY,1
CYAN,1
CYBE,1
CYTO,1
CYTR,1
DANG,0
DATE,0
DBBR,0
DBCN,0
DBEF,0
DBEM,0
DBGR,0
DBJP,0
DCIX,0
DD,3
DELL,1
DGC,1
DGICB,1
DGSE,1
DINE,1
DISK,1
DJCO,1
DLHC,0
DMC,1
DMD,0
DMED,0
DNKN,0
DPG,0
DQ,0
DRJ,1
DRL,1
DSS,0
DTE,2
DUST,0
DXLG,0
DXYN,1
DY,1
DYSL,0
EAGL,0
EAPS,0
EAR,1
EATX,0
EBIX,1
EBND,0
ECNS,0
ECOL,1
ECON,0
ECT,0
ECYT,0
ED,2
EDCI,1
EDF,0
EDIV,0
EEMS,0
EFC,0
EGAS,1
EK,1
ELD,0
ELLI,0
ELMD,0
ELT,0
EMAG,0
EMC,1
EMER,0
EMG,0
EMGX,0
EMLC,0
EMO,0
EMVX,0
ENT,0
ENV,0
ENZL,0
EOX,0
EPG,1
EPHE,0
EPOC,0
EQIN,0
ERUS,0
ESBK,1
ETN,4
EWAC,0
EWEF,0
EWEM,0
EWMD,0
EWRI,0
EWRM,0
EWRS,0
EWSM,0
EWST,1
EWZS,0
EXAM,0
FAST,1
FBHS,0
FBM,0
FBNC,3
FBNK,0
FBP,2
FBZ,0
FCA,0
FCD,0
FCGL,0
FCGS,0
FCL,0
FCM,0
FCNCA,1
FCQ,0
FCTR,1
FDT,0
FDUS,0
FEG,0
FEM,0
FENG,0
FEP,0
FES,0
FF,0
FFHS,1
FFKT,1
FFKY,1
FFL,0
FFN,0
FHC,0
FIC,1
FICO,1
FIF,0
FIL,0
FIO,0
FISN,0
FISV,2
FJP,0
FKO,0
FLDM,0
FLG,0
FLIC,1
FLN,0
FLOT,0
FLT,0
FLTR,0
FLYX,0
FMK,0
FMM,0
FMU,0
FNB,8
FNK,0
FNY,0
FO,3
FOL,0
FONE,0
FOS,0
FPA,0
FPB,1
FRAN,0
FRBK,1
FRC,0
FRF,0
FRL,0
FRNK,0
FRP,0
FRPH,0
FSA,0
FSBI,1
FSD,0
FSE,0
FSG,0
FSL,0
FSM,0
FSU,0
FSYS,1
FTQ,0
FUI,0
FULL,0
FUND,2
FWDB,0
FWDD,0
FWDI,0
FXCM,0
FYC,0
FYT,0
GAGA,0
GAN,1
GASL,0
GASX,0
GBAB,0
GCAP,0
GD,1
GDOT,0
GE,1
GEDU,0
GENZ,1
GERJ,0
GEVO,0
GGEM,0
GGGG,0
GLBS,0
GLDX,0
GLK,0
GLTR,0
GLYT,0
GM,0
GMAN,0
GMLP,0
GMT,2
GNC,0
GNCMA,1
GNI,1
GNOM,0
GNR,0
GNT,0
GORO,0
GPL,0
GR,2
GRFS,0
GRPC,0
GRV,0
GSJK,0
GSVC,0
GTAA,0
GTIP,0
GUNR,0
HARL,1
HBM,0
HBNC,1
HBP,0
HBTA,0
HCA,0
HCHC,0
HCOM,0
HDG,0
HDGE,0
HDV,0
HEQ,0
HFBL,0
HGEM,0
HGIC,3
HGR,1
HGSH,0
HHC,0
HIFS,1
HII,0
HILO,0
HKK,0
HLS,1
HMTM,0
HNBC,6
HOMF,1
HON,5
HRH,1
HRTX,0
HRZB,1
HRZN,0
HTLD,2
HVOL,0
HVT,1
HYI,0
HYLD,0
HYMB,0
HYS,0
HZNP,0
IBIO,0
IBM,1
ICCC,1
IFT,0
IGEM,0
IGS,0
IGU,0
IHD,0
IIVI,1
IKGH,0
IL,0
ILX,1
IMKTA,1
IMRS,0
INCB,1
INCO,0
INDB,8
INF,0
INFU,0
INN,0
INXN,0
INXX,0
IOIL,0
IPAR,1
IPHI,0
IR,3
IRN,1
IROQ,0
ISS,0
ITIC,1
ITIP,0
ITT,3
IVOG,0
IVOO,0
IVOV,0
JAVA,1
JEN,1
JJSF,1
JMF,0
JNP,0
JOUT,1
JSD,0
JTPY,0
JUNR,0
JVI,1
KBWD,0
KBWP,0
KBWX,0
KBWY,0
KDE,1
KEYP,0
KEYW,0
KH,0
KIOR,0
KIPS,0
KKR,0
KMF,0
KMI,0
KO,1
KOOL,1
KOS,0
KSU,1
LABL,1
LAKE,1
LAS,0
LBTA,0
LEDS,0
LENS,1
LG,1
LGEM,0
LH,1
LIT,0
LLTC,2
LNKD,0
LNN,1
LODE,0
LOGC,1
LON,0
LPH,0
LPLA,0
LPR,0
LSBG,0
LSBX,1
LSG,0
LVOL,0
LWAY,1
LWPE,0
LYB,0
LZEN,0
MANA,1
MASB,1
MATH,0
MATL,0
MATS,0
MATX,0
MCC,0
MCHI,0
MCOX,0
MCP,0
MDCI,1
MDGN,0
MDMD,0
MEAS,1
MEDH,0
MESA,1
MEXS,0
MFLR,1
MGM,1
MGPI,1
MITK,0
MITT,0
MKL,1
MKTG,0
MMI,0
MMYT,0
MNEL,0
MNGL,0
MOBI,0
MODL,0
MORT,0
MPC,0
MPP,1
MSFT,1
MTGE,0
MTSI,1
MX,0
MXIM,1
MY,0
NAGS,0
NAII,1
NAV,1
NAVG,1
NBD,0
NETE,0
NEWN,0
NFEC,0
NGL,0
NHLD,0
NHTB,1
NKY,0
NLN,1
NLSN,0
NMAR,0
NMFC,0
NOAH,0
NOIZ,1
NORW,0
NOVN,1
NPTN,0
NQ,0
NTG,0
NTSP,0
NUGT,0
NVLS,2
NWK,1
NXPI,0
NXXI,1
OCRX,0
OFED,0
OFG,1
OILT,0
OINK,0
ONB,11
ORCL,1
OSIP,1
OSN,0
OSUR,1
OXF,0
OXLC,0
P,0
PACB,0
PACQ,0
PAGI,0
PARD,1
PARL,1
PATH,0
PATR,1
PBCT,1
PBKS,5
PCOM,0
PCRX,0
PCYG,0
PDE,3
PDEX,1
PEK,0
PEOP,0
PER,0
PFDC,1
PFLT,0
PGV,1
PHYS,0
PKY,1
PLAB,1
PLE,0
PLMT,0
PLXS,2
PMD,1
PME,0
PPHM,1
PPP,0
PRIS,0
PRMW,0
PSF,0
PSLV,0
PSTB,0
PTA,1
PTEC,1
PTGI,0
PTSI,1
PWX,1
PXLG,0
PXLV,0
QADA,0
QGEM,0
QIHU,0
QLIK,0
QRE,0
QRM,0
QUAD,0
QUIP,1
RALS,0
RATE,0
RBPAA,1
RDA,0
RDTA,1
REE,0
REFR,1
REMX,0
RENN,0
RENT,1
RESP,1
RETL,0
RETS,0
RFP,0
RGEN,1
RLD,0
RLJ,0
RMB,0
RMCF,1
RNET,0
RNO,0
RNT,1
ROOF,0
RP,0
RPXC,0
RRF,0
RSUN,0
RSXJ,0
RUSL,0
RUSS,0
RVM,0
RWC,1
SAFM,1
SAGG,0
SARA,0
SAVE,0
SCHH,0
SCHM,0
SCHO,0
SCHP,0
SCHR,0
SCHZ,0
SCIF,0
SCIN,0
SDIV,0
SDT,0
SED,0
SEMG,0
SERV,1
SFUN,0
SGNT,0
SGOC,0
SHBT,0
SHMO,0
SHP,0
SHRP,0
SHVY,0
SIBC,0
SICK,0
SIG,1
SIGM,1
SIVB,1
SIXD,0
SJB,0
SKS,1
SKUL,0
SKYW,1
SKYY,0
SLBT,0
SLVY,0
SMF,0
SMFG,0
SMT,0
SNFCA,1
SODA,0
SOIL,0
SOV,1
SPBC,0
SPHB,0
SPLV,0
SQI,0
SQNS,0
SREV,0
STAG,0
STBZ,0
STIP,0
STIR,0
STND,0
STSA,1
SUNH,0
SUNS,0
SUR,4
SVVC,0
SWFT,0
SWSH,0
SWTX,0
SXC,0
SXCL,0
SYNO,1
SYRG,0
SYSW,0
SZYM,0
TAOM,0
TBET,0
TBOW,0
TBX,0
TBZ,0
TCB,6
TDTF,0
TDTT,0
TEA,0
TEAM,1
TECD,1
TEU,0
TFM,0
TGEM,0
TGX,1
THER,0
THR,0
THTI,0
TIGR,1
TILT,0
TKLC,1
TKMR,0
TKS,1
TLLP,0
TMP,1
TMS,0
TNGO,0
TORM,1
TOTS,0
TOWR,0
TPLM,0
TPS,0
TRGP,0
TRNX,0
TROW,3
TRSY,0
TSFG,1
TSRX,0
TSTF,1
TSU,0
TSXV,0
TTTM,0
TUDO,0
TWMC,1
TYBS,0
TYNS,0
TZW,0
TZY,0
TZYM,0
UAM,0
UAN,0
UBPS,0
UBSI,12
UGEM,0
UIS,1
UJB,0
UNIB,1
UNXL,0
URA,0
USCI,0
USCR,0
VELT,0
VGEM,0
VHS,0
VIOG,0
VIOO,0
VIOV,0
VIVO,1
VIXM,0
VIXY,0
VNET,0
VNQI,0
VOC,0
VOG,0
VONE,0
VONG,0
VONV,0
VOO,0
VOOG,0
VOOV,0
VRA,0
VRNG,0
VROM,0
VTHR,0
VTUS,0
VTWG,0
VTWO,0
VTWV,0
VXUS,0
WAIN,1
WAIR,0
WASH,3
WBKC,0
WBS,2
WD,0
WDTI,0
WERN,2
WIFI,0
WILN,0
WITE,0
WM,1
WMGI,0
WMI,1
WMLP,0
WPPGY,1
WPZ,0
WRN,0
WSB,1
WSBC,10
WSFS,1
WSR,0
WSTE,0
WTS,1
XETA,1
XG,0
XHE,0
XMPT,0
XNY,0
XOIL,0
XOM,1
XOMA,1
XRAY,1
XRIT,1
XRS,0
XTL,0
XTN,0
XTNT,0
XUE,0
YNDX,0
YOKU,0
Z,0
ZA,0
ZG,0
ZGNX,0
ZIP,0
ZOO,0
ZOOG,0
ZX,0
