Interval,Num Edges
"(-0.7, -0.6)",0
"(-0.3, -0.2)",0
"(0.9, 1.0)",924
"(-0.5, -0.4)",0
"(-0.2, -0.1)",0
"(-0.1, 0.0)",705144
"(0.1, 0.2)",0
"(-0.9, -0.8)",0
"(0.3, 0.4)",66600
"(-0.6, -0.5)",0
"(0.0, 0.1)",705144
"(0.6, 0.7)",11304
"(0.4, 0.5)",37570
"(0.8, 0.9)",1430
"(-0.8, -0.7)",0
"(0.2, 0.3)",0
"(0.7, 0.8)",5408
"(0.5, 0.6)",21738
"(-1.0, -0.9)",0
"(-0.4, -0.3)",0
