Degree,Num_Occurs
0,124
1,11
2,13
3,19
4,14
5,10
6,13
7,6
8,10
9,4
10,4
11,3
12,6
13,3
14,6
15,2
16,5
17,8
18,2
19,4
20,6
21,2
22,3
23,3
24,2
25,8
26,1
27,2
28,3
29,0
30,1
31,1
32,2
33,1
34,2
35,0
36,0
37,1
38,2
39,1
40,2
41,0
42,0
43,2
44,1
45,0
46,2
47,0
48,0
49,1
50,0
51,0
52,1
53,0
54,0
55,0
56,1
57,0
58,0
59,1
60,0
61,1
62,2
63,1
64,0
65,0
66,0
67,0
68,0
69,0
70,0
71,1
72,0
73,1
74,1
75,0
76,0
77,0
78,0
79,0
80,0
81,0
82,1
83,1
84,1
85,0
86,1
87,1
88,1
89,0
90,0
91,0
92,0
93,1
94,0
95,1
96,0
97,0
98,0
99,1
100,1
101,2
102,0
103,0
104,0
105,1
106,0
107,0
108,0
109,2
110,0
111,0
112,1
113,0
114,1
115,0
116,0
117,0
118,1
119,0
120,1
121,0
122,0
123,1
124,0
125,1
126,0
127,0
128,0
129,1
130,1
131,1
132,0
133,0
134,1
135,1
136,0
137,0
138,2
139,0
140,0
141,2
142,0
143,1
144,0
145,1
146,0
147,1
148,0
149,1
150,1
151,0
152,1
153,0
154,0
155,1
156,2
157,0
158,0
159,0
160,0
161,0
162,1
163,0
164,1
165,0
166,0
167,0
168,1
169,0
170,1
171,0
172,0
173,0
174,1
175,1
176,2
177,0
178,1
179,1
180,1
181,0
182,0
183,0
184,1
185,0
186,0
187,0
188,1
189,1
190,2
191,0
192,1
193,0
194,0
195,1
196,1
197,0
198,0
199,2
200,2
201,3
202,1
203,0
204,2
205,0
206,1
207,0
208,1
209,1
210,0
211,0
212,2
213,0
214,0
215,1
216,0
217,0
218,0
219,1
220,0
221,1
222,1
223,0
224,0
225,3
226,0
227,1
228,1
229,1
230,2
231,0
232,1
233,0
234,0
235,0
236,1
237,2
238,0
239,0
240,0
241,1
242,2
243,2
244,1
245,0
246,0
247,0
248,1
249,2
250,0
251,2
252,3
253,1
254,2
255,1
256,1
257,1
258,0
259,0
260,1
261,2
262,2
263,2
264,1
265,0
266,1
267,2
268,0
269,0
270,1
271,0
272,1
273,0
274,2
275,0
276,1
277,0
278,0
279,1
280,0
281,0
282,2
283,0
284,0
285,1
286,0
287,1
288,0
289,1
290,1
291,1
292,2
293,0
294,1
295,1
296,0
297,1
298,1
299,1
300,1
301,0
302,0
303,1
304,1
305,3
306,2
307,1
308,2
309,1
310,1
311,3
312,0
313,1
314,2
315,0
316,1
317,1
318,0
319,0
320,0
321,0
322,2
323,1
324,0
325,1
326,0
327,2
328,0
329,1
330,0
331,1
332,0
333,2
334,0
335,1
336,1
337,1
338,1
339,0
340,0
341,1
342,0
343,1
344,2
345,0
346,0
347,2
348,1
349,1
350,2
351,1
352,0
353,2
354,2
355,2
356,1
357,0
358,0
359,0
360,1
361,1
362,1
363,1
364,1
365,0
366,2
367,0
368,2
369,0
370,1
371,0
372,1
373,0
374,0
375,1
376,0
377,0
378,4
379,0
380,0
381,0
382,1
383,1
384,1
385,1
386,0
387,2
388,1
389,2
390,1
391,2
392,0
393,1
394,2
395,1
396,1
397,0
398,0
399,1
400,1
401,1
402,1
403,0
404,1
405,2
406,2
407,3
408,1
409,1
410,1
411,2
412,1
413,1
414,1
415,3
416,3
417,0
418,8
419,3
420,2
421,2
422,0
423,2
424,2
425,2
426,3
427,0
428,1
429,0
430,2
431,1
432,1
433,2
434,0
435,0
436,6
437,2
438,1
439,0
440,1
441,2
442,0
443,1
444,1
445,2
446,1
447,0
448,1
449,1
450,5
451,2
452,1
453,1
454,1
455,2
456,4
457,2
458,1
459,0
460,3
461,2
462,3
463,3
464,0
465,1
466,2
467,3
468,3
469,0
470,4
471,4
472,1
473,2
474,1
475,1
476,3
477,1
478,3
479,2
480,1
481,1
482,4
483,1
484,3
485,2
486,2
487,1
488,2
489,2
490,1
491,1
492,3
493,1
494,3
495,3
496,1
497,2
498,2
499,1
500,6
501,2
502,2
503,2
504,2
505,3
506,1
507,1
508,1
509,2
510,0
511,2
512,1
513,1
514,3
515,1
516,0
517,3
518,0
519,1
520,3
521,4
522,3
523,3
524,1
525,1
526,1
527,4
528,3
529,2
530,4
531,2
532,2
533,3
534,1
535,2
536,1
537,0
538,3
539,0
540,4
541,0
542,3
543,0
544,2
545,1
546,0
547,2
548,0
549,2
550,3
551,0
552,1
553,2
554,1
555,0
556,3
557,2
558,0
559,1
560,4
561,2
562,1
563,1
564,2
565,2
566,4
567,3
568,2
569,2
570,1
571,0
572,2
573,4
574,4
575,2
576,1
577,0
578,0
579,3
580,4
581,4
582,1
583,2
584,4
585,2
586,1
587,5
588,3
589,1
590,2
591,5
592,2
593,0
594,2
595,1
596,3
597,1
598,1
599,0
600,0
601,0
602,3
603,0
604,3
605,0
606,0
607,0
608,0
609,0
610,0
611,0
612,1
613,1
614,0
615,0
616,0
617,0
618,0
619,0
620,0
621,0
622,0
623,0
624,0
625,0
626,0
627,0
628,0
629,0
630,0
631,0
632,0
633,0
634,0
635,0
636,0
637,0
638,0
639,0
640,0
641,0
642,0
643,0
644,0
645,0
646,0
647,0
648,0
649,0
650,0
651,0
652,0
653,0
654,0
655,0
656,0
657,0
658,0
659,0
660,0
661,0
662,0
663,0
664,0
665,0
666,0
667,0
668,0
669,0
670,0
671,0
672,0
673,0
674,0
675,0
676,0
677,0
678,0
679,0
680,0
681,0
682,0
683,0
684,0
685,0
686,0
687,0
688,0
689,0
690,0
691,0
692,0
693,0
694,0
695,0
696,0
697,0
698,0
699,0
700,0
701,0
702,0
703,0
704,0
705,0
706,0
707,0
708,0
709,0
710,0
711,0
712,0
713,0
714,0
715,0
716,0
717,0
718,0
719,0
720,0
721,0
722,0
723,0
724,0
725,0
726,0
727,0
728,0
729,0
730,0
731,0
732,0
733,0
734,0
735,0
736,0
737,0
738,0
739,0
740,0
741,0
742,0
743,0
744,0
745,0
746,0
747,0
748,0
749,0
750,0
751,0
752,0
753,0
754,0
755,0
756,0
757,0
758,0
759,0
760,0
761,0
762,0
763,0
764,0
765,0
766,0
767,0
768,0
769,0
770,0
771,0
772,0
773,0
774,0
775,0
776,0
777,0
778,0
779,0
780,0
781,0
782,0
783,0
784,0
785,0
786,0
787,0
788,0
789,0
790,0
791,0
792,0
793,0
794,0
795,0
796,0
797,0
798,0
799,0
800,0
801,0
802,0
803,0
804,0
805,0
806,0
807,0
808,0
809,0
810,0
811,0
812,0
813,0
814,0
815,0
816,0
817,0
818,0
819,0
820,0
821,0
822,0
823,0
824,0
825,0
826,0
827,0
828,0
829,0
830,0
831,0
832,0
833,0
834,0
835,0
836,0
837,0
838,0
839,0
840,0
841,0
842,0
843,0
844,0
845,0
846,0
847,0
848,0
849,0
850,0
851,0
852,0
853,0
854,0
855,0
856,0
857,0
858,0
859,0
860,0
861,0
862,0
863,0
864,0
865,0
866,0
867,0
868,0
869,0
870,0
871,0
872,0
873,0
874,0
875,0
876,0
877,0
878,0
879,0
880,0
881,0
882,0
883,0
884,0
885,0
886,0
887,0
888,0
889,0
890,0
891,0
892,0
893,0
894,0
895,0
896,0
897,0
898,0
899,0
900,0
901,0
902,0
903,0
904,0
905,0
906,0
907,0
908,0
909,0
910,0
911,0
912,0
913,0
914,0
915,0
916,0
917,0
918,0
919,0
920,0
921,0
922,0
