Symbol,ALUM,AT,CGEI,DTE,EAGL,ED,EGAS,LG
ALUM,0,0,0,0,0,0,0,0
AT,0,0,0,0,0,0,0,0
CGEI,0,0,0,0,0,0,0,0
DTE,0,0,0,1,0,0.7055542685,-0.1516335403,0.5270702897
EAGL,0,0,0,0,0,0,0,0
ED,0,0,0,0,0,1,-0.217716654,0.4910649496
EGAS,0,0,0,0,0,0,1,0.0135564353
LG,0,0,0,0,0,0,0,1
