Symbol,AAT,ACNB,ADX,AGII,ALEX,AMTG,ANCB,APO,APTS,BKSC,BKU,BWINB,CDR,CFNB,CHCO,CHFC,CNBKA,COR,CPF,CTBI,DGICB,EFC,ESBK,EXAM,FBNC,FBNK,FBP,FCNCA,FDUS,FFKT,FLIC,FNB,FRBK,FRC,FRPH,FULL,FXCM,GCAP,GDOT,GSVC,HARL,HBNC,HFBL,HGSH,HHC,HIFS,HRZN,INDB,INN,IROQ,ITIC,KKR,LPLA,LSBG,MCC,MITT,MKL,MMI,MTGE,NAVG,NHLD,NMFC,NOAH,OFED,OFG,ONB,PBCT,PFLT,PKY,PSTB,RBPAA,RLJ,SIVB,SMFG,SNFCA,STAG,STBZ,STND,SUNS,SVVC,TCB,TMP,TROW,UBSI,WASH,WBKC,WBS,WD,WSBC,WSFS,WSR,Z,ZG
AAT,0,0,0,0,0,0,0,0,0,0,0,0,0,0,0,0,0,0,0,0,0,0,0,0,0,0,0,0,0,0,0,0,0,0,0,0,0,0,0,0,0,0,0,0,0,0,0,0,0,0,0,0,0,0,0,0,0,0,0,0,0,0,0,0,0,0,0,0,0,0,0,0,0,0,0,0,0,0,0,0,0,0,0,0,0,0,0,0,0,0,0,0,0
ACNB,0,0,0,0,0,0,0,0,0,0,0,0,0,0,0,0,0,0,0,0,0,0,0,0,0,0,0,0,0,0,0,0,0,0,0,0,0,0,0,0,0,0,0,0,0,0,0,0,0,0,0,0,0,0,0,0,0,0,0,0,0,0,0,0,0,0,0,0,0,0,0,0,0,0,0,0,0,0,0,0,0,0,0,0,0,0,0,0,0,0,0,0,0
ADX,0,0,1,0.5532481194,0.1333921888,0,0,0,0,0.0659855485,0,0.5545297957,0.5258873621,0.0727592296,0.5644104867,0.6667635833,0.1681345863,0,0.5059220942,0.6334328353,0.0843745918,0,0.0375956141,0,0.5499258296,0,0.5585444594,0.5682480052,0,0.403495485,0.1737226701,0.5796765926,0.2315368099,0,0,0,0,0,0,0,0.0947647305,0.0362158094,0,0,0,0.0436493092,0,0.6304803369,0,0,0.1134573757,0,0,0,0,0,0.5686631233,0,0,0.5412532316,0,0,0,0,0.4308737662,0.5805710364,0.5571408543,0,0.6140864791,0,0.1756501794,0,0.6191674937,0,0.0627482661,0,0,0,0,0,0.5863976717,0.5329600784,0.7253982806,0.6478473733,0.5727328734,0,0.5985223397,0,0.5994807031,0.574319561,0,0,0
AGII,0,0,0,1,0.0255356196,0,0,0,0,0.0823963596,0,0.5480661808,0.4336700404,0.0503286073,0.5700888083,0.6145704123,0.1487974223,0,0.3926783172,0.6344526996,0.1487928169,0,-0.0462495722,0,0.6002868093,0,0.5065915023,0.4852931055,0,0.3603681039,0.1859226928,0.5695554355,0.2513119949,0,0,0,0,0,0,0,0.0840755985,0.0430799493,0,0,0,0.0211595259,0,0.5522668505,0,0,0.0697726241,0,0,0,0,0,0.514588671,0,0,0.5268332412,0,0,0,0,0.3738773973,0.5515479626,0.4725674436,0,0.4911851933,0,0.1354981844,0,0.4751831263,0,0.0272898617,0,0,0,0,0,0.5361269941,0.4809014877,0.5546682003,0.5747536904,0.5303482583,0,0.502585177,0,0.6119966636,0.5269420728,0,0,0
ALEX,0,0,0,0,1,0,0,0,0,0.1692493313,0,0.0524008264,-0.0057432019,0.0014746175,0.1185478276,0.098948741,0.0347422915,0,-0.0044237074,0.0885802511,-0.1012184569,0,-0.0476366025,0,0.0443646372,0,0.1303551753,0.2375471005,0,0.031675103,0.0536365796,0.058615483,0.1038856097,0,0,0,0,0,0,0,-0.0462853122,0.1508042776,0,0,0,0.0568406654,0,0.1321616585,0,0,-0.0898865577,0,0,0,0,0,0.0907469686,0,0,0.0231921321,0,0,0,0,-0.0229166731,0.1524084176,0.0923345429,0,0.0374437174,0,0.0227334559,0,0.1114523962,0,0.0061932952,0,0,0,0,0,0.0161490398,0.0276523966,0.18745528,0.1415276096,0.0986029682,0,0.1336743161,0,0.0663284884,-0.0205541877,0,0,0
AMTG,0,0,0,0,0,0,0,0,0,0,0,0,0,0,0,0,0,0,0,0,0,0,0,0,0,0,0,0,0,0,0,0,0,0,0,0,0,0,0,0,0,0,0,0,0,0,0,0,0,0,0,0,0,0,0,0,0,0,0,0,0,0,0,0,0,0,0,0,0,0,0,0,0,0,0,0,0,0,0,0,0,0,0,0,0,0,0,0,0,0,0,0,0
ANCB,0,0,0,0,0,0,0,0,0,0,0,0,0,0,0,0,0,0,0,0,0,0,0,0,0,0,0,0,0,0,0,0,0,0,0,0,0,0,0,0,0,0,0,0,0,0,0,0,0,0,0,0,0,0,0,0,0,0,0,0,0,0,0,0,0,0,0,0,0,0,0,0,0,0,0,0,0,0,0,0,0,0,0,0,0,0,0,0,0,0,0,0,0
APO,0,0,0,0,0,0,0,0,0,0,0,0,0,0,0,0,0,0,0,0,0,0,0,0,0,0,0,0,0,0,0,0,0,0,0,0,0,0,0,0,0,0,0,0,0,0,0,0,0,0,0,0,0,0,0,0,0,0,0,0,0,0,0,0,0,0,0,0,0,0,0,0,0,0,0,0,0,0,0,0,0,0,0,0,0,0,0,0,0,0,0,0,0
APTS,0,0,0,0,0,0,0,0,0,0,0,0,0,0,0,0,0,0,0,0,0,0,0,0,0,0,0,0,0,0,0,0,0,0,0,0,0,0,0,0,0,0,0,0,0,0,0,0,0,0,0,0,0,0,0,0,0,0,0,0,0,0,0,0,0,0,0,0,0,0,0,0,0,0,0,0,0,0,0,0,0,0,0,0,0,0,0,0,0,0,0,0,0
BKSC,0,0,0,0,0,0,0,0,0,1,0,0.0239908068,0.0852051388,-0.1307082037,0.0348042823,0.0663315588,0.0243011215,0,0.0956416969,0.0283283716,0.0170895545,0,0.0670424408,0,0.0022509916,0,0.0687472225,0.0680673174,0,0.0082012924,0.0300994609,0.0602217988,0.0816630237,0,0,0,0,0,0,0,0.1204773861,-0.0413885075,0,0,0,0.026936277,0,0.0743806453,0,0,0.0574527295,0,0,0,0,0,0.0718744003,0,0,0.0707196761,0,0,0,0,-0.0154765283,0.0287871097,0.0556141484,0,0.0635175531,0,0.0382814674,0,0.0911366622,0,0.0521575662,0,0,0,0,0,0.0730880289,0.0116217952,0.0114093931,0.0726685605,0.0239433835,0,0.0415095388,0,0.0809135452,0.0391806076,0,0,0
BKU,0,0,0,0,0,0,0,0,0,0,0,0,0,0,0,0,0,0,0,0,0,0,0,0,0,0,0,0,0,0,0,0,0,0,0,0,0,0,0,0,0,0,0,0,0,0,0,0,0,0,0,0,0,0,0,0,0,0,0,0,0,0,0,0,0,0,0,0,0,0,0,0,0,0,0,0,0,0,0,0,0,0,0,0,0,0,0,0,0,0,0,0,0
BWINB,0,0,0,0,0,0,0,0,0,0,0,1,0.5227787392,0.0964351413,0.5948699049,0.6574610778,0.0656514093,0,0.4447831492,0.6342923587,0.1450805921,0,-0.0646866353,0,0.5757594944,0,0.52886493,0.4719388143,0,0.3890329351,0.1644402813,0.5726952713,0.2347390629,0,0,0,0,0,0,0,0.0350627348,0.0586788426,0,0,0,0.0694635035,0,0.5960162162,0,0,0.0893521952,0,0,0,0,0,0.4913389058,0,0,0.5150363799,0,0,0,0,0.420960943,0.5802712665,0.4973810029,0,0.5760862336,0,0.1778286979,0,0.4952967856,0,-0.0066739559,0,0,0,0,0,0.4791686664,0.5411312458,0.5361616531,0.5702970318,0.6054185658,0,0.4971492191,0,0.6133329364,0.5265516372,0,0,0
CDR,0,0,0,0,0,0,0,0,0,0,0,0,1,0.0475906134,0.4939341832,0.5544731949,0.1215977511,0,0.3730543842,0.567002866,0.1058371443,0,0.0249948252,0,0.4789337181,0,0.4938491002,0.3839542699,0,0.3537544532,0.1189504144,0.5107854841,0.1864079218,0,0,0,0,0,0,0,0.0997430537,0.0360725116,0,0,0,0.024135551,0,0.5304913787,0,0,0.1192041536,0,0,0,0,0,0.4659369028,0,0,0.4005478204,0,0,0,0,0.4024288364,0.538039874,0.4302326657,0,0.573389684,0,0.205895871,0,0.4894982792,0,0.0879487075,0,0,0,0,0,0.4996567723,0.4748320466,0.5205029785,0.5292213479,0.5070608332,0,0.4300142445,0,0.5228854751,0.4934975339,0,0,0
CFNB,0,0,0,0,0,0,0,0,0,0,0,0,0,1,0.0304098425,0.0536489478,0.0939941291,0,-0.0024692164,0.0332830204,-0.0121763633,0,-0.0582003231,0,0.0108992795,0,-0.0099553646,0.0045137712,0,0.0883556523,0.0408368731,0.0237790986,0.1123301935,0,0,0,0,0,0,0,0.0496493907,-0.0244577293,0,0,0,0.0364253146,0,0.0411723564,0,0,0.0014276186,0,0,0,0,0,0.0523821108,0,0,0.0158894762,0,0,0,0,0.1576069669,0.03397132,0.0200153778,0,0.0399434391,0,0.0851948211,0,0.0518773509,0,-0.0352836045,0,0,0,0,0,-0.0107523432,0.0645738739,0.0198550322,-0.002834538,0.0361247939,0,0.0425641948,0,-0.0086867245,0.082921905,0,0,0
CHCO,0,0,0,0,0,0,0,0,0,0,0,0,0,0,1,0.7451632038,0.1791615257,0,0.5522226664,0.7443591989,0.0754640192,0,-0.0207616034,0,0.6777689191,0,0.6420956611,0.5887915237,0,0.4049479037,0.1232035858,0.6626851726,0.1793308629,0,0,0,0,0,0,0,0.0596123246,0.0156569264,0,0,0,0.0697079992,0,0.6907298213,0,0,0.0770161957,0,0,0,0,0,0.5321963993,0,0,0.5119023628,0,0,0,0,0.4840621803,0.7389534334,0.5492006885,0,0.5954171086,0,0.1328256677,0,0.6558029476,0,0.0352676266,0,0,0,0,0,0.624391076,0.5944063081,0.6365352921,0.7344095079,0.6397667806,0,0.6148403462,0,0.7293280308,0.6002049018,0,0,0
CHFC,0,0,0,0,0,0,0,0,0,0,0,0,0,0,0,1,0.1447556315,0,0.6362383115,0.8411954094,0.1243988346,0,-0.0225853329,0,0.7133304764,0,0.7088307312,0.6353775853,0,0.4518361893,0.1481908179,0.7637028782,0.2301761282,0,0,0,0,0,0,0,0.0813067446,0.0224250423,0,0,0,0.0446786553,0,0.785876514,0,0,0.0827110395,0,0,0,0,0,0.5894839293,0,0,0.5858056139,0,0,0,0,0.5844434562,0.8020768237,0.6135724482,0,0.6761535449,0,0.2295252571,0,0.6751749858,0,0.0124494756,0,0,0,0,0,0.7057496402,0.6616101014,0.6996196761,0.7867895861,0.7024527801,0,0.6929223271,0,0.8455968136,0.6689418771,0,0,0
CNBKA,0,0,0,0,0,0,0,0,0,0,0,0,0,0,0,0,1,0,0.1029851926,0.1103988072,0.0722362064,0,-0.0022434895,0,0.1675575168,0,0.0720817001,0.1153757994,0,0.1067992091,0.2017409303,0.0739487114,0.1017913824,0,0,0,0,0,0,0,0.0918801888,0.0514029805,0,0,0,0.0614246399,0,0.1569627723,0,0,0.0527492744,0,0,0,0,0,0.1007110752,0,0,0.0688812666,0,0,0,0,0.0907215241,0.0968886795,0.0810123887,0,0.1353696682,0,-0.0043941894,0,0.1654992471,0,0.1325278355,0,0,0,0,0,0.1681591061,0.0844656732,0.095347918,0.1201185245,0.1299953717,0,0.1343009531,0,0.1061056296,0.1024986469,0,0,0
COR,0,0,0,0,0,0,0,0,0,0,0,0,0,0,0,0,0,0,0,0,0,0,0,0,0,0,0,0,0,0,0,0,0,0,0,0,0,0,0,0,0,0,0,0,0,0,0,0,0,0,0,0,0,0,0,0,0,0,0,0,0,0,0,0,0,0,0,0,0,0,0,0,0,0,0,0,0,0,0,0,0,0,0,0,0,0,0,0,0,0,0,0,0
CPF,0,0,0,0,0,0,0,0,0,0,0,0,0,0,0,0,0,0,1,0.5835351923,0.129876142,0,0.0392506535,0,0.4744262884,0,0.5892143433,0.4756471709,0,0.324165347,0.1441442454,0.6091893761,0.2169784572,0,0,0,0,0,0,0,0.0791820794,0.0009258641,0,0,0,0.0547224539,0,0.5850264835,0,0,0.108494089,0,0,0,0,0,0.4275748141,0,0,0.365219202,0,0,0,0,0.5015828081,0.6118051585,0.4765842269,0,0.5013267421,0,0.1463179751,0,0.5843737045,0,-0.0041296585,0,0,0,0,0,0.5991698372,0.4888201469,0.5449748464,0.6753722426,0.4966098524,0,0.5925340648,0,0.6120429545,0.5029777928,0,0,0
CTBI,0,0,0,0,0,0,0,0,0,0,0,0,0,0,0,0,0,0,0,1,0.1070103744,0,-0.0113778979,0,0.7210914777,0,0.6994662235,0.5566789292,0,0.4840322886,0.1487451011,0.7200231974,0.194161052,0,0,0,0,0,0,0,0.0906489662,0.0354256455,0,0,0,0.0677185044,0,0.7570011355,0,0,0.0533324445,0,0,0,0,0,0.5869198291,0,0,0.5847801699,0,0,0,0,0.5401259877,0.7584218802,0.611170841,0,0.6556660687,0,0.1987301926,0,0.6121566849,0,0.0255452476,0,0,0,0,0,0.666628248,0.6597241824,0.6612379628,0.7398757546,0.7023906022,0,0.6317446261,0,0.7820341559,0.6491956237,0,0,0
DGICB,0,0,0,0,0,0,0,0,0,0,0,0,0,0,0,0,0,0,0,0,1,0,-0.0633669911,0,0.1172193587,0,0.1206887554,0.0725567062,0,0.1303498988,0.0821785741,0.1262403847,0.1006045935,0,0,0,0,0,0,0,0.0495824739,0.0061973755,0,0,0,0.1116792143,0,0.1155825341,0,0,0.0263074162,0,0,0,0,0,0.097337937,0,0,0.1414756935,0,0,0,0,0.1001157558,0.1009363477,0.1015691876,0,0.0747428538,0,0.0477695689,0,0.1357140588,0,-0.0088136983,0,0,0,0,0,0.1427719694,0.1631786778,0.0573702065,0.161856893,0.1314970927,0,0.1573116982,0,0.1265689938,0.0986769281,0,0,0
EFC,0,0,0,0,0,0,0,0,0,0,0,0,0,0,0,0,0,0,0,0,0,0,0,0,0,0,0,0,0,0,0,0,0,0,0,0,0,0,0,0,0,0,0,0,0,0,0,0,0,0,0,0,0,0,0,0,0,0,0,0,0,0,0,0,0,0,0,0,0,0,0,0,0,0,0,0,0,0,0,0,0,0,0,0,0,0,0,0,0,0,0,0,0
ESBK,0,0,0,0,0,0,0,0,0,0,0,0,0,0,0,0,0,0,0,0,0,0,1,0,-0.0249066386,0,0.0233042745,0.0282886883,0,-0.0305660361,-0.0235954082,-0.0475512201,-0.0622504183,0,0,0,0,0,0,0,0.0153765493,0.0595693328,0,0,0,0.0053056281,0,0.0206196123,0,0,0.076336833,0,0,0,0,0,-0.0186930995,0,0,0.0621290657,0,0,0,0,-0.0075941146,-0.0205919013,-0.0091575947,0,-0.0186871891,0,0.0236848578,0,0.0404333369,0,0.0982039937,0,0,0,0,0,-0.0180394593,-0.0114783283,0.0280325363,0.0006566125,-0.0374988256,0,0.0469369528,0,-0.0191995779,0.0421167607,0,0,0
EXAM,0,0,0,0,0,0,0,0,0,0,0,0,0,0,0,0,0,0,0,0,0,0,0,0,0,0,0,0,0,0,0,0,0,0,0,0,0,0,0,0,0,0,0,0,0,0,0,0,0,0,0,0,0,0,0,0,0,0,0,0,0,0,0,0,0,0,0,0,0,0,0,0,0,0,0,0,0,0,0,0,0,0,0,0,0,0,0,0,0,0,0,0,0
FBNC,0,0,0,0,0,0,0,0,0,0,0,0,0,0,0,0,0,0,0,0,0,0,0,0,1,0,0.5696432812,0.5132487586,0,0.4421569787,0.179062774,0.6145882328,0.1939256782,0,0,0,0,0,0,0,0.0732735633,0.0215453334,0,0,0,0.0723365752,0,0.6709086215,0,0,0.0520598704,0,0,0,0,0,0.4952586855,0,0,0.5376536736,0,0,0,0,0.4733279227,0.6444030008,0.5025775208,0,0.6068347234,0,0.1274762046,0,0.5522415151,0,0.0165283581,0,0,0,0,0,0.5542062312,0.6222675914,0.5987109474,0.6207481735,0.6625671022,0,0.567766404,0,0.6927939533,0.5640030046,0,0,0
FBNK,0,0,0,0,0,0,0,0,0,0,0,0,0,0,0,0,0,0,0,0,0,0,0,0,0,0,0,0,0,0,0,0,0,0,0,0,0,0,0,0,0,0,0,0,0,0,0,0,0,0,0,0,0,0,0,0,0,0,0,0,0,0,0,0,0,0,0,0,0,0,0,0,0,0,0,0,0,0,0,0,0,0,0,0,0,0,0,0,0,0,0,0,0
FBP,0,0,0,0,0,0,0,0,0,0,0,0,0,0,0,0,0,0,0,0,0,0,0,0,0,0,1,0.5175536772,0,0.4254974242,0.0841197337,0.6748393429,0.193487568,0,0,0,0,0,0,0,0.070818498,0.0363610575,0,0,0,0.0682621533,0,0.6804647701,0,0,0.0229742319,0,0,0,0,0,0.4704589705,0,0,0.4803662824,0,0,0,0,0.4924445741,0.68352461,0.5193842388,0,0.587202836,0,0.1663813501,0,0.6006711238,0,0.0679875094,0,0,0,0,0,0.5994157862,0.568632433,0.602454691,0.6873610536,0.5677419218,0,0.6051093693,0,0.6896690343,0.5871509743,0,0,0
FCNCA,0,0,0,0,0,0,0,0,0,0,0,0,0,0,0,0,0,0,0,0,0,0,0,0,0,0,0,1,0,0.3272751761,0.1265221081,0.5695964889,0.1983200431,0,0,0,0,0,0,0,0.160868538,0.0619267957,0,0,0,0.0562259278,0,0.5873809153,0,0,0.0548289624,0,0,0,0,0,0.4533717917,0,0,0.4448460422,0,0,0,0,0.4415041832,0.6133601088,0.4806064645,0,0.5008339143,0,0.1595414497,0,0.5749874846,0,0.0211838046,0,0,0,0,0,0.5535478622,0.4842850219,0.5832547955,0.6209402745,0.4753230522,0,0.5966899127,0,0.5989915614,0.5011660933,0,0,0
FDUS,0,0,0,0,0,0,0,0,0,0,0,0,0,0,0,0,0,0,0,0,0,0,0,0,0,0,0,0,0,0,0,0,0,0,0,0,0,0,0,0,0,0,0,0,0,0,0,0,0,0,0,0,0,0,0,0,0,0,0,0,0,0,0,0,0,0,0,0,0,0,0,0,0,0,0,0,0,0,0,0,0,0,0,0,0,0,0,0,0,0,0,0,0
FFKT,0,0,0,0,0,0,0,0,0,0,0,0,0,0,0,0,0,0,0,0,0,0,0,0,0,0,0,0,0,1,0.1155957426,0.3772180702,0.2156431934,0,0,0,0,0,0,0,0.0704051991,0.0552603119,0,0,0,0.0584878278,0,0.4533900865,0,0,-0.0056377294,0,0,0,0,0,0.3691423529,0,0,0.3598010957,0,0,0,0,0.3130801839,0.3789157834,0.350903465,0,0.4391283302,0,0.0285605997,0,0.3805296726,0,0.0285295236,0,0,0,0,0,0.3268860268,0.4093377192,0.3838731487,0.4100257347,0.4367064729,0,0.3665162226,0,0.4132309904,0.3895309528,0,0,0
FLIC,0,0,0,0,0,0,0,0,0,0,0,0,0,0,0,0,0,0,0,0,0,0,0,0,0,0,0,0,0,0,1,0.1049751517,0.1020537586,0,0,0,0,0,0,0,0.0870177172,-0.0312046209,0,0,0,-0.0188654401,0,0.1396677443,0,0,0.028355613,0,0,0,0,0,0.126517174,0,0,0.1874000242,0,0,0,0,0.1228427332,0.1531368404,0.0875787638,0,0.166210115,0,-0.0076643171,0,0.1174703778,0,0.0771899181,0,0,0,0,0,0.1359381082,0.1641395783,0.1168007756,0.1383047308,0.1419808203,0,0.1533271023,0,0.1419190218,0.0986562495,0,0,0
FNB,0,0,0,0,0,0,0,0,0,0,0,0,0,0,0,0,0,0,0,0,0,0,0,0,0,0,0,0,0,0,0,1,0.2173950872,0,0,0,0,0,0,0,0.085645847,0.0348226704,0,0,0,0.0543251327,0,0.7263297332,0,0,0.0897668862,0,0,0,0,0,0.5369940324,0,0,0.5145708393,0,0,0,0,0.5190928407,0.7688683427,0.5947788469,0,0.6050633097,0,0.1542484433,0,0.6523410914,0,0.0149142029,0,0,0,0,0,0.7020984173,0.5828038283,0.6835611158,0.7709846095,0.6227495244,0,0.6614687742,0,0.7227252098,0.604069459,0,0,0
FRBK,0,0,0,0,0,0,0,0,0,0,0,0,0,0,0,0,0,0,0,0,0,0,0,0,0,0,0,0,0,0,0,0,1,0,0,0,0,0,0,0,0.0368813648,0.052743131,0,0,0,-0.0193605002,0,0.2539375541,0,0,0.0848288437,0,0,0,0,0,0.210035956,0,0,0.1203522671,0,0,0,0,0.1662107496,0.2210861377,0.200250437,0,0.208868382,0,0.0354163008,0,0.2409416281,0,0.0083865035,0,0,0,0,0,0.2516055291,0.167816756,0.2192737299,0.2550230068,0.2260505485,0,0.2539241696,0,0.1989004916,0.2178157834,0,0,0
FRC,0,0,0,0,0,0,0,0,0,0,0,0,0,0,0,0,0,0,0,0,0,0,0,0,0,0,0,0,0,0,0,0,0,0,0,0,0,0,0,0,0,0,0,0,0,0,0,0,0,0,0,0,0,0,0,0,0,0,0,0,0,0,0,0,0,0,0,0,0,0,0,0,0,0,0,0,0,0,0,0,0,0,0,0,0,0,0,0,0,0,0,0,0
FRPH,0,0,0,0,0,0,0,0,0,0,0,0,0,0,0,0,0,0,0,0,0,0,0,0,0,0,0,0,0,0,0,0,0,0,0,0,0,0,0,0,0,0,0,0,0,0,0,0,0,0,0,0,0,0,0,0,0,0,0,0,0,0,0,0,0,0,0,0,0,0,0,0,0,0,0,0,0,0,0,0,0,0,0,0,0,0,0,0,0,0,0,0,0
FULL,0,0,0,0,0,0,0,0,0,0,0,0,0,0,0,0,0,0,0,0,0,0,0,0,0,0,0,0,0,0,0,0,0,0,0,0,0,0,0,0,0,0,0,0,0,0,0,0,0,0,0,0,0,0,0,0,0,0,0,0,0,0,0,0,0,0,0,0,0,0,0,0,0,0,0,0,0,0,0,0,0,0,0,0,0,0,0,0,0,0,0,0,0
FXCM,0,0,0,0,0,0,0,0,0,0,0,0,0,0,0,0,0,0,0,0,0,0,0,0,0,0,0,0,0,0,0,0,0,0,0,0,0,0,0,0,0,0,0,0,0,0,0,0,0,0,0,0,0,0,0,0,0,0,0,0,0,0,0,0,0,0,0,0,0,0,0,0,0,0,0,0,0,0,0,0,0,0,0,0,0,0,0,0,0,0,0,0,0
GCAP,0,0,0,0,0,0,0,0,0,0,0,0,0,0,0,0,0,0,0,0,0,0,0,0,0,0,0,0,0,0,0,0,0,0,0,0,0,0,0,0,0,0,0,0,0,0,0,0,0,0,0,0,0,0,0,0,0,0,0,0,0,0,0,0,0,0,0,0,0,0,0,0,0,0,0,0,0,0,0,0,0,0,0,0,0,0,0,0,0,0,0,0,0
GDOT,0,0,0,0,0,0,0,0,0,0,0,0,0,0,0,0,0,0,0,0,0,0,0,0,0,0,0,0,0,0,0,0,0,0,0,0,0,0,0,0,0,0,0,0,0,0,0,0,0,0,0,0,0,0,0,0,0,0,0,0,0,0,0,0,0,0,0,0,0,0,0,0,0,0,0,0,0,0,0,0,0,0,0,0,0,0,0,0,0,0,0,0,0
GSVC,0,0,0,0,0,0,0,0,0,0,0,0,0,0,0,0,0,0,0,0,0,0,0,0,0,0,0,0,0,0,0,0,0,0,0,0,0,0,0,0,0,0,0,0,0,0,0,0,0,0,0,0,0,0,0,0,0,0,0,0,0,0,0,0,0,0,0,0,0,0,0,0,0,0,0,0,0,0,0,0,0,0,0,0,0,0,0,0,0,0,0,0,0
HARL,0,0,0,0,0,0,0,0,0,0,0,0,0,0,0,0,0,0,0,0,0,0,0,0,0,0,0,0,0,0,0,0,0,0,0,0,0,0,0,0,1,0.0506108423,0,0,0,0.0338859465,0,0.088762567,0,0,0.019310876,0,0,0,0,0,0.07877693,0,0,0.0740191814,0,0,0,0,0.0470719589,0.0823507569,0.1140599307,0,0.0926218292,0,-0.0061398504,0,0.0352462423,0,0.0182063964,0,0,0,0,0,0.095829417,0.0948275934,0.0477681605,0.115016282,0.0731069094,0,0.0966208781,0,0.0590527908,0.0619558509,0,0,0
HBNC,0,0,0,0,0,0,0,0,0,0,0,0,0,0,0,0,0,0,0,0,0,0,0,0,0,0,0,0,0,0,0,0,0,0,0,0,0,0,0,0,0,1,0,0,0,0.0237339812,0,0.0577771893,0,0,0.0063313161,0,0,0,0,0,-0.0136631865,0,0,0.0237752196,0,0,0,0,0.0325015337,0.0283972735,0.0101952954,0,0.0365205242,0,-0.0446966836,0,0.0198891,0,0.1093390457,0,0,0,0,0,0.0092011225,0.0150516009,0.0285181304,0.0275980053,0.0192540181,0,0.0559740775,0,0.0290496839,0.0270221301,0,0,0
HFBL,0,0,0,0,0,0,0,0,0,0,0,0,0,0,0,0,0,0,0,0,0,0,0,0,0,0,0,0,0,0,0,0,0,0,0,0,0,0,0,0,0,0,0,0,0,0,0,0,0,0,0,0,0,0,0,0,0,0,0,0,0,0,0,0,0,0,0,0,0,0,0,0,0,0,0,0,0,0,0,0,0,0,0,0,0,0,0,0,0,0,0,0,0
HGSH,0,0,0,0,0,0,0,0,0,0,0,0,0,0,0,0,0,0,0,0,0,0,0,0,0,0,0,0,0,0,0,0,0,0,0,0,0,0,0,0,0,0,0,0,0,0,0,0,0,0,0,0,0,0,0,0,0,0,0,0,0,0,0,0,0,0,0,0,0,0,0,0,0,0,0,0,0,0,0,0,0,0,0,0,0,0,0,0,0,0,0,0,0
HHC,0,0,0,0,0,0,0,0,0,0,0,0,0,0,0,0,0,0,0,0,0,0,0,0,0,0,0,0,0,0,0,0,0,0,0,0,0,0,0,0,0,0,0,0,0,0,0,0,0,0,0,0,0,0,0,0,0,0,0,0,0,0,0,0,0,0,0,0,0,0,0,0,0,0,0,0,0,0,0,0,0,0,0,0,0,0,0,0,0,0,0,0,0
HIFS,0,0,0,0,0,0,0,0,0,0,0,0,0,0,0,0,0,0,0,0,0,0,0,0,0,0,0,0,0,0,0,0,0,0,0,0,0,0,0,0,0,0,0,0,0,1,0,0.0961437271,0,0,-0.0215261486,0,0,0,0,0,0.0296830614,0,0,0.0604319079,0,0,0,0,0.0469638955,0.0736877865,0.0804433125,0,0.050193711,0,0.0815678198,0,0.0132692855,0,-0.0208682756,0,0,0,0,0,0.0269297913,0.1046469597,0.0427462602,0.0610510083,0.0745769947,0,0.0711317566,0,0.0666261413,0.0356432424,0,0,0
HRZN,0,0,0,0,0,0,0,0,0,0,0,0,0,0,0,0,0,0,0,0,0,0,0,0,0,0,0,0,0,0,0,0,0,0,0,0,0,0,0,0,0,0,0,0,0,0,0,0,0,0,0,0,0,0,0,0,0,0,0,0,0,0,0,0,0,0,0,0,0,0,0,0,0,0,0,0,0,0,0,0,0,0,0,0,0,0,0,0,0,0,0,0,0
INDB,0,0,0,0,0,0,0,0,0,0,0,0,0,0,0,0,0,0,0,0,0,0,0,0,0,0,0,0,0,0,0,0,0,0,0,0,0,0,0,0,0,0,0,0,0,0,0,1,0,0,0.0210892203,0,0,0,0,0,0.5365290785,0,0,0.5179927415,0,0,0,0,0.5393030649,0.7510417795,0.5674600159,0,0.6715410599,0,0.2014400704,0,0.6551909425,0,0.0480928915,0,0,0,0,0,0.6742839263,0.6224827939,0.6856611855,0.7645613048,0.6896457548,0,0.668886591,0,0.7248764432,0.6782077454,0,0,0
INN,0,0,0,0,0,0,0,0,0,0,0,0,0,0,0,0,0,0,0,0,0,0,0,0,0,0,0,0,0,0,0,0,0,0,0,0,0,0,0,0,0,0,0,0,0,0,0,0,0,0,0,0,0,0,0,0,0,0,0,0,0,0,0,0,0,0,0,0,0,0,0,0,0,0,0,0,0,0,0,0,0,0,0,0,0,0,0,0,0,0,0,0,0
IROQ,0,0,0,0,0,0,0,0,0,0,0,0,0,0,0,0,0,0,0,0,0,0,0,0,0,0,0,0,0,0,0,0,0,0,0,0,0,0,0,0,0,0,0,0,0,0,0,0,0,0,0,0,0,0,0,0,0,0,0,0,0,0,0,0,0,0,0,0,0,0,0,0,0,0,0,0,0,0,0,0,0,0,0,0,0,0,0,0,0,0,0,0,0
ITIC,0,0,0,0,0,0,0,0,0,0,0,0,0,0,0,0,0,0,0,0,0,0,0,0,0,0,0,0,0,0,0,0,0,0,0,0,0,0,0,0,0,0,0,0,0,0,0,0,0,0,1,0,0,0,0,0,0.1319218735,0,0,0.109314281,0,0,0,0,0.0614709401,0.0432973927,0.0797223724,0,0.0561049563,0,0.0090980623,0,0.0526244303,0,-0.0047224607,0,0,0,0,0,0.0757332415,0.0507381947,0.0927525879,0.0760187773,0.0588192033,0,0.0687143744,0,0.0701044932,0.0673271369,0,0,0
KKR,0,0,0,0,0,0,0,0,0,0,0,0,0,0,0,0,0,0,0,0,0,0,0,0,0,0,0,0,0,0,0,0,0,0,0,0,0,0,0,0,0,0,0,0,0,0,0,0,0,0,0,0,0,0,0,0,0,0,0,0,0,0,0,0,0,0,0,0,0,0,0,0,0,0,0,0,0,0,0,0,0,0,0,0,0,0,0,0,0,0,0,0,0
LPLA,0,0,0,0,0,0,0,0,0,0,0,0,0,0,0,0,0,0,0,0,0,0,0,0,0,0,0,0,0,0,0,0,0,0,0,0,0,0,0,0,0,0,0,0,0,0,0,0,0,0,0,0,0,0,0,0,0,0,0,0,0,0,0,0,0,0,0,0,0,0,0,0,0,0,0,0,0,0,0,0,0,0,0,0,0,0,0,0,0,0,0,0,0
LSBG,0,0,0,0,0,0,0,0,0,0,0,0,0,0,0,0,0,0,0,0,0,0,0,0,0,0,0,0,0,0,0,0,0,0,0,0,0,0,0,0,0,0,0,0,0,0,0,0,0,0,0,0,0,0,0,0,0,0,0,0,0,0,0,0,0,0,0,0,0,0,0,0,0,0,0,0,0,0,0,0,0,0,0,0,0,0,0,0,0,0,0,0,0
MCC,0,0,0,0,0,0,0,0,0,0,0,0,0,0,0,0,0,0,0,0,0,0,0,0,0,0,0,0,0,0,0,0,0,0,0,0,0,0,0,0,0,0,0,0,0,0,0,0,0,0,0,0,0,0,0,0,0,0,0,0,0,0,0,0,0,0,0,0,0,0,0,0,0,0,0,0,0,0,0,0,0,0,0,0,0,0,0,0,0,0,0,0,0
MITT,0,0,0,0,0,0,0,0,0,0,0,0,0,0,0,0,0,0,0,0,0,0,0,0,0,0,0,0,0,0,0,0,0,0,0,0,0,0,0,0,0,0,0,0,0,0,0,0,0,0,0,0,0,0,0,0,0,0,0,0,0,0,0,0,0,0,0,0,0,0,0,0,0,0,0,0,0,0,0,0,0,0,0,0,0,0,0,0,0,0,0,0,0
MKL,0,0,0,0,0,0,0,0,0,0,0,0,0,0,0,0,0,0,0,0,0,0,0,0,0,0,0,0,0,0,0,0,0,0,0,0,0,0,0,0,0,0,0,0,0,0,0,0,0,0,0,0,0,0,0,0,1,0,0,0.4988886005,0,0,0,0,0.3367388552,0.5635137128,0.5445837147,0,0.5426025145,0,0.1856273394,0,0.5181237292,0,-0.0182212973,0,0,0,0,0,0.5211856287,0.3945663471,0.588319452,0.5305075581,0.4915546398,0,0.5316457286,0,0.5584481955,0.4512693441,0,0,0
MMI,0,0,0,0,0,0,0,0,0,0,0,0,0,0,0,0,0,0,0,0,0,0,0,0,0,0,0,0,0,0,0,0,0,0,0,0,0,0,0,0,0,0,0,0,0,0,0,0,0,0,0,0,0,0,0,0,0,0,0,0,0,0,0,0,0,0,0,0,0,0,0,0,0,0,0,0,0,0,0,0,0,0,0,0,0,0,0,0,0,0,0,0,0
MTGE,0,0,0,0,0,0,0,0,0,0,0,0,0,0,0,0,0,0,0,0,0,0,0,0,0,0,0,0,0,0,0,0,0,0,0,0,0,0,0,0,0,0,0,0,0,0,0,0,0,0,0,0,0,0,0,0,0,0,0,0,0,0,0,0,0,0,0,0,0,0,0,0,0,0,0,0,0,0,0,0,0,0,0,0,0,0,0,0,0,0,0,0,0
NAVG,0,0,0,0,0,0,0,0,0,0,0,0,0,0,0,0,0,0,0,0,0,0,0,0,0,0,0,0,0,0,0,0,0,0,0,0,0,0,0,0,0,0,0,0,0,0,0,0,0,0,0,0,0,0,0,0,0,0,0,1,0,0,0,0,0.3488240749,0.5071934111,0.5109164417,0,0.5238849867,0,0.1310559949,0,0.444869163,0,0.0344193162,0,0,0,0,0,0.4381177638,0.4867962207,0.5220710551,0.5053429761,0.5530002597,0,0.4471090851,0,0.5738042561,0.4490686673,0,0,0
NHLD,0,0,0,0,0,0,0,0,0,0,0,0,0,0,0,0,0,0,0,0,0,0,0,0,0,0,0,0,0,0,0,0,0,0,0,0,0,0,0,0,0,0,0,0,0,0,0,0,0,0,0,0,0,0,0,0,0,0,0,0,0,0,0,0,0,0,0,0,0,0,0,0,0,0,0,0,0,0,0,0,0,0,0,0,0,0,0,0,0,0,0,0,0
NMFC,0,0,0,0,0,0,0,0,0,0,0,0,0,0,0,0,0,0,0,0,0,0,0,0,0,0,0,0,0,0,0,0,0,0,0,0,0,0,0,0,0,0,0,0,0,0,0,0,0,0,0,0,0,0,0,0,0,0,0,0,0,0,0,0,0,0,0,0,0,0,0,0,0,0,0,0,0,0,0,0,0,0,0,0,0,0,0,0,0,0,0,0,0
NOAH,0,0,0,0,0,0,0,0,0,0,0,0,0,0,0,0,0,0,0,0,0,0,0,0,0,0,0,0,0,0,0,0,0,0,0,0,0,0,0,0,0,0,0,0,0,0,0,0,0,0,0,0,0,0,0,0,0,0,0,0,0,0,0,0,0,0,0,0,0,0,0,0,0,0,0,0,0,0,0,0,0,0,0,0,0,0,0,0,0,0,0,0,0
OFED,0,0,0,0,0,0,0,0,0,0,0,0,0,0,0,0,0,0,0,0,0,0,0,0,0,0,0,0,0,0,0,0,0,0,0,0,0,0,0,0,0,0,0,0,0,0,0,0,0,0,0,0,0,0,0,0,0,0,0,0,0,0,0,0,0,0,0,0,0,0,0,0,0,0,0,0,0,0,0,0,0,0,0,0,0,0,0,0,0,0,0,0,0
OFG,0,0,0,0,0,0,0,0,0,0,0,0,0,0,0,0,0,0,0,0,0,0,0,0,0,0,0,0,0,0,0,0,0,0,0,0,0,0,0,0,0,0,0,0,0,0,0,0,0,0,0,0,0,0,0,0,0,0,0,0,0,0,0,0,1,0.5205943782,0.3646082811,0,0.427492159,0,0.1359090172,0,0.5245153221,0,0.039003507,0,0,0,0,0,0.4897491196,0.5423482984,0.4997385506,0.5407512851,0.4878003247,0,0.4916517639,0,0.5385398899,0.492565141,0,0,0
ONB,0,0,0,0,0,0,0,0,0,0,0,0,0,0,0,0,0,0,0,0,0,0,0,0,0,0,0,0,0,0,0,0,0,0,0,0,0,0,0,0,0,0,0,0,0,0,0,0,0,0,0,0,0,0,0,0,0,0,0,0,0,0,0,0,0,1,0.5861923386,0,0.6304431651,0,0.1951418813,0,0.6933118563,0,-0.0076860759,0,0,0,0,0,0.7182601944,0.5717479712,0.6806066146,0.7874023908,0.6165729433,0,0.6820180871,0,0.7691371563,0.6132608249,0,0,0
PBCT,0,0,0,0,0,0,0,0,0,0,0,0,0,0,0,0,0,0,0,0,0,0,0,0,0,0,0,0,0,0,0,0,0,0,0,0,0,0,0,0,0,0,0,0,0,0,0,0,0,0,0,0,0,0,0,0,0,0,0,0,0,0,0,0,0,0,1,0,0.4600206041,0,0.2214082263,0,0.5279111093,0,0.0085673215,0,0,0,0,0,0.5653899818,0.4891682828,0.6008164742,0.6143493596,0.5144814592,0,0.5683694797,0,0.571041911,0.4965567326,0,0,0
PFLT,0,0,0,0,0,0,0,0,0,0,0,0,0,0,0,0,0,0,0,0,0,0,0,0,0,0,0,0,0,0,0,0,0,0,0,0,0,0,0,0,0,0,0,0,0,0,0,0,0,0,0,0,0,0,0,0,0,0,0,0,0,0,0,0,0,0,0,0,0,0,0,0,0,0,0,0,0,0,0,0,0,0,0,0,0,0,0,0,0,0,0,0,0
PKY,0,0,0,0,0,0,0,0,0,0,0,0,0,0,0,0,0,0,0,0,0,0,0,0,0,0,0,0,0,0,0,0,0,0,0,0,0,0,0,0,0,0,0,0,0,0,0,0,0,0,0,0,0,0,0,0,0,0,0,0,0,0,0,0,0,0,0,0,1,0,0.1366211679,0,0.5633052898,0,0.0678457092,0,0,0,0,0,0.5343143707,0.5548368469,0.6019960683,0.601129698,0.5811065778,0,0.5668087753,0,0.6172832755,0.5494452382,0,0,0
PSTB,0,0,0,0,0,0,0,0,0,0,0,0,0,0,0,0,0,0,0,0,0,0,0,0,0,0,0,0,0,0,0,0,0,0,0,0,0,0,0,0,0,0,0,0,0,0,0,0,0,0,0,0,0,0,0,0,0,0,0,0,0,0,0,0,0,0,0,0,0,0,0,0,0,0,0,0,0,0,0,0,0,0,0,0,0,0,0,0,0,0,0,0,0
RBPAA,0,0,0,0,0,0,0,0,0,0,0,0,0,0,0,0,0,0,0,0,0,0,0,0,0,0,0,0,0,0,0,0,0,0,0,0,0,0,0,0,0,0,0,0,0,0,0,0,0,0,0,0,0,0,0,0,0,0,0,0,0,0,0,0,0,0,0,0,0,0,1,0,0.129764615,0,0.0623248504,0,0,0,0,0,0.1588157452,0.1290484121,0.1697199415,0.1505520853,0.2005509864,0,0.1829137656,0,0.1771290913,0.1421675342,0,0,0
RLJ,0,0,0,0,0,0,0,0,0,0,0,0,0,0,0,0,0,0,0,0,0,0,0,0,0,0,0,0,0,0,0,0,0,0,0,0,0,0,0,0,0,0,0,0,0,0,0,0,0,0,0,0,0,0,0,0,0,0,0,0,0,0,0,0,0,0,0,0,0,0,0,0,0,0,0,0,0,0,0,0,0,0,0,0,0,0,0,0,0,0,0,0,0
SIVB,0,0,0,0,0,0,0,0,0,0,0,0,0,0,0,0,0,0,0,0,0,0,0,0,0,0,0,0,0,0,0,0,0,0,0,0,0,0,0,0,0,0,0,0,0,0,0,0,0,0,0,0,0,0,0,0,0,0,0,0,0,0,0,0,0,0,0,0,0,0,0,0,1,0,0.024890784,0,0,0,0,0,0.6493636089,0.5064755841,0.6410400025,0.6894863987,0.5477811459,0,0.6651795527,0,0.6239463122,0.5899468839,0,0,0
SMFG,0,0,0,0,0,0,0,0,0,0,0,0,0,0,0,0,0,0,0,0,0,0,0,0,0,0,0,0,0,0,0,0,0,0,0,0,0,0,0,0,0,0,0,0,0,0,0,0,0,0,0,0,0,0,0,0,0,0,0,0,0,0,0,0,0,0,0,0,0,0,0,0,0,0,0,0,0,0,0,0,0,0,0,0,0,0,0,0,0,0,0,0,0
SNFCA,0,0,0,0,0,0,0,0,0,0,0,0,0,0,0,0,0,0,0,0,0,0,0,0,0,0,0,0,0,0,0,0,0,0,0,0,0,0,0,0,0,0,0,0,0,0,0,0,0,0,0,0,0,0,0,0,0,0,0,0,0,0,0,0,0,0,0,0,0,0,0,0,0,0,1,0,0,0,0,0,0.0708118482,0.0400347014,-0.0106277898,0.0264223961,0.0276072293,0,0.1223732847,0,0.0154845264,0.0585139276,0,0,0
STAG,0,0,0,0,0,0,0,0,0,0,0,0,0,0,0,0,0,0,0,0,0,0,0,0,0,0,0,0,0,0,0,0,0,0,0,0,0,0,0,0,0,0,0,0,0,0,0,0,0,0,0,0,0,0,0,0,0,0,0,0,0,0,0,0,0,0,0,0,0,0,0,0,0,0,0,0,0,0,0,0,0,0,0,0,0,0,0,0,0,0,0,0,0
STBZ,0,0,0,0,0,0,0,0,0,0,0,0,0,0,0,0,0,0,0,0,0,0,0,0,0,0,0,0,0,0,0,0,0,0,0,0,0,0,0,0,0,0,0,0,0,0,0,0,0,0,0,0,0,0,0,0,0,0,0,0,0,0,0,0,0,0,0,0,0,0,0,0,0,0,0,0,0,0,0,0,0,0,0,0,0,0,0,0,0,0,0,0,0
STND,0,0,0,0,0,0,0,0,0,0,0,0,0,0,0,0,0,0,0,0,0,0,0,0,0,0,0,0,0,0,0,0,0,0,0,0,0,0,0,0,0,0,0,0,0,0,0,0,0,0,0,0,0,0,0,0,0,0,0,0,0,0,0,0,0,0,0,0,0,0,0,0,0,0,0,0,0,0,0,0,0,0,0,0,0,0,0,0,0,0,0,0,0
SUNS,0,0,0,0,0,0,0,0,0,0,0,0,0,0,0,0,0,0,0,0,0,0,0,0,0,0,0,0,0,0,0,0,0,0,0,0,0,0,0,0,0,0,0,0,0,0,0,0,0,0,0,0,0,0,0,0,0,0,0,0,0,0,0,0,0,0,0,0,0,0,0,0,0,0,0,0,0,0,0,0,0,0,0,0,0,0,0,0,0,0,0,0,0
SVVC,0,0,0,0,0,0,0,0,0,0,0,0,0,0,0,0,0,0,0,0,0,0,0,0,0,0,0,0,0,0,0,0,0,0,0,0,0,0,0,0,0,0,0,0,0,0,0,0,0,0,0,0,0,0,0,0,0,0,0,0,0,0,0,0,0,0,0,0,0,0,0,0,0,0,0,0,0,0,0,0,0,0,0,0,0,0,0,0,0,0,0,0,0
TCB,0,0,0,0,0,0,0,0,0,0,0,0,0,0,0,0,0,0,0,0,0,0,0,0,0,0,0,0,0,0,0,0,0,0,0,0,0,0,0,0,0,0,0,0,0,0,0,0,0,0,0,0,0,0,0,0,0,0,0,0,0,0,0,0,0,0,0,0,0,0,0,0,0,0,0,0,0,0,0,0,1,0.5237957682,0.6563280621,0.7239429939,0.5356765421,0,0.6938375531,0,0.6690176527,0.5533955811,0,0,0
TMP,0,0,0,0,0,0,0,0,0,0,0,0,0,0,0,0,0,0,0,0,0,0,0,0,0,0,0,0,0,0,0,0,0,0,0,0,0,0,0,0,0,0,0,0,0,0,0,0,0,0,0,0,0,0,0,0,0,0,0,0,0,0,0,0,0,0,0,0,0,0,0,0,0,0,0,0,0,0,0,0,0,1,0.5419507426,0.5898496076,0.6080259095,0,0.5352100416,0,0.6253239842,0.5424375787,0,0,0
TROW,0,0,0,0,0,0,0,0,0,0,0,0,0,0,0,0,0,0,0,0,0,0,0,0,0,0,0,0,0,0,0,0,0,0,0,0,0,0,0,0,0,0,0,0,0,0,0,0,0,0,0,0,0,0,0,0,0,0,0,0,0,0,0,0,0,0,0,0,0,0,0,0,0,0,0,0,0,0,0,0,0,0,1,0.7258540405,0.5864481663,0,0.623232838,0,0.6500956189,0.6044457223,0,0,0
UBSI,0,0,0,0,0,0,0,0,0,0,0,0,0,0,0,0,0,0,0,0,0,0,0,0,0,0,0,0,0,0,0,0,0,0,0,0,0,0,0,0,0,0,0,0,0,0,0,0,0,0,0,0,0,0,0,0,0,0,0,0,0,0,0,0,0,0,0,0,0,0,0,0,0,0,0,0,0,0,0,0,0,0,0,1,0.6167655465,0,0.7167280249,0,0.7488434928,0.6245568268,0,0,0
WASH,0,0,0,0,0,0,0,0,0,0,0,0,0,0,0,0,0,0,0,0,0,0,0,0,0,0,0,0,0,0,0,0,0,0,0,0,0,0,0,0,0,0,0,0,0,0,0,0,0,0,0,0,0,0,0,0,0,0,0,0,0,0,0,0,0,0,0,0,0,0,0,0,0,0,0,0,0,0,0,0,0,0,0,0,1,0,0.5538354634,0,0.6530384434,0.5618447301,0,0,0
WBKC,0,0,0,0,0,0,0,0,0,0,0,0,0,0,0,0,0,0,0,0,0,0,0,0,0,0,0,0,0,0,0,0,0,0,0,0,0,0,0,0,0,0,0,0,0,0,0,0,0,0,0,0,0,0,0,0,0,0,0,0,0,0,0,0,0,0,0,0,0,0,0,0,0,0,0,0,0,0,0,0,0,0,0,0,0,0,0,0,0,0,0,0,0
WBS,0,0,0,0,0,0,0,0,0,0,0,0,0,0,0,0,0,0,0,0,0,0,0,0,0,0,0,0,0,0,0,0,0,0,0,0,0,0,0,0,0,0,0,0,0,0,0,0,0,0,0,0,0,0,0,0,0,0,0,0,0,0,0,0,0,0,0,0,0,0,0,0,0,0,0,0,0,0,0,0,0,0,0,0,0,0,1,0,0.6557222616,0.5753209237,0,0,0
WD,0,0,0,0,0,0,0,0,0,0,0,0,0,0,0,0,0,0,0,0,0,0,0,0,0,0,0,0,0,0,0,0,0,0,0,0,0,0,0,0,0,0,0,0,0,0,0,0,0,0,0,0,0,0,0,0,0,0,0,0,0,0,0,0,0,0,0,0,0,0,0,0,0,0,0,0,0,0,0,0,0,0,0,0,0,0,0,0,0,0,0,0,0
WSBC,0,0,0,0,0,0,0,0,0,0,0,0,0,0,0,0,0,0,0,0,0,0,0,0,0,0,0,0,0,0,0,0,0,0,0,0,0,0,0,0,0,0,0,0,0,0,0,0,0,0,0,0,0,0,0,0,0,0,0,0,0,0,0,0,0,0,0,0,0,0,0,0,0,0,0,0,0,0,0,0,0,0,0,0,0,0,0,0,1,0.6051877358,0,0,0
WSFS,0,0,0,0,0,0,0,0,0,0,0,0,0,0,0,0,0,0,0,0,0,0,0,0,0,0,0,0,0,0,0,0,0,0,0,0,0,0,0,0,0,0,0,0,0,0,0,0,0,0,0,0,0,0,0,0,0,0,0,0,0,0,0,0,0,0,0,0,0,0,0,0,0,0,0,0,0,0,0,0,0,0,0,0,0,0,0,0,0,1,0,0,0
WSR,0,0,0,0,0,0,0,0,0,0,0,0,0,0,0,0,0,0,0,0,0,0,0,0,0,0,0,0,0,0,0,0,0,0,0,0,0,0,0,0,0,0,0,0,0,0,0,0,0,0,0,0,0,0,0,0,0,0,0,0,0,0,0,0,0,0,0,0,0,0,0,0,0,0,0,0,0,0,0,0,0,0,0,0,0,0,0,0,0,0,0,0,0
Z,0,0,0,0,0,0,0,0,0,0,0,0,0,0,0,0,0,0,0,0,0,0,0,0,0,0,0,0,0,0,0,0,0,0,0,0,0,0,0,0,0,0,0,0,0,0,0,0,0,0,0,0,0,0,0,0,0,0,0,0,0,0,0,0,0,0,0,0,0,0,0,0,0,0,0,0,0,0,0,0,0,0,0,0,0,0,0,0,0,0,0,0,0
ZG,0,0,0,0,0,0,0,0,0,0,0,0,0,0,0,0,0,0,0,0,0,0,0,0,0,0,0,0,0,0,0,0,0,0,0,0,0,0,0,0,0,0,0,0,0,0,0,0,0,0,0,0,0,0,0,0,0,0,0,0,0,0,0,0,0,0,0,0,0,0,0,0,0,0,0,0,0,0,0,0,0,0,0,0,0,0,0,0,0,0,0,0,0
