Ticker,Degree
AAC,1
AADR,1
AAII,0
AAN,1
AAT,3
ABAC,1
ABCS,1
ABH,1
ABUS,0
ACEL,0
ACET,161
ACMP,1
ACNB,1
ACO,165
ACP,5
ACRX,1
ACTV,3
ACUR,1
ADG,1
ADM,156
ADPT,154
ADX,169
AEGR,1
AEPI,157
AERL,1
AFT,5
AG,1
AGII,162
AGLS,1
AGOL,1
AGRG,9
AGRO,4
AIM,1
AIN,167
AIRM,155
AIRT,6
AKRX,146
AL,10
ALAN,1
ALCO,160
ALD,2
ALEX,1
ALRN,1
ALTA,0
ALUM,1
AMAG,152
AMAP,1
AMBO,1
AMBT,1
AMCE,1
AMCX,2
AMFI,0
AMID,1
AMLP,2
AMPE,7
AMRC,2
AMRS,1
AMTG,1
AMWD,161
ANAC,1
ANCB,1
AND,2
APO,17
APPA,1
APTS,1
ARCO,4
ARGT,2
ARX,1
ASBI,1
ASEA,1
ASMB,1
ASMI,154
ASTE,166
AT,3
ATNY,1
ATRI,156
ATU,165
AVAN,0
AVD,154
AVL,1
AWAY,1
AXB,0
AXDI,11
AXEN,10
AXGN,1
AXHE,11
AXID,11
AXIT,11
AXMT,11
AXSL,9
AXTE,11
AXUT,11
AYE,152
BABZ,2
BAH,1
BARN,0
BBN,1
BBRG,2
BC,166
BCDS,1
BCPC,162
BCX,1
BEAM,2
BGMD,1
BGX,3
BITA,1
BKLN,2
BKSC,1
BKU,5
BLRX,1
BMC,160
BNHNA,135
BNT,0
BODY,2
BONA,1
BONE,1
BONO,2
BOX,3
BRAF,4
BRAQ,1
BRL,0
BRLI,157
BRP,1
BRY,163
BSJC,4
BSJD,4
BSJE,4
BSJF,4
BTFG,126
BWC,1
BWINB,165
BWS,160
BWXT,0
CADA,0
CAL,0
CAMD,110
CARB,1
CARZ,1
CATO,1
CAU,0
CAZA,1
CBM,155
CBND,1
CBP,1
CBRX,64
CCC,161
CCG,2
CCIH,2
CCLP,0
CCSC,1
CCX,2
CDM,0
CDNS,164
CDR,160
CEBK,1
CECE,111
CELG,154
CERN,158
CFD,2
CFNB,86
CGEI,1
CHCO,165
CHEF,2
CHFC,165
CHKM,3
CHTR,3
CIS,1
CJES,1
CLDX,1
CLFD,27
CLH,1
CLHB,0
CLZR,46
CMRE,1
CMRG,156
CMVT,1
CNBKA,129
CNMD,160
CNPF,3
CNTR,9
COKE,158
COLX,2
CONG,9
COR,1
CORP,2
COWL,4
COWS,2
CPF,151
CPGI,1
CPSH,0
CRK,149
CRMB,1
CRMT,159
CROP,1
CRUD,1
CSBR,0
CSOD,2
CSRE,1
CTBI,162
CTE,0
CTEK,0
CTP,1
CTR,158
CURE,4
CVRT,4
CY,162
CYAN,1
CYBE,1
CYTO,0
CYTR,28
DANG,7
DATE,1
DBBR,7
DBCN,7
DBEF,7
DBEM,7
DBGR,1
DBJP,6
DCIX,1
DD,165
DELL,157
DGC,1
DGICB,1
DGSE,1
DINE,1
DISK,2
DJCO,1
DLHC,1
DMC,1
DMD,1
DMED,1
DNKN,1
DPG,1
DQ,1
DRJ,1
DRL,145
DSS,1
DTE,154
DUST,1
DXLG,1
DXYN,1
DY,164
DYSL,1
EAGL,1
EAPS,6
EAR,1
EATX,0
EBIX,156
EBND,5
ECNS,3
ECOL,159
ECON,3
ECT,1
ECYT,1
ED,142
EDCI,1
EDF,1
EDIV,6
EEMS,3
EFC,1
EGAS,1
EK,154
ELD,1
ELLI,1
ELMD,1
ELT,1
EMAG,1
EMC,162
EMER,2
EMG,0
EMGX,0
EMLC,3
EMO,1
EMVX,0
ENT,1
ENV,3
ENZL,1
EOX,1
EPG,1
EPHE,3
EPOC,3
EQIN,9
ERUS,4
ESBK,1
ETN,164
EWAC,0
EWEF,8
EWEM,8
EWMD,5
EWRI,8
EWRM,8
EWRS,8
EWSM,5
EWST,1
EWZS,3
EXAM,3
FAST,160
FBHS,2
FBM,17
FBNC,160
FBNK,2
FBP,158
FBZ,10
FCA,10
FCD,16
FCGL,0
FCGS,0
FCL,17
FCM,0
FCNCA,161
FCQ,17
FCTR,0
FDT,10
FDUS,2
FEG,17
FEM,10
FENG,2
FEP,10
FES,1
FF,2
FFHS,1
FFKT,88
FFKY,1
FFL,17
FFN,1
FHC,17
FIC,167
FICO,1
FIF,1
FIL,17
FIO,6
FISN,0
FISV,167
FJP,10
FKO,10
FLDM,2
FLG,17
FLIC,131
FLN,10
FLOT,1
FLT,4
FLTR,1
FLYX,0
FMK,4
FMM,17
FMU,17
FNB,162
FNK,6
FNY,6
FO,164
FOL,2
FONE,1
FOS,17
FPA,10
FPB,0
FRAN,1
FRBK,34
FRC,1
FRF,1
FRL,16
FRNK,2
FRP,1
FRPH,0
FSA,3
FSBI,1
FSD,2
FSE,6
FSG,3
FSL,5
FSM,1
FSU,6
FSYS,155
FTQ,17
FUI,16
FULL,1
FUND,172
FWDB,2
FWDD,3
FWDI,3
FXCM,4
FYC,6
FYT,6
GAGA,1
GAN,1
GASL,2
GASX,1
GBAB,1
GCAP,3
GD,159
GDOT,2
GE,164
GEDU,0
GENZ,146
GERJ,3
GEVO,1
GGEM,10
GGGG,2
GLBS,1
GLDX,1
GLK,0
GLTR,1
GLYT,0
GM,2
GMAN,1
GMLP,2
GMT,166
GNC,1
GNCMA,162
GNI,7
GNOM,1
GNR,3
GNT,7
GORO,1
GPL,1
GR,160
GRFS,1
GRPC,9
GRV,1
GSJK,1
GSVC,2
GTAA,1
GTIP,2
GUNR,2
HARL,1
HBM,1
HBNC,3
HBP,1
HBTA,11
HCA,1
HCHC,0
HCOM,2
HDG,2
HDGE,1
HDV,3
HEQ,8
HFBL,1
HGEM,10
HGIC,159
HGR,155
HGSH,1
HHC,3
HIFS,1
HII,3
HILO,5
HKK,0
HLS,160
HMTM,11
HNBC,156
HOMF,0
HON,166
HRH,0
HRTX,1
HRZB,87
HRZN,1
HTLD,161
HVOL,11
HVT,151
HYI,1
HYLD,1
HYMB,2
HYS,2
HZNP,1
IBIO,1
IBM,160
ICCC,1
IFT,1
IGEM,10
IGS,1
IGU,2
IHD,1
IIVI,166
IKGH,1
IL,2
ILX,0
IMKTA,161
IMRS,1
INCB,1
INCO,1
INDB,166
INF,1
INFU,1
INN,1
INXN,4
INXX,2
IOIL,6
IPAR,161
IPHI,2
IR,165
IRN,0
IROQ,1
ISS,1
ITIC,1
ITIP,2
ITT,166
IVOG,9
IVOO,9
IVOV,9
JAVA,155
JEN,2
JJSF,161
JMF,6
JNP,0
JOUT,104
JSD,4
JTPY,1
JUNR,1
JVI,0
KBWD,5
KBWP,5
KBWX,5
KBWY,4
KDE,26
KEYP,0
KEYW,1
KH,2
KIOR,1
KIPS,1
KKR,1
KMF,2
KMI,1
KO,152
KOOL,1
KOS,2
KSU,164
LABL,159
LAKE,2
LAS,1
LBTA,11
LEDS,1
LENS,0
LG,158
LGEM,10
LH,156
LIT,3
LLTC,163
LNKD,8
LNN,157
LODE,1
LOGC,1
LON,1
LPH,1
LPLA,2
LPR,3
LSBG,0
LSBX,1
LSG,1
LVOL,11
LWAY,153
LWPE,9
LYB,3
LZEN,1
MANA,0
MASB,0
MATH,10
MATL,4
MATS,0
MATX,1
MCC,1
MCHI,3
MCOX,1
MCP,2
MDCI,159
MDGN,1
MDMD,0
MEAS,162
MEDH,0
MESA,1
MEXS,0
MFLR,1
MGM,163
MGPI,119
MITK,1
MITT,2
MKL,162
MKTG,2
MMI,1
MMYT,1
MNEL,0
MNGL,1
MOBI,1
MODL,0
MORT,1
MPC,2
MPP,0
MSFT,159
MTGE,4
MTSI,1
MX,1
MXIM,1
MY,2
NAGS,1
NAII,1
NAV,1
NAVG,162
NBD,1
NETE,1
NEWN,1
NFEC,1
NGL,2
NHLD,0
NHTB,1
NKY,2
NLN,0
NLSN,1
NMAR,1
NMFC,1
NOAH,3
NOIZ,1
NORW,4
NOVN,156
NPTN,2
NQ,3
NTG,1
NTSP,1
NUGT,6
NVLS,166
NWK,154
NXPI,2
NXXI,5
OCRX,1
OFED,1
OFG,156
OILT,2
OINK,1
ONB,164
ORCL,163
OSIP,144
OSN,1
OSUR,162
OXF,1
OXLC,1
P,3
PACB,1
PACQ,1
PAGI,0
PARD,4
PARL,1
PATH,1
PATR,158
PBCT,160
PBKS,159
PCOM,2
PCRX,1
PCYG,1
PDE,157
PDEX,1
PEK,2
PEOP,1
PER,1
PFDC,0
PFLT,1
PGV,0
PHYS,1
PKY,163
PLAB,155
PLE,0
PLMT,1
PLXS,165
PMD,1
PME,1
PPHM,80
PPP,1
PRIS,1
PRMW,1
PSF,2
PSLV,1
PSTB,1
PTA,0
PTEC,154
PTGI,10
PTSI,8
PWX,1
PXLG,2
PXLV,2
QADA,2
QGEM,10
QIHU,14
QLIK,10
QRE,1
QRM,1
QUAD,1
QUIP,0
RALS,1
RATE,2
RBPAA,2
RDA,1
RDTA,0
REE,1
REFR,7
REMX,3
RENN,1
RENT,136
RESP,0
RETL,1
RETS,1
RFP,1
RGEN,136
RLD,9
RLJ,2
RMB,1
RMCF,1
RNET,4
RNO,1
RNT,143
ROOF,1
RP,1
RPXC,1
RRF,1
RSUN,0
RSXJ,7
RUSL,4
RUSS,2
RVM,1
RWC,1
SAFM,147
SAGG,3
SARA,1
SAVE,5
SCHH,3
SCHM,3
SCHO,3
SCHP,3
SCHR,3
SCHZ,1
SCIF,2
SCIN,1
SDIV,7
SDT,1
SED,1
SEMG,2
SERV,1
SFUN,1
SGNT,5
SGOC,1
SHBT,11
SHMO,11
SHP,1
SHRP,0
SHVY,11
SIBC,1
SICK,0
SIG,157
SIGM,155
SIVB,168
SIXD,0
SJB,1
SKS,159
SKUL,1
SKYW,160
SKYY,2
SLBT,12
SLVY,11
SMF,8
SMFG,2
SMT,1
SNFCA,1
SODA,1
SOIL,8
SOV,0
SPBC,1
SPHB,6
SPLV,5
SQI,2
SQNS,1
SREV,1
STAG,1
STBZ,5
STIP,2
STIR,0
STND,1
STSA,152
SUNH,1
SUNS,1
SUR,157
SVVC,1
SWFT,2
SWSH,1
SWTX,0
SXC,1
SXCL,0
SYNO,159
SYRG,1
SYSW,1
SZYM,11
TAOM,1
TBET,0
TBOW,1
TBX,3
TBZ,3
TCB,162
TDTF,2
TDTT,2
TEA,4
TEAM,2
TECD,164
TEU,2
TFM,3
TGEM,10
TGX,3
THER,4
THR,5
THTI,1
TIGR,1
TILT,2
TKLC,164
TKMR,1
TKS,163
TLLP,5
TMP,162
TMS,5
TNGO,1
TORM,1
TOTS,1
TOWR,2
TPLM,3
TPS,1
TRGP,1
TRNX,2
TROW,167
TRSY,1
TSFG,152
TSRX,1
TSTF,1
TSU,4
TSXV,3
TTTM,1
TUDO,0
TWMC,1
TYBS,3
TYNS,4
TZW,3
TZY,3
TZYM,1
UAM,1
UAN,2
UBPS,1
UBSI,164
UGEM,10
UIS,159
UJB,5
UNIB,0
UNXL,1
URA,3
USCI,1
USCR,1
VELT,3
VGEM,10
VHS,1
VIOG,9
VIOO,9
VIOV,9
VIVO,160
VIXM,2
VIXY,2
VNET,2
VNQI,2
VOC,5
VOG,1
VONE,7
VONG,7
VONV,7
VOO,9
VOOG,9
VOOV,9
VRA,2
VRNG,1
VROM,8
VTHR,7
VTUS,1
VTWG,7
VTWO,7
VTWV,7
VXUS,6
WAIN,1
WAIR,3
WASH,164
WBKC,1
WBS,167
WD,3
WDTI,1
WERN,161
WIFI,1
WILN,1
WITE,2
WM,1
WMGI,0
WMI,163
WMLP,0
WPPGY,164
WPZ,0
WRN,1
WSB,1
WSBC,165
WSFS,165
WSR,1
WSTE,0
WTS,165
XETA,1
XG,1
XHE,4
XMPT,1
XNY,1
XOIL,0
XOM,156
XOMA,145
XRAY,164
XRIT,139
XRS,1
XTL,5
XTN,5
XTNT,0
XUE,1
YNDX,2
YOKU,7
Z,1
ZA,1
ZG,0
ZGNX,1
ZIP,3
ZOO,0
ZOOG,1
ZX,1
