Ticker,Degree
AAC,1
AADR,1
AAII,0
AAN,1
AAT,1
ABAC,0
ABCS,1
ABH,1
ABUS,0
ACEL,0
ACET,1
ACMP,0
ACNB,1
ACO,1
ACP,1
ACRX,1
ACTV,1
ACUR,1
ADG,1
ADM,1
ADPT,1
ADX,1
AEGR,1
AEPI,1
AERL,1
AFT,1
AG,1
AGII,1
AGLS,1
AGOL,1
AGRG,1
AGRO,1
AIM,1
AIN,1
AIRM,1
AIRT,1
AKRX,1
AL,1
ALAN,1
ALCO,1
ALD,1
ALEX,1
ALRN,1
ALTA,0
ALUM,1
AMAG,1
AMAP,1
AMBO,1
AMBT,1
AMCE,1
AMCX,1
AMFI,0
AMID,1
AMLP,1
AMPE,1
AMRC,1
AMRS,1
AMTG,1
AMWD,1
ANAC,1
ANCB,1
AND,1
APO,1
APPA,1
APTS,1
ARCO,1
ARGT,1
ARX,1
ASBI,1
ASEA,1
ASMB,0
ASMI,1
ASTE,1
AT,1
ATNY,1
ATRI,1
ATU,1
AVAN,0
AVD,1
AVL,1
AWAY,1
AXB,0
AXDI,1
AXEN,1
AXGN,0
AXHE,1
AXID,1
AXIT,1
AXMT,1
AXSL,1
AXTE,1
AXUT,1
AYE,1
BABZ,1
BAH,1
BARN,1
BBN,1
BBRG,1
BC,1
BCDS,1
BCPC,1
BCX,1
BEAM,1
BGMD,1
BGX,1
BITA,1
BKLN,1
BKSC,1
BKU,1
BLRX,1
BMC,1
BNHNA,1
BNT,0
BODY,1
BONA,1
BONE,1
BONO,1
BOX,1
BRAF,1
BRAQ,1
BRL,0
BRLI,1
BRP,1
BRY,1
BSJC,1
BSJD,1
BSJE,1
BSJF,1
BTFG,1
BWC,1
BWINB,1
BWS,2
BWXT,0
CADA,0
CAL,0
CAMD,1
CARB,1
CARZ,1
CATO,1
CAU,0
CAZA,1
CBM,1
CBND,1
CBP,1
CBRX,1
CCC,1
CCG,1
CCIH,1
CCLP,0
CCSC,1
CCX,1
CDM,0
CDNS,1
CDR,1
CEBK,2
CECE,1
CELG,1
CERN,1
CFD,1
CFNB,1
CGEI,1
CHCO,1
CHEF,1
CHFC,1
CHKM,1
CHTR,1
CIS,1
CJES,1
CLDX,1
CLFD,1
CLH,1
CLHB,0
CLZR,0
CMRE,1
CMRG,1
CMVT,1
CNBKA,1
CNMD,1
CNPF,1
CNTR,3
COKE,1
COLX,1
CONG,1
COR,1
CORP,1
COWL,1
COWS,1
CPF,1
CPGI,1
CPSH,0
CRK,1
CRMB,1
CRMT,1
CROP,1
CRUD,1
CSBR,0
CSOD,1
CSRE,1
CTBI,1
CTE,1
CTEK,1
CTP,1
CTR,0
CURE,1
CVRT,1
CY,1
CYAN,1
CYBE,1
CYTO,0
CYTR,1
DANG,1
DATE,1
DBBR,1
DBCN,1
DBEF,1
DBEM,1
DBGR,0
DBJP,1
DCIX,1
DD,1
DELL,1
DGC,0
DGICB,1
DGSE,1
DINE,1
DISK,1
DJCO,1
DLHC,0
DMC,1
DMD,1
DMED,1
DNKN,1
DPG,1
DQ,1
DRJ,1
DRL,1
DSS,1
DTE,1
DUST,1
DXLG,0
DXYN,1
DY,1
DYSL,1
EAGL,1
EAPS,1
EAR,1
EATX,1
EBIX,1
EBND,1
ECNS,1
ECOL,1
ECON,1
ECT,1
ECYT,1
ED,1
EDCI,1
EDF,1
EDIV,1
EEMS,1
EFC,1
EGAS,1
EK,1
ELD,1
ELLI,1
ELMD,1
ELT,1
EMAG,0
EMC,1
EMER,1
EMG,0
EMGX,1
EMLC,1
EMO,1
EMVX,1
ENT,0
ENV,1
ENZL,1
EOX,0
EPG,1
EPHE,1
EPOC,1
EQIN,1
ERUS,1
ESBK,1
ETN,1
EWAC,1
EWEF,1
EWEM,1
EWMD,1
EWRI,2
EWRM,2
EWRS,1
EWSM,1
EWST,0
EWZS,1
EXAM,1
FAST,1
FBHS,1
FBM,1
FBNC,1
FBNK,1
FBP,1
FBZ,1
FCA,1
FCD,1
FCGL,1
FCGS,1
FCL,1
FCM,0
FCNCA,1
FCQ,1
FCTR,0
FDT,1
FDUS,1
FEG,1
FEM,1
FENG,1
FEP,1
FES,1
FF,1
FFHS,1
FFKT,1
FFKY,1
FFL,1
FFN,1
FHC,1
FIC,0
FICO,1
FIF,1
FIL,1
FIO,1
FISN,1
FISV,1
FJP,1
FKO,1
FLDM,1
FLG,2
FLIC,1
FLN,1
FLOT,1
FLT,1
FLTR,1
FLYX,1
FMK,1
FMM,1
FMU,3
FNB,1
FNK,1
FNY,1
FO,1
FOL,1
FONE,1
FOS,2
FPA,1
FPB,0
FRAN,1
FRBK,1
FRC,1
FRF,1
FRL,1
FRNK,1
FRP,1
FRPH,0
FSA,1
FSBI,1
FSD,1
FSE,1
FSG,1
FSL,1
FSM,1
FSU,1
FSYS,1
FTQ,1
FUI,1
FULL,1
FUND,1
FWDB,1
FWDD,1
FWDI,1
FXCM,1
FYC,1
FYT,1
GAGA,1
GAN,1
GASL,1
GASX,1
GBAB,1
GCAP,1
GD,1
GDOT,1
GE,1
GEDU,1
GENZ,1
GERJ,1
GEVO,1
GGEM,1
GGGG,1
GLBS,1
GLDX,1
GLK,0
GLTR,1
GLYT,0
GM,1
GMAN,1
GMLP,1
GMT,1
GNC,1
GNCMA,1
GNI,1
GNOM,1
GNR,1
GNT,1
GORO,1
GPL,1
GR,1
GRFS,1
GRPC,3
GRV,1
GSJK,1
GSVC,1
GTAA,1
GTIP,1
GUNR,2
HARL,1
HBM,1
HBNC,1
HBP,1
HBTA,1
HCA,1
HCHC,0
HCOM,1
HDG,1
HDGE,1
HDV,1
HEQ,1
HFBL,1
HGEM,1
HGIC,1
HGR,1
HGSH,1
HHC,1
HIFS,1
HII,1
HILO,1
HKK,1
HLS,1
HMTM,1
HNBC,1
HOMF,0
HON,1
HRH,0
HRTX,0
HRZB,10
HRZN,1
HTLD,1
HVOL,1
HVT,1
HYI,1
HYLD,1
HYMB,1
HYS,1
HZNP,1
IBIO,1
IBM,1
ICCC,2
IFT,1
IGEM,1
IGS,1
IGU,1
IHD,1
IIVI,1
IKGH,0
IL,1
ILX,0
IMKTA,1
IMRS,1
INCB,1
INCO,1
INDB,1
INF,1
INFU,1
INN,1
INXN,1
INXX,1
IOIL,1
IPAR,1
IPHI,1
IR,1
IRN,0
IROQ,1
ISS,1
ITIC,1
ITIP,1
ITT,1
IVOG,2
IVOO,2
IVOV,1
JAVA,1
JEN,1
JJSF,1
JMF,1
JNP,0
JOUT,1
JSD,1
JTPY,0
JUNR,0
JVI,0
KBWD,1
KBWP,1
KBWX,1
KBWY,1
KDE,1
KEYP,1
KEYW,1
KH,1
KIOR,1
KIPS,1
KKR,1
KMF,1
KMI,1
KO,1
KOOL,1
KOS,1
KSU,1
LABL,1
LAKE,1
LAS,1
LBTA,1
LEDS,1
LENS,0
LG,1
LGEM,1
LH,1
LIT,1
LLTC,1
LNKD,1
LNN,1
LODE,1
LOGC,1
LON,1
LPH,1
LPLA,1
LPR,1
LSBG,0
LSBX,1
LSG,1
LVOL,1
LWAY,1
LWPE,3
LYB,1
LZEN,1
MANA,0
MASB,0
MATH,1
MATL,1
MATS,1
MATX,0
MCC,1
MCHI,1
MCOX,1
MCP,1
MDCI,1
MDGN,1
MDMD,1
MEAS,1
MEDH,1
MESA,1
MEXS,1
MFLR,1
MGM,1
MGPI,1
MITK,1
MITT,1
MKL,1
MKTG,1
MMI,1
MMYT,1
MNEL,1
MNGL,1
MOBI,1
MODL,0
MORT,1
MPC,1
MPP,0
MSFT,2
MTGE,1
MTSI,0
MX,1
MXIM,1
MY,1
NAGS,1
NAII,1
NAV,1
NAVG,1
NBD,1
NETE,0
NEWN,1
NFEC,1
NGL,1
NHLD,0
NHTB,1
NKY,1
NLN,0
NLSN,1
NMAR,1
NMFC,1
NOAH,1
NOIZ,1
NORW,1
NOVN,0
NPTN,1
NQ,1
NTG,1
NTSP,1
NUGT,1
NVLS,1
NWK,1
NXPI,1
NXXI,0
OCRX,0
OFED,1
OFG,1
OILT,1
OINK,1
ONB,1
ORCL,1
OSIP,1
OSN,1
OSUR,1
OXF,1
OXLC,1
P,1
PACB,1
PACQ,1
PAGI,0
PARD,1
PARL,1
PATH,1
PATR,1
PBCT,1
PBKS,0
PCOM,1
PCRX,1
PCYG,1
PDE,1
PDEX,1
PEK,1
PEOP,1
PER,1
PFDC,0
PFLT,1
PGV,0
PHYS,1
PKY,1
PLAB,1
PLE,0
PLMT,1
PLXS,1
PMD,1
PME,0
PPHM,1
PPP,1
PRIS,1
PRMW,1
PSF,1
PSLV,1
PSTB,1
PTA,0
PTEC,1
PTGI,1
PTSI,1
PWX,1
PXLG,1
PXLV,1
QADA,1
QGEM,1
QIHU,1
QLIK,1
QRE,1
QRM,1
QUAD,1
QUIP,0
RALS,1
RATE,1
RBPAA,2
RDA,1
RDTA,0
REE,1
REFR,1
REMX,1
RENN,1
RENT,1
RESP,0
RETL,1
RETS,1
RFP,0
RGEN,1
RLD,1
RLJ,1
RMB,1
RMCF,1
RNET,1
RNO,1
RNT,0
ROOF,1
RP,1
RPXC,1
RRF,1
RSUN,1
RSXJ,1
RUSL,1
RUSS,1
RVM,1
RWC,1
SAFM,1
SAGG,1
SARA,1
SAVE,1
SCHH,1
SCHM,1
SCHO,1
SCHP,1
SCHR,1
SCHZ,1
SCIF,1
SCIN,1
SDIV,1
SDT,1
SED,1
SEMG,1
SERV,1
SFUN,1
SGNT,1
SGOC,1
SHBT,1
SHMO,1
SHP,1
SHRP,0
SHVY,1
SIBC,1
SICK,1
SIG,1
SIGM,1
SIVB,1
SIXD,0
SJB,1
SKS,1
SKUL,1
SKYW,1
SKYY,1
SLBT,1
SLVY,1
SMF,1
SMFG,1
SMT,1
SNFCA,1
SODA,1
SOIL,1
SOV,0
SPBC,1
SPHB,1
SPLV,1
SQI,1
SQNS,1
SREV,1
STAG,1
STBZ,1
STIP,1
STIR,0
STND,1
STSA,1
SUNH,1
SUNS,1
SUR,1
SVVC,1
SWFT,1
SWSH,1
SWTX,1
SXC,1
SXCL,0
SYNO,1
SYRG,1
SYSW,1
SZYM,1
TAOM,1
TBET,1
TBOW,1
TBX,1
TBZ,1
TCB,1
TDTF,1
TDTT,1
TEA,1
TEAM,1
TECD,1
TEU,1
TFM,1
TGEM,1
TGX,2
THER,1
THR,1
THTI,1
TIGR,1
TILT,2
TKLC,1
TKMR,1
TKS,2
TLLP,1
TMP,1
TMS,1
TNGO,1
TORM,1
TOTS,1
TOWR,1
TPLM,1
TPS,1
TRGP,1
TRNX,1
TROW,1
TRSY,1
TSFG,1
TSRX,1
TSTF,1
TSU,1
TSXV,1
TTTM,1
TUDO,1
TWMC,1
TYBS,1
TYNS,1
TZW,1
TZY,1
TZYM,1
UAM,1
UAN,1
UBPS,1
UBSI,1
UGEM,1
UIS,1
UJB,1
UNIB,0
UNXL,1
URA,1
USCI,1
USCR,1
VELT,1
VGEM,1
VHS,1
VIOG,1
VIOO,1
VIOV,1
VIVO,1
VIXM,2
VIXY,2
VNET,1
VNQI,1
VOC,1
VOG,1
VONE,6
VONG,3
VONV,3
VOO,2
VOOG,2
VOOV,1
VRA,1
VRNG,1
VROM,1
VTHR,5
VTUS,1
VTWG,3
VTWO,4
VTWV,1
VXUS,1
WAIN,1
WAIR,1
WASH,1
WBKC,1
WBS,1
WD,1
WDTI,1
WERN,1
WIFI,1
WILN,1
WITE,1
WM,1
WMGI,0
WMI,0
WMLP,0
WPPGY,2
WPZ,0
WRN,1
WSB,2
WSBC,1
WSFS,1
WSR,1
WSTE,1
WTS,1
XETA,1
XG,1
XHE,1
XMPT,1
XNY,1
XOIL,1
XOM,1
XOMA,1
XRAY,1
XRIT,1
XRS,1
XTL,1
XTN,1
XTNT,0
XUE,1
YNDX,1
YOKU,1
Z,1
ZA,1
ZG,0
ZGNX,1
ZIP,1
ZOO,0
ZOOG,1
ZX,1
