AA,20160129,6.98,7.29,6.98,7.29,35696500
AA,20160128,7.17,7.19,6.82,7.00,26841200
AA,20160127,7.06,7.28,6.92,6.96,34381600
AA,20160126,6.89,7.18,6.77,7.14,36322200
AA,20160125,6.81,7.00,6.76,6.80,22660500
AA,20160122,7.29,7.42,6.83,6.87,34264100
AA,20160121,6.74,7.26,6.71,7.09,47555900
AA,20160120,6.74,6.81,6.14,6.74,67048900
AA,20160119,6.98,7.02,6.56,6.74,51782500
AA,20160115,6.94,7.02,6.77,6.90,52238400
AA,20160114,7.09,7.37,6.85,7.24,44239100
AA,20160113,7.32,7.44,7.08,7.13,45597200
AA,20160112,8.01,8.02,7.10,7.28,91230300
AA,20160111,8.29,8.29,7.90,8.00,47942500
AA,20160108,8.52,8.56,8.02,8.07,41731900
AA,20160107,8.39,8.51,8.23,8.27,34080800
AA,20160106,9.00,9.02,8.55,8.61,55199300
AA,20160105,9.72,9.77,9.16,9.27,39322700
AA,20160104,9.52,9.80,9.45,9.71,37919300
