ADBE,20160129,85.550003,89.129997,85.120003,89.129997,4652500
ADBE,20160128,85.540001,85.739998,82.699997,84.519997,5315500
ADBE,20160127,87.269997,87.830002,84.510002,84.849998,3041900
ADBE,20160126,87.260002,87.580002,85.470001,86.889999,2745700
ADBE,20160125,88.389999,89.260002,86.629997,86.769997,3935600
ADBE,20160122,89.550003,89.93,88.480003,89.629997,5390100
ADBE,20160121,88.639999,89.93,87.139999,88.00,4298700
ADBE,20160120,87.690002,88.760002,84.669998,87.940002,3666100
ADBE,20160119,90.290001,91.400002,88.370003,89.18,3673100
ADBE,20160115,86.839996,89.349998,86.82,89.169998,3921500
ADBE,20160114,88.919998,90.300003,87.32,89.800003,4052500
ADBE,20160113,90.589996,91.440002,87.989998,88.300003,3368100
ADBE,20160112,89.889999,91.029999,88.410004,89.82,2370500
ADBE,20160111,88.07,89.800003,87.839996,89.379997,2356600
ADBE,20160108,89.68,89.989998,87.629997,87.849998,2263400
ADBE,20160107,89.400002,91.400002,88.709999,89.110001,2696400
ADBE,20160106,91.099998,91.50,90.239998,91.019997,1674000
ADBE,20160105,92.010002,92.849998,91.410004,92.339996,1821300
ADBE,20160104,91.769997,92.00,90.540001,91.970001,2993800
