AES,20160129,9.12,9.51,9.11,9.50,11285900
AES,20160128,9.22,9.34,9.09,9.16,5352200
AES,20160127,9.04,9.21,8.96,9.08,4714200
AES,20160126,8.81,9.10,8.77,9.04,4372000
AES,20160125,9.13,9.19,8.74,8.74,7285300
AES,20160122,9.28,9.39,9.07,9.17,5393900
AES,20160121,8.64,9.27,8.59,9.11,10491700
AES,20160120,8.60,8.70,8.22,8.62,9920300
AES,20160119,8.64,8.82,8.43,8.72,8836700
AES,20160115,8.63,8.65,8.32,8.54,8596100
AES,20160114,8.66,8.89,8.51,8.85,10538000
AES,20160113,8.80,9.08,8.57,8.64,8486900
AES,20160112,9.10,9.11,8.68,8.75,6157100
AES,20160111,9.12,9.22,8.81,9.03,7406300
AES,20160108,9.01,9.20,8.78,9.13,8175600
AES,20160107,9.09,9.20,8.99,9.00,7402900
AES,20160106,9.40,9.48,9.20,9.23,4588100
AES,20160105,9.47,9.59,9.28,9.56,4393800
AES,20160104,9.44,9.48,9.22,9.43,4813500
