AFL,20160129,57.98,58.09,56.549999,57.959999,5167100
AFL,20160128,57.889999,58.490002,57.41,58.310001,2118400
AFL,20160127,57.41,58.27,56.91,57.450001,2511300
AFL,20160126,57.029999,57.810001,56.939999,57.52,1588400
AFL,20160125,57.240002,57.630001,56.439999,56.549999,3140800
AFL,20160122,56.720001,57.32,56.549999,57.27,2188500
AFL,20160121,55.740002,56.459999,55.349998,55.82,2422400
AFL,20160120,55.450001,56.18,54.57,55.549999,2935700
AFL,20160119,57.080002,57.27,56.110001,56.490002,2764900
AFL,20160115,56.02,57.029999,55.880001,56.610001,3439900
AFL,20160114,57.02,57.889999,56.509998,57.32,2709400
AFL,20160113,58.32,58.84,56.669998,56.91,2792500
AFL,20160112,57.630001,57.939999,57.02,57.799999,2324500
AFL,20160111,57.02,57.290001,56.27,57.080002,2011800
AFL,20160108,57.669998,57.790001,56.610001,56.709999,2230300
AFL,20160107,57.119999,58.00,56.93,57.209999,2350300
AFL,20160106,58.330002,58.610001,57.950001,58.200001,1863700
AFL,20160105,59.169998,59.630001,58.740002,59.099998,2050000
AFL,20160104,58.790001,59.18,58.200001,59.18,2474200
