AMGN,20160129,149.399994,153.00,145.25,152.729996,7147500
AMGN,20160128,151.100006,151.710007,145.419998,148.350006,4225700
AMGN,20160127,154.889999,154.889999,148.869995,150.470001,3687500
AMGN,20160126,152.779999,155.229996,151.089996,153.779999,3644100
AMGN,20160125,156.179993,158.00,153.00,153.429993,4727000
AMGN,20160122,156.449997,156.960007,154.240005,156.080002,4571000
AMGN,20160121,154.75,155.020004,150.240005,152.779999,4672600
AMGN,20160120,149.00,156.839996,148.050003,155.020004,7290100
AMGN,20160119,153.449997,154.619995,148.229996,151.300003,4354800
AMGN,20160115,147.690002,152.300003,147.690002,151.300003,6175800
AMGN,20160114,146.020004,155.300003,144.570007,153.160004,5615600
AMGN,20160113,151.139999,152.830002,145.279999,145.460007,3900000
AMGN,20160112,148.429993,151.240005,146.919998,150.789993,4410600
AMGN,20160111,151.330002,151.589996,144.169998,147.690002,4747400
AMGN,20160108,153.119995,154.860001,150.460007,150.710007,4155600
AMGN,20160107,153.059998,156.449997,152.889999,152.979996,4162500
AMGN,20160106,155.009995,157.929993,154.899994,156.720001,3819500
AMGN,20160105,159.00,160.210007,157.25,158.169998,2678900
AMGN,20160104,159.00,159.220001,156.089996,158.339996,5083200
