ANF,20160129,25.68,26.469999,25.57,26.24,2095700
ANF,20160128,26.139999,26.27,25.370001,25.52,1884700
ANF,20160127,25.68,26.219999,25.389999,25.690001,1668200
ANF,20160126,25.18,25.950001,25.139999,25.709999,2213600
ANF,20160125,25.75,25.83,24.799999,25.00,1988300
ANF,20160122,26.549999,26.690001,25.459999,25.84,1641600
ANF,20160121,25.57,26.42,25.40,26.15,2894900
ANF,20160120,24.83,25.870001,23.959999,25.559999,4191300
ANF,20160119,25.790001,26.00,24.68,25.219999,2954200
ANF,20160115,25.40,25.66,24.280001,25.549999,3786100
ANF,20160114,25.450001,26.34,25.02,26.08,1877400
ANF,20160113,26.040001,26.299999,25.290001,25.530001,2394900
ANF,20160112,26.27,26.469999,25.66,26.040001,2310700
ANF,20160111,25.66,26.040001,24.99,25.870001,2969500
ANF,20160108,27.41,27.60,25.440001,25.530001,5266200
ANF,20160107,26.610001,28.040001,26.610001,27.610001,4177200
ANF,20160106,27.07,27.50,26.51,26.98,2299100
ANF,20160105,27.360001,27.65,27.01,27.530001,3104200
ANF,20160104,26.530001,27.65,26.34,27.360001,3019500
