APD,20160129,122.290001,126.779999,121.309998,126.709999,3067500
APD,20160128,118.730003,120.440002,118.07,119.010002,1828600
APD,20160127,118.120003,120.489998,117.519997,118.07,1515100
APD,20160126,117.290001,119.580002,116.449997,118.410004,1211300
APD,20160125,118.910004,119.199997,116.150002,116.309998,1105100
APD,20160122,119.099998,120.690002,117.93,118.970001,1029800
APD,20160121,118.18,118.919998,116.379997,117.169998,1189200
APD,20160120,117.599998,118.610001,114.639999,117.559998,1730400
APD,20160119,118.790001,120.139999,117.330002,119.589996,1793000
APD,20160115,115.660004,118.139999,114.860001,117.82,2319300
APD,20160114,119.239998,119.589996,115.639999,118.379997,3200600
APD,20160113,121.93,122.349998,118.389999,118.550003,1340900
APD,20160112,120.690002,121.269997,119.459999,121.209999,2381600
APD,20160111,121.129997,121.25,118.639999,119.489998,2275000
APD,20160108,120.300003,120.889999,118.830002,119.019997,2577200
APD,20160107,121.269997,122.730003,119.18,119.639999,3944800
APD,20160106,124.860001,125.080002,122.849998,123.790001,1490000
APD,20160105,128.470001,129.270004,125.910004,126.879997,1355700
APD,20160104,128.210007,129.279999,127.07,129.190002,1320300
