BBBY,20160129,42.18,43.23,42.130001,43.169998,2523300
BBBY,20160128,43.360001,43.450001,41.900002,41.939999,2053100
BBBY,20160127,42.150002,43.790001,42.09,43.060001,2559400
BBBY,20160126,43.439999,44.369999,43.279999,44.060001,1891700
BBBY,20160125,43.77,44.040001,43.34,43.389999,2176300
BBBY,20160122,44.139999,44.759998,43.43,43.689999,1845800
BBBY,20160121,43.400002,44.080002,43.009998,43.360001,2692500
BBBY,20160120,42.889999,43.610001,41.709999,42.919998,3061600
BBBY,20160119,44.16,44.25,42.549999,43.220001,2521200
BBBY,20160115,42.98,44.509998,42.939999,44.389999,2653500
BBBY,20160114,44.509998,45.040001,43.630001,44.23,2864900
BBBY,20160113,45.889999,46.209999,44.310001,44.439999,2443500
BBBY,20160112,46.700001,47.490002,45.099998,45.630001,2593900
BBBY,20160111,46.970001,46.990002,45.459999,46.139999,3718500
BBBY,20160108,45.849998,47.470001,45.439999,46.639999,6416200
BBBY,20160107,46.799999,47.529999,46.369999,46.509998,5158100
BBBY,20160106,48.450001,48.509998,46.73,47.02,3871800
BBBY,20160105,48.470001,49.200001,48.299999,49.040001,3236800
BBBY,20160104,47.599998,48.59,47.25,48.470001,2931800
