BCR,20160129,182.529999,188.199997,180.410004,183.270004,1280200
BCR,20160128,183.110001,183.110001,176.949997,178.360001,879400
BCR,20160127,183.130005,186.00,181.770004,183.289993,627000
BCR,20160126,183.009995,184.529999,181.490005,183.160004,449100
BCR,20160125,183.479996,186.399994,182.600006,184.100006,612500
BCR,20160122,180.070007,183.160004,180.020004,183.070007,520300
BCR,20160121,176.960007,180.100006,175.929993,178.880005,519700
BCR,20160120,176.690002,177.970001,172.729996,176.919998,597100
BCR,20160119,179.020004,180.880005,177.75,178.690002,547000
BCR,20160115,173.149994,177.699997,172.210007,176.929993,665400
BCR,20160114,176.479996,178.589996,175.880005,176.949997,588800
BCR,20160113,179.580002,181.240005,175.800003,176.100006,521500
BCR,20160112,178.360001,181.580002,176.919998,178.910004,731400
BCR,20160111,180.479996,181.789993,176.580002,177.960007,476400
BCR,20160108,184.509995,185.100006,179.809998,180.179993,399000
BCR,20160107,181.970001,184.809998,181.970001,184.169998,642700
BCR,20160106,183.009995,185.00,182.169998,184.020004,780000
BCR,20160105,184.580002,185.690002,183.669998,184.800003,651300
BCR,20160104,187.160004,188.059998,182.690002,183.899994,627900
