BHI,20160129,43.299999,44.16,42.549999,43.509998,4130800
BHI,20160128,42.00,43.290001,41.560001,43.119999,2857400
BHI,20160127,39.849998,41.880001,39.740002,40.830002,2708800
BHI,20160126,40.299999,40.59,39.389999,39.970001,2590600
BHI,20160125,41.259998,41.77,39.119999,39.18,2701800
BHI,20160122,42.52,42.950001,40.66,42.040001,2016300
BHI,20160121,38.77,41.330002,38.50,40.73,3398100
BHI,20160120,39.00,39.34,37.580002,38.880001,2670900
BHI,20160119,40.110001,40.869999,39.259998,39.790001,2950900
BHI,20160115,39.48,40.220001,38.990002,39.889999,2421700
BHI,20160114,39.450001,41.549999,38.619999,41.169998,2356700
BHI,20160113,41.799999,42.189999,38.650002,39.25,4090800
BHI,20160112,42.200001,42.25,40.130001,41.040001,2517200
BHI,20160111,41.639999,42.27,40.77,41.509998,4344300
BHI,20160108,42.889999,43.009998,41.380001,41.580002,1903600
BHI,20160107,42.57,43.830002,42.32,42.52,3202200
BHI,20160106,44.48,45.50,43.549999,43.650002,4854900
BHI,20160105,47.189999,47.880001,45.560001,45.919998,2560500
BHI,20160104,45.849998,47.43,45.560001,47.25,2987400
