BIIB,20160129,268.420013,273.899994,265.700012,273.059998,3067900
BIIB,20160128,275.769989,276.970001,261.700012,265.959991,3054900
BIIB,20160127,275.049988,285.279999,270.339996,273.26001,5140100
BIIB,20160126,262.76001,264.480011,257.779999,259.869995,2105800
BIIB,20160125,269.459991,271.209991,261.299988,262.100006,1775100
BIIB,20160122,266.359985,269.480011,264.619995,268.920013,2110000
BIIB,20160121,269.670013,271.049988,261.019989,262.079987,2529400
BIIB,20160120,263.25,272.779999,257.660004,269.350006,2367400
BIIB,20160119,276.980011,276.98999,264.720001,269.850006,2187900
BIIB,20160115,271.01001,279.890015,269.25,273.329987,2568900
BIIB,20160114,268.570007,283.299988,265.369995,280.570007,2391600
BIIB,20160113,279.420013,281.98999,267.00,267.25,2061700
BIIB,20160112,281.179993,285.559998,271.00,278.670013,1833900
BIIB,20160111,280.589996,283.950012,271.660004,278.540009,2109600
BIIB,20160108,284.649994,288.109985,280.00,280.589996,1803900
BIIB,20160107,286.519989,289.98999,283.029999,284.01001,1844900
BIIB,20160106,292.600006,296.579987,291.01001,293.679993,1540200
BIIB,20160105,295.380005,298.640015,293.559998,296.700012,1263900
BIIB,20160104,300.339996,301.019989,291.399994,294.619995,2440200
