BMY,20160129,61.650002,62.639999,61.16,62.16,10060500
BMY,20160128,64.169998,64.25,60.00,61.16,16999600
BMY,20160127,62.939999,62.950001,61.16,61.709999,7439600
BMY,20160126,63.029999,63.049999,61.919998,62.689999,5526200
BMY,20160125,64.230003,64.419998,62.639999,62.919998,7928500
BMY,20160122,64.459999,64.800003,63.650002,64.400002,6633600
BMY,20160121,63.939999,63.970001,62.50,63.130001,5665200
BMY,20160120,62.240002,64.580002,61.799999,63.549999,8678400
BMY,20160119,63.610001,64.43,62.560001,63.209999,8461300
BMY,20160115,61.689999,62.919998,61.07,62.779999,11230600
BMY,20160114,61.32,63.91,60.889999,63.509998,9343600
BMY,20160113,63.599998,64.480003,61.189999,61.279999,9706400
BMY,20160112,63.25,63.790001,62.119999,63.439999,7796200
BMY,20160111,63.709999,63.990002,61.98,62.98,10337800
BMY,20160108,65.599998,65.790001,63.50,63.630001,9076400
BMY,20160107,65.849998,66.690002,64.949997,65.290001,8436600
BMY,20160106,67.470001,68.269997,66.849998,67.150002,6691400
BMY,20160105,67.50,68.900002,67.419998,68.349998,7836700
BMY,20160104,67.449997,67.910004,66.379997,67.029999,7113700
