C,20160129,40.799999,42.59,40.779999,42.580002,35858400
C,20160128,41.200001,41.389999,40.07,40.389999,23181500
C,20160127,40.369999,41.689999,40.23,40.560001,28274800
C,20160126,39.599998,40.790001,39.50,40.50,23508400
C,20160125,40.810001,40.959999,39.450001,39.549999,31924000
C,20160122,41.049999,41.349998,40.82,41.060001,30187200
C,20160121,40.509998,41.389999,40.029999,40.150002,34976700
C,20160120,40.52,41.029999,39.439999,40.490002,49905400
C,20160119,42.849998,43.119999,41.66,41.939999,39032700
C,20160115,42.509998,43.689999,41.849998,42.470001,52452600
C,20160114,45.419998,45.82,44.57,45.380001,30129500
C,20160113,47.32,47.349998,44.970001,45.189999,27925800
C,20160112,47.50,47.50,46.27,46.880001,26310000
C,20160111,46.560001,46.990002,45.93,46.849998,26284600
C,20160108,48.73,48.740002,46.029999,46.130001,30643000
C,20160107,49.07,49.380001,47.50,47.560001,37902900
C,20160106,50.099998,50.580002,49.759998,50.119999,22501800
C,20160105,51.540001,51.610001,50.41,50.860001,17444900
C,20160104,50.75,51.189999,50.189999,51.130001,23440200
