CF,20160129,30.379999,30.85,29.719999,30.00,4984700
CF,20160128,30.219999,30.50,29.40,30.33,3438100
CF,20160127,29.85,30.969999,28.98,30.059999,4073300
CF,20160126,28.469999,29.85,28.00,29.49,4090400
CF,20160125,29.49,29.549999,28.24,28.60,4109900
CF,20160122,31.110001,32.029999,29.66,29.959999,6331000
CF,20160121,29.18,31.110001,29.120001,30.27,5730500
CF,20160120,29.879999,29.879999,26.10,29.219999,10961200
CF,20160119,32.040001,32.139999,29.879999,30.25,3709500
CF,20160115,31.629999,32.459999,30.92,31.57,4712700
CF,20160114,31.969999,33.150002,31.17,32.619999,3893000
CF,20160113,32.869999,33.41,31.559999,31.76,5147200
CF,20160112,33.130001,33.380001,31.68,32.540001,4327700
CF,20160111,34.009998,34.07,32.259998,32.450001,3657100
CF,20160108,34.400002,35.099998,33.709999,33.82,4130100
CF,20160107,35.310001,36.66,33.689999,34.139999,5010600
CF,20160106,38.650002,38.709999,35.27,35.84,4711800
CF,20160105,40.380001,40.66,39.150002,39.23,2690000
CF,20160104,40.060001,40.950001,39.830002,40.50,3262500
