CNP,20160129,17.700001,17.940001,17.68,17.870001,5798600
CNP,20160128,17.50,17.68,17.26,17.540001,4399400
CNP,20160127,17.35,17.450001,17.17,17.309999,3906800
CNP,20160126,17.200001,17.48,17.200001,17.370001,3544900
CNP,20160125,17.690001,17.809999,17.02,17.10,4850500
CNP,20160122,17.77,17.870001,17.610001,17.780001,6387000
CNP,20160121,16.950001,17.610001,16.90,17.43,9739900
CNP,20160120,17.27,17.440001,16.379999,16.90,8466800
CNP,20160119,17.43,17.530001,17.32,17.50,4798000
CNP,20160115,17.290001,17.43,17.01,17.299999,6484700
CNP,20160114,17.110001,17.709999,16.940001,17.629999,6193800
CNP,20160113,17.32,17.51,17.030001,17.07,7020900
CNP,20160112,17.639999,17.690001,17.129999,17.299999,5609100
CNP,20160111,17.709999,17.879999,17.440001,17.60,6813900
CNP,20160108,17.940001,18.24,17.77,17.809999,4660200
CNP,20160107,17.98,18.110001,17.780001,17.85,3701400
CNP,20160106,18.280001,18.450001,18.10,18.209999,4372800
CNP,20160105,18.309999,18.49,18.040001,18.440001,4829400
CNP,20160104,18.26,18.290001,17.950001,18.27,5118100
