CSCO,20160129,23.40,23.799999,23.200001,23.790001,39300700
CSCO,20160128,23.73,23.790001,22.98,23.110001,31827700
CSCO,20160127,23.690001,23.90,23.299999,23.43,24416500
CSCO,20160126,23.24,23.85,23.24,23.719999,25140300
CSCO,20160125,23.379999,23.52,23.139999,23.17,42659400
CSCO,20160122,23.60,23.639999,22.99,23.370001,55039400
CSCO,20160121,23.09,23.450001,22.870001,22.90,46258700
CSCO,20160120,23.40,23.51,22.469999,22.90,83471700
CSCO,20160119,23.799999,24.030001,23.59,23.85,52241600
CSCO,20160115,23.93,24.43,23.57,23.620001,64092800
CSCO,20160114,24.690001,24.90,24.459999,24.66,42902400
CSCO,20160113,25.42,25.52,24.57,24.60,33431600
CSCO,20160112,25.51,25.57,25.030001,25.35,30122400
CSCO,20160111,24.93,25.35,24.93,25.27,32346900
CSCO,20160108,25.549999,25.629999,24.719999,24.780001,28609700
CSCO,20160107,25.49,25.74,25.120001,25.41,43235400
CSCO,20160106,26.08,26.139999,25.82,26.01,30799800
CSCO,20160105,26.540001,26.66,26.18,26.290001,22024900
CSCO,20160104,26.389999,26.42,25.879999,26.41,35827100
