CVS,20160129,94.209999,96.589996,93.209999,96.589996,6191300
CVS,20160128,95.269997,95.269997,93.080002,93.489998,4069000
CVS,20160127,94.129997,95.309998,93.480003,94.339996,3905600
CVS,20160126,94.129997,94.510002,93.419998,94.040001,4529000
CVS,20160125,95.559998,95.800003,93.989998,94.07,5734900
CVS,20160122,95.800003,96.089996,94.379997,95.639999,4376900
CVS,20160121,94.550003,95.309998,93.510002,94.480003,4845700
CVS,20160120,93.360001,95.00,92.349998,94.120003,7107700
CVS,20160119,94.870003,95.559998,94.339996,95.059998,6258600
CVS,20160115,93.510002,95.110001,92.949997,93.900002,7556600
CVS,20160114,94.110001,96.339996,94.110001,95.510002,4986800
CVS,20160113,95.839996,96.629997,93.949997,94.110001,6270900
CVS,20160112,95.639999,96.190002,94.690002,95.690002,5333500
CVS,20160111,93.830002,95.300003,93.589996,94.919998,6243400
CVS,20160108,94.589996,96.00,93.279999,93.559998,5634400
CVS,20160107,94.50,95.690002,93.919998,94.18,6309700
CVS,20160106,95.529999,96.459999,95.07,95.559998,5901400
CVS,20160105,96.389999,97.150002,95.900002,96.739998,5414800
CVS,20160104,96.169998,96.57,95.370003,96.459999,5911000
