DUK,20160129,73.989998,75.410004,73.93,75.300003,4718500
DUK,20160128,72.169998,73.959999,71.830002,73.470001,2284500
DUK,20160127,72.00,72.889999,71.660004,72.410004,2083800
DUK,20160126,72.00,73.199997,71.739998,72.220001,2598000
DUK,20160125,72.190002,72.290001,71.519997,71.800003,2378300
DUK,20160122,71.580002,72.239998,70.949997,72.18,3150200
DUK,20160121,71.699997,72.139999,70.349998,71.089996,4501400
DUK,20160120,72.57,72.989998,70.650002,71.419998,3567400
DUK,20160119,72.470001,73.360001,72.089996,73.160004,3163500
DUK,20160115,71.480003,72.300003,71.019997,72.080002,4635900
DUK,20160114,71.730003,72.830002,71.160004,72.370003,3639900
DUK,20160113,71.360001,72.349998,71.290001,71.699997,2600500
DUK,20160112,72.139999,72.260002,70.599998,71.269997,2976200
DUK,20160111,71.25,72.050003,71.199997,71.830002,2968900
DUK,20160108,71.190002,71.68,70.910004,71.040001,2198000
DUK,20160107,71.050003,71.769997,70.889999,71.199997,2887800
DUK,20160106,71.110001,72.18,70.870003,71.860001,2382800
DUK,20160105,71.18,71.849998,70.18,71.699997,2706800
DUK,20160104,70.93,71.209999,70.160004,71.190002,3565500
