DVN,20160129,27.059999,28.66,26.799999,27.90,11233700
DVN,20160128,25.799999,26.99,25.209999,26.790001,11270400
DVN,20160127,24.16,25.85,23.52,24.49,10939600
DVN,20160126,23.889999,24.65,22.700001,24.559999,7526500
DVN,20160125,24.75,26.02,22.76,22.77,10237500
DVN,20160122,26.440001,27.50,24.969999,25.629999,14571700
DVN,20160121,21.33,24.92,21.18,24.18,10874100
DVN,20160120,22.559999,22.65,19.690001,21.59,18559600
DVN,20160119,24.879999,24.879999,22.75,23.48,9292900
DVN,20160115,24.370001,24.65,23.360001,24.49,9673400
DVN,20160114,25.040001,26.219999,24.18,25.959999,8580900
DVN,20160113,26.360001,26.690001,24.219999,24.799999,11457100
DVN,20160112,27.66,27.860001,24.549999,25.719999,14152100
DVN,20160111,28.799999,28.83,26.51,26.969999,10329800
DVN,20160108,28.35,28.93,27.450001,28.50,8160500
DVN,20160107,29.209999,30.129999,27.90,28.059999,11164900
DVN,20160106,31.610001,31.629999,30.129999,30.209999,7777700
DVN,20160105,32.200001,32.93,31.559999,32.830002,6258100
DVN,20160104,31.780001,32.91,31.530001,32.32,6770300
