FITB,20160129,15.64,15.81,15.48,15.80,11499600
FITB,20160128,15.68,15.96,15.44,15.57,10970100
FITB,20160127,15.15,15.87,15.12,15.42,11489200
FITB,20160126,15.14,15.40,15.05,15.23,17219000
FITB,20160125,15.78,15.88,14.90,15.01,24337000
FITB,20160122,16.09,16.18,15.66,15.94,20036600
FITB,20160121,16.76,17.25,15.72,15.73,21766400
FITB,20160120,16.51,16.719999,15.95,16.530001,18460000
FITB,20160119,17.41,17.440001,16.719999,16.879999,9327700
FITB,20160115,17.040001,17.24,16.75,17.120001,10111800
FITB,20160114,17.49,17.82,17.09,17.65,15342000
FITB,20160113,18.42,18.450001,17.33,17.33,18186200
FITB,20160112,18.41,18.41,17.940001,18.27,8673500
FITB,20160111,18.459999,18.620001,18.02,18.17,10964500
FITB,20160108,18.77,18.950001,18.35,18.389999,9007300
FITB,20160107,18.93,19.07,18.68,18.709999,11183200
FITB,20160106,19.209999,19.41,19.110001,19.32,8937500
FITB,20160105,19.559999,19.73,19.389999,19.610001,8994000
FITB,20160104,19.48,19.68,19.34,19.549999,11600500
