GCI,20160129,14.59,14.87,14.50,14.84,763400
GCI,20160128,14.46,14.59,14.14,14.53,580000
GCI,20160127,14.48,14.80,14.01,14.46,980300
GCI,20160126,14.02,14.64,14.00,14.48,997900
GCI,20160125,14.37,14.50,14.01,14.07,972300
GCI,20160122,14.49,14.67,14.20,14.32,756400
GCI,20160121,14.27,14.43,13.96,14.25,1262400
GCI,20160120,14.35,14.526,13.39,14.27,1935000
GCI,20160119,15.30,15.30,14.26,14.50,1639600
GCI,20160115,15.50,15.50,15.087,15.27,1165100
GCI,20160114,15.78,16.24,15.30,15.74,1716900
GCI,20160113,16.209999,16.610001,15.49,15.76,2241500
GCI,20160112,16.209999,16.280001,15.58,16.219999,1178000
GCI,20160111,16.18,16.25,15.97,16.16,849900
GCI,20160108,16.200001,16.389999,16.00,16.15,727700
GCI,20160107,16.43,16.469999,15.94,16.139999,728800
GCI,20160106,16.049999,16.77,15.94,16.74,1616700
GCI,20160105,15.58,16.389999,15.53,16.34,1438700
GCI,20160104,16.07,16.09,15.25,15.61,1302700
