GLW,20160129,18.110001,18.610001,18.10,18.610001,11577000
GLW,20160128,18.120001,18.200001,17.889999,17.99,11287100
GLW,20160127,17.610001,18.27,17.52,17.91,16551400
GLW,20160126,16.780001,18.049999,16.76,17.709999,19399500
GLW,20160125,17.049999,17.129999,16.620001,16.76,13507500
GLW,20160122,17.200001,17.27,16.940001,17.10,12826900
GLW,20160121,16.76,17.299999,16.57,16.93,14562900
GLW,20160120,16.26,16.809999,16.129999,16.690001,17528700
GLW,20160119,17.02,17.120001,16.59,16.76,10926500
GLW,20160115,16.950001,17.16,16.719999,16.870001,16347400
GLW,20160114,17.120001,17.469999,17.030001,17.299999,9931800
GLW,20160113,17.40,17.639999,17.02,17.059999,16605600
GLW,20160112,17.49,17.610001,17.110001,17.34,14399600
GLW,20160111,17.190001,17.559999,17.15,17.309999,15856100
GLW,20160108,17.18,17.43,17.10,17.15,16851500
GLW,20160107,17.15,17.41,17.040001,17.10,11555100
GLW,20160106,17.59,17.690001,17.389999,17.50,12620500
GLW,20160105,17.92,18.07,17.73,17.90,11931400
GLW,20160104,17.950001,17.98,17.75,17.91,10840700
