HAR,20160129,69.160004,74.959999,69.150002,74.389999,2659700
HAR,20160128,80.300003,82.110001,66.379997,69.010002,4574600
HAR,20160127,80.019997,81.620003,78.790001,79.730003,1959300
HAR,20160126,78.32,81.470001,78.220001,80.629997,1579800
HAR,20160125,77.669998,80.199997,77.07,77.849998,1227300
HAR,20160122,78.419998,79.699997,76.57,78.169998,991300
HAR,20160121,76.190002,78.010002,74.459999,76.32,1144900
HAR,20160120,73.610001,76.169998,71.580002,75.43,1656300
HAR,20160119,79.360001,79.360001,74.830002,75.690002,1237900
HAR,20160115,79.550003,80.639999,76.879997,77.93,1323900
HAR,20160114,82.970001,83.110001,77.699997,82.209999,1714500
HAR,20160113,86.620003,87.019997,82.400002,82.849998,851700
HAR,20160112,87.099998,88.379997,84.800003,86.290001,713300
HAR,20160111,85.639999,86.529999,83.389999,85.919998,882500
HAR,20160108,88.110001,89.690002,85.220001,85.50,1134100
HAR,20160107,91.080002,92.239998,87.209999,87.239998,1330700
HAR,20160106,94.190002,95.559998,91.860001,93.040001,1252200
HAR,20160105,97.43,98.370003,92.339996,96.00,1754500
HAR,20160104,92.75,93.129997,89.620003,93.110001,883600
