HST,20160129,13.39,14.08,13.27,13.85,15809700
HST,20160128,13.73,13.82,13.11,13.19,11083800
HST,20160127,13.81,14.09,13.40,13.55,7576100
HST,20160126,13.63,14.12,13.59,13.87,13111000
HST,20160125,13.81,13.93,13.49,13.57,9520400
HST,20160122,13.75,14.31,13.58,13.80,19403800
HST,20160121,12.92,13.89,12.79,13.50,14841100
HST,20160120,12.63,13.00,12.17,12.83,12411200
HST,20160119,13.28,13.50,12.80,12.82,10988900
HST,20160115,13.36,13.45,12.86,13.16,10937000
HST,20160114,13.53,13.88,13.17,13.78,12012000
HST,20160113,14.34,14.36,13.38,13.46,13945600
HST,20160112,14.92,15.00,14.23,14.33,13354100
HST,20160111,14.47,14.84,14.45,14.75,10259600
HST,20160108,14.56,14.78,14.49,14.51,6623100
HST,20160107,14.90,15.10,14.53,14.55,7847800
HST,20160106,15.16,15.22,14.92,15.07,8897400
HST,20160105,15.21,15.41,15.03,15.39,8954100
HST,20160104,15.08,15.27,14.90,15.16,7723800
