IVZ,20160129,28.870001,30.02,28.75,29.93,7498800
IVZ,20160128,29.27,29.85,28.280001,28.549999,6279900
IVZ,20160127,29.129999,29.879999,28.76,28.98,5147300
IVZ,20160126,28.77,29.280001,28.76,29.18,3814300
IVZ,20160125,29.27,29.35,28.530001,28.65,4998100
IVZ,20160122,28.959999,29.540001,28.889999,29.48,4150900
IVZ,20160121,28.48,29.00,28.10,28.43,3936500
IVZ,20160120,28.200001,28.540001,27.360001,28.209999,5571700
IVZ,20160119,29.129999,29.299999,28.530001,28.82,3321800
IVZ,20160115,28.57,29.25,28.34,28.76,4472500
IVZ,20160114,29.16,29.959999,28.379999,29.629999,3891800
IVZ,20160113,30.01,30.120001,28.879999,29.09,6477500
IVZ,20160112,30.25,30.379999,29.200001,29.799999,4515200
IVZ,20160111,30.23,30.309999,29.27,29.93,5870100
IVZ,20160108,31.780001,31.83,30.059999,30.129999,5357200
IVZ,20160107,31.51,31.889999,31.32,31.51,6252200
IVZ,20160106,32.279999,32.779999,32.18,32.529999,5198800
IVZ,20160105,33.34,33.540001,32.68,33.099998,4698700
IVZ,20160104,32.59,33.209999,32.369999,33.189999,7028600
