JBL,20160129,19.059999,19.92,19.059999,19.91,3312300
JBL,20160128,19.02,19.129999,18.58,18.90,1796100
JBL,20160127,19.370001,19.52,18.799999,18.860001,2555600
JBL,20160126,19.10,19.57,18.98,19.530001,3040600
JBL,20160125,19.02,19.18,18.82,18.92,2006800
JBL,20160122,18.90,19.25,18.879999,19.23,2932300
JBL,20160121,18.610001,19.07,18.43,18.60,2613200
JBL,20160120,18.629999,18.84,18.09,18.629999,2364000
JBL,20160119,19.459999,19.469999,18.700001,18.940001,2447700
JBL,20160115,19.33,19.440001,18.950001,19.299999,2306700
JBL,20160114,19.73,19.93,19.290001,19.83,3020400
JBL,20160113,20.00,20.309999,19.59,19.65,4022500
JBL,20160112,20.110001,20.120001,19.35,19.799999,2841600
JBL,20160111,19.92,19.99,19.49,19.83,3822500
JBL,20160108,20.450001,20.57,19.780001,19.84,3635900
JBL,20160107,20.860001,21.08,20.280001,20.32,3578400
JBL,20160106,22.309999,22.48,21.17,21.309999,4472000
JBL,20160105,23.07,23.32,22.370001,22.60,6032600
JBL,20160104,22.879999,23.200001,22.74,23.07,3295800
