JCI,20160129,34.970001,35.939999,34.77,35.869999,5327600
JCI,20160128,35.669998,36.110001,34.549999,34.66,6487300
JCI,20160127,35.02,36.310001,35.02,35.130001,7204100
JCI,20160126,34.330002,35.23,34.060001,35.209999,8069500
JCI,20160125,35.599998,36.00,33.860001,34.209999,18180500
JCI,20160122,35.990002,36.240002,35.09,35.599998,4562800
JCI,20160121,34.959999,35.950001,34.689999,35.240002,5003100
JCI,20160120,34.110001,34.98,33.759998,34.68,9054300
JCI,20160119,35.07,35.43,34.290001,34.720001,6465300
JCI,20160115,34.139999,35.09,34.110001,34.709999,13542800
JCI,20160114,34.689999,35.650002,33.619999,35.209999,12931400
JCI,20160113,35.93,36.18,34.34,34.66,6089700
JCI,20160112,35.810001,36.240002,35.169998,35.900002,5964500
JCI,20160111,35.669998,36.16,34.98,35.369999,6004500
JCI,20160108,36.299999,36.540001,35.279999,35.349998,5786000
JCI,20160107,36.650002,36.919998,35.779999,35.84,5668200
JCI,20160106,37.91,37.959999,36.919998,37.34,4896900
JCI,20160105,39.080002,39.209999,38.130001,38.580002,3191000
JCI,20160104,38.869999,39.110001,38.27,39.080002,3824200
