LEG,20160129,40.09,41.580002,40.080002,41.509998,1607100
LEG,20160128,39.91,39.950001,39.27,39.700001,751200
LEG,20160127,39.68,40.130001,39.25,39.560001,585200
LEG,20160126,39.549999,40.080002,39.34,39.869999,686900
LEG,20160125,39.34,39.939999,39.110001,39.349998,1225600
LEG,20160122,39.279999,39.970001,38.950001,39.389999,879100
LEG,20160121,37.900002,38.990002,37.619999,38.73,1135400
LEG,20160120,37.75,38.220001,36.639999,37.790001,1420300
LEG,20160119,39.119999,39.189999,38.00,38.299999,842300
LEG,20160115,37.939999,38.91,37.759998,38.709999,1462800
LEG,20160114,38.150002,39.139999,37.740002,38.790001,1017300
LEG,20160113,39.830002,40.009998,37.98,38.099998,1183500
LEG,20160112,40.189999,40.349998,39.279999,39.630001,900300
LEG,20160111,40.580002,40.720001,39.169998,39.68,1373200
LEG,20160108,40.540001,41.139999,40.279999,40.41,2346300
LEG,20160107,39.669998,40.630001,39.470001,40.23,2073800
LEG,20160106,40.639999,41.09,39.900002,40.34,1892700
LEG,20160105,41.200001,41.57,40.970001,41.48,1135700
LEG,20160104,41.27,41.509998,40.50,41.02,1337100
