LNC,20160129,38.849998,39.490002,38.41,39.459999,2244700
LNC,20160128,39.419998,39.630001,38.310001,38.57,2164200
LNC,20160127,39.080002,40.18,38.599998,38.880001,2200300
LNC,20160126,38.869999,39.59,38.669998,39.130001,1839800
LNC,20160125,39.400002,39.619999,38.400002,38.529999,2480600
LNC,20160122,39.650002,40.360001,39.380001,39.59,2811100
LNC,20160121,38.189999,39.389999,37.66,38.57,2437600
LNC,20160120,38.34,38.650002,36.73,38.200001,4425800
LNC,20160119,41.00,41.169998,39.400002,39.689999,2269500
LNC,20160115,39.900002,40.619999,39.490002,40.419998,3154900
LNC,20160114,41.970001,42.139999,40.900002,41.509998,3287000
LNC,20160113,43.50,43.919998,41.52,41.779999,2665800
LNC,20160112,43.779999,44.130001,42.720001,43.50,2697500
LNC,20160111,44.529999,44.700001,42.43,43.200001,4932400
LNC,20160108,45.860001,46.34,44.119999,44.240002,3202600
LNC,20160107,45.540001,45.950001,45.130001,45.360001,3420800
LNC,20160106,48.02,48.240002,46.59,46.919998,2168400
LNC,20160105,49.299999,49.509998,48.490002,49.139999,2012900
LNC,20160104,49.169998,49.169998,47.970001,49.099998,1959000
