LXK,20160129,27.25,28.209999,27.25,28.209999,789700
LXK,20160128,27.67,27.83,26.809999,26.940001,730500
LXK,20160127,27.10,27.780001,27.040001,27.309999,705400
LXK,20160126,26.99,27.59,26.860001,27.32,486300
LXK,20160125,27.66,27.82,26.719999,26.77,373400
LXK,20160122,27.40,27.889999,27.34,27.84,672700
LXK,20160121,26.74,27.41,26.32,26.76,504300
LXK,20160120,27.23,27.23,26.00,26.790001,779600
LXK,20160119,28.559999,28.559999,27.209999,27.77,1011500
LXK,20160115,28.32,28.52,27.52,28.209999,823900
LXK,20160114,28.799999,29.860001,28.530001,29.40,535300
LXK,20160113,28.68,29.719999,28.51,28.67,1047200
LXK,20160112,28.57,29.57,27.90,28.639999,1219200
LXK,20160111,28.610001,28.68,27.74,28.15,465800
LXK,20160108,29.24,29.33,28.379999,28.459999,614400
LXK,20160107,29.74,29.959999,28.950001,29.049999,582400
LXK,20160106,30.059999,30.549999,29.290001,30.40,735400
LXK,20160105,30.639999,31.65,30.549999,30.610001,538400
LXK,20160104,31.73,31.809999,30.309999,30.639999,1008400
