MAR,20160129,59.889999,61.310001,59.369999,61.279999,3164300
MAR,20160128,61.27,61.639999,58.799999,59.209999,4650600
MAR,20160127,61.810001,62.450001,60.009998,60.639999,4011800
MAR,20160126,60.709999,62.060001,60.279999,61.939999,3255400
MAR,20160125,62.400002,62.400002,60.00,60.119999,3217100
MAR,20160122,62.580002,63.610001,61.610001,62.459999,4769700
MAR,20160121,59.75,62.560001,59.150002,61.650002,6139900
MAR,20160120,57.630001,60.599998,56.43,59.810001,8220000
MAR,20160119,60.439999,60.50,57.619999,58.380001,5212800
MAR,20160115,59.02,60.150002,58.330002,59.549999,8374900
MAR,20160114,60.209999,62.119999,58.919998,60.740002,7445800
MAR,20160113,63.830002,64.029999,60.130001,60.27,5475500
MAR,20160112,63.220001,64.50,63.169998,64.32,4915300
MAR,20160111,63.150002,63.50,62.119999,63.16,4568600
MAR,20160108,62.360001,63.810001,62.009998,62.650002,4510300
MAR,20160107,62.27,63.130001,61.68,61.82,6444900
MAR,20160106,64.470001,64.68,62.529999,63.619999,4167100
MAR,20160105,65.480003,66.029999,65.230003,65.589996,2699100
MAR,20160104,65.93,66.199997,64.970001,65.379997,3899500
