MON,20160129,88.25,90.599998,88.25,90.599998,3659600
MON,20160128,88.349998,88.760002,87.300003,87.800003,2105100
MON,20160127,88.010002,89.220001,87.290001,87.610001,2430900
MON,20160126,87.459999,88.889999,87.300003,88.50,2483200
MON,20160125,91.43,91.43,87.18,87.32,3624500
MON,20160122,92.32,93.290001,91.519997,91.870003,3166200
MON,20160121,90.269997,91.870003,88.790001,91.129997,3919700
MON,20160120,89.470001,90.339996,87.290001,89.809998,4915000
MON,20160119,91.75,91.790001,89.839996,90.860001,4974800
MON,20160115,90.330002,91.760002,90.230003,90.870003,4899500
MON,20160114,91.360001,92.779999,90.459999,92.150002,3699000
MON,20160113,92.989998,93.32,90.870003,91.190002,4358800
MON,20160112,92.849998,93.330002,91.82,92.519997,4025800
MON,20160111,92.970001,93.540001,91.730003,92.279999,4666500
MON,20160108,93.760002,94.300003,92.629997,92.790001,4604900
MON,20160107,93.389999,94.900002,93.080002,93.580002,5861300
MON,20160106,95.769997,97.300003,93.760002,95.209999,4990800
MON,20160105,98.220001,98.639999,97.059998,97.279999,3384900
MON,20160104,97.150002,97.860001,96.599998,97.790001,3238200
