MS,20160129,25.35,25.889999,25.120001,25.879999,18638200
MS,20160128,25.67,25.84,24.940001,25.17,15987000
MS,20160127,25.25,26.16,25.049999,25.370001,19796300
MS,20160126,25.040001,25.66,25.030001,25.49,13362900
MS,20160125,25.459999,25.51,24.940001,24.98,20144600
MS,20160122,25.26,25.98,25.18,25.610001,22498400
MS,20160121,25.290001,25.59,24.690001,24.780001,22130300
MS,20160120,25.700001,25.77,24.67,25.24,25940900
MS,20160119,26.83,27.129999,25.76,26.26,28788200
MS,20160115,26.030001,26.41,25.51,25.969999,29462200
MS,20160114,26.99,27.32,26.23,27.15,23814500
MS,20160113,28.73,28.799999,26.50,26.889999,29721900
MS,20160112,28.74,28.879999,28.00,28.459999,16041800
MS,20160111,28.450001,28.60,27.809999,28.459999,19414800
MS,20160108,29.41,29.49,28.299999,28.379999,15295600
MS,20160107,29.879999,30.07,28.780001,28.98,18138200
MS,20160106,30.629999,30.780001,30.25,30.50,13057400
MS,20160105,31.48,31.700001,30.93,31.280001,9850500
MS,20160104,30.700001,31.52,30.559999,31.48,15749200
