MU,20160129,9.99,11.05,9.94,11.03,38349100
MU,20160128,10.48,10.55,9.71,9.89,37327600
MU,20160127,10.50,10.83,10.32,10.39,22926200
MU,20160126,10.55,10.72,10.36,10.55,26179500
MU,20160125,11.06,11.17,10.47,10.48,23874800
MU,20160122,11.18,11.57,10.88,11.07,35088700
MU,20160121,10.45,10.90,10.13,10.85,52245600
MU,20160120,10.38,10.39,9.31,10.05,65025100
MU,20160119,11.28,11.37,10.71,10.80,37146200
MU,20160115,11.35,11.66,10.91,11.08,37037200
MU,20160114,12.08,12.26,11.53,12.02,35725400
MU,20160113,12.78,12.97,11.91,12.06,34426600
MU,20160112,12.72,13.24,12.40,12.72,25671300
MU,20160111,13.37,13.46,12.21,12.53,43159100
MU,20160108,13.78,13.95,13.29,13.33,29064200
MU,20160107,13.86,14.27,13.63,13.66,26029200
MU,20160106,14.50,14.69,14.11,14.22,26835100
MU,20160105,14.42,15.08,14.36,14.82,29768400
MU,20160104,13.83,14.36,13.81,14.33,22585300
