MUR,20160129,19.040001,19.709999,18.610001,19.610001,6621700
MUR,20160128,19.58,20.469999,17.559999,18.450001,10671000
MUR,20160127,17.41,18.91,17.120001,18.139999,10050400
MUR,20160126,17.08,17.799999,16.77,17.709999,8103500
MUR,20160125,16.84,18.33,16.75,16.809999,5644600
MUR,20160122,18.49,19.09,17.110001,17.59,6306700
MUR,20160121,15.84,18.10,15.80,17.24,5490800
MUR,20160120,15.96,16.09,14.30,15.87,6651500
MUR,20160119,17.32,17.450001,16.049999,16.379999,5193800
MUR,20160115,17.450001,17.52,16.620001,17.16,4685000
MUR,20160114,17.969999,18.66,17.01,18.42,5410200
MUR,20160113,18.51,19.00,17.00,17.299999,4930800
MUR,20160112,19.129999,19.129999,17.48,18.24,5040100
MUR,20160111,19.26,19.50,17.870001,18.32,5162600
MUR,20160108,19.59,19.84,19.18,19.309999,4898200
MUR,20160107,19.60,20.48,19.370001,19.43,3980600
MUR,20160106,21.719999,21.90,19.780001,20.120001,5395400
MUR,20160105,22.91,23.030001,21.90,22.59,3197300
MUR,20160104,22.34,23.200001,22.08,22.950001,4640200
