NOV,20160129,31.26,32.650002,31.139999,32.540001,6374500
NOV,20160128,32.040001,32.630001,30.85,31.059999,8690800
NOV,20160127,30.360001,31.969999,29.959999,31.10,8012100
NOV,20160126,30.120001,30.860001,29.879999,30.43,5586600
NOV,20160125,30.620001,30.91,29.66,29.690001,5821200
NOV,20160122,31.58,31.959999,30.440001,31.23,6998100
NOV,20160121,29.540001,31.209999,29.360001,30.67,5514200
NOV,20160120,28.799999,30.23,28.540001,29.719999,8212200
NOV,20160119,30.18,30.23,28.91,29.530001,5919100
NOV,20160115,29.129999,29.98,29.040001,29.950001,8339300
NOV,20160114,29.35,30.67,28.51,30.51,7994500
NOV,20160113,30.82,31.01,29.01,29.08,8828200
NOV,20160112,30.389999,30.610001,29.75,30.43,7235100
NOV,20160111,30.01,30.15,29.549999,29.950001,7407000
NOV,20160108,30.85,30.93,29.690001,29.940001,8321200
NOV,20160107,30.68,31.48,30.26,30.74,7140400
NOV,20160106,32.779999,32.779999,31.139999,31.34,6463300
NOV,20160105,34.009998,34.220001,33.09,33.619999,5106200
NOV,20160104,33.509998,34.610001,33.360001,34.610001,6573200
