NRG,20160129,10.30,10.79,10.30,10.64,7526000
NRG,20160128,9.82,10.15,9.65,10.10,6479600
NRG,20160127,9.68,10.29,9.46,9.89,7390400
NRG,20160126,9.18,9.73,8.96,9.67,5084100
NRG,20160125,9.63,9.76,8.93,8.98,7453200
NRG,20160122,10.04,10.24,9.73,9.93,8052800
NRG,20160121,9.60,10.48,9.57,9.89,9008100
NRG,20160120,9.71,9.79,8.92,9.58,9379500
NRG,20160119,10.22,10.40,9.86,10.03,7006900
NRG,20160115,10.14,10.24,9.52,10.11,6972900
NRG,20160114,9.87,10.60,9.64,10.48,8482300
NRG,20160113,10.04,10.27,9.58,9.82,8335300
NRG,20160112,10.31,10.66,9.79,9.90,9426800
NRG,20160111,11.33,11.37,10.18,10.23,10061300
NRG,20160108,11.36,11.74,11.06,11.34,6937800
NRG,20160107,10.83,11.66,10.73,11.26,6546400
NRG,20160106,11.72,11.79,10.94,11.03,8211400
NRG,20160105,11.57,12.04,11.12,11.97,6550300
NRG,20160104,11.57,11.88,11.24,11.53,6279800
