PCL,20160129,39.259998,40.689999,39.02,40.509998,2213500
PCL,20160128,39.419998,39.59,38.689999,38.98,1047700
PCL,20160127,39.439999,39.73,38.82,39.16,836200
PCL,20160126,39.220001,39.810001,39.009998,39.419998,1041900
PCL,20160125,40.43,40.48,39.02,39.119999,1209800
PCL,20160122,40.25,40.93,39.900002,40.490002,841000
PCL,20160121,39.549999,40.669998,39.25,39.880001,1038800
PCL,20160120,40.619999,40.619999,38.18,39.43,1484300
PCL,20160119,41.68,41.880001,40.57,40.880001,1309800
PCL,20160115,41.66,41.91,40.900002,41.290001,1247500
PCL,20160114,42.900002,43.00,42.259998,42.360001,1195200
PCL,20160113,43.34,44.150002,42.849998,42.900002,1712800
PCL,20160112,44.34,44.369999,42.610001,43.139999,2578700
PCL,20160111,44.599998,44.790001,43.950001,44.150002,1395200
PCL,20160108,44.950001,45.220001,44.380001,44.43,1370300
PCL,20160107,46.200001,46.220001,44.810001,44.939999,1064300
PCL,20160106,47.150002,47.220001,46.450001,46.73,1151000
PCL,20160105,47.50,47.66,47.130001,47.599998,816000
PCL,20160104,47.16,47.439999,46.91,47.41,929500
