PFE,20160129,30.379999,30.49,29.92,30.49,56192900
PFE,20160128,30.700001,30.709999,29.59,30.200001,48701800
PFE,20160127,30.709999,31.01,30.32,30.52,28116400
PFE,20160126,30.530001,30.75,30.34,30.67,25872400
PFE,20160125,30.83,30.91,30.42,30.50,28620700
PFE,20160122,31.00,31.25,30.67,30.709999,31387000
PFE,20160121,30.610001,30.90,30.51,30.58,36539000
PFE,20160120,30.209999,31.07,30.059999,30.66,48560800
PFE,20160119,31.120001,31.23,30.33,30.690001,32715400
PFE,20160115,30.219999,30.82,30.200001,30.809999,46384900
PFE,20160114,30.389999,31.42,30.389999,31.110001,38334100
PFE,20160113,31.09,31.280001,30.27,30.370001,40317700
PFE,20160112,31.379999,31.50,30.719999,31.00,38830200
PFE,20160111,31.15,31.200001,30.639999,31.07,38631800
PFE,20160108,31.549999,31.629999,30.92,31.00,33055300
PFE,20160107,31.16,31.809999,31.139999,31.40,37213600
PFE,20160106,31.73,31.90,31.42,31.610001,25846600
PFE,20160105,32.18,32.240002,31.93,32.18,27264600
PFE,20160104,31.85,32.029999,31.57,31.950001,37307800
