RRC,20160129,28.209999,30.139999,27.77,29.559999,5971700
RRC,20160128,28.129999,28.77,26.60,27.85,5144600
RRC,20160127,27.34,29.15,26.700001,27.24,7213300
RRC,20160126,25.780001,27.50,25.15,27.379999,4340700
RRC,20160125,25.73,26.43,24.49,24.90,5121200
RRC,20160122,27.049999,28.139999,25.290001,26.50,9273100
RRC,20160121,21.969999,26.40,21.809999,26.030001,11832000
RRC,20160120,19.879999,22.110001,19.209999,21.99,9379200
RRC,20160119,21.91,22.16,20.24,20.450001,7725200
RRC,20160115,21.93,22.76,21.16,21.85,10993300
RRC,20160114,24.27,24.370001,22.48,23.139999,10576100
RRC,20160113,23.610001,24.26,23.200001,23.91,9841800
RRC,20160112,25.59,25.620001,22.67,23.25,9464300
RRC,20160111,25.59,25.780001,24.540001,24.969999,8084700
RRC,20160108,24.24,26.110001,24.110001,25.75,7192600
RRC,20160107,23.34,25.049999,23.33,24.10,7871300
RRC,20160106,24.84,25.02,23.690001,24.030001,6634000
RRC,20160105,25.700001,25.870001,24.76,25.67,7596000
RRC,20160104,24.59,25.860001,24.35,25.75,5801000
