RSG,20160129,43.00,43.75,42.91,43.700001,2779000
RSG,20160128,42.419998,42.98,42.209999,42.700001,1902600
RSG,20160127,42.59,42.68,41.91,42.220001,2301100
RSG,20160126,42.48,42.709999,42.360001,42.549999,1926900
RSG,20160125,42.959999,43.00,42.310001,42.41,1837300
RSG,20160122,42.66,43.130001,42.549999,42.93,3709300
RSG,20160121,42.82,43.080002,42.029999,42.200001,3289200
RSG,20160120,43.200001,43.580002,41.82,42.66,3310300
RSG,20160119,43.779999,44.48,43.470001,43.75,2269300
RSG,20160115,43.48,43.700001,42.970001,43.27,2628700
RSG,20160114,43.93,44.48,43.66,44.310001,2299000
RSG,20160113,44.669998,44.799999,43.630001,43.82,2212400
RSG,20160112,44.790001,44.880001,44.220001,44.66,2310200
RSG,20160111,44.18,44.630001,44.119999,44.50,2466700
RSG,20160108,44.299999,44.490002,43.919998,44.130001,3167300
RSG,20160107,43.32,44.43,43.310001,44.150002,3022600
RSG,20160106,43.349998,44.060001,43.169998,43.990002,2346300
RSG,20160105,43.110001,43.900002,43.00,43.84,2096500
RSG,20160104,43.419998,43.459999,42.91,43.139999,1920200
