SCG,20160129,61.939999,63.189999,61.860001,62.950001,1490900
SCG,20160128,60.599998,61.779999,60.400002,61.389999,1023900
SCG,20160127,60.610001,61.040001,60.00,60.52,652300
SCG,20160126,60.580002,61.50,60.400002,60.650002,647300
SCG,20160125,61.150002,61.220001,60.27,60.540001,672600
SCG,20160122,60.389999,61.23,59.880001,61.169998,813500
SCG,20160121,60.18,60.639999,59.540001,60.080002,838300
SCG,20160120,61.25,61.580002,59.459999,60.130001,995300
SCG,20160119,60.93,61.75,60.799999,61.560001,896800
SCG,20160115,60.41,61.00,59.689999,60.529999,1314800
SCG,20160114,60.189999,61.610001,59.799999,61.150002,1286000
SCG,20160113,60.700001,60.98,60.099998,60.23,1172700
SCG,20160112,61.080002,61.23,60.029999,60.619999,1001600
SCG,20160111,60.75,61.419998,60.459999,60.889999,1016100
SCG,20160108,60.98,61.66,60.580002,60.700001,1082500
SCG,20160107,60.360001,61.080002,60.259998,60.950001,1293400
SCG,20160106,60.669998,61.419998,60.599998,61.009998,1112600
SCG,20160105,60.650002,61.16,59.700001,61.060001,882100
SCG,20160104,60.509998,60.700001,59.779999,60.669998,1104800
