STZ,20160129,152.270004,152.929993,151.259995,152.479996,1724100
STZ,20160128,146.759995,152.460007,146.699997,151.820007,2443600
STZ,20160127,148.940002,149.630005,144.800003,146.110001,1693700
STZ,20160126,148.25,150.970001,147.600006,148.380005,1463200
STZ,20160125,149.300003,149.50,147.160004,148.25,1589700
STZ,20160122,145.270004,149.229996,145.059998,148.759995,2076300
STZ,20160121,144.970001,146.210007,142.360001,143.449997,1710000
STZ,20160120,143.720001,146.649994,142.119995,145.139999,2197700
STZ,20160119,144.820007,146.199997,143.100006,145.619995,2066300
STZ,20160115,141.429993,144.710007,141.199997,142.75,2019700
STZ,20160114,143.899994,144.539993,141.25,143.25,1854800
STZ,20160113,147.130005,147.229996,143.639999,144.130005,1132100
STZ,20160112,148.190002,148.199997,144.660004,147.039993,1313100
STZ,20160111,147.720001,148.600006,144.789993,147.050003,1519600
STZ,20160108,149.880005,151.00,146.589996,147.00,1695400
STZ,20160107,149.50,154.309998,147.110001,149.610001,4601900
STZ,20160106,142.990005,144.410004,142.009995,143.119995,2334900
STZ,20160105,141.559998,143.949997,141.240005,143.619995,1753500
STZ,20160104,141.029999,141.080002,138.449997,140.690002,1765900
