TAP,20160129,88.470001,90.970001,88.050003,90.480003,20394900
TAP,20160128,88.139999,89.559998,87.800003,88.449997,2699600
TAP,20160127,85.160004,89.43,84.400002,87.75,3755200
TAP,20160126,87.769997,88.739998,86.93,87.760002,2156300
TAP,20160125,88.519997,88.800003,87.489998,87.599998,1393600
TAP,20160122,87.910004,90.099998,87.860001,88.900002,1701900
TAP,20160121,87.459999,87.629997,86.040001,86.57,2463300
TAP,20160120,86.410004,86.989998,85.309998,86.269997,3142200
TAP,20160119,87.029999,87.669998,86.029999,87.199997,2154100
TAP,20160115,85.150002,86.290001,83.830002,86.029999,3432700
TAP,20160114,87.650002,88.489998,84.739998,86.739998,4253600
TAP,20160113,89.669998,89.949997,87.410004,87.589996,2263900
TAP,20160112,89.080002,89.699997,88.519997,89.580002,2248900
TAP,20160111,89.419998,90.120003,87.860001,88.470001,1810400
TAP,20160108,90.459999,90.870003,88.970001,89.220001,1619600
TAP,20160107,89.919998,91.519997,89.800003,90.349998,2491300
TAP,20160106,91.620003,91.830002,90.360001,90.800003,2187700
TAP,20160105,92.540001,93.099998,91.580002,92.639999,1824300
TAP,20160104,92.970001,92.970001,91.43,92.290001,2293700
