TIF,20160129,61.91,63.970001,61.700001,63.84,2417500
TIF,20160128,62.209999,62.610001,60.419998,61.380001,1967600
TIF,20160127,62.389999,63.18,61.09,61.610001,1651000
TIF,20160126,61.310001,62.650002,60.57,62.48,1913500
TIF,20160125,61.610001,61.759998,60.619999,60.93,3218400
TIF,20160122,62.110001,62.439999,61.299999,61.650002,4358100
TIF,20160121,61.619999,62.91,60.849998,61.049999,3676900
TIF,20160120,62.810001,63.209999,59.73,61.799999,5301500
TIF,20160119,64.75,67.870003,62.900002,64.220001,10446900
TIF,20160115,65.370003,69.00,65.089996,67.650002,3553100
TIF,20160114,66.379997,67.360001,65.50,66.860001,2101800
TIF,20160113,68.489998,68.720001,66.360001,66.699997,1711700
TIF,20160112,68.580002,69.330002,67.260002,68.410004,1501900
TIF,20160111,68.269997,69.080002,67.010002,67.839996,1803900
TIF,20160108,71.18,71.669998,68.150002,68.260002,3029000
TIF,20160107,72.099998,73.18,70.709999,70.919998,2452200
TIF,20160106,73.25,74.029999,72.68,72.919998,1723600
TIF,20160105,74.93,75.440002,73.610001,74.300003,1526200
TIF,20160104,76.290001,76.290001,73.610001,74.519997,2483000
