TSS,20160129,37.990002,40.200001,37.57,40.16,4323200
TSS,20160128,39.91,40.220001,37.759998,37.959999,4692500
TSS,20160127,40.040001,42.00,38.75,39.220001,7314900
TSS,20160126,45.330002,46.380001,45.130001,46.00,1954900
TSS,20160125,45.470001,45.849998,44.709999,45.23,2546300
TSS,20160122,46.040001,46.27,45.23,45.48,2093000
TSS,20160121,44.919998,46.150002,44.650002,45.189999,1836300
TSS,20160120,44.380001,45.220001,42.959999,44.860001,2006000
TSS,20160119,45.939999,46.27,44.849998,45.110001,1833300
TSS,20160115,44.700001,45.630001,44.560001,45.279999,2796900
TSS,20160114,45.02,46.139999,44.759998,45.860001,1789600
TSS,20160113,46.66,46.84,44.68,44.950001,2610700
TSS,20160112,46.040001,46.619999,45.66,46.50,2231700
TSS,20160111,45.889999,46.029999,44.959999,45.459999,1835600
TSS,20160108,46.75,46.849998,45.419998,45.529999,2177600
TSS,20160107,46.529999,47.43,46.349998,46.450001,2206100
TSS,20160106,47.73,48.419998,47.720001,47.900002,1339400
TSS,20160105,49.16,49.16,48.130001,48.549999,2579800
TSS,20160104,48.959999,48.98,47.689999,48.240002,1893500
