VLO,20160129,65.029999,67.93,63.25,67.870003,7243900
VLO,20160128,67.330002,67.57,62.16,64.540001,10699600
VLO,20160127,68.330002,68.489998,65.25,65.989998,7511600
VLO,20160126,66.489998,67.739998,65.510002,67.709999,5983800
VLO,20160125,67.550003,69.349998,65.059998,65.139999,5948000
VLO,20160122,65.089996,68.489998,64.720001,67.860001,9231300
VLO,20160121,65.120003,65.160004,63.07,63.43,8953000
VLO,20160120,64.959999,66.459999,63.810001,65.480003,7921600
VLO,20160119,67.080002,68.510002,65.32,66.540001,7047900
VLO,20160115,64.870003,67.00,64.470001,66.410004,8581200
VLO,20160114,65.300003,67.940002,63.52,67.32,8568100
VLO,20160113,70.330002,70.650002,63.049999,65.029999,13243400
VLO,20160112,69.870003,72.059998,69.309998,71.190002,8173800
VLO,20160111,68.260002,69.43,66.849998,69.07,6666400
VLO,20160108,72.199997,72.489998,68.099998,68.260002,10241900
VLO,20160107,69.599998,72.220001,69.57,72.089996,9149200
VLO,20160106,69.879997,71.980003,69.800003,70.660004,7666200
VLO,20160105,70.139999,71.360001,69.769997,71.160004,5152500
VLO,20160104,70.379997,71.669998,68.709999,69.940002,6629200
