WFR,20160129,2.76,2.76,2.76,2.76,000
WFR,20160128,3.08,3.08,3.08,3.08,000
WFR,20160127,2.79,2.79,2.79,2.79,000
WFR,20160126,2.48,2.48,2.48,2.48,000
WFR,20160125,2.512,2.512,2.512,2.512,000
WFR,20160122,2.45,2.45,2.45,2.45,000
WFR,20160121,2.142,2.142,2.142,2.142,000
WFR,20160120,2.199,2.199,2.199,2.199,000
WFR,20160119,2.518,2.518,2.518,2.518,000
WFR,20160118,2.49,2.49,2.49,2.49,000
WFR,20160115,2.559,2.559,2.559,2.559,000
WFR,20160114,2.60,2.60,2.60,2.60,000
WFR,20160113,2.81,2.81,2.81,2.81,000
WFR,20160112,3.05,3.05,3.05,3.05,000
WFR,20160111,3.10,3.10,3.10,3.10,000
WFR,20160108,3.16,3.23,3.16,3.23,300
WFR,20160107,4.862,4.862,4.862,4.862,000
WFR,20160106,5.185,5.185,5.185,5.185,000
WFR,20160105,5.248,5.248,5.248,5.248,000
WFR,20160104,4.50,4.50,4.50,4.50,000
WFR,20160101,4.678,4.678,4.678,4.678,000
