X,20160129,6.63,7.02,6.57,7.00,8379100
X,20160128,6.62,6.86,6.15,6.69,11729900
X,20160127,7.00,7.00,6.52,6.67,22043900
X,20160126,6.92,7.79,6.92,7.77,12772100
X,20160125,7.35,7.40,6.87,6.92,8466900
X,20160122,7.61,7.80,7.12,7.24,8479400
X,20160121,7.19,7.53,6.99,7.32,9953800
X,20160120,6.93,7.30,6.70,7.10,11267700
X,20160119,7.18,7.30,6.75,7.21,6726100
X,20160115,6.91,7.00,6.56,6.89,8204500
X,20160114,6.83,7.30,6.66,7.30,10607100
X,20160113,7.02,7.16,6.53,6.74,8705100
X,20160112,6.98,7.11,6.43,6.89,14025000
X,20160111,7.12,7.25,6.69,6.82,9994500
X,20160108,7.50,7.64,7.04,7.04,10150400
X,20160107,7.70,7.77,7.20,7.30,10991000
X,20160106,8.05,8.13,7.85,7.93,9559000
X,20160105,8.14,8.25,7.89,8.22,7514900
X,20160104,7.85,8.14,7.62,8.14,9349800
