XEL,20160129,37.540001,38.259998,37.50,38.220001,5377300
XEL,20160128,36.360001,37.84,36.099998,37.57,3167700
XEL,20160127,36.689999,37.169998,36.389999,36.68,3757800
XEL,20160126,36.650002,37.09,36.400002,36.77,2708800
XEL,20160125,36.650002,36.759998,36.299999,36.529999,2334600
XEL,20160122,36.310001,36.669998,36.009998,36.630001,4526700
XEL,20160121,36.650002,37.060001,35.91,36.130001,5359200
XEL,20160120,37.099998,37.240002,36.110001,36.619999,5459500
XEL,20160119,36.73,37.349998,36.57,37.209999,5422500
XEL,20160115,36.23,36.73,35.990002,36.50,3878500
XEL,20160114,36.169998,36.93,36.150002,36.709999,3671400
XEL,20160113,36.299999,36.68,36.049999,36.110001,4818000
XEL,20160112,36.610001,36.700001,35.869999,36.330002,3354200
XEL,20160111,36.23,36.610001,36.209999,36.470001,3885400
XEL,20160108,36.580002,36.75,36.080002,36.18,3005400
XEL,20160107,36.099998,36.66,36.060001,36.580002,5212200
XEL,20160106,35.849998,36.599998,35.740002,36.439999,5191900
XEL,20160105,35.68,36.139999,35.189999,36.060001,2141200
XEL,20160104,35.610001,35.869999,35.389999,35.700001,2819300
