Length, Count, Sum (Counts <= Length), Percent of Nonzero Data, Nonzero Data Count = 862, Zero Data Count = 982
1,1,1,0.12%
2,0,1,0.12%
3,1,2,0.23%
4,0,2,0.23%
5,0,2,0.23%
6,0,2,0.23%
7,0,2,0.23%
8,0,2,0.23%
9,0,2,0.23%
10,0,2,0.23%
11,1,3,0.35%
12,0,3,0.35%
13,0,3,0.35%
14,0,3,0.35%
15,0,3,0.35%
16,0,3,0.35%
17,0,3,0.35%
18,0,3,0.35%
19,0,3,0.35%
20,0,3,0.35%
21,0,3,0.35%
22,0,3,0.35%
23,0,3,0.35%
24,0,3,0.35%
25,0,3,0.35%
26,0,3,0.35%
27,0,3,0.35%
28,1,4,0.46%
29,0,4,0.46%
30,0,4,0.46%
31,0,4,0.46%
32,0,4,0.46%
33,0,4,0.46%
34,0,4,0.46%
35,0,4,0.46%
36,0,4,0.46%
37,0,4,0.46%
38,0,4,0.46%
39,1,5,0.58%
40,0,5,0.58%
41,0,5,0.58%
42,1,6,0.7%
43,0,6,0.7%
44,0,6,0.7%
45,0,6,0.7%
46,0,6,0.7%
47,1,7,0.81%
48,0,7,0.81%
49,0,7,0.81%
50,0,7,0.81%
51,0,7,0.81%
52,3,10,1.16%
53,0,10,1.16%
54,0,10,1.16%
55,0,10,1.16%
56,0,10,1.16%
57,0,10,1.16%
58,0,10,1.16%
59,0,10,1.16%
60,0,10,1.16%
61,0,10,1.16%
62,0,10,1.16%
63,1,11,1.28%
64,0,11,1.28%
65,0,11,1.28%
66,0,11,1.28%
67,0,11,1.28%
68,0,11,1.28%
69,0,11,1.28%
70,0,11,1.28%
71,0,11,1.28%
72,0,11,1.28%
73,0,11,1.28%
74,0,11,1.28%
75,0,11,1.28%
76,1,12,1.39%
77,0,12,1.39%
78,0,12,1.39%
79,0,12,1.39%
80,0,12,1.39%
81,0,12,1.39%
82,0,12,1.39%
83,0,12,1.39%
84,0,12,1.39%
85,1,13,1.51%
86,1,14,1.62%
87,0,14,1.62%
88,0,14,1.62%
89,0,14,1.62%
90,1,15,1.74%
91,0,15,1.74%
92,1,16,1.86%
93,0,16,1.86%
94,1,17,1.97%
95,0,17,1.97%
96,1,18,2.09%
97,0,18,2.09%
98,0,18,2.09%
99,0,18,2.09%
100,0,18,2.09%
101,0,18,2.09%
102,0,18,2.09%
103,1,19,2.2%
104,1,20,2.32%
105,0,20,2.32%
106,1,21,2.44%
107,0,21,2.44%
108,0,21,2.44%
109,0,21,2.44%
110,0,21,2.44%
111,0,21,2.44%
112,0,21,2.44%
113,0,21,2.44%
114,0,21,2.44%
115,0,21,2.44%
116,0,21,2.44%
117,0,21,2.44%
118,0,21,2.44%
119,0,21,2.44%
120,0,21,2.44%
121,0,21,2.44%
122,0,21,2.44%
123,0,21,2.44%
124,0,21,2.44%
125,1,22,2.55%
126,0,22,2.55%
127,0,22,2.55%
128,1,23,2.67%
129,0,23,2.67%
130,0,23,2.67%
131,0,23,2.67%
132,0,23,2.67%
133,1,24,2.78%
134,0,24,2.78%
135,0,24,2.78%
136,0,24,2.78%
137,0,24,2.78%
138,0,24,2.78%
139,0,24,2.78%
140,1,25,2.9%
141,0,25,2.9%
142,0,25,2.9%
143,0,25,2.9%
144,0,25,2.9%
145,2,27,3.13%
146,0,27,3.13%
147,0,27,3.13%
148,0,27,3.13%
149,0,27,3.13%
150,1,28,3.25%
151,1,29,3.36%
152,0,29,3.36%
153,0,29,3.36%
154,1,30,3.48%
155,1,31,3.6%
156,0,31,3.6%
157,0,31,3.6%
158,0,31,3.6%
159,0,31,3.6%
160,0,31,3.6%
161,0,31,3.6%
162,1,32,3.71%
163,0,32,3.71%
164,0,32,3.71%
165,0,32,3.71%
166,0,32,3.71%
167,1,33,3.83%
168,0,33,3.83%
169,0,33,3.83%
170,1,34,3.94%
171,0,34,3.94%
172,0,34,3.94%
173,0,34,3.94%
174,0,34,3.94%
175,0,34,3.94%
176,0,34,3.94%
177,1,35,4.06%
178,0,35,4.06%
179,0,35,4.06%
180,0,35,4.06%
181,1,36,4.18%
182,0,36,4.18%
183,0,36,4.18%
184,2,38,4.41%
185,0,38,4.41%
186,0,38,4.41%
187,0,38,4.41%
188,0,38,4.41%
189,0,38,4.41%
190,0,38,4.41%
191,0,38,4.41%
192,0,38,4.41%
193,0,38,4.41%
194,0,38,4.41%
195,0,38,4.41%
196,0,38,4.41%
197,0,38,4.41%
198,0,38,4.41%
199,0,38,4.41%
200,2,40,4.64%
201,1,41,4.76%
202,1,42,4.87%
203,0,42,4.87%
204,0,42,4.87%
205,0,42,4.87%
206,0,42,4.87%
207,0,42,4.87%
208,1,43,4.99%
209,0,43,4.99%
210,0,43,4.99%
211,0,43,4.99%
212,1,44,5.1%
213,3,47,5.45%
214,0,47,5.45%
215,1,48,5.57%
216,0,48,5.57%
217,0,48,5.57%
218,0,48,5.57%
219,2,50,5.8%
220,0,50,5.8%
221,0,50,5.8%
222,0,50,5.8%
223,0,50,5.8%
224,0,50,5.8%
225,0,50,5.8%
226,0,50,5.8%
227,1,51,5.92%
228,0,51,5.92%
229,0,51,5.92%
230,0,51,5.92%
231,1,52,6.03%
232,0,52,6.03%
233,0,52,6.03%
234,0,52,6.03%
235,0,52,6.03%
236,1,53,6.15%
237,0,53,6.15%
238,0,53,6.15%
239,0,53,6.15%
240,0,53,6.15%
241,0,53,6.15%
242,0,53,6.15%
243,2,55,6.38%
244,1,56,6.5%
245,1,57,6.61%
246,0,57,6.61%
247,0,57,6.61%
248,0,57,6.61%
249,0,57,6.61%
250,0,57,6.61%
251,0,57,6.61%
252,1,58,6.73%
253,0,58,6.73%
254,0,58,6.73%
255,1,59,6.84%
256,0,59,6.84%
257,1,60,6.96%
258,0,60,6.96%
259,1,61,7.08%
260,0,61,7.08%
261,0,61,7.08%
262,0,61,7.08%
263,1,62,7.19%
264,0,62,7.19%
265,1,63,7.31%
266,0,63,7.31%
267,0,63,7.31%
268,0,63,7.31%
269,0,63,7.31%
270,3,66,7.66%
271,0,66,7.66%
272,0,66,7.66%
273,0,66,7.66%
274,1,67,7.77%
275,0,67,7.77%
276,0,67,7.77%
277,0,67,7.77%
278,0,67,7.77%
279,0,67,7.77%
280,0,67,7.77%
281,0,67,7.77%
282,1,68,7.89%
283,0,68,7.89%
284,0,68,7.89%
285,0,68,7.89%
286,0,68,7.89%
287,0,68,7.89%
288,0,68,7.89%
289,0,68,7.89%
290,0,68,7.89%
291,0,68,7.89%
292,0,68,7.89%
293,0,68,7.89%
294,0,68,7.89%
295,0,68,7.89%
296,0,68,7.89%
297,0,68,7.89%
298,0,68,7.89%
299,0,68,7.89%
300,0,68,7.89%
301,0,68,7.89%
302,0,68,7.89%
303,2,70,8.12%
304,0,70,8.12%
305,2,72,8.35%
306,0,72,8.35%
307,0,72,8.35%
308,0,72,8.35%
309,0,72,8.35%
310,0,72,8.35%
311,2,74,8.58%
312,0,74,8.58%
313,0,74,8.58%
314,0,74,8.58%
315,0,74,8.58%
316,0,74,8.58%
317,0,74,8.58%
318,0,74,8.58%
319,0,74,8.58%
320,0,74,8.58%
321,0,74,8.58%
322,0,74,8.58%
323,0,74,8.58%
324,0,74,8.58%
325,2,76,8.82%
326,0,76,8.82%
327,0,76,8.82%
328,0,76,8.82%
329,0,76,8.82%
330,0,76,8.82%
331,0,76,8.82%
332,0,76,8.82%
333,0,76,8.82%
334,0,76,8.82%
335,0,76,8.82%
336,0,76,8.82%
337,0,76,8.82%
338,0,76,8.82%
339,0,76,8.82%
340,1,77,8.93%
341,0,77,8.93%
342,0,77,8.93%
343,1,78,9.05%
344,0,78,9.05%
345,0,78,9.05%
346,2,80,9.28%
347,0,80,9.28%
348,0,80,9.28%
349,1,81,9.4%
350,1,82,9.51%
351,15,97,11.25%
352,10,107,12.41%
353,0,107,12.41%
354,0,107,12.41%
355,0,107,12.41%
356,0,107,12.41%
357,0,107,12.41%
358,5,112,12.99%
359,0,112,12.99%
360,3,115,13.34%
361,1,116,13.46%
362,0,116,13.46%
363,1,117,13.57%
364,0,117,13.57%
365,0,117,13.57%
366,1,118,13.69%
367,0,118,13.69%
368,1,119,13.81%
369,0,119,13.81%
370,0,119,13.81%
371,0,119,13.81%
372,2,121,14.04%
373,0,121,14.04%
374,0,121,14.04%
375,0,121,14.04%
376,0,121,14.04%
377,0,121,14.04%
378,1,122,14.15%
379,0,122,14.15%
380,0,122,14.15%
381,0,122,14.15%
382,1,123,14.27%
383,0,123,14.27%
384,0,123,14.27%
385,0,123,14.27%
386,1,124,14.39%
387,0,124,14.39%
388,0,124,14.39%
389,0,124,14.39%
390,0,124,14.39%
391,0,124,14.39%
392,0,124,14.39%
393,1,125,14.5%
394,0,125,14.5%
395,0,125,14.5%
396,0,125,14.5%
397,1,126,14.62%
398,1,127,14.73%
399,0,127,14.73%
400,0,127,14.73%
401,0,127,14.73%
402,0,127,14.73%
403,0,127,14.73%
404,0,127,14.73%
405,0,127,14.73%
406,2,129,14.97%
407,0,129,14.97%
408,0,129,14.97%
409,0,129,14.97%
410,0,129,14.97%
411,0,129,14.97%
412,1,130,15.08%
413,0,130,15.08%
414,0,130,15.08%
415,0,130,15.08%
416,0,130,15.08%
417,0,130,15.08%
418,0,130,15.08%
419,0,130,15.08%
420,0,130,15.08%
421,0,130,15.08%
422,1,131,15.2%
423,0,131,15.2%
424,0,131,15.2%
425,0,131,15.2%
426,0,131,15.2%
427,0,131,15.2%
428,0,131,15.2%
429,0,131,15.2%
430,0,131,15.2%
431,0,131,15.2%
432,0,131,15.2%
433,0,131,15.2%
434,0,131,15.2%
435,1,132,15.31%
436,0,132,15.31%
437,0,132,15.31%
438,0,132,15.31%
439,0,132,15.31%
440,0,132,15.31%
441,1,133,15.43%
442,1,134,15.55%
443,0,134,15.55%
444,0,134,15.55%
445,0,134,15.55%
446,1,135,15.66%
447,0,135,15.66%
448,0,135,15.66%
449,0,135,15.66%
450,0,135,15.66%
451,1,136,15.78%
452,0,136,15.78%
453,1,137,15.89%
454,0,137,15.89%
455,0,137,15.89%
456,0,137,15.89%
457,0,137,15.89%
458,0,137,15.89%
459,0,137,15.89%
460,0,137,15.89%
461,1,138,16.01%
462,0,138,16.01%
463,0,138,16.01%
464,0,138,16.01%
465,1,139,16.13%
466,1,140,16.24%
467,0,140,16.24%
468,0,140,16.24%
469,0,140,16.24%
470,0,140,16.24%
471,0,140,16.24%
472,0,140,16.24%
473,0,140,16.24%
474,1,141,16.36%
475,0,141,16.36%
476,1,142,16.47%
477,0,142,16.47%
478,0,142,16.47%
479,1,143,16.59%
480,0,143,16.59%
481,0,143,16.59%
482,1,144,16.71%
483,1,145,16.82%
484,0,145,16.82%
485,0,145,16.82%
486,0,145,16.82%
487,1,146,16.94%
488,0,146,16.94%
489,1,147,17.05%
490,1,148,17.17%
491,1,149,17.29%
492,1,150,17.4%
493,0,150,17.4%
494,0,150,17.4%
495,1,151,17.52%
496,1,152,17.63%
497,0,152,17.63%
498,1,153,17.75%
499,0,153,17.75%
500,0,153,17.75%
501,1,154,17.87%
502,0,154,17.87%
503,1,155,17.98%
504,0,155,17.98%
505,0,155,17.98%
506,0,155,17.98%
507,0,155,17.98%
508,0,155,17.98%
509,0,155,17.98%
510,0,155,17.98%
511,1,156,18.1%
512,0,156,18.1%
513,0,156,18.1%
514,0,156,18.1%
515,0,156,18.1%
516,1,157,18.21%
517,0,157,18.21%
518,0,157,18.21%
519,1,158,18.33%
520,1,159,18.45%
521,0,159,18.45%
522,0,159,18.45%
523,0,159,18.45%
524,0,159,18.45%
525,0,159,18.45%
526,0,159,18.45%
527,0,159,18.45%
528,1,160,18.56%
529,1,161,18.68%
530,0,161,18.68%
531,0,161,18.68%
532,1,162,18.79%
533,0,162,18.79%
534,0,162,18.79%
535,0,162,18.79%
536,0,162,18.79%
537,0,162,18.79%
538,0,162,18.79%
539,1,163,18.91%
540,0,163,18.91%
541,0,163,18.91%
542,0,163,18.91%
543,0,163,18.91%
544,0,163,18.91%
545,0,163,18.91%
546,2,165,19.14%
547,0,165,19.14%
548,0,165,19.14%
549,0,165,19.14%
550,0,165,19.14%
551,0,165,19.14%
552,0,165,19.14%
553,0,165,19.14%
554,0,165,19.14%
555,0,165,19.14%
556,0,165,19.14%
557,0,165,19.14%
558,0,165,19.14%
559,0,165,19.14%
560,0,165,19.14%
561,0,165,19.14%
562,1,166,19.26%
563,0,166,19.26%
564,1,167,19.37%
565,0,167,19.37%
566,0,167,19.37%
567,1,168,19.49%
568,0,168,19.49%
569,0,168,19.49%
570,0,168,19.49%
571,1,169,19.61%
572,0,169,19.61%
573,2,171,19.84%
574,0,171,19.84%
575,0,171,19.84%
576,8,179,20.77%
577,0,179,20.77%
578,0,179,20.77%
579,1,180,20.88%
580,0,180,20.88%
581,0,180,20.88%
582,0,180,20.88%
583,0,180,20.88%
584,1,181,21.0%
585,0,181,21.0%
586,0,181,21.0%
587,0,181,21.0%
588,0,181,21.0%
589,0,181,21.0%
590,1,182,21.11%
591,0,182,21.11%
592,0,182,21.11%
593,0,182,21.11%
594,0,182,21.11%
595,0,182,21.11%
596,1,183,21.23%
597,0,183,21.23%
598,1,184,21.35%
599,2,186,21.58%
600,0,186,21.58%
601,0,186,21.58%
602,0,186,21.58%
603,1,187,21.69%
604,1,188,21.81%
605,0,188,21.81%
606,0,188,21.81%
607,0,188,21.81%
608,0,188,21.81%
609,0,188,21.81%
610,0,188,21.81%
611,0,188,21.81%
612,0,188,21.81%
613,0,188,21.81%
614,2,190,22.04%
615,0,190,22.04%
616,0,190,22.04%
617,0,190,22.04%
618,1,191,22.16%
619,0,191,22.16%
620,0,191,22.16%
621,0,191,22.16%
622,1,192,22.27%
623,0,192,22.27%
624,0,192,22.27%
625,0,192,22.27%
626,2,194,22.51%
627,0,194,22.51%
628,0,194,22.51%
629,0,194,22.51%
630,0,194,22.51%
631,0,194,22.51%
632,1,195,22.62%
633,0,195,22.62%
634,0,195,22.62%
635,1,196,22.74%
636,0,196,22.74%
637,1,197,22.85%
638,0,197,22.85%
639,0,197,22.85%
640,0,197,22.85%
641,0,197,22.85%
642,0,197,22.85%
643,0,197,22.85%
644,0,197,22.85%
645,0,197,22.85%
646,0,197,22.85%
647,1,198,22.97%
648,0,198,22.97%
649,1,199,23.09%
650,1,200,23.2%
651,0,200,23.2%
652,0,200,23.2%
653,1,201,23.32%
654,0,201,23.32%
655,0,201,23.32%
656,0,201,23.32%
657,0,201,23.32%
658,0,201,23.32%
659,0,201,23.32%
660,0,201,23.32%
661,1,202,23.43%
662,0,202,23.43%
663,0,202,23.43%
664,0,202,23.43%
665,0,202,23.43%
666,0,202,23.43%
667,0,202,23.43%
668,0,202,23.43%
669,0,202,23.43%
670,0,202,23.43%
671,1,203,23.55%
672,0,203,23.55%
673,1,204,23.67%
674,0,204,23.67%
675,0,204,23.67%
676,0,204,23.67%
677,0,204,23.67%
678,0,204,23.67%
679,1,205,23.78%
680,0,205,23.78%
681,0,205,23.78%
682,0,205,23.78%
683,1,206,23.9%
684,0,206,23.9%
685,0,206,23.9%
686,0,206,23.9%
687,0,206,23.9%
688,0,206,23.9%
689,0,206,23.9%
690,0,206,23.9%
691,0,206,23.9%
692,0,206,23.9%
693,5,211,24.48%
694,0,211,24.48%
695,0,211,24.48%
696,0,211,24.48%
697,0,211,24.48%
698,0,211,24.48%
699,0,211,24.48%
700,0,211,24.48%
701,0,211,24.48%
702,0,211,24.48%
703,0,211,24.48%
704,1,212,24.59%
705,1,213,24.71%
706,0,213,24.71%
707,0,213,24.71%
708,1,214,24.83%
709,0,214,24.83%
710,0,214,24.83%
711,0,214,24.83%
712,0,214,24.83%
713,0,214,24.83%
714,0,214,24.83%
715,0,214,24.83%
716,0,214,24.83%
717,0,214,24.83%
718,0,214,24.83%
719,1,215,24.94%
720,0,215,24.94%
721,0,215,24.94%
722,0,215,24.94%
723,0,215,24.94%
724,0,215,24.94%
725,1,216,25.06%
726,0,216,25.06%
727,0,216,25.06%
728,1,217,25.17%
729,0,217,25.17%
730,0,217,25.17%
731,0,217,25.17%
732,0,217,25.17%
733,0,217,25.17%
734,0,217,25.17%
735,1,218,25.29%
736,0,218,25.29%
737,0,218,25.29%
738,0,218,25.29%
739,1,219,25.41%
740,0,219,25.41%
741,0,219,25.41%
742,0,219,25.41%
743,0,219,25.41%
744,1,220,25.52%
745,0,220,25.52%
746,0,220,25.52%
747,1,221,25.64%
748,0,221,25.64%
749,0,221,25.64%
750,0,221,25.64%
751,0,221,25.64%
752,0,221,25.64%
753,1,222,25.75%
754,1,223,25.87%
755,0,223,25.87%
756,0,223,25.87%
757,0,223,25.87%
758,0,223,25.87%
759,0,223,25.87%
760,0,223,25.87%
761,0,223,25.87%
762,0,223,25.87%
763,0,223,25.87%
764,0,223,25.87%
765,0,223,25.87%
766,0,223,25.87%
767,0,223,25.87%
768,0,223,25.87%
769,1,224,25.99%
770,0,224,25.99%
771,0,224,25.99%
772,0,224,25.99%
773,0,224,25.99%
774,1,225,26.1%
775,0,225,26.1%
776,0,225,26.1%
777,0,225,26.1%
778,1,226,26.22%
779,0,226,26.22%
780,0,226,26.22%
781,0,226,26.22%
782,0,226,26.22%
783,0,226,26.22%
784,1,227,26.33%
785,1,228,26.45%
786,0,228,26.45%
787,0,228,26.45%
788,0,228,26.45%
789,0,228,26.45%
790,0,228,26.45%
791,0,228,26.45%
792,2,230,26.68%
793,0,230,26.68%
794,0,230,26.68%
795,2,232,26.91%
796,0,232,26.91%
797,0,232,26.91%
798,0,232,26.91%
799,0,232,26.91%
800,0,232,26.91%
801,0,232,26.91%
802,0,232,26.91%
803,0,232,26.91%
804,1,233,27.03%
805,0,233,27.03%
806,1,234,27.15%
807,0,234,27.15%
808,1,235,27.26%
809,0,235,27.26%
810,0,235,27.26%
811,0,235,27.26%
812,0,235,27.26%
813,0,235,27.26%
814,0,235,27.26%
815,0,235,27.26%
816,2,237,27.49%
817,0,237,27.49%
818,0,237,27.49%
819,0,237,27.49%
820,0,237,27.49%
821,0,237,27.49%
822,0,237,27.49%
823,0,237,27.49%
824,0,237,27.49%
825,0,237,27.49%
826,0,237,27.49%
827,2,239,27.73%
828,0,239,27.73%
829,0,239,27.73%
830,0,239,27.73%
831,1,240,27.84%
832,0,240,27.84%
833,0,240,27.84%
834,0,240,27.84%
835,0,240,27.84%
836,0,240,27.84%
837,1,241,27.96%
838,0,241,27.96%
839,0,241,27.96%
840,2,243,28.19%
841,0,243,28.19%
842,0,243,28.19%
843,0,243,28.19%
844,1,244,28.31%
845,0,244,28.31%
846,0,244,28.31%
847,0,244,28.31%
848,0,244,28.31%
849,0,244,28.31%
850,0,244,28.31%
851,0,244,28.31%
852,0,244,28.31%
853,0,244,28.31%
854,0,244,28.31%
855,0,244,28.31%
856,1,245,28.42%
857,0,245,28.42%
858,0,245,28.42%
859,0,245,28.42%
860,1,246,28.54%
861,0,246,28.54%
862,0,246,28.54%
863,0,246,28.54%
864,0,246,28.54%
865,0,246,28.54%
866,0,246,28.54%
867,0,246,28.54%
868,0,246,28.54%
869,0,246,28.54%
870,0,246,28.54%
871,1,247,28.65%
872,0,247,28.65%
873,0,247,28.65%
874,0,247,28.65%
875,0,247,28.65%
876,1,248,28.77%
877,0,248,28.77%
878,0,248,28.77%
879,0,248,28.77%
880,0,248,28.77%
881,1,249,28.89%
882,0,249,28.89%
883,0,249,28.89%
884,1,250,29.0%
885,0,250,29.0%
886,0,250,29.0%
887,0,250,29.0%
888,0,250,29.0%
889,0,250,29.0%
890,0,250,29.0%
891,0,250,29.0%
892,0,250,29.0%
893,1,251,29.12%
894,0,251,29.12%
895,0,251,29.12%
896,1,252,29.23%
897,0,252,29.23%
898,0,252,29.23%
899,0,252,29.23%
900,0,252,29.23%
901,1,253,29.35%
902,0,253,29.35%
903,0,253,29.35%
904,1,254,29.47%
905,0,254,29.47%
906,1,255,29.58%
907,1,256,29.7%
908,0,256,29.7%
909,0,256,29.7%
910,0,256,29.7%
911,0,256,29.7%
912,0,256,29.7%
913,0,256,29.7%
914,0,256,29.7%
915,0,256,29.7%
916,0,256,29.7%
917,0,256,29.7%
918,0,256,29.7%
919,0,256,29.7%
920,0,256,29.7%
921,0,256,29.7%
922,0,256,29.7%
923,0,256,29.7%
924,0,256,29.7%
925,0,256,29.7%
926,0,256,29.7%
927,10,266,30.86%
928,2,268,31.09%
929,1,269,31.21%
930,0,269,31.21%
931,1,270,31.32%
932,0,270,31.32%
933,0,270,31.32%
934,0,270,31.32%
935,1,271,31.44%
936,0,271,31.44%
937,1,272,31.55%
938,0,272,31.55%
939,0,272,31.55%
940,0,272,31.55%
941,0,272,31.55%
942,1,273,31.67%
943,0,273,31.67%
944,1,274,31.79%
945,0,274,31.79%
946,1,275,31.9%
947,0,275,31.9%
948,0,275,31.9%
949,0,275,31.9%
950,0,275,31.9%
951,0,275,31.9%
952,0,275,31.9%
953,0,275,31.9%
954,0,275,31.9%
955,0,275,31.9%
956,1,276,32.02%
957,0,276,32.02%
958,0,276,32.02%
959,1,277,32.13%
960,1,278,32.25%
961,0,278,32.25%
962,0,278,32.25%
963,0,278,32.25%
964,1,279,32.37%
965,0,279,32.37%
966,0,279,32.37%
967,0,279,32.37%
968,0,279,32.37%
969,0,279,32.37%
970,0,279,32.37%
971,0,279,32.37%
972,0,279,32.37%
973,0,279,32.37%
974,0,279,32.37%
975,0,279,32.37%
976,0,279,32.37%
977,0,279,32.37%
978,0,279,32.37%
979,1,280,32.48%
980,0,280,32.48%
981,0,280,32.48%
982,0,280,32.48%
983,0,280,32.48%
984,0,280,32.48%
985,1,281,32.6%
986,0,281,32.6%
987,1,282,32.71%
988,0,282,32.71%
989,1,283,32.83%
990,0,283,32.83%
991,1,284,32.95%
992,0,284,32.95%
993,0,284,32.95%
994,1,285,33.06%
995,0,285,33.06%
996,0,285,33.06%
997,0,285,33.06%
998,1,286,33.18%
999,1,287,33.29%
1000,0,287,33.29%
1001,0,287,33.29%
1002,0,287,33.29%
1003,0,287,33.29%
1004,0,287,33.29%
1005,0,287,33.29%
1006,1,288,33.41%
1007,0,288,33.41%
1008,0,288,33.41%
1009,0,288,33.41%
1010,0,288,33.41%
1011,0,288,33.41%
1012,1,289,33.53%
1013,1,290,33.64%
1014,0,290,33.64%
1015,0,290,33.64%
1016,1,291,33.76%
1017,0,291,33.76%
1018,0,291,33.76%
1019,0,291,33.76%
1020,0,291,33.76%
1021,0,291,33.76%
1022,0,291,33.76%
1023,0,291,33.76%
1024,0,291,33.76%
1025,1,292,33.87%
1026,0,292,33.87%
1027,0,292,33.87%
1028,0,292,33.87%
1029,1,293,33.99%
1030,0,293,33.99%
1031,1,294,34.11%
1032,0,294,34.11%
1033,1,295,34.22%
1034,0,295,34.22%
1035,0,295,34.22%
1036,0,295,34.22%
1037,0,295,34.22%
1038,0,295,34.22%
1039,0,295,34.22%
1040,0,295,34.22%
1041,0,295,34.22%
1042,0,295,34.22%
1043,0,295,34.22%
1044,0,295,34.22%
1045,0,295,34.22%
1046,0,295,34.22%
1047,0,295,34.22%
1048,0,295,34.22%
1049,0,295,34.22%
1050,0,295,34.22%
1051,0,295,34.22%
1052,0,295,34.22%
1053,0,295,34.22%
1054,0,295,34.22%
1055,0,295,34.22%
1056,0,295,34.22%
1057,0,295,34.22%
1058,2,297,34.45%
1059,0,297,34.45%
1060,0,297,34.45%
1061,0,297,34.45%
1062,0,297,34.45%
1063,0,297,34.45%
1064,0,297,34.45%
1065,1,298,34.57%
1066,0,298,34.57%
1067,0,298,34.57%
1068,1,299,34.69%
1069,0,299,34.69%
1070,0,299,34.69%
1071,0,299,34.69%
1072,1,300,34.8%
1073,0,300,34.8%
1074,0,300,34.8%
1075,0,300,34.8%
1076,4,304,35.27%
1077,0,304,35.27%
1078,0,304,35.27%
1079,0,304,35.27%
1080,0,304,35.27%
1081,0,304,35.27%
1082,0,304,35.27%
1083,1,305,35.38%
1084,0,305,35.38%
1085,0,305,35.38%
1086,0,305,35.38%
1087,0,305,35.38%
1088,0,305,35.38%
1089,0,305,35.38%
1090,0,305,35.38%
1091,0,305,35.38%
1092,0,305,35.38%
1093,0,305,35.38%
1094,1,306,35.5%
1095,0,306,35.5%
1096,1,307,35.61%
1097,0,307,35.61%
1098,0,307,35.61%
1099,0,307,35.61%
1100,1,308,35.73%
1101,1,309,35.85%
1102,1,310,35.96%
1103,2,312,36.19%
1104,0,312,36.19%
1105,2,314,36.43%
1106,1,315,36.54%
1107,0,315,36.54%
1108,0,315,36.54%
1109,2,317,36.77%
1110,2,319,37.01%
1111,0,319,37.01%
1112,0,319,37.01%
1113,1,320,37.12%
1114,1,321,37.24%
1115,3,324,37.59%
1116,5,329,38.17%
1117,0,329,38.17%
1118,1,330,38.28%
1119,2,332,38.52%
1120,1,333,38.63%
1121,2,335,38.86%
1122,1,336,38.98%
1123,0,336,38.98%
1124,1,337,39.1%
1125,4,341,39.56%
1126,2,343,39.79%
1127,0,343,39.79%
1128,1,344,39.91%
1129,1,345,40.02%
1130,0,345,40.02%
1131,2,347,40.26%
1132,0,347,40.26%
1133,2,349,40.49%
1134,2,351,40.72%
1135,0,351,40.72%
1136,0,351,40.72%
1137,1,352,40.84%
1138,0,352,40.84%
1139,1,353,40.95%
1140,1,354,41.07%
1141,5,359,41.65%
1142,1,360,41.76%
1143,4,364,42.23%
1144,2,366,42.46%
1145,3,369,42.81%
1146,1,370,42.92%
1147,1,371,43.04%
1148,3,374,43.39%
1149,6,380,44.08%
1150,0,380,44.08%
1151,1,381,44.2%
1152,0,381,44.2%
1153,0,381,44.2%
1154,1,382,44.32%
1155,1,383,44.43%
1156,1,384,44.55%
1157,2,386,44.78%
1158,4,390,45.24%
1159,2,392,45.48%
1160,4,396,45.94%
1161,0,396,45.94%
1162,3,399,46.29%
1163,2,401,46.52%
1164,0,401,46.52%
1165,0,401,46.52%
1166,0,401,46.52%
1167,0,401,46.52%
1168,4,405,46.98%
1169,3,408,47.33%
1170,1,409,47.45%
1171,0,409,47.45%
1172,0,409,47.45%
1173,7,416,48.26%
1174,3,419,48.61%
1175,0,419,48.61%
1176,1,420,48.72%
1177,0,420,48.72%
1178,1,421,48.84%
1179,1,422,48.96%
1180,1,423,49.07%
1181,0,423,49.07%
1182,1,424,49.19%
1183,6,430,49.88%
1184,10,440,51.04%
1185,3,443,51.39%
1186,2,445,51.62%
1187,6,451,52.32%
1188,0,451,52.32%
1189,1,452,52.44%
1190,0,452,52.44%
1191,4,456,52.9%
1192,2,458,53.13%
1193,0,458,53.13%
1194,2,460,53.36%
1195,0,460,53.36%
1196,2,462,53.6%
1197,3,465,53.94%
1198,2,467,54.18%
1199,3,470,54.52%
1200,0,470,54.52%
1201,1,471,54.64%
1202,0,471,54.64%
1203,4,475,55.1%
1204,2,477,55.34%
1205,0,477,55.34%
1206,0,477,55.34%
1207,2,479,55.57%
1208,0,479,55.57%
1209,0,479,55.57%
1210,0,479,55.57%
1211,1,480,55.68%
1212,1,481,55.8%
1213,0,481,55.8%
1214,0,481,55.8%
1215,0,481,55.8%
1216,0,481,55.8%
1217,2,483,56.03%
1218,0,483,56.03%
1219,0,483,56.03%
1220,0,483,56.03%
1221,1,484,56.15%
1222,5,489,56.73%
1223,1,490,56.84%
1224,0,490,56.84%
1225,1,491,56.96%
1226,1,492,57.08%
1227,0,492,57.08%
1228,0,492,57.08%
1229,0,492,57.08%
1230,2,494,57.31%
1231,3,497,57.66%
1232,3,500,58.0%
1233,1,501,58.12%
1234,0,501,58.12%
1235,2,503,58.35%
1236,2,505,58.58%
1237,3,508,58.93%
1238,1,509,59.05%
1239,0,509,59.05%
1240,4,513,59.51%
1241,7,520,60.32%
1242,4,524,60.79%
1243,1,525,60.9%
1244,0,525,60.9%
1245,0,525,60.9%
1246,3,528,61.25%
1247,1,529,61.37%
1248,0,529,61.37%
1249,1,530,61.48%
1250,3,533,61.83%
1251,0,533,61.83%
1252,0,533,61.83%
1253,0,533,61.83%
1254,0,533,61.83%
1255,0,533,61.83%
1256,2,535,62.06%
1257,3,538,62.41%
1258,0,538,62.41%
1259,0,538,62.41%
1260,0,538,62.41%
1261,0,538,62.41%
1262,0,538,62.41%
1263,0,538,62.41%
1264,2,540,62.65%
1265,1,541,62.76%
1266,1,542,62.88%
1267,2,544,63.11%
1268,1,545,63.23%
1269,2,547,63.46%
1270,5,552,64.04%
1271,0,552,64.04%
1272,0,552,64.04%
1273,2,554,64.27%
1274,4,558,64.73%
1275,8,566,65.66%
1276,1,567,65.78%
1277,0,567,65.78%
1278,2,569,66.01%
1279,4,573,66.47%
1280,1,574,66.59%
1281,2,576,66.82%
1282,0,576,66.82%
1283,1,577,66.94%
1284,4,581,67.4%
1285,2,583,67.63%
1286,0,583,67.63%
1287,0,583,67.63%
1288,2,585,67.87%
1289,2,587,68.1%
1290,0,587,68.1%
1291,0,587,68.1%
1292,0,587,68.1%
1293,2,589,68.33%
1294,3,592,68.68%
1295,0,592,68.68%
1296,0,592,68.68%
1297,4,596,69.14%
1298,2,598,69.37%
1299,1,599,69.49%
1300,2,601,69.72%
1301,2,603,69.95%
1302,2,605,70.19%
1303,2,607,70.42%
1304,3,610,70.77%
1305,2,612,71.0%
1306,1,613,71.11%
1307,2,615,71.35%
1308,2,617,71.58%
1309,1,618,71.69%
1310,1,619,71.81%
1311,0,619,71.81%
1312,1,620,71.93%
1313,3,623,72.27%
1314,1,624,72.39%
1315,0,624,72.39%
1316,1,625,72.51%
1317,1,626,72.62%
1318,1,627,72.74%
1319,0,627,72.74%
1320,0,627,72.74%
1321,1,628,72.85%
1322,3,631,73.2%
1323,0,631,73.2%
1324,3,634,73.55%
1325,4,638,74.01%
1326,0,638,74.01%
1327,2,640,74.25%
1328,1,641,74.36%
1329,7,648,75.17%
1330,1,649,75.29%
1331,0,649,75.29%
1332,1,650,75.41%
1333,0,650,75.41%
1334,0,650,75.41%
1335,3,653,75.75%
1336,1,654,75.87%
1337,0,654,75.87%
1338,9,663,76.91%
1339,0,663,76.91%
1340,0,663,76.91%
1341,0,663,76.91%
1342,1,664,77.03%
1343,1,665,77.15%
1344,0,665,77.15%
1345,1,666,77.26%
1346,1,667,77.38%
1347,1,668,77.49%
1348,2,670,77.73%
1349,0,670,77.73%
1350,0,670,77.73%
1351,0,670,77.73%
1352,0,670,77.73%
1353,1,671,77.84%
1354,0,671,77.84%
1355,0,671,77.84%
1356,2,673,78.07%
1357,2,675,78.31%
1358,1,676,78.42%
1359,1,677,78.54%
1360,1,678,78.65%
1361,5,683,79.23%
1362,1,684,79.35%
1363,0,684,79.35%
1364,0,684,79.35%
1365,0,684,79.35%
1366,0,684,79.35%
1367,1,685,79.47%
1368,1,686,79.58%
1369,1,687,79.7%
1370,0,687,79.7%
1371,3,690,80.05%
1372,2,692,80.28%
1373,170,862,100.0%
