Length, Count, Sum (Counts <= Length), Percent of Nonzero Data, Nonzero Data Count = 886, Zero Data Count = 958
1,1,1,0.11%
2,0,1,0.11%
3,1,2,0.23%
4,1,3,0.34%
5,0,3,0.34%
6,0,3,0.34%
7,0,3,0.34%
8,0,3,0.34%
9,0,3,0.34%
10,0,3,0.34%
11,0,3,0.34%
12,1,4,0.45%
13,0,4,0.45%
14,0,4,0.45%
15,0,4,0.45%
16,0,4,0.45%
17,0,4,0.45%
18,0,4,0.45%
19,0,4,0.45%
20,0,4,0.45%
21,0,4,0.45%
22,0,4,0.45%
23,0,4,0.45%
24,0,4,0.45%
25,0,4,0.45%
26,1,5,0.56%
27,0,5,0.56%
28,1,6,0.68%
29,0,6,0.68%
30,0,6,0.68%
31,0,6,0.68%
32,0,6,0.68%
33,0,6,0.68%
34,0,6,0.68%
35,0,6,0.68%
36,0,6,0.68%
37,0,6,0.68%
38,0,6,0.68%
39,1,7,0.79%
40,0,7,0.79%
41,0,7,0.79%
42,0,7,0.79%
43,0,7,0.79%
44,0,7,0.79%
45,0,7,0.79%
46,0,7,0.79%
47,0,7,0.79%
48,0,7,0.79%
49,0,7,0.79%
50,0,7,0.79%
51,0,7,0.79%
52,2,9,1.02%
53,0,9,1.02%
54,0,9,1.02%
55,0,9,1.02%
56,0,9,1.02%
57,0,9,1.02%
58,0,9,1.02%
59,0,9,1.02%
60,0,9,1.02%
61,0,9,1.02%
62,0,9,1.02%
63,1,10,1.13%
64,0,10,1.13%
65,0,10,1.13%
66,0,10,1.13%
67,0,10,1.13%
68,0,10,1.13%
69,0,10,1.13%
70,0,10,1.13%
71,0,10,1.13%
72,0,10,1.13%
73,0,10,1.13%
74,1,11,1.24%
75,1,12,1.35%
76,0,12,1.35%
77,0,12,1.35%
78,0,12,1.35%
79,0,12,1.35%
80,0,12,1.35%
81,0,12,1.35%
82,0,12,1.35%
83,1,13,1.47%
84,1,14,1.58%
85,1,15,1.69%
86,0,15,1.69%
87,0,15,1.69%
88,0,15,1.69%
89,0,15,1.69%
90,0,15,1.69%
91,0,15,1.69%
92,1,16,1.81%
93,1,17,1.92%
94,0,17,1.92%
95,0,17,1.92%
96,1,18,2.03%
97,0,18,2.03%
98,0,18,2.03%
99,0,18,2.03%
100,0,18,2.03%
101,0,18,2.03%
102,0,18,2.03%
103,0,18,2.03%
104,0,18,2.03%
105,0,18,2.03%
106,1,19,2.14%
107,0,19,2.14%
108,0,19,2.14%
109,0,19,2.14%
110,0,19,2.14%
111,0,19,2.14%
112,0,19,2.14%
113,0,19,2.14%
114,0,19,2.14%
115,0,19,2.14%
116,0,19,2.14%
117,0,19,2.14%
118,0,19,2.14%
119,0,19,2.14%
120,0,19,2.14%
121,1,20,2.26%
122,0,20,2.26%
123,0,20,2.26%
124,0,20,2.26%
125,1,21,2.37%
126,1,22,2.48%
127,0,22,2.48%
128,1,23,2.6%
129,1,24,2.71%
130,0,24,2.71%
131,0,24,2.71%
132,0,24,2.71%
133,0,24,2.71%
134,0,24,2.71%
135,0,24,2.71%
136,0,24,2.71%
137,0,24,2.71%
138,0,24,2.71%
139,0,24,2.71%
140,1,25,2.82%
141,0,25,2.82%
142,0,25,2.82%
143,0,25,2.82%
144,0,25,2.82%
145,2,27,3.05%
146,0,27,3.05%
147,0,27,3.05%
148,0,27,3.05%
149,0,27,3.05%
150,1,28,3.16%
151,1,29,3.27%
152,0,29,3.27%
153,0,29,3.27%
154,0,29,3.27%
155,1,30,3.39%
156,0,30,3.39%
157,0,30,3.39%
158,0,30,3.39%
159,0,30,3.39%
160,0,30,3.39%
161,0,30,3.39%
162,0,30,3.39%
163,0,30,3.39%
164,0,30,3.39%
165,0,30,3.39%
166,0,30,3.39%
167,0,30,3.39%
168,0,30,3.39%
169,0,30,3.39%
170,1,31,3.5%
171,0,31,3.5%
172,0,31,3.5%
173,0,31,3.5%
174,1,32,3.61%
175,0,32,3.61%
176,0,32,3.61%
177,0,32,3.61%
178,0,32,3.61%
179,0,32,3.61%
180,0,32,3.61%
181,1,33,3.72%
182,1,34,3.84%
183,0,34,3.84%
184,1,35,3.95%
185,0,35,3.95%
186,0,35,3.95%
187,1,36,4.06%
188,1,37,4.18%
189,0,37,4.18%
190,0,37,4.18%
191,0,37,4.18%
192,0,37,4.18%
193,0,37,4.18%
194,0,37,4.18%
195,0,37,4.18%
196,1,38,4.29%
197,1,39,4.4%
198,0,39,4.4%
199,0,39,4.4%
200,2,41,4.63%
201,2,43,4.85%
202,1,44,4.97%
203,0,44,4.97%
204,0,44,4.97%
205,0,44,4.97%
206,0,44,4.97%
207,0,44,4.97%
208,0,44,4.97%
209,0,44,4.97%
210,0,44,4.97%
211,0,44,4.97%
212,1,45,5.08%
213,1,46,5.19%
214,0,46,5.19%
215,1,47,5.3%
216,0,47,5.3%
217,0,47,5.3%
218,2,49,5.53%
219,0,49,5.53%
220,0,49,5.53%
221,0,49,5.53%
222,1,50,5.64%
223,0,50,5.64%
224,0,50,5.64%
225,0,50,5.64%
226,0,50,5.64%
227,0,50,5.64%
228,0,50,5.64%
229,0,50,5.64%
230,0,50,5.64%
231,1,51,5.76%
232,0,51,5.76%
233,1,52,5.87%
234,0,52,5.87%
235,0,52,5.87%
236,1,53,5.98%
237,0,53,5.98%
238,0,53,5.98%
239,0,53,5.98%
240,0,53,5.98%
241,0,53,5.98%
242,0,53,5.98%
243,2,55,6.21%
244,1,56,6.32%
245,0,56,6.32%
246,0,56,6.32%
247,1,57,6.43%
248,0,57,6.43%
249,0,57,6.43%
250,0,57,6.43%
251,0,57,6.43%
252,1,58,6.55%
253,0,58,6.55%
254,0,58,6.55%
255,1,59,6.66%
256,0,59,6.66%
257,1,60,6.77%
258,0,60,6.77%
259,1,61,6.88%
260,0,61,6.88%
261,0,61,6.88%
262,0,61,6.88%
263,1,62,7.0%
264,0,62,7.0%
265,1,63,7.11%
266,0,63,7.11%
267,0,63,7.11%
268,0,63,7.11%
269,0,63,7.11%
270,3,66,7.45%
271,0,66,7.45%
272,0,66,7.45%
273,0,66,7.45%
274,1,67,7.56%
275,0,67,7.56%
276,0,67,7.56%
277,0,67,7.56%
278,0,67,7.56%
279,0,67,7.56%
280,0,67,7.56%
281,1,68,7.67%
282,0,68,7.67%
283,0,68,7.67%
284,0,68,7.67%
285,0,68,7.67%
286,0,68,7.67%
287,0,68,7.67%
288,1,69,7.79%
289,0,69,7.79%
290,0,69,7.79%
291,0,69,7.79%
292,0,69,7.79%
293,0,69,7.79%
294,0,69,7.79%
295,0,69,7.79%
296,0,69,7.79%
297,0,69,7.79%
298,0,69,7.79%
299,0,69,7.79%
300,0,69,7.79%
301,0,69,7.79%
302,0,69,7.79%
303,2,71,8.01%
304,0,71,8.01%
305,1,72,8.13%
306,0,72,8.13%
307,0,72,8.13%
308,0,72,8.13%
309,0,72,8.13%
310,0,72,8.13%
311,2,74,8.35%
312,0,74,8.35%
313,0,74,8.35%
314,0,74,8.35%
315,0,74,8.35%
316,0,74,8.35%
317,0,74,8.35%
318,0,74,8.35%
319,0,74,8.35%
320,0,74,8.35%
321,0,74,8.35%
322,0,74,8.35%
323,0,74,8.35%
324,0,74,8.35%
325,2,76,8.58%
326,0,76,8.58%
327,1,77,8.69%
328,0,77,8.69%
329,0,77,8.69%
330,0,77,8.69%
331,0,77,8.69%
332,0,77,8.69%
333,0,77,8.69%
334,0,77,8.69%
335,0,77,8.69%
336,0,77,8.69%
337,0,77,8.69%
338,0,77,8.69%
339,0,77,8.69%
340,0,77,8.69%
341,0,77,8.69%
342,0,77,8.69%
343,1,78,8.8%
344,0,78,8.8%
345,0,78,8.8%
346,1,79,8.92%
347,0,79,8.92%
348,0,79,8.92%
349,1,80,9.03%
350,1,81,9.14%
351,15,96,10.84%
352,10,106,11.96%
353,0,106,11.96%
354,1,107,12.08%
355,0,107,12.08%
356,0,107,12.08%
357,0,107,12.08%
358,6,113,12.75%
359,0,113,12.75%
360,3,116,13.09%
361,1,117,13.21%
362,0,117,13.21%
363,2,119,13.43%
364,0,119,13.43%
365,0,119,13.43%
366,1,120,13.54%
367,0,120,13.54%
368,1,121,13.66%
369,0,121,13.66%
370,0,121,13.66%
371,0,121,13.66%
372,2,123,13.88%
373,0,123,13.88%
374,0,123,13.88%
375,0,123,13.88%
376,0,123,13.88%
377,0,123,13.88%
378,0,123,13.88%
379,0,123,13.88%
380,0,123,13.88%
381,0,123,13.88%
382,1,124,14.0%
383,0,124,14.0%
384,0,124,14.0%
385,0,124,14.0%
386,0,124,14.0%
387,0,124,14.0%
388,0,124,14.0%
389,0,124,14.0%
390,0,124,14.0%
391,0,124,14.0%
392,1,125,14.11%
393,1,126,14.22%
394,0,126,14.22%
395,0,126,14.22%
396,0,126,14.22%
397,1,127,14.33%
398,0,127,14.33%
399,0,127,14.33%
400,0,127,14.33%
401,0,127,14.33%
402,1,128,14.45%
403,0,128,14.45%
404,0,128,14.45%
405,0,128,14.45%
406,3,131,14.79%
407,0,131,14.79%
408,0,131,14.79%
409,0,131,14.79%
410,1,132,14.9%
411,0,132,14.9%
412,1,133,15.01%
413,0,133,15.01%
414,0,133,15.01%
415,0,133,15.01%
416,0,133,15.01%
417,0,133,15.01%
418,0,133,15.01%
419,1,134,15.12%
420,1,135,15.24%
421,0,135,15.24%
422,1,136,15.35%
423,0,136,15.35%
424,0,136,15.35%
425,0,136,15.35%
426,0,136,15.35%
427,0,136,15.35%
428,0,136,15.35%
429,0,136,15.35%
430,0,136,15.35%
431,0,136,15.35%
432,0,136,15.35%
433,0,136,15.35%
434,0,136,15.35%
435,1,137,15.46%
436,0,137,15.46%
437,0,137,15.46%
438,0,137,15.46%
439,0,137,15.46%
440,0,137,15.46%
441,1,138,15.58%
442,0,138,15.58%
443,0,138,15.58%
444,0,138,15.58%
445,0,138,15.58%
446,1,139,15.69%
447,0,139,15.69%
448,0,139,15.69%
449,1,140,15.8%
450,0,140,15.8%
451,0,140,15.8%
452,0,140,15.8%
453,1,141,15.91%
454,0,141,15.91%
455,0,141,15.91%
456,0,141,15.91%
457,0,141,15.91%
458,0,141,15.91%
459,0,141,15.91%
460,0,141,15.91%
461,0,141,15.91%
462,0,141,15.91%
463,0,141,15.91%
464,0,141,15.91%
465,1,142,16.03%
466,1,143,16.14%
467,0,143,16.14%
468,0,143,16.14%
469,0,143,16.14%
470,1,144,16.25%
471,0,144,16.25%
472,0,144,16.25%
473,0,144,16.25%
474,0,144,16.25%
475,0,144,16.25%
476,0,144,16.25%
477,0,144,16.25%
478,1,145,16.37%
479,1,146,16.48%
480,0,146,16.48%
481,0,146,16.48%
482,1,147,16.59%
483,2,149,16.82%
484,0,149,16.82%
485,0,149,16.82%
486,0,149,16.82%
487,1,150,16.93%
488,0,150,16.93%
489,0,150,16.93%
490,1,151,17.04%
491,1,152,17.16%
492,0,152,17.16%
493,1,153,17.27%
494,0,153,17.27%
495,1,154,17.38%
496,1,155,17.49%
497,0,155,17.49%
498,1,156,17.61%
499,0,156,17.61%
500,1,157,17.72%
501,1,158,17.83%
502,0,158,17.83%
503,1,159,17.95%
504,0,159,17.95%
505,0,159,17.95%
506,0,159,17.95%
507,0,159,17.95%
508,0,159,17.95%
509,0,159,17.95%
510,0,159,17.95%
511,0,159,17.95%
512,0,159,17.95%
513,0,159,17.95%
514,0,159,17.95%
515,0,159,17.95%
516,1,160,18.06%
517,0,160,18.06%
518,0,160,18.06%
519,1,161,18.17%
520,0,161,18.17%
521,0,161,18.17%
522,0,161,18.17%
523,0,161,18.17%
524,1,162,18.28%
525,0,162,18.28%
526,0,162,18.28%
527,0,162,18.28%
528,1,163,18.4%
529,1,164,18.51%
530,0,164,18.51%
531,0,164,18.51%
532,0,164,18.51%
533,0,164,18.51%
534,0,164,18.51%
535,2,166,18.74%
536,0,166,18.74%
537,0,166,18.74%
538,0,166,18.74%
539,0,166,18.74%
540,0,166,18.74%
541,0,166,18.74%
542,0,166,18.74%
543,1,167,18.85%
544,1,168,18.96%
545,0,168,18.96%
546,1,169,19.07%
547,0,169,19.07%
548,0,169,19.07%
549,0,169,19.07%
550,0,169,19.07%
551,0,169,19.07%
552,0,169,19.07%
553,0,169,19.07%
554,0,169,19.07%
555,0,169,19.07%
556,0,169,19.07%
557,0,169,19.07%
558,0,169,19.07%
559,0,169,19.07%
560,0,169,19.07%
561,1,170,19.19%
562,1,171,19.3%
563,0,171,19.3%
564,1,172,19.41%
565,0,172,19.41%
566,0,172,19.41%
567,1,173,19.53%
568,0,173,19.53%
569,0,173,19.53%
570,0,173,19.53%
571,1,174,19.64%
572,0,174,19.64%
573,3,177,19.98%
574,0,177,19.98%
575,0,177,19.98%
576,8,185,20.88%
577,0,185,20.88%
578,0,185,20.88%
579,1,186,20.99%
580,0,186,20.99%
581,0,186,20.99%
582,0,186,20.99%
583,0,186,20.99%
584,0,186,20.99%
585,0,186,20.99%
586,0,186,20.99%
587,0,186,20.99%
588,0,186,20.99%
589,0,186,20.99%
590,1,187,21.11%
591,0,187,21.11%
592,0,187,21.11%
593,0,187,21.11%
594,0,187,21.11%
595,0,187,21.11%
596,1,188,21.22%
597,0,188,21.22%
598,1,189,21.33%
599,1,190,21.44%
600,0,190,21.44%
601,0,190,21.44%
602,0,190,21.44%
603,1,191,21.56%
604,1,192,21.67%
605,0,192,21.67%
606,0,192,21.67%
607,0,192,21.67%
608,0,192,21.67%
609,0,192,21.67%
610,0,192,21.67%
611,0,192,21.67%
612,0,192,21.67%
613,0,192,21.67%
614,1,193,21.78%
615,0,193,21.78%
616,0,193,21.78%
617,0,193,21.78%
618,1,194,21.9%
619,0,194,21.9%
620,0,194,21.9%
621,1,195,22.01%
622,1,196,22.12%
623,0,196,22.12%
624,0,196,22.12%
625,0,196,22.12%
626,2,198,22.35%
627,0,198,22.35%
628,0,198,22.35%
629,0,198,22.35%
630,0,198,22.35%
631,0,198,22.35%
632,1,199,22.46%
633,0,199,22.46%
634,0,199,22.46%
635,1,200,22.57%
636,0,200,22.57%
637,0,200,22.57%
638,0,200,22.57%
639,0,200,22.57%
640,0,200,22.57%
641,0,200,22.57%
642,0,200,22.57%
643,0,200,22.57%
644,0,200,22.57%
645,0,200,22.57%
646,0,200,22.57%
647,1,201,22.69%
648,0,201,22.69%
649,2,203,22.91%
650,0,203,22.91%
651,0,203,22.91%
652,0,203,22.91%
653,1,204,23.02%
654,0,204,23.02%
655,0,204,23.02%
656,0,204,23.02%
657,0,204,23.02%
658,0,204,23.02%
659,0,204,23.02%
660,0,204,23.02%
661,1,205,23.14%
662,1,206,23.25%
663,0,206,23.25%
664,0,206,23.25%
665,0,206,23.25%
666,0,206,23.25%
667,0,206,23.25%
668,0,206,23.25%
669,0,206,23.25%
670,0,206,23.25%
671,1,207,23.36%
672,0,207,23.36%
673,0,207,23.36%
674,0,207,23.36%
675,0,207,23.36%
676,0,207,23.36%
677,0,207,23.36%
678,0,207,23.36%
679,1,208,23.48%
680,0,208,23.48%
681,0,208,23.48%
682,0,208,23.48%
683,1,209,23.59%
684,1,210,23.7%
685,0,210,23.7%
686,0,210,23.7%
687,0,210,23.7%
688,0,210,23.7%
689,0,210,23.7%
690,0,210,23.7%
691,0,210,23.7%
692,0,210,23.7%
693,5,215,24.27%
694,1,216,24.38%
695,0,216,24.38%
696,0,216,24.38%
697,0,216,24.38%
698,0,216,24.38%
699,0,216,24.38%
700,0,216,24.38%
701,0,216,24.38%
702,1,217,24.49%
703,0,217,24.49%
704,1,218,24.6%
705,1,219,24.72%
706,0,219,24.72%
707,0,219,24.72%
708,0,219,24.72%
709,0,219,24.72%
710,0,219,24.72%
711,0,219,24.72%
712,0,219,24.72%
713,0,219,24.72%
714,1,220,24.83%
715,0,220,24.83%
716,0,220,24.83%
717,0,220,24.83%
718,0,220,24.83%
719,1,221,24.94%
720,0,221,24.94%
721,0,221,24.94%
722,0,221,24.94%
723,0,221,24.94%
724,0,221,24.94%
725,1,222,25.06%
726,0,222,25.06%
727,0,222,25.06%
728,0,222,25.06%
729,0,222,25.06%
730,0,222,25.06%
731,0,222,25.06%
732,0,222,25.06%
733,0,222,25.06%
734,0,222,25.06%
735,1,223,25.17%
736,0,223,25.17%
737,0,223,25.17%
738,0,223,25.17%
739,1,224,25.28%
740,0,224,25.28%
741,0,224,25.28%
742,0,224,25.28%
743,0,224,25.28%
744,1,225,25.4%
745,0,225,25.4%
746,0,225,25.4%
747,1,226,25.51%
748,0,226,25.51%
749,0,226,25.51%
750,0,226,25.51%
751,0,226,25.51%
752,0,226,25.51%
753,1,227,25.62%
754,1,228,25.73%
755,0,228,25.73%
756,1,229,25.85%
757,0,229,25.85%
758,1,230,25.96%
759,0,230,25.96%
760,0,230,25.96%
761,0,230,25.96%
762,0,230,25.96%
763,0,230,25.96%
764,0,230,25.96%
765,0,230,25.96%
766,0,230,25.96%
767,1,231,26.07%
768,0,231,26.07%
769,1,232,26.19%
770,0,232,26.19%
771,0,232,26.19%
772,0,232,26.19%
773,0,232,26.19%
774,1,233,26.3%
775,0,233,26.3%
776,0,233,26.3%
777,1,234,26.41%
778,1,235,26.52%
779,0,235,26.52%
780,0,235,26.52%
781,0,235,26.52%
782,0,235,26.52%
783,0,235,26.52%
784,1,236,26.64%
785,1,237,26.75%
786,0,237,26.75%
787,0,237,26.75%
788,0,237,26.75%
789,0,237,26.75%
790,1,238,26.86%
791,0,238,26.86%
792,2,240,27.09%
793,0,240,27.09%
794,0,240,27.09%
795,2,242,27.31%
796,1,243,27.43%
797,0,243,27.43%
798,0,243,27.43%
799,0,243,27.43%
800,0,243,27.43%
801,0,243,27.43%
802,0,243,27.43%
803,0,243,27.43%
804,1,244,27.54%
805,1,245,27.65%
806,0,245,27.65%
807,0,245,27.65%
808,1,246,27.77%
809,0,246,27.77%
810,0,246,27.77%
811,0,246,27.77%
812,0,246,27.77%
813,0,246,27.77%
814,0,246,27.77%
815,0,246,27.77%
816,2,248,27.99%
817,0,248,27.99%
818,1,249,28.1%
819,0,249,28.1%
820,0,249,28.1%
821,0,249,28.1%
822,0,249,28.1%
823,0,249,28.1%
824,0,249,28.1%
825,0,249,28.1%
826,0,249,28.1%
827,1,250,28.22%
828,0,250,28.22%
829,0,250,28.22%
830,0,250,28.22%
831,0,250,28.22%
832,0,250,28.22%
833,0,250,28.22%
834,0,250,28.22%
835,0,250,28.22%
836,1,251,28.33%
837,1,252,28.44%
838,0,252,28.44%
839,0,252,28.44%
840,1,253,28.56%
841,0,253,28.56%
842,0,253,28.56%
843,0,253,28.56%
844,1,254,28.67%
845,0,254,28.67%
846,0,254,28.67%
847,0,254,28.67%
848,1,255,28.78%
849,0,255,28.78%
850,0,255,28.78%
851,0,255,28.78%
852,0,255,28.78%
853,0,255,28.78%
854,0,255,28.78%
855,0,255,28.78%
856,1,256,28.89%
857,0,256,28.89%
858,0,256,28.89%
859,0,256,28.89%
860,0,256,28.89%
861,0,256,28.89%
862,1,257,29.01%
863,0,257,29.01%
864,0,257,29.01%
865,0,257,29.01%
866,0,257,29.01%
867,0,257,29.01%
868,0,257,29.01%
869,0,257,29.01%
870,0,257,29.01%
871,1,258,29.12%
872,0,258,29.12%
873,0,258,29.12%
874,0,258,29.12%
875,0,258,29.12%
876,1,259,29.23%
877,0,259,29.23%
878,0,259,29.23%
879,0,259,29.23%
880,0,259,29.23%
881,1,260,29.35%
882,0,260,29.35%
883,0,260,29.35%
884,1,261,29.46%
885,0,261,29.46%
886,0,261,29.46%
887,0,261,29.46%
888,0,261,29.46%
889,0,261,29.46%
890,0,261,29.46%
891,0,261,29.46%
892,0,261,29.46%
893,1,262,29.57%
894,0,262,29.57%
895,0,262,29.57%
896,1,263,29.68%
897,0,263,29.68%
898,0,263,29.68%
899,0,263,29.68%
900,1,264,29.8%
901,1,265,29.91%
902,0,265,29.91%
903,0,265,29.91%
904,1,266,30.02%
905,0,266,30.02%
906,1,267,30.14%
907,1,268,30.25%
908,0,268,30.25%
909,0,268,30.25%
910,0,268,30.25%
911,0,268,30.25%
912,0,268,30.25%
913,0,268,30.25%
914,1,269,30.36%
915,1,270,30.47%
916,0,270,30.47%
917,0,270,30.47%
918,0,270,30.47%
919,0,270,30.47%
920,0,270,30.47%
921,0,270,30.47%
922,0,270,30.47%
923,0,270,30.47%
924,0,270,30.47%
925,0,270,30.47%
926,0,270,30.47%
927,1,271,30.59%
928,2,273,30.81%
929,1,274,30.93%
930,10,284,32.05%
931,1,285,32.17%
932,0,285,32.17%
933,0,285,32.17%
934,0,285,32.17%
935,1,286,32.28%
936,0,286,32.28%
937,1,287,32.39%
938,0,287,32.39%
939,0,287,32.39%
940,0,287,32.39%
941,0,287,32.39%
942,1,288,32.51%
943,0,288,32.51%
944,0,288,32.51%
945,0,288,32.51%
946,1,289,32.62%
947,0,289,32.62%
948,0,289,32.62%
949,0,289,32.62%
950,0,289,32.62%
951,0,289,32.62%
952,0,289,32.62%
953,0,289,32.62%
954,0,289,32.62%
955,0,289,32.62%
956,1,290,32.73%
957,0,290,32.73%
958,0,290,32.73%
959,0,290,32.73%
960,1,291,32.84%
961,0,291,32.84%
962,0,291,32.84%
963,0,291,32.84%
964,1,292,32.96%
965,0,292,32.96%
966,1,293,33.07%
967,0,293,33.07%
968,0,293,33.07%
969,0,293,33.07%
970,0,293,33.07%
971,0,293,33.07%
972,0,293,33.07%
973,0,293,33.07%
974,0,293,33.07%
975,0,293,33.07%
976,0,293,33.07%
977,0,293,33.07%
978,0,293,33.07%
979,1,294,33.18%
980,0,294,33.18%
981,0,294,33.18%
982,0,294,33.18%
983,0,294,33.18%
984,0,294,33.18%
985,1,295,33.3%
986,0,295,33.3%
987,1,296,33.41%
988,0,296,33.41%
989,1,297,33.52%
990,0,297,33.52%
991,1,298,33.63%
992,0,298,33.63%
993,0,298,33.63%
994,1,299,33.75%
995,0,299,33.75%
996,0,299,33.75%
997,0,299,33.75%
998,1,300,33.86%
999,1,301,33.97%
1000,0,301,33.97%
1001,0,301,33.97%
1002,0,301,33.97%
1003,0,301,33.97%
1004,0,301,33.97%
1005,0,301,33.97%
1006,0,301,33.97%
1007,0,301,33.97%
1008,0,301,33.97%
1009,0,301,33.97%
1010,0,301,33.97%
1011,0,301,33.97%
1012,0,301,33.97%
1013,2,303,34.2%
1014,0,303,34.2%
1015,0,303,34.2%
1016,1,304,34.31%
1017,0,304,34.31%
1018,0,304,34.31%
1019,1,305,34.42%
1020,0,305,34.42%
1021,0,305,34.42%
1022,0,305,34.42%
1023,0,305,34.42%
1024,1,306,34.54%
1025,1,307,34.65%
1026,0,307,34.65%
1027,0,307,34.65%
1028,0,307,34.65%
1029,1,308,34.76%
1030,0,308,34.76%
1031,1,309,34.88%
1032,0,309,34.88%
1033,1,310,34.99%
1034,0,310,34.99%
1035,0,310,34.99%
1036,0,310,34.99%
1037,0,310,34.99%
1038,0,310,34.99%
1039,0,310,34.99%
1040,0,310,34.99%
1041,0,310,34.99%
1042,0,310,34.99%
1043,0,310,34.99%
1044,1,311,35.1%
1045,0,311,35.1%
1046,0,311,35.1%
1047,0,311,35.1%
1048,0,311,35.1%
1049,0,311,35.1%
1050,0,311,35.1%
1051,0,311,35.1%
1052,0,311,35.1%
1053,0,311,35.1%
1054,0,311,35.1%
1055,0,311,35.1%
1056,0,311,35.1%
1057,0,311,35.1%
1058,1,312,35.21%
1059,0,312,35.21%
1060,0,312,35.21%
1061,0,312,35.21%
1062,0,312,35.21%
1063,0,312,35.21%
1064,0,312,35.21%
1065,0,312,35.21%
1066,0,312,35.21%
1067,0,312,35.21%
1068,1,313,35.33%
1069,0,313,35.33%
1070,0,313,35.33%
1071,0,313,35.33%
1072,1,314,35.44%
1073,0,314,35.44%
1074,0,314,35.44%
1075,0,314,35.44%
1076,4,318,35.89%
1077,0,318,35.89%
1078,0,318,35.89%
1079,0,318,35.89%
1080,0,318,35.89%
1081,0,318,35.89%
1082,0,318,35.89%
1083,1,319,36.0%
1084,0,319,36.0%
1085,0,319,36.0%
1086,0,319,36.0%
1087,0,319,36.0%
1088,0,319,36.0%
1089,0,319,36.0%
1090,0,319,36.0%
1091,0,319,36.0%
1092,0,319,36.0%
1093,0,319,36.0%
1094,1,320,36.12%
1095,0,320,36.12%
1096,1,321,36.23%
1097,0,321,36.23%
1098,0,321,36.23%
1099,0,321,36.23%
1100,1,322,36.34%
1101,1,323,36.46%
1102,1,324,36.57%
1103,1,325,36.68%
1104,0,325,36.68%
1105,2,327,36.91%
1106,1,328,37.02%
1107,0,328,37.02%
1108,1,329,37.13%
1109,2,331,37.36%
1110,2,333,37.58%
1111,0,333,37.58%
1112,0,333,37.58%
1113,1,334,37.7%
1114,1,335,37.81%
1115,3,338,38.15%
1116,5,343,38.71%
1117,0,343,38.71%
1118,1,344,38.83%
1119,2,346,39.05%
1120,1,347,39.16%
1121,1,348,39.28%
1122,0,348,39.28%
1123,0,348,39.28%
1124,1,349,39.39%
1125,4,353,39.84%
1126,3,356,40.18%
1127,0,356,40.18%
1128,1,357,40.29%
1129,1,358,40.41%
1130,0,358,40.41%
1131,2,360,40.63%
1132,0,360,40.63%
1133,2,362,40.86%
1134,2,364,41.08%
1135,0,364,41.08%
1136,0,364,41.08%
1137,1,365,41.2%
1138,0,365,41.2%
1139,1,366,41.31%
1140,1,367,41.42%
1141,5,372,41.99%
1142,1,373,42.1%
1143,6,379,42.78%
1144,2,381,43.0%
1145,3,384,43.34%
1146,1,385,43.45%
1147,2,387,43.68%
1148,3,390,44.02%
1149,6,396,44.7%
1150,0,396,44.7%
1151,1,397,44.81%
1152,0,397,44.81%
1153,0,397,44.81%
1154,1,398,44.92%
1155,1,399,45.03%
1156,1,400,45.15%
1157,2,402,45.37%
1158,4,406,45.82%
1159,2,408,46.05%
1160,3,411,46.39%
1161,0,411,46.39%
1162,3,414,46.73%
1163,2,416,46.95%
1164,0,416,46.95%
1165,0,416,46.95%
1166,1,417,47.07%
1167,0,417,47.07%
1168,4,421,47.52%
1169,3,424,47.86%
1170,1,425,47.97%
1171,0,425,47.97%
1172,0,425,47.97%
1173,7,432,48.76%
1174,3,435,49.1%
1175,0,435,49.1%
1176,2,437,49.32%
1177,0,437,49.32%
1178,1,438,49.44%
1179,1,439,49.55%
1180,1,440,49.66%
1181,0,440,49.66%
1182,1,441,49.77%
1183,6,447,50.45%
1184,10,457,51.58%
1185,2,459,51.81%
1186,2,461,52.03%
1187,6,467,52.71%
1188,0,467,52.71%
1189,0,467,52.71%
1190,0,467,52.71%
1191,4,471,53.16%
1192,2,473,53.39%
1193,0,473,53.39%
1194,2,475,53.61%
1195,0,475,53.61%
1196,2,477,53.84%
1197,3,480,54.18%
1198,2,482,54.4%
1199,3,485,54.74%
1200,0,485,54.74%
1201,1,486,54.85%
1202,0,486,54.85%
1203,4,490,55.3%
1204,2,492,55.53%
1205,0,492,55.53%
1206,0,492,55.53%
1207,2,494,55.76%
1208,0,494,55.76%
1209,0,494,55.76%
1210,0,494,55.76%
1211,1,495,55.87%
1212,1,496,55.98%
1213,0,496,55.98%
1214,0,496,55.98%
1215,0,496,55.98%
1216,0,496,55.98%
1217,2,498,56.21%
1218,0,498,56.21%
1219,0,498,56.21%
1220,0,498,56.21%
1221,1,499,56.32%
1222,4,503,56.77%
1223,0,503,56.77%
1224,0,503,56.77%
1225,1,504,56.88%
1226,1,505,57.0%
1227,0,505,57.0%
1228,0,505,57.0%
1229,0,505,57.0%
1230,2,507,57.22%
1231,3,510,57.56%
1232,3,513,57.9%
1233,1,514,58.01%
1234,0,514,58.01%
1235,2,516,58.24%
1236,2,518,58.47%
1237,3,521,58.8%
1238,1,522,58.92%
1239,0,522,58.92%
1240,4,526,59.37%
1241,7,533,60.16%
1242,4,537,60.61%
1243,1,538,60.72%
1244,0,538,60.72%
1245,0,538,60.72%
1246,3,541,61.06%
1247,1,542,61.17%
1248,0,542,61.17%
1249,1,543,61.29%
1250,3,546,61.63%
1251,0,546,61.63%
1252,0,546,61.63%
1253,0,546,61.63%
1254,0,546,61.63%
1255,0,546,61.63%
1256,2,548,61.85%
1257,3,551,62.19%
1258,0,551,62.19%
1259,0,551,62.19%
1260,1,552,62.3%
1261,0,552,62.3%
1262,0,552,62.3%
1263,0,552,62.3%
1264,2,554,62.53%
1265,1,555,62.64%
1266,1,556,62.75%
1267,2,558,62.98%
1268,1,559,63.09%
1269,2,561,63.32%
1270,5,566,63.88%
1271,0,566,63.88%
1272,0,566,63.88%
1273,2,568,64.11%
1274,4,572,64.56%
1275,9,581,65.58%
1276,1,582,65.69%
1277,0,582,65.69%
1278,2,584,65.91%
1279,4,588,66.37%
1280,1,589,66.48%
1281,0,589,66.48%
1282,0,589,66.48%
1283,1,590,66.59%
1284,4,594,67.04%
1285,2,596,67.27%
1286,0,596,67.27%
1287,0,596,67.27%
1288,2,598,67.49%
1289,2,600,67.72%
1290,0,600,67.72%
1291,0,600,67.72%
1292,0,600,67.72%
1293,2,602,67.95%
1294,3,605,68.28%
1295,0,605,68.28%
1296,0,605,68.28%
1297,4,609,68.74%
1298,2,611,68.96%
1299,1,612,69.07%
1300,2,614,69.3%
1301,2,616,69.53%
1302,2,618,69.75%
1303,2,620,69.98%
1304,3,623,70.32%
1305,2,625,70.54%
1306,1,626,70.65%
1307,2,628,70.88%
1308,2,630,71.11%
1309,1,631,71.22%
1310,1,632,71.33%
1311,0,632,71.33%
1312,1,633,71.44%
1313,3,636,71.78%
1314,1,637,71.9%
1315,0,637,71.9%
1316,0,637,71.9%
1317,1,638,72.01%
1318,1,639,72.12%
1319,0,639,72.12%
1320,0,639,72.12%
1321,1,640,72.23%
1322,3,643,72.57%
1323,0,643,72.57%
1324,3,646,72.91%
1325,4,650,73.36%
1326,0,650,73.36%
1327,2,652,73.59%
1328,1,653,73.7%
1329,7,660,74.49%
1330,1,661,74.6%
1331,0,661,74.6%
1332,1,662,74.72%
1333,0,662,74.72%
1334,0,662,74.72%
1335,3,665,75.06%
1336,1,666,75.17%
1337,0,666,75.17%
1338,9,675,76.19%
1339,0,675,76.19%
1340,0,675,76.19%
1341,0,675,76.19%
1342,1,676,76.3%
1343,1,677,76.41%
1344,0,677,76.41%
1345,1,678,76.52%
1346,1,679,76.64%
1347,1,680,76.75%
1348,2,682,76.98%
1349,0,682,76.98%
1350,0,682,76.98%
1351,0,682,76.98%
1352,0,682,76.98%
1353,1,683,77.09%
1354,0,683,77.09%
1355,0,683,77.09%
1356,2,685,77.31%
1357,2,687,77.54%
1358,1,688,77.65%
1359,1,689,77.77%
1360,1,690,77.88%
1361,5,695,78.44%
1362,1,696,78.56%
1363,0,696,78.56%
1364,0,696,78.56%
1365,0,696,78.56%
1366,0,696,78.56%
1367,1,697,78.67%
1368,1,698,78.78%
1369,1,699,78.89%
1370,0,699,78.89%
1371,3,702,79.23%
1372,2,704,79.46%
1373,1,705,79.57%
1374,1,706,79.68%
1375,0,706,79.68%
1376,2,708,79.91%
1377,2,710,80.14%
1378,1,711,80.25%
1379,0,711,80.25%
1380,0,711,80.25%
1381,1,712,80.36%
1382,2,714,80.59%
1383,1,715,80.7%
1384,1,716,80.81%
1385,0,716,80.81%
1386,1,717,80.93%
1387,0,717,80.93%
1388,0,717,80.93%
1389,0,717,80.93%
1390,0,717,80.93%
1391,0,717,80.93%
1392,0,717,80.93%
1393,0,717,80.93%
1394,0,717,80.93%
1395,0,717,80.93%
1396,0,717,80.93%
1397,0,717,80.93%
1398,0,717,80.93%
1399,0,717,80.93%
1400,0,717,80.93%
1401,0,717,80.93%
1402,0,717,80.93%
1403,0,717,80.93%
1404,0,717,80.93%
1405,0,717,80.93%
1406,0,717,80.93%
1407,0,717,80.93%
1408,0,717,80.93%
1409,0,717,80.93%
1410,0,717,80.93%
1411,0,717,80.93%
1412,0,717,80.93%
1413,0,717,80.93%
1414,0,717,80.93%
1415,0,717,80.93%
1416,0,717,80.93%
1417,0,717,80.93%
1418,0,717,80.93%
1419,1,718,81.04%
1420,0,718,81.04%
1421,0,718,81.04%
1422,0,718,81.04%
1423,0,718,81.04%
1424,0,718,81.04%
1425,0,718,81.04%
1426,0,718,81.04%
1427,0,718,81.04%
1428,0,718,81.04%
1429,0,718,81.04%
1430,0,718,81.04%
1431,0,718,81.04%
1432,0,718,81.04%
1433,0,718,81.04%
1434,0,718,81.04%
1435,0,718,81.04%
1436,0,718,81.04%
1437,0,718,81.04%
1438,1,719,81.15%
1439,0,719,81.15%
1440,0,719,81.15%
1441,0,719,81.15%
1442,0,719,81.15%
1443,0,719,81.15%
1444,0,719,81.15%
1445,0,719,81.15%
1446,0,719,81.15%
1447,0,719,81.15%
1448,0,719,81.15%
1449,0,719,81.15%
1450,0,719,81.15%
1451,0,719,81.15%
1452,0,719,81.15%
1453,0,719,81.15%
1454,0,719,81.15%
1455,0,719,81.15%
1456,0,719,81.15%
1457,0,719,81.15%
1458,0,719,81.15%
1459,0,719,81.15%
1460,0,719,81.15%
1461,0,719,81.15%
1462,0,719,81.15%
1463,0,719,81.15%
1464,0,719,81.15%
1465,0,719,81.15%
1466,0,719,81.15%
1467,0,719,81.15%
1468,0,719,81.15%
1469,0,719,81.15%
1470,0,719,81.15%
1471,0,719,81.15%
1472,0,719,81.15%
1473,1,720,81.26%
1474,0,720,81.26%
1475,0,720,81.26%
1476,1,721,81.38%
1477,0,721,81.38%
1478,0,721,81.38%
1479,0,721,81.38%
1480,0,721,81.38%
1481,0,721,81.38%
1482,0,721,81.38%
1483,0,721,81.38%
1484,0,721,81.38%
1485,0,721,81.38%
1486,0,721,81.38%
1487,0,721,81.38%
1488,0,721,81.38%
1489,0,721,81.38%
1490,0,721,81.38%
1491,0,721,81.38%
1492,0,721,81.38%
1493,0,721,81.38%
1494,0,721,81.38%
1495,0,721,81.38%
1496,0,721,81.38%
1497,0,721,81.38%
1498,0,721,81.38%
1499,0,721,81.38%
1500,0,721,81.38%
1501,1,722,81.49%
1502,0,722,81.49%
1503,0,722,81.49%
1504,0,722,81.49%
1505,1,723,81.6%
1506,0,723,81.6%
1507,0,723,81.6%
1508,0,723,81.6%
1509,0,723,81.6%
1510,0,723,81.6%
1511,0,723,81.6%
1512,0,723,81.6%
1513,0,723,81.6%
1514,0,723,81.6%
1515,0,723,81.6%
1516,0,723,81.6%
1517,0,723,81.6%
1518,0,723,81.6%
1519,0,723,81.6%
1520,0,723,81.6%
1521,0,723,81.6%
1522,0,723,81.6%
1523,0,723,81.6%
1524,0,723,81.6%
1525,0,723,81.6%
1526,0,723,81.6%
1527,0,723,81.6%
1528,0,723,81.6%
1529,0,723,81.6%
1530,0,723,81.6%
1531,0,723,81.6%
1532,0,723,81.6%
1533,0,723,81.6%
1534,0,723,81.6%
1535,0,723,81.6%
1536,0,723,81.6%
1537,0,723,81.6%
1538,1,724,81.72%
1539,1,725,81.83%
1540,0,725,81.83%
1541,0,725,81.83%
1542,0,725,81.83%
1543,0,725,81.83%
1544,0,725,81.83%
1545,0,725,81.83%
1546,0,725,81.83%
1547,0,725,81.83%
1548,0,725,81.83%
1549,0,725,81.83%
1550,0,725,81.83%
1551,0,725,81.83%
1552,0,725,81.83%
1553,0,725,81.83%
1554,0,725,81.83%
1555,0,725,81.83%
1556,0,725,81.83%
1557,0,725,81.83%
1558,0,725,81.83%
1559,0,725,81.83%
1560,0,725,81.83%
1561,0,725,81.83%
1562,0,725,81.83%
1563,1,726,81.94%
1564,0,726,81.94%
1565,0,726,81.94%
1566,0,726,81.94%
1567,0,726,81.94%
1568,0,726,81.94%
1569,0,726,81.94%
1570,0,726,81.94%
1571,0,726,81.94%
1572,0,726,81.94%
1573,0,726,81.94%
1574,0,726,81.94%
1575,0,726,81.94%
1576,0,726,81.94%
1577,0,726,81.94%
1578,0,726,81.94%
1579,0,726,81.94%
1580,0,726,81.94%
1581,0,726,81.94%
1582,0,726,81.94%
1583,0,726,81.94%
1584,0,726,81.94%
1585,0,726,81.94%
1586,0,726,81.94%
1587,0,726,81.94%
1588,0,726,81.94%
1589,0,726,81.94%
1590,0,726,81.94%
1591,0,726,81.94%
1592,0,726,81.94%
1593,0,726,81.94%
1594,0,726,81.94%
1595,0,726,81.94%
1596,0,726,81.94%
1597,2,728,82.17%
1598,0,728,82.17%
1599,0,728,82.17%
1600,0,728,82.17%
1601,0,728,82.17%
1602,0,728,82.17%
1603,0,728,82.17%
1604,0,728,82.17%
1605,1,729,82.28%
1606,1,730,82.39%
1607,0,730,82.39%
1608,0,730,82.39%
1609,0,730,82.39%
1610,0,730,82.39%
1611,0,730,82.39%
1612,0,730,82.39%
1613,0,730,82.39%
1614,1,731,82.51%
1615,1,732,82.62%
1616,0,732,82.62%
1617,0,732,82.62%
1618,0,732,82.62%
1619,0,732,82.62%
1620,0,732,82.62%
1621,0,732,82.62%
1622,0,732,82.62%
1623,0,732,82.62%
1624,0,732,82.62%
1625,0,732,82.62%
1626,0,732,82.62%
1627,0,732,82.62%
1628,0,732,82.62%
1629,0,732,82.62%
1630,0,732,82.62%
1631,0,732,82.62%
1632,1,733,82.73%
1633,0,733,82.73%
1634,0,733,82.73%
1635,0,733,82.73%
1636,0,733,82.73%
1637,0,733,82.73%
1638,0,733,82.73%
1639,0,733,82.73%
1640,0,733,82.73%
1641,0,733,82.73%
1642,0,733,82.73%
1643,0,733,82.73%
1644,0,733,82.73%
1645,0,733,82.73%
1646,0,733,82.73%
1647,0,733,82.73%
1648,0,733,82.73%
1649,0,733,82.73%
1650,0,733,82.73%
1651,0,733,82.73%
1652,0,733,82.73%
1653,0,733,82.73%
1654,0,733,82.73%
1655,0,733,82.73%
1656,0,733,82.73%
1657,0,733,82.73%
1658,0,733,82.73%
1659,0,733,82.73%
1660,0,733,82.73%
1661,0,733,82.73%
1662,0,733,82.73%
1663,0,733,82.73%
1664,0,733,82.73%
1665,0,733,82.73%
1666,0,733,82.73%
1667,0,733,82.73%
1668,0,733,82.73%
1669,0,733,82.73%
1670,0,733,82.73%
1671,0,733,82.73%
1672,0,733,82.73%
1673,0,733,82.73%
1674,0,733,82.73%
1675,0,733,82.73%
1676,0,733,82.73%
1677,0,733,82.73%
1678,0,733,82.73%
1679,0,733,82.73%
1680,0,733,82.73%
1681,0,733,82.73%
1682,0,733,82.73%
1683,0,733,82.73%
1684,0,733,82.73%
1685,0,733,82.73%
1686,0,733,82.73%
1687,0,733,82.73%
1688,0,733,82.73%
1689,153,886,100.0%
