Length, Count, Sum (Counts <= Length), Percent of Nonzero Data, Nonzero Data Count = 852, Zero Data Count = 992
1,1,1,0.12%
2,0,1,0.12%
3,1,2,0.23%
4,0,2,0.23%
5,0,2,0.23%
6,0,2,0.23%
7,0,2,0.23%
8,0,2,0.23%
9,0,2,0.23%
10,1,3,0.35%
11,0,3,0.35%
12,0,3,0.35%
13,0,3,0.35%
14,0,3,0.35%
15,0,3,0.35%
16,0,3,0.35%
17,0,3,0.35%
18,0,3,0.35%
19,0,3,0.35%
20,0,3,0.35%
21,0,3,0.35%
22,0,3,0.35%
23,0,3,0.35%
24,0,3,0.35%
25,0,3,0.35%
26,0,3,0.35%
27,0,3,0.35%
28,1,4,0.47%
29,0,4,0.47%
30,0,4,0.47%
31,1,5,0.59%
32,1,6,0.7%
33,0,6,0.7%
34,0,6,0.7%
35,0,6,0.7%
36,0,6,0.7%
37,0,6,0.7%
38,0,6,0.7%
39,2,8,0.94%
40,0,8,0.94%
41,0,8,0.94%
42,0,8,0.94%
43,0,8,0.94%
44,1,9,1.06%
45,0,9,1.06%
46,0,9,1.06%
47,0,9,1.06%
48,0,9,1.06%
49,0,9,1.06%
50,0,9,1.06%
51,0,9,1.06%
52,1,10,1.17%
53,0,10,1.17%
54,1,11,1.29%
55,0,11,1.29%
56,1,12,1.41%
57,0,12,1.41%
58,0,12,1.41%
59,0,12,1.41%
60,0,12,1.41%
61,1,13,1.53%
62,0,13,1.53%
63,1,14,1.64%
64,0,14,1.64%
65,0,14,1.64%
66,0,14,1.64%
67,0,14,1.64%
68,0,14,1.64%
69,0,14,1.64%
70,0,14,1.64%
71,0,14,1.64%
72,0,14,1.64%
73,0,14,1.64%
74,0,14,1.64%
75,0,14,1.64%
76,0,14,1.64%
77,0,14,1.64%
78,0,14,1.64%
79,0,14,1.64%
80,0,14,1.64%
81,0,14,1.64%
82,0,14,1.64%
83,0,14,1.64%
84,0,14,1.64%
85,2,16,1.88%
86,0,16,1.88%
87,0,16,1.88%
88,0,16,1.88%
89,0,16,1.88%
90,2,18,2.11%
91,0,18,2.11%
92,1,19,2.23%
93,0,19,2.23%
94,0,19,2.23%
95,0,19,2.23%
96,3,22,2.58%
97,0,22,2.58%
98,0,22,2.58%
99,0,22,2.58%
100,0,22,2.58%
101,0,22,2.58%
102,0,22,2.58%
103,0,22,2.58%
104,1,23,2.7%
105,0,23,2.7%
106,1,24,2.82%
107,0,24,2.82%
108,0,24,2.82%
109,0,24,2.82%
110,0,24,2.82%
111,0,24,2.82%
112,0,24,2.82%
113,0,24,2.82%
114,0,24,2.82%
115,0,24,2.82%
116,0,24,2.82%
117,0,24,2.82%
118,0,24,2.82%
119,0,24,2.82%
120,0,24,2.82%
121,0,24,2.82%
122,1,25,2.93%
123,0,25,2.93%
124,0,25,2.93%
125,1,26,3.05%
126,0,26,3.05%
127,0,26,3.05%
128,1,27,3.17%
129,0,27,3.17%
130,0,27,3.17%
131,0,27,3.17%
132,0,27,3.17%
133,0,27,3.17%
134,1,28,3.29%
135,1,29,3.4%
136,0,29,3.4%
137,0,29,3.4%
138,0,29,3.4%
139,0,29,3.4%
140,0,29,3.4%
141,0,29,3.4%
142,0,29,3.4%
143,0,29,3.4%
144,0,29,3.4%
145,2,31,3.64%
146,0,31,3.64%
147,0,31,3.64%
148,0,31,3.64%
149,0,31,3.64%
150,1,32,3.76%
151,2,34,3.99%
152,0,34,3.99%
153,0,34,3.99%
154,0,34,3.99%
155,1,35,4.11%
156,0,35,4.11%
157,0,35,4.11%
158,0,35,4.11%
159,1,36,4.23%
160,0,36,4.23%
161,0,36,4.23%
162,0,36,4.23%
163,0,36,4.23%
164,0,36,4.23%
165,0,36,4.23%
166,0,36,4.23%
167,0,36,4.23%
168,0,36,4.23%
169,0,36,4.23%
170,1,37,4.34%
171,0,37,4.34%
172,0,37,4.34%
173,0,37,4.34%
174,0,37,4.34%
175,0,37,4.34%
176,0,37,4.34%
177,0,37,4.34%
178,0,37,4.34%
179,0,37,4.34%
180,0,37,4.34%
181,1,38,4.46%
182,1,39,4.58%
183,0,39,4.58%
184,1,40,4.69%
185,0,40,4.69%
186,0,40,4.69%
187,0,40,4.69%
188,1,41,4.81%
189,0,41,4.81%
190,0,41,4.81%
191,0,41,4.81%
192,0,41,4.81%
193,0,41,4.81%
194,0,41,4.81%
195,0,41,4.81%
196,0,41,4.81%
197,0,41,4.81%
198,0,41,4.81%
199,0,41,4.81%
200,1,42,4.93%
201,1,43,5.05%
202,1,44,5.16%
203,0,44,5.16%
204,0,44,5.16%
205,0,44,5.16%
206,0,44,5.16%
207,0,44,5.16%
208,0,44,5.16%
209,0,44,5.16%
210,0,44,5.16%
211,0,44,5.16%
212,1,45,5.28%
213,0,45,5.28%
214,0,45,5.28%
215,1,46,5.4%
216,0,46,5.4%
217,1,47,5.52%
218,0,47,5.52%
219,0,47,5.52%
220,0,47,5.52%
221,0,47,5.52%
222,0,47,5.52%
223,2,49,5.75%
224,0,49,5.75%
225,0,49,5.75%
226,0,49,5.75%
227,0,49,5.75%
228,0,49,5.75%
229,0,49,5.75%
230,0,49,5.75%
231,1,50,5.87%
232,0,50,5.87%
233,0,50,5.87%
234,0,50,5.87%
235,0,50,5.87%
236,1,51,5.99%
237,0,51,5.99%
238,1,52,6.1%
239,0,52,6.1%
240,0,52,6.1%
241,0,52,6.1%
242,0,52,6.1%
243,1,53,6.22%
244,1,54,6.34%
245,1,55,6.46%
246,0,55,6.46%
247,0,55,6.46%
248,0,55,6.46%
249,0,55,6.46%
250,0,55,6.46%
251,0,55,6.46%
252,1,56,6.57%
253,0,56,6.57%
254,0,56,6.57%
255,2,58,6.81%
256,0,58,6.81%
257,0,58,6.81%
258,0,58,6.81%
259,1,59,6.92%
260,0,59,6.92%
261,0,59,6.92%
262,0,59,6.92%
263,2,61,7.16%
264,0,61,7.16%
265,1,62,7.28%
266,0,62,7.28%
267,0,62,7.28%
268,0,62,7.28%
269,0,62,7.28%
270,3,65,7.63%
271,0,65,7.63%
272,0,65,7.63%
273,0,65,7.63%
274,1,66,7.75%
275,1,67,7.86%
276,0,67,7.86%
277,0,67,7.86%
278,0,67,7.86%
279,0,67,7.86%
280,0,67,7.86%
281,0,67,7.86%
282,0,67,7.86%
283,0,67,7.86%
284,0,67,7.86%
285,0,67,7.86%
286,0,67,7.86%
287,0,67,7.86%
288,0,67,7.86%
289,0,67,7.86%
290,0,67,7.86%
291,0,67,7.86%
292,0,67,7.86%
293,0,67,7.86%
294,0,67,7.86%
295,0,67,7.86%
296,0,67,7.86%
297,0,67,7.86%
298,0,67,7.86%
299,0,67,7.86%
300,0,67,7.86%
301,0,67,7.86%
302,1,68,7.98%
303,1,69,8.1%
304,0,69,8.1%
305,0,69,8.1%
306,0,69,8.1%
307,0,69,8.1%
308,0,69,8.1%
309,0,69,8.1%
310,0,69,8.1%
311,2,71,8.33%
312,0,71,8.33%
313,0,71,8.33%
314,0,71,8.33%
315,0,71,8.33%
316,0,71,8.33%
317,0,71,8.33%
318,0,71,8.33%
319,1,72,8.45%
320,0,72,8.45%
321,0,72,8.45%
322,0,72,8.45%
323,0,72,8.45%
324,0,72,8.45%
325,2,74,8.69%
326,0,74,8.69%
327,0,74,8.69%
328,1,75,8.8%
329,0,75,8.8%
330,0,75,8.8%
331,0,75,8.8%
332,0,75,8.8%
333,0,75,8.8%
334,0,75,8.8%
335,0,75,8.8%
336,0,75,8.8%
337,0,75,8.8%
338,1,76,8.92%
339,0,76,8.92%
340,0,76,8.92%
341,0,76,8.92%
342,1,77,9.04%
343,2,79,9.27%
344,0,79,9.27%
345,0,79,9.27%
346,0,79,9.27%
347,0,79,9.27%
348,0,79,9.27%
349,0,79,9.27%
350,1,80,9.39%
351,16,96,11.27%
352,10,106,12.44%
353,1,107,12.56%
354,0,107,12.56%
355,0,107,12.56%
356,0,107,12.56%
357,0,107,12.56%
358,5,112,13.15%
359,0,112,13.15%
360,2,114,13.38%
361,1,115,13.5%
362,0,115,13.5%
363,1,116,13.62%
364,0,116,13.62%
365,0,116,13.62%
366,2,118,13.85%
367,0,118,13.85%
368,0,118,13.85%
369,1,119,13.97%
370,0,119,13.97%
371,0,119,13.97%
372,2,121,14.2%
373,0,121,14.2%
374,0,121,14.2%
375,0,121,14.2%
376,0,121,14.2%
377,0,121,14.2%
378,0,121,14.2%
379,0,121,14.2%
380,0,121,14.2%
381,0,121,14.2%
382,2,123,14.44%
383,0,123,14.44%
384,1,124,14.55%
385,0,124,14.55%
386,1,125,14.67%
387,0,125,14.67%
388,1,126,14.79%
389,0,126,14.79%
390,0,126,14.79%
391,0,126,14.79%
392,0,126,14.79%
393,1,127,14.91%
394,0,127,14.91%
395,0,127,14.91%
396,0,127,14.91%
397,2,129,15.14%
398,0,129,15.14%
399,0,129,15.14%
400,0,129,15.14%
401,0,129,15.14%
402,0,129,15.14%
403,0,129,15.14%
404,0,129,15.14%
405,0,129,15.14%
406,2,131,15.38%
407,0,131,15.38%
408,0,131,15.38%
409,1,132,15.49%
410,1,133,15.61%
411,0,133,15.61%
412,1,134,15.73%
413,0,134,15.73%
414,0,134,15.73%
415,0,134,15.73%
416,1,135,15.85%
417,0,135,15.85%
418,0,135,15.85%
419,0,135,15.85%
420,0,135,15.85%
421,0,135,15.85%
422,1,136,15.96%
423,1,137,16.08%
424,0,137,16.08%
425,0,137,16.08%
426,0,137,16.08%
427,0,137,16.08%
428,0,137,16.08%
429,0,137,16.08%
430,0,137,16.08%
431,0,137,16.08%
432,0,137,16.08%
433,0,137,16.08%
434,1,138,16.2%
435,1,139,16.31%
436,0,139,16.31%
437,0,139,16.31%
438,0,139,16.31%
439,0,139,16.31%
440,0,139,16.31%
441,1,140,16.43%
442,1,141,16.55%
443,1,142,16.67%
444,0,142,16.67%
445,0,142,16.67%
446,1,143,16.78%
447,1,144,16.9%
448,0,144,16.9%
449,0,144,16.9%
450,0,144,16.9%
451,0,144,16.9%
452,0,144,16.9%
453,0,144,16.9%
454,1,145,17.02%
455,0,145,17.02%
456,0,145,17.02%
457,0,145,17.02%
458,0,145,17.02%
459,0,145,17.02%
460,0,145,17.02%
461,1,146,17.14%
462,0,146,17.14%
463,0,146,17.14%
464,0,146,17.14%
465,0,146,17.14%
466,0,146,17.14%
467,0,146,17.14%
468,0,146,17.14%
469,0,146,17.14%
470,0,146,17.14%
471,0,146,17.14%
472,0,146,17.14%
473,0,146,17.14%
474,0,146,17.14%
475,1,147,17.25%
476,2,149,17.49%
477,0,149,17.49%
478,0,149,17.49%
479,0,149,17.49%
480,0,149,17.49%
481,0,149,17.49%
482,1,150,17.61%
483,0,150,17.61%
484,0,150,17.61%
485,0,150,17.61%
486,0,150,17.61%
487,1,151,17.72%
488,0,151,17.72%
489,0,151,17.72%
490,1,152,17.84%
491,1,153,17.96%
492,0,153,17.96%
493,0,153,17.96%
494,0,153,17.96%
495,1,154,18.08%
496,2,156,18.31%
497,0,156,18.31%
498,0,156,18.31%
499,0,156,18.31%
500,0,156,18.31%
501,0,156,18.31%
502,0,156,18.31%
503,1,157,18.43%
504,0,157,18.43%
505,0,157,18.43%
506,0,157,18.43%
507,0,157,18.43%
508,0,157,18.43%
509,0,157,18.43%
510,0,157,18.43%
511,0,157,18.43%
512,0,157,18.43%
513,0,157,18.43%
514,1,158,18.54%
515,0,158,18.54%
516,0,158,18.54%
517,0,158,18.54%
518,0,158,18.54%
519,1,159,18.66%
520,0,159,18.66%
521,0,159,18.66%
522,0,159,18.66%
523,0,159,18.66%
524,0,159,18.66%
525,0,159,18.66%
526,0,159,18.66%
527,1,160,18.78%
528,1,161,18.9%
529,1,162,19.01%
530,0,162,19.01%
531,0,162,19.01%
532,0,162,19.01%
533,0,162,19.01%
534,0,162,19.01%
535,0,162,19.01%
536,0,162,19.01%
537,0,162,19.01%
538,0,162,19.01%
539,0,162,19.01%
540,0,162,19.01%
541,0,162,19.01%
542,0,162,19.01%
543,0,162,19.01%
544,0,162,19.01%
545,0,162,19.01%
546,2,164,19.25%
547,1,165,19.37%
548,0,165,19.37%
549,0,165,19.37%
550,2,167,19.6%
551,0,167,19.6%
552,0,167,19.6%
553,0,167,19.6%
554,1,168,19.72%
555,0,168,19.72%
556,0,168,19.72%
557,0,168,19.72%
558,0,168,19.72%
559,0,168,19.72%
560,0,168,19.72%
561,0,168,19.72%
562,1,169,19.84%
563,0,169,19.84%
564,1,170,19.95%
565,0,170,19.95%
566,1,171,20.07%
567,1,172,20.19%
568,0,172,20.19%
569,0,172,20.19%
570,0,172,20.19%
571,0,172,20.19%
572,0,172,20.19%
573,3,175,20.54%
574,0,175,20.54%
575,0,175,20.54%
576,8,183,21.48%
577,0,183,21.48%
578,0,183,21.48%
579,1,184,21.6%
580,0,184,21.6%
581,0,184,21.6%
582,0,184,21.6%
583,0,184,21.6%
584,0,184,21.6%
585,1,185,21.71%
586,0,185,21.71%
587,0,185,21.71%
588,0,185,21.71%
589,0,185,21.71%
590,0,185,21.71%
591,0,185,21.71%
592,0,185,21.71%
593,0,185,21.71%
594,0,185,21.71%
595,0,185,21.71%
596,0,185,21.71%
597,0,185,21.71%
598,0,185,21.71%
599,1,186,21.83%
600,0,186,21.83%
601,0,186,21.83%
602,0,186,21.83%
603,1,187,21.95%
604,1,188,22.07%
605,1,189,22.18%
606,0,189,22.18%
607,0,189,22.18%
608,0,189,22.18%
609,0,189,22.18%
610,0,189,22.18%
611,0,189,22.18%
612,0,189,22.18%
613,0,189,22.18%
614,0,189,22.18%
615,0,189,22.18%
616,0,189,22.18%
617,0,189,22.18%
618,0,189,22.18%
619,1,190,22.3%
620,0,190,22.3%
621,0,190,22.3%
622,1,191,22.42%
623,0,191,22.42%
624,0,191,22.42%
625,0,191,22.42%
626,1,192,22.54%
627,0,192,22.54%
628,0,192,22.54%
629,0,192,22.54%
630,0,192,22.54%
631,0,192,22.54%
632,1,193,22.65%
633,0,193,22.65%
634,0,193,22.65%
635,1,194,22.77%
636,0,194,22.77%
637,0,194,22.77%
638,0,194,22.77%
639,0,194,22.77%
640,0,194,22.77%
641,0,194,22.77%
642,0,194,22.77%
643,0,194,22.77%
644,0,194,22.77%
645,0,194,22.77%
646,0,194,22.77%
647,1,195,22.89%
648,0,195,22.89%
649,1,196,23.0%
650,0,196,23.0%
651,0,196,23.0%
652,0,196,23.0%
653,1,197,23.12%
654,0,197,23.12%
655,0,197,23.12%
656,0,197,23.12%
657,0,197,23.12%
658,0,197,23.12%
659,0,197,23.12%
660,0,197,23.12%
661,0,197,23.12%
662,0,197,23.12%
663,0,197,23.12%
664,0,197,23.12%
665,0,197,23.12%
666,0,197,23.12%
667,0,197,23.12%
668,0,197,23.12%
669,1,198,23.24%
670,1,199,23.36%
671,0,199,23.36%
672,0,199,23.36%
673,0,199,23.36%
674,0,199,23.36%
675,0,199,23.36%
676,0,199,23.36%
677,0,199,23.36%
678,0,199,23.36%
679,1,200,23.47%
680,0,200,23.47%
681,0,200,23.47%
682,0,200,23.47%
683,2,202,23.71%
684,0,202,23.71%
685,0,202,23.71%
686,0,202,23.71%
687,0,202,23.71%
688,0,202,23.71%
689,0,202,23.71%
690,0,202,23.71%
691,0,202,23.71%
692,0,202,23.71%
693,5,207,24.3%
694,0,207,24.3%
695,0,207,24.3%
696,0,207,24.3%
697,0,207,24.3%
698,0,207,24.3%
699,0,207,24.3%
700,0,207,24.3%
701,0,207,24.3%
702,0,207,24.3%
703,0,207,24.3%
704,3,210,24.65%
705,1,211,24.77%
706,0,211,24.77%
707,0,211,24.77%
708,1,212,24.88%
709,0,212,24.88%
710,0,212,24.88%
711,0,212,24.88%
712,0,212,24.88%
713,0,212,24.88%
714,0,212,24.88%
715,0,212,24.88%
716,0,212,24.88%
717,1,213,25.0%
718,0,213,25.0%
719,1,214,25.12%
720,0,214,25.12%
721,0,214,25.12%
722,0,214,25.12%
723,0,214,25.12%
724,0,214,25.12%
725,1,215,25.23%
726,0,215,25.23%
727,0,215,25.23%
728,0,215,25.23%
729,0,215,25.23%
730,0,215,25.23%
731,0,215,25.23%
732,0,215,25.23%
733,0,215,25.23%
734,0,215,25.23%
735,1,216,25.35%
736,0,216,25.35%
737,1,217,25.47%
738,0,217,25.47%
739,1,218,25.59%
740,0,218,25.59%
741,0,218,25.59%
742,0,218,25.59%
743,0,218,25.59%
744,1,219,25.7%
745,0,219,25.7%
746,0,219,25.7%
747,0,219,25.7%
748,0,219,25.7%
749,0,219,25.7%
750,0,219,25.7%
751,0,219,25.7%
752,0,219,25.7%
753,1,220,25.82%
754,1,221,25.94%
755,0,221,25.94%
756,0,221,25.94%
757,0,221,25.94%
758,0,221,25.94%
759,0,221,25.94%
760,0,221,25.94%
761,0,221,25.94%
762,0,221,25.94%
763,0,221,25.94%
764,0,221,25.94%
765,0,221,25.94%
766,0,221,25.94%
767,0,221,25.94%
768,0,221,25.94%
769,1,222,26.06%
770,0,222,26.06%
771,0,222,26.06%
772,0,222,26.06%
773,0,222,26.06%
774,1,223,26.17%
775,0,223,26.17%
776,0,223,26.17%
777,0,223,26.17%
778,1,224,26.29%
779,1,225,26.41%
780,0,225,26.41%
781,0,225,26.41%
782,1,226,26.53%
783,0,226,26.53%
784,0,226,26.53%
785,1,227,26.64%
786,0,227,26.64%
787,0,227,26.64%
788,0,227,26.64%
789,0,227,26.64%
790,0,227,26.64%
791,0,227,26.64%
792,1,228,26.76%
793,1,229,26.88%
794,0,229,26.88%
795,2,231,27.11%
796,0,231,27.11%
797,0,231,27.11%
798,0,231,27.11%
799,0,231,27.11%
800,0,231,27.11%
801,0,231,27.11%
802,0,231,27.11%
803,0,231,27.11%
804,10,241,28.29%
805,0,241,28.29%
806,1,242,28.4%
807,0,242,28.4%
808,0,242,28.4%
809,0,242,28.4%
810,0,242,28.4%
811,0,242,28.4%
812,0,242,28.4%
813,0,242,28.4%
814,0,242,28.4%
815,0,242,28.4%
816,2,244,28.64%
817,0,244,28.64%
818,0,244,28.64%
819,0,244,28.64%
820,0,244,28.64%
821,1,245,28.76%
822,0,245,28.76%
823,0,245,28.76%
824,0,245,28.76%
825,0,245,28.76%
826,0,245,28.76%
827,0,245,28.76%
828,0,245,28.76%
829,0,245,28.76%
830,0,245,28.76%
831,0,245,28.76%
832,0,245,28.76%
833,0,245,28.76%
834,0,245,28.76%
835,0,245,28.76%
836,1,246,28.87%
837,1,247,28.99%
838,0,247,28.99%
839,0,247,28.99%
840,1,248,29.11%
841,0,248,29.11%
842,0,248,29.11%
843,0,248,29.11%
844,0,248,29.11%
845,0,248,29.11%
846,0,248,29.11%
847,0,248,29.11%
848,0,248,29.11%
849,0,248,29.11%
850,0,248,29.11%
851,0,248,29.11%
852,0,248,29.11%
853,0,248,29.11%
854,0,248,29.11%
855,0,248,29.11%
856,1,249,29.23%
857,0,249,29.23%
858,0,249,29.23%
859,0,249,29.23%
860,0,249,29.23%
861,0,249,29.23%
862,0,249,29.23%
863,0,249,29.23%
864,0,249,29.23%
865,0,249,29.23%
866,0,249,29.23%
867,0,249,29.23%
868,0,249,29.23%
869,0,249,29.23%
870,0,249,29.23%
871,1,250,29.34%
872,0,250,29.34%
873,0,250,29.34%
874,0,250,29.34%
875,1,251,29.46%
876,1,252,29.58%
877,0,252,29.58%
878,1,253,29.69%
879,0,253,29.69%
880,0,253,29.69%
881,1,254,29.81%
882,0,254,29.81%
883,1,255,29.93%
884,2,257,30.16%
885,0,257,30.16%
886,0,257,30.16%
887,0,257,30.16%
888,0,257,30.16%
889,1,258,30.28%
890,0,258,30.28%
891,0,258,30.28%
892,0,258,30.28%
893,0,258,30.28%
894,0,258,30.28%
895,0,258,30.28%
896,0,258,30.28%
897,0,258,30.28%
898,0,258,30.28%
899,0,258,30.28%
900,0,258,30.28%
901,1,259,30.4%
902,0,259,30.4%
903,0,259,30.4%
904,1,260,30.52%
905,0,260,30.52%
906,1,261,30.63%
907,1,262,30.75%
908,0,262,30.75%
909,0,262,30.75%
910,0,262,30.75%
911,0,262,30.75%
912,0,262,30.75%
913,0,262,30.75%
914,1,263,30.87%
915,0,263,30.87%
916,0,263,30.87%
917,0,263,30.87%
918,0,263,30.87%
919,0,263,30.87%
920,0,263,30.87%
921,0,263,30.87%
922,0,263,30.87%
923,1,264,30.99%
924,0,264,30.99%
925,0,264,30.99%
926,0,264,30.99%
927,1,265,31.1%
928,2,267,31.34%
929,0,267,31.34%
930,0,267,31.34%
931,1,268,31.46%
932,0,268,31.46%
933,1,269,31.57%
934,0,269,31.57%
935,1,270,31.69%
936,0,270,31.69%
937,0,270,31.69%
938,0,270,31.69%
939,0,270,31.69%
940,0,270,31.69%
941,0,270,31.69%
942,2,272,31.92%
943,0,272,31.92%
944,0,272,31.92%
945,0,272,31.92%
946,1,273,32.04%
947,0,273,32.04%
948,1,274,32.16%
949,0,274,32.16%
950,0,274,32.16%
951,0,274,32.16%
952,0,274,32.16%
953,0,274,32.16%
954,0,274,32.16%
955,0,274,32.16%
956,0,274,32.16%
957,0,274,32.16%
958,0,274,32.16%
959,0,274,32.16%
960,0,274,32.16%
961,0,274,32.16%
962,0,274,32.16%
963,0,274,32.16%
964,1,275,32.28%
965,0,275,32.28%
966,0,275,32.28%
967,0,275,32.28%
968,0,275,32.28%
969,0,275,32.28%
970,0,275,32.28%
971,1,276,32.39%
972,0,276,32.39%
973,0,276,32.39%
974,0,276,32.39%
975,0,276,32.39%
976,0,276,32.39%
977,0,276,32.39%
978,0,276,32.39%
979,2,278,32.63%
980,2,280,32.86%
981,0,280,32.86%
982,0,280,32.86%
983,0,280,32.86%
984,0,280,32.86%
985,1,281,32.98%
986,0,281,32.98%
987,1,282,33.1%
988,0,282,33.1%
989,0,282,33.1%
990,0,282,33.1%
991,1,283,33.22%
992,0,283,33.22%
993,0,283,33.22%
994,1,284,33.33%
995,0,284,33.33%
996,0,284,33.33%
997,0,284,33.33%
998,1,285,33.45%
999,1,286,33.57%
1000,0,286,33.57%
1001,0,286,33.57%
1002,0,286,33.57%
1003,0,286,33.57%
1004,0,286,33.57%
1005,0,286,33.57%
1006,0,286,33.57%
1007,0,286,33.57%
1008,0,286,33.57%
1009,0,286,33.57%
1010,0,286,33.57%
1011,0,286,33.57%
1012,0,286,33.57%
1013,0,286,33.57%
1014,1,287,33.69%
1015,0,287,33.69%
1016,1,288,33.8%
1017,0,288,33.8%
1018,0,288,33.8%
1019,0,288,33.8%
1020,0,288,33.8%
1021,0,288,33.8%
1022,0,288,33.8%
1023,0,288,33.8%
1024,0,288,33.8%
1025,1,289,33.92%
1026,0,289,33.92%
1027,0,289,33.92%
1028,0,289,33.92%
1029,1,290,34.04%
1030,0,290,34.04%
1031,0,290,34.04%
1032,0,290,34.04%
1033,2,292,34.27%
1034,0,292,34.27%
1035,0,292,34.27%
1036,0,292,34.27%
1037,1,293,34.39%
1038,0,293,34.39%
1039,0,293,34.39%
1040,0,293,34.39%
1041,0,293,34.39%
1042,0,293,34.39%
1043,0,293,34.39%
1044,0,293,34.39%
1045,0,293,34.39%
1046,0,293,34.39%
1047,0,293,34.39%
1048,0,293,34.39%
1049,0,293,34.39%
1050,0,293,34.39%
1051,0,293,34.39%
1052,0,293,34.39%
1053,0,293,34.39%
1054,0,293,34.39%
1055,0,293,34.39%
1056,0,293,34.39%
1057,0,293,34.39%
1058,0,293,34.39%
1059,0,293,34.39%
1060,1,294,34.51%
1061,0,294,34.51%
1062,1,295,34.62%
1063,0,295,34.62%
1064,0,295,34.62%
1065,0,295,34.62%
1066,1,296,34.74%
1067,0,296,34.74%
1068,1,297,34.86%
1069,0,297,34.86%
1070,0,297,34.86%
1071,0,297,34.86%
1072,1,298,34.98%
1073,0,298,34.98%
1074,0,298,34.98%
1075,0,298,34.98%
1076,4,302,35.45%
1077,0,302,35.45%
1078,0,302,35.45%
1079,0,302,35.45%
1080,0,302,35.45%
1081,0,302,35.45%
1082,0,302,35.45%
1083,0,302,35.45%
1084,0,302,35.45%
1085,0,302,35.45%
1086,0,302,35.45%
1087,0,302,35.45%
1088,0,302,35.45%
1089,0,302,35.45%
1090,0,302,35.45%
1091,0,302,35.45%
1092,0,302,35.45%
1093,0,302,35.45%
1094,1,303,35.56%
1095,0,303,35.56%
1096,1,304,35.68%
1097,0,304,35.68%
1098,0,304,35.68%
1099,1,305,35.8%
1100,2,307,36.03%
1101,1,308,36.15%
1102,1,309,36.27%
1103,2,311,36.5%
1104,0,311,36.5%
1105,2,313,36.74%
1106,1,314,36.85%
1107,0,314,36.85%
1108,0,314,36.85%
1109,2,316,37.09%
1110,2,318,37.32%
1111,0,318,37.32%
1112,0,318,37.32%
1113,1,319,37.44%
1114,1,320,37.56%
1115,3,323,37.91%
1116,6,329,38.62%
1117,0,329,38.62%
1118,2,331,38.85%
1119,2,333,39.08%
1120,1,334,39.2%
1121,1,335,39.32%
1122,1,336,39.44%
1123,0,336,39.44%
1124,1,337,39.55%
1125,4,341,40.02%
1126,2,343,40.26%
1127,0,343,40.26%
1128,1,344,40.38%
1129,1,345,40.49%
1130,0,345,40.49%
1131,2,347,40.73%
1132,0,347,40.73%
1133,2,349,40.96%
1134,2,351,41.2%
1135,0,351,41.2%
1136,0,351,41.2%
1137,1,352,41.31%
1138,0,352,41.31%
1139,1,353,41.43%
1140,0,353,41.43%
1141,4,357,41.9%
1142,1,358,42.02%
1143,4,362,42.49%
1144,3,365,42.84%
1145,3,368,43.19%
1146,1,369,43.31%
1147,1,370,43.43%
1148,3,373,43.78%
1149,6,379,44.48%
1150,0,379,44.48%
1151,1,380,44.6%
1152,0,380,44.6%
1153,0,380,44.6%
1154,1,381,44.72%
1155,1,382,44.84%
1156,0,382,44.84%
1157,2,384,45.07%
1158,6,390,45.77%
1159,2,392,46.01%
1160,3,395,46.36%
1161,0,395,46.36%
1162,3,398,46.71%
1163,2,400,46.95%
1164,0,400,46.95%
1165,0,400,46.95%
1166,0,400,46.95%
1167,0,400,46.95%
1168,4,404,47.42%
1169,3,407,47.77%
1170,1,408,47.89%
1171,0,408,47.89%
1172,0,408,47.89%
1173,7,415,48.71%
1174,3,418,49.06%
1175,0,418,49.06%
1176,2,420,49.3%
1177,0,420,49.3%
1178,1,421,49.41%
1179,1,422,49.53%
1180,1,423,49.65%
1181,0,423,49.65%
1182,1,424,49.77%
1183,6,430,50.47%
1184,10,440,51.64%
1185,1,441,51.76%
1186,2,443,52.0%
1187,6,449,52.7%
1188,0,449,52.7%
1189,0,449,52.7%
1190,0,449,52.7%
1191,4,453,53.17%
1192,2,455,53.4%
1193,2,457,53.64%
1194,2,459,53.87%
1195,0,459,53.87%
1196,2,461,54.11%
1197,3,464,54.46%
1198,2,466,54.69%
1199,2,468,54.93%
1200,0,468,54.93%
1201,1,469,55.05%
1202,0,469,55.05%
1203,4,473,55.52%
1204,2,475,55.75%
1205,0,475,55.75%
1206,0,475,55.75%
1207,2,477,55.99%
1208,0,477,55.99%
1209,0,477,55.99%
1210,0,477,55.99%
1211,1,478,56.1%
1212,1,479,56.22%
1213,0,479,56.22%
1214,0,479,56.22%
1215,0,479,56.22%
1216,0,479,56.22%
1217,2,481,56.46%
1218,0,481,56.46%
1219,0,481,56.46%
1220,0,481,56.46%
1221,1,482,56.57%
1222,4,486,57.04%
1223,0,486,57.04%
1224,0,486,57.04%
1225,1,487,57.16%
1226,1,488,57.28%
1227,0,488,57.28%
1228,0,488,57.28%
1229,0,488,57.28%
1230,2,490,57.51%
1231,3,493,57.86%
1232,3,496,58.22%
1233,1,497,58.33%
1234,0,497,58.33%
1235,1,498,58.45%
1236,2,500,58.69%
1237,2,502,58.92%
1238,1,503,59.04%
1239,0,503,59.04%
1240,4,507,59.51%
1241,9,516,60.56%
1242,4,520,61.03%
1243,1,521,61.15%
1244,0,521,61.15%
1245,0,521,61.15%
1246,3,524,61.5%
1247,1,525,61.62%
1248,0,525,61.62%
1249,1,526,61.74%
1250,326,852,100.0%
