Length, Count, Sum (Counts <= Length), Percent of Nonzero Data, Nonzero Data Count = 899, Zero Data Count = 945
1,2,2,0.22%
2,0,2,0.22%
3,1,3,0.33%
4,1,4,0.44%
5,0,4,0.44%
6,0,4,0.44%
7,0,4,0.44%
8,0,4,0.44%
9,0,4,0.44%
10,0,4,0.44%
11,0,4,0.44%
12,0,4,0.44%
13,0,4,0.44%
14,0,4,0.44%
15,0,4,0.44%
16,0,4,0.44%
17,0,4,0.44%
18,1,5,0.56%
19,0,5,0.56%
20,0,5,0.56%
21,0,5,0.56%
22,0,5,0.56%
23,0,5,0.56%
24,0,5,0.56%
25,0,5,0.56%
26,0,5,0.56%
27,0,5,0.56%
28,1,6,0.67%
29,0,6,0.67%
30,0,6,0.67%
31,1,7,0.78%
32,0,7,0.78%
33,1,8,0.89%
34,0,8,0.89%
35,0,8,0.89%
36,0,8,0.89%
37,0,8,0.89%
38,0,8,0.89%
39,1,9,1.0%
40,0,9,1.0%
41,1,10,1.11%
42,0,10,1.11%
43,0,10,1.11%
44,0,10,1.11%
45,0,10,1.11%
46,0,10,1.11%
47,0,10,1.11%
48,0,10,1.11%
49,0,10,1.11%
50,0,10,1.11%
51,0,10,1.11%
52,2,12,1.33%
53,0,12,1.33%
54,1,13,1.45%
55,0,13,1.45%
56,0,13,1.45%
57,0,13,1.45%
58,0,13,1.45%
59,0,13,1.45%
60,1,14,1.56%
61,0,14,1.56%
62,0,14,1.56%
63,1,15,1.67%
64,0,15,1.67%
65,0,15,1.67%
66,0,15,1.67%
67,0,15,1.67%
68,0,15,1.67%
69,0,15,1.67%
70,0,15,1.67%
71,0,15,1.67%
72,0,15,1.67%
73,0,15,1.67%
74,0,15,1.67%
75,1,16,1.78%
76,1,17,1.89%
77,0,17,1.89%
78,0,17,1.89%
79,0,17,1.89%
80,0,17,1.89%
81,0,17,1.89%
82,0,17,1.89%
83,0,17,1.89%
84,1,18,2.0%
85,0,18,2.0%
86,0,18,2.0%
87,0,18,2.0%
88,0,18,2.0%
89,0,18,2.0%
90,1,19,2.11%
91,0,19,2.11%
92,0,19,2.11%
93,0,19,2.11%
94,0,19,2.11%
95,0,19,2.11%
96,0,19,2.11%
97,0,19,2.11%
98,0,19,2.11%
99,0,19,2.11%
100,1,20,2.22%
101,0,20,2.22%
102,0,20,2.22%
103,0,20,2.22%
104,0,20,2.22%
105,1,21,2.34%
106,1,22,2.45%
107,0,22,2.45%
108,0,22,2.45%
109,0,22,2.45%
110,1,23,2.56%
111,0,23,2.56%
112,0,23,2.56%
113,0,23,2.56%
114,0,23,2.56%
115,0,23,2.56%
116,0,23,2.56%
117,0,23,2.56%
118,0,23,2.56%
119,0,23,2.56%
120,0,23,2.56%
121,0,23,2.56%
122,0,23,2.56%
123,0,23,2.56%
124,0,23,2.56%
125,0,23,2.56%
126,0,23,2.56%
127,0,23,2.56%
128,0,23,2.56%
129,0,23,2.56%
130,0,23,2.56%
131,0,23,2.56%
132,0,23,2.56%
133,0,23,2.56%
134,1,24,2.67%
135,0,24,2.67%
136,0,24,2.67%
137,0,24,2.67%
138,0,24,2.67%
139,0,24,2.67%
140,1,25,2.78%
141,1,26,2.89%
142,0,26,2.89%
143,0,26,2.89%
144,0,26,2.89%
145,2,28,3.11%
146,0,28,3.11%
147,0,28,3.11%
148,0,28,3.11%
149,1,29,3.23%
150,0,29,3.23%
151,0,29,3.23%
152,0,29,3.23%
153,1,30,3.34%
154,0,30,3.34%
155,1,31,3.45%
156,0,31,3.45%
157,0,31,3.45%
158,1,32,3.56%
159,0,32,3.56%
160,0,32,3.56%
161,0,32,3.56%
162,0,32,3.56%
163,0,32,3.56%
164,0,32,3.56%
165,0,32,3.56%
166,0,32,3.56%
167,0,32,3.56%
168,0,32,3.56%
169,0,32,3.56%
170,1,33,3.67%
171,1,34,3.78%
172,0,34,3.78%
173,0,34,3.78%
174,0,34,3.78%
175,0,34,3.78%
176,0,34,3.78%
177,0,34,3.78%
178,0,34,3.78%
179,0,34,3.78%
180,0,34,3.78%
181,1,35,3.89%
182,0,35,3.89%
183,0,35,3.89%
184,0,35,3.89%
185,0,35,3.89%
186,0,35,3.89%
187,0,35,3.89%
188,0,35,3.89%
189,2,37,4.12%
190,1,38,4.23%
191,2,40,4.45%
192,0,40,4.45%
193,0,40,4.45%
194,0,40,4.45%
195,0,40,4.45%
196,0,40,4.45%
197,0,40,4.45%
198,0,40,4.45%
199,0,40,4.45%
200,2,42,4.67%
201,1,43,4.78%
202,1,44,4.89%
203,0,44,4.89%
204,0,44,4.89%
205,0,44,4.89%
206,0,44,4.89%
207,0,44,4.89%
208,1,45,5.01%
209,0,45,5.01%
210,0,45,5.01%
211,0,45,5.01%
212,0,45,5.01%
213,1,46,5.12%
214,0,46,5.12%
215,1,47,5.23%
216,0,47,5.23%
217,0,47,5.23%
218,2,49,5.45%
219,0,49,5.45%
220,0,49,5.45%
221,0,49,5.45%
222,1,50,5.56%
223,0,50,5.56%
224,0,50,5.56%
225,1,51,5.67%
226,0,51,5.67%
227,0,51,5.67%
228,0,51,5.67%
229,0,51,5.67%
230,0,51,5.67%
231,0,51,5.67%
232,0,51,5.67%
233,0,51,5.67%
234,0,51,5.67%
235,0,51,5.67%
236,1,52,5.78%
237,0,52,5.78%
238,0,52,5.78%
239,1,53,5.9%
240,0,53,5.9%
241,1,54,6.01%
242,1,55,6.12%
243,1,56,6.23%
244,1,57,6.34%
245,0,57,6.34%
246,0,57,6.34%
247,0,57,6.34%
248,1,58,6.45%
249,0,58,6.45%
250,0,58,6.45%
251,0,58,6.45%
252,0,58,6.45%
253,0,58,6.45%
254,0,58,6.45%
255,0,58,6.45%
256,1,59,6.56%
257,0,59,6.56%
258,0,59,6.56%
259,1,60,6.67%
260,1,61,6.79%
261,0,61,6.79%
262,0,61,6.79%
263,1,62,6.9%
264,0,62,6.9%
265,0,62,6.9%
266,0,62,6.9%
267,0,62,6.9%
268,0,62,6.9%
269,0,62,6.9%
270,2,64,7.12%
271,0,64,7.12%
272,0,64,7.12%
273,1,65,7.23%
274,0,65,7.23%
275,0,65,7.23%
276,0,65,7.23%
277,0,65,7.23%
278,1,66,7.34%
279,1,67,7.45%
280,0,67,7.45%
281,0,67,7.45%
282,0,67,7.45%
283,0,67,7.45%
284,0,67,7.45%
285,0,67,7.45%
286,0,67,7.45%
287,0,67,7.45%
288,0,67,7.45%
289,0,67,7.45%
290,0,67,7.45%
291,0,67,7.45%
292,0,67,7.45%
293,0,67,7.45%
294,1,68,7.56%
295,0,68,7.56%
296,0,68,7.56%
297,0,68,7.56%
298,0,68,7.56%
299,0,68,7.56%
300,0,68,7.56%
301,0,68,7.56%
302,0,68,7.56%
303,2,70,7.79%
304,0,70,7.79%
305,2,72,8.01%
306,0,72,8.01%
307,0,72,8.01%
308,0,72,8.01%
309,0,72,8.01%
310,0,72,8.01%
311,2,74,8.23%
312,0,74,8.23%
313,0,74,8.23%
314,0,74,8.23%
315,0,74,8.23%
316,0,74,8.23%
317,0,74,8.23%
318,0,74,8.23%
319,1,75,8.34%
320,0,75,8.34%
321,1,76,8.45%
322,0,76,8.45%
323,0,76,8.45%
324,0,76,8.45%
325,2,78,8.68%
326,1,79,8.79%
327,0,79,8.79%
328,0,79,8.79%
329,0,79,8.79%
330,0,79,8.79%
331,0,79,8.79%
332,0,79,8.79%
333,0,79,8.79%
334,0,79,8.79%
335,0,79,8.79%
336,0,79,8.79%
337,0,79,8.79%
338,0,79,8.79%
339,0,79,8.79%
340,0,79,8.79%
341,0,79,8.79%
342,0,79,8.79%
343,1,80,8.9%
344,0,80,8.9%
345,0,80,8.9%
346,1,81,9.01%
347,0,81,9.01%
348,0,81,9.01%
349,1,82,9.12%
350,1,83,9.23%
351,15,98,10.9%
352,11,109,12.12%
353,0,109,12.12%
354,1,110,12.24%
355,0,110,12.24%
356,0,110,12.24%
357,0,110,12.24%
358,5,115,12.79%
359,0,115,12.79%
360,4,119,13.24%
361,0,119,13.24%
362,0,119,13.24%
363,1,120,13.35%
364,0,120,13.35%
365,0,120,13.35%
366,2,122,13.57%
367,0,122,13.57%
368,0,122,13.57%
369,0,122,13.57%
370,0,122,13.57%
371,0,122,13.57%
372,1,123,13.68%
373,0,123,13.68%
374,0,123,13.68%
375,0,123,13.68%
376,0,123,13.68%
377,0,123,13.68%
378,0,123,13.68%
379,0,123,13.68%
380,0,123,13.68%
381,0,123,13.68%
382,1,124,13.79%
383,0,124,13.79%
384,0,124,13.79%
385,0,124,13.79%
386,0,124,13.79%
387,0,124,13.79%
388,0,124,13.79%
389,0,124,13.79%
390,0,124,13.79%
391,0,124,13.79%
392,0,124,13.79%
393,1,125,13.9%
394,0,125,13.9%
395,0,125,13.9%
396,0,125,13.9%
397,1,126,14.02%
398,0,126,14.02%
399,0,126,14.02%
400,1,127,14.13%
401,1,128,14.24%
402,1,129,14.35%
403,0,129,14.35%
404,0,129,14.35%
405,0,129,14.35%
406,2,131,14.57%
407,0,131,14.57%
408,0,131,14.57%
409,1,132,14.68%
410,1,133,14.79%
411,0,133,14.79%
412,1,134,14.91%
413,0,134,14.91%
414,0,134,14.91%
415,0,134,14.91%
416,0,134,14.91%
417,0,134,14.91%
418,0,134,14.91%
419,1,135,15.02%
420,0,135,15.02%
421,1,136,15.13%
422,1,137,15.24%
423,1,138,15.35%
424,0,138,15.35%
425,0,138,15.35%
426,0,138,15.35%
427,0,138,15.35%
428,0,138,15.35%
429,0,138,15.35%
430,0,138,15.35%
431,0,138,15.35%
432,0,138,15.35%
433,0,138,15.35%
434,0,138,15.35%
435,1,139,15.46%
436,0,139,15.46%
437,0,139,15.46%
438,0,139,15.46%
439,0,139,15.46%
440,0,139,15.46%
441,1,140,15.57%
442,0,140,15.57%
443,0,140,15.57%
444,0,140,15.57%
445,0,140,15.57%
446,1,141,15.68%
447,0,141,15.68%
448,0,141,15.68%
449,0,141,15.68%
450,0,141,15.68%
451,0,141,15.68%
452,2,143,15.91%
453,1,144,16.02%
454,0,144,16.02%
455,1,145,16.13%
456,0,145,16.13%
457,0,145,16.13%
458,0,145,16.13%
459,0,145,16.13%
460,0,145,16.13%
461,0,145,16.13%
462,0,145,16.13%
463,0,145,16.13%
464,0,145,16.13%
465,1,146,16.24%
466,1,147,16.35%
467,1,148,16.46%
468,0,148,16.46%
469,0,148,16.46%
470,1,149,16.57%
471,0,149,16.57%
472,0,149,16.57%
473,0,149,16.57%
474,0,149,16.57%
475,0,149,16.57%
476,0,149,16.57%
477,0,149,16.57%
478,0,149,16.57%
479,1,150,16.69%
480,0,150,16.69%
481,0,150,16.69%
482,1,151,16.8%
483,1,152,16.91%
484,0,152,16.91%
485,0,152,16.91%
486,0,152,16.91%
487,1,153,17.02%
488,0,153,17.02%
489,0,153,17.02%
490,0,153,17.02%
491,1,154,17.13%
492,0,154,17.13%
493,1,155,17.24%
494,0,155,17.24%
495,1,156,17.35%
496,1,157,17.46%
497,0,157,17.46%
498,1,158,17.58%
499,0,158,17.58%
500,0,158,17.58%
501,1,159,17.69%
502,0,159,17.69%
503,1,160,17.8%
504,0,160,17.8%
505,0,160,17.8%
506,0,160,17.8%
507,0,160,17.8%
508,1,161,17.91%
509,0,161,17.91%
510,0,161,17.91%
511,0,161,17.91%
512,0,161,17.91%
513,1,162,18.02%
514,1,163,18.13%
515,0,163,18.13%
516,1,164,18.24%
517,0,164,18.24%
518,0,164,18.24%
519,0,164,18.24%
520,0,164,18.24%
521,0,164,18.24%
522,1,165,18.35%
523,1,166,18.46%
524,0,166,18.46%
525,0,166,18.46%
526,0,166,18.46%
527,1,167,18.58%
528,1,168,18.69%
529,1,169,18.8%
530,0,169,18.8%
531,0,169,18.8%
532,0,169,18.8%
533,0,169,18.8%
534,0,169,18.8%
535,0,169,18.8%
536,0,169,18.8%
537,0,169,18.8%
538,0,169,18.8%
539,0,169,18.8%
540,0,169,18.8%
541,0,169,18.8%
542,0,169,18.8%
543,0,169,18.8%
544,1,170,18.91%
545,0,170,18.91%
546,1,171,19.02%
547,0,171,19.02%
548,1,172,19.13%
549,0,172,19.13%
550,0,172,19.13%
551,0,172,19.13%
552,0,172,19.13%
553,0,172,19.13%
554,0,172,19.13%
555,0,172,19.13%
556,0,172,19.13%
557,0,172,19.13%
558,0,172,19.13%
559,1,173,19.24%
560,0,173,19.24%
561,0,173,19.24%
562,1,174,19.35%
563,0,174,19.35%
564,1,175,19.47%
565,0,175,19.47%
566,0,175,19.47%
567,0,175,19.47%
568,0,175,19.47%
569,0,175,19.47%
570,0,175,19.47%
571,1,176,19.58%
572,0,176,19.58%
573,3,179,19.91%
574,0,179,19.91%
575,0,179,19.91%
576,8,187,20.8%
577,0,187,20.8%
578,0,187,20.8%
579,1,188,20.91%
580,0,188,20.91%
581,0,188,20.91%
582,0,188,20.91%
583,1,189,21.02%
584,0,189,21.02%
585,0,189,21.02%
586,0,189,21.02%
587,0,189,21.02%
588,0,189,21.02%
589,0,189,21.02%
590,1,190,21.13%
591,0,190,21.13%
592,0,190,21.13%
593,0,190,21.13%
594,0,190,21.13%
595,0,190,21.13%
596,1,191,21.25%
597,0,191,21.25%
598,0,191,21.25%
599,1,192,21.36%
600,0,192,21.36%
601,0,192,21.36%
602,0,192,21.36%
603,0,192,21.36%
604,0,192,21.36%
605,0,192,21.36%
606,0,192,21.36%
607,1,193,21.47%
608,0,193,21.47%
609,0,193,21.47%
610,0,193,21.47%
611,0,193,21.47%
612,0,193,21.47%
613,1,194,21.58%
614,2,196,21.8%
615,0,196,21.8%
616,0,196,21.8%
617,0,196,21.8%
618,1,197,21.91%
619,0,197,21.91%
620,0,197,21.91%
621,0,197,21.91%
622,0,197,21.91%
623,0,197,21.91%
624,0,197,21.91%
625,0,197,21.91%
626,2,199,22.14%
627,0,199,22.14%
628,0,199,22.14%
629,0,199,22.14%
630,0,199,22.14%
631,0,199,22.14%
632,1,200,22.25%
633,0,200,22.25%
634,0,200,22.25%
635,0,200,22.25%
636,0,200,22.25%
637,0,200,22.25%
638,0,200,22.25%
639,0,200,22.25%
640,0,200,22.25%
641,0,200,22.25%
642,0,200,22.25%
643,0,200,22.25%
644,0,200,22.25%
645,0,200,22.25%
646,1,201,22.36%
647,1,202,22.47%
648,0,202,22.47%
649,2,204,22.69%
650,0,204,22.69%
651,0,204,22.69%
652,0,204,22.69%
653,1,205,22.8%
654,1,206,22.91%
655,0,206,22.91%
656,0,206,22.91%
657,0,206,22.91%
658,1,207,23.03%
659,0,207,23.03%
660,0,207,23.03%
661,1,208,23.14%
662,4,212,23.58%
663,0,212,23.58%
664,1,213,23.69%
665,0,213,23.69%
666,0,213,23.69%
667,0,213,23.69%
668,0,213,23.69%
669,0,213,23.69%
670,1,214,23.8%
671,1,215,23.92%
672,0,215,23.92%
673,0,215,23.92%
674,0,215,23.92%
675,0,215,23.92%
676,0,215,23.92%
677,0,215,23.92%
678,0,215,23.92%
679,1,216,24.03%
680,1,217,24.14%
681,0,217,24.14%
682,0,217,24.14%
683,1,218,24.25%
684,1,219,24.36%
685,0,219,24.36%
686,4,223,24.81%
687,1,224,24.92%
688,1,225,25.03%
689,2,227,25.25%
690,0,227,25.25%
691,2,229,25.47%
692,1,230,25.58%
693,5,235,26.14%
694,1,236,26.25%
695,0,236,26.25%
696,3,239,26.59%
697,1,240,26.7%
698,0,240,26.7%
699,1,241,26.81%
700,1,242,26.92%
701,3,245,27.25%
702,5,250,27.81%
703,0,250,27.81%
704,2,252,28.03%
705,3,255,28.36%
706,1,256,28.48%
707,3,259,28.81%
708,0,259,28.81%
709,0,259,28.81%
710,0,259,28.81%
711,5,264,29.37%
712,2,266,29.59%
713,0,266,29.59%
714,1,267,29.7%
715,1,268,29.81%
716,1,269,29.92%
717,2,271,30.14%
718,1,272,30.26%
719,2,274,30.48%
720,3,277,30.81%
721,1,278,30.92%
722,0,278,30.92%
723,1,279,31.03%
724,1,280,31.15%
725,2,282,31.37%
726,0,282,31.37%
727,4,286,31.81%
728,1,287,31.92%
729,3,290,32.26%
730,2,292,32.48%
731,5,297,33.04%
732,2,299,33.26%
733,1,300,33.37%
734,2,302,33.59%
735,7,309,34.37%
736,1,310,34.48%
737,0,310,34.48%
738,0,310,34.48%
739,1,311,34.59%
740,1,312,34.71%
741,1,313,34.82%
742,0,313,34.82%
743,1,314,34.93%
744,6,320,35.6%
745,4,324,36.04%
746,3,327,36.37%
747,2,329,36.6%
748,3,332,36.93%
749,2,334,37.15%
750,0,334,37.15%
751,0,334,37.15%
752,0,334,37.15%
753,1,335,37.26%
754,4,339,37.71%
755,3,342,38.04%
756,2,344,38.26%
757,1,345,38.38%
758,0,345,38.38%
759,6,351,39.04%
760,3,354,39.38%
761,0,354,39.38%
762,1,355,39.49%
763,0,355,39.49%
764,2,357,39.71%
765,1,358,39.82%
766,1,359,39.93%
767,0,359,39.93%
768,1,360,40.04%
769,6,366,40.71%
770,10,376,41.82%
771,1,377,41.94%
772,2,379,42.16%
773,7,386,42.94%
774,0,386,42.94%
775,1,387,43.05%
776,0,387,43.05%
777,4,391,43.49%
778,2,393,43.72%
779,0,393,43.72%
780,3,396,44.05%
781,0,396,44.05%
782,3,399,44.38%
783,3,402,44.72%
784,3,405,45.05%
785,2,407,45.27%
786,0,407,45.27%
787,1,408,45.38%
788,0,408,45.38%
789,4,412,45.83%
790,2,414,46.05%
791,0,414,46.05%
792,1,415,46.16%
793,2,417,46.38%
794,0,417,46.38%
795,2,419,46.61%
796,2,421,46.83%
797,1,422,46.94%
798,1,423,47.05%
799,0,423,47.05%
800,0,423,47.05%
801,1,424,47.16%
802,0,424,47.16%
803,2,426,47.39%
804,2,428,47.61%
805,0,428,47.61%
806,0,428,47.61%
807,1,429,47.72%
808,5,434,48.28%
809,2,436,48.5%
810,0,436,48.5%
811,1,437,48.61%
812,1,438,48.72%
813,0,438,48.72%
814,1,439,48.83%
815,0,439,48.83%
816,3,442,49.17%
817,3,445,49.5%
818,4,449,49.94%
819,3,452,50.28%
820,0,452,50.28%
821,2,454,50.5%
822,3,457,50.83%
823,2,459,51.06%
824,2,461,51.28%
825,0,461,51.28%
826,5,466,51.84%
827,7,473,52.61%
828,3,476,52.95%
829,3,479,53.28%
830,0,479,53.28%
831,0,479,53.28%
832,3,482,53.62%
833,1,483,53.73%
834,0,483,53.73%
835,2,485,53.95%
836,3,488,54.28%
837,0,488,54.28%
838,0,488,54.28%
839,0,488,54.28%
840,0,488,54.28%
841,0,488,54.28%
842,1,489,54.39%
843,3,492,54.73%
844,1,493,54.84%
845,0,493,54.84%
846,0,493,54.84%
847,0,493,54.84%
848,0,493,54.84%
849,0,493,54.84%
850,3,496,55.17%
851,2,498,55.39%
852,1,499,55.51%
853,2,501,55.73%
854,4,505,56.17%
855,2,507,56.4%
856,5,512,56.95%
857,1,513,57.06%
858,0,513,57.06%
859,4,517,57.51%
860,4,521,57.95%
861,11,532,59.18%
862,1,533,59.29%
863,0,533,59.29%
864,3,536,59.62%
865,4,540,60.07%
866,1,541,60.18%
867,0,541,60.18%
868,0,541,60.18%
869,2,543,60.4%
870,4,547,60.85%
871,2,549,61.07%
872,0,549,61.07%
873,2,551,61.29%
874,2,553,61.51%
875,2,555,61.74%
876,0,555,61.74%
877,1,556,61.85%
878,0,556,61.85%
879,2,558,62.07%
880,5,563,62.63%
881,0,563,62.63%
882,0,563,62.63%
883,4,567,63.07%
884,2,569,63.29%
885,1,570,63.4%
886,2,572,63.63%
887,4,576,64.07%
888,3,579,64.4%
889,2,581,64.63%
890,3,584,64.96%
891,2,586,65.18%
892,1,587,65.29%
893,3,590,65.63%
894,2,592,65.85%
895,1,593,65.96%
896,0,593,65.96%
897,0,593,65.96%
898,2,595,66.18%
899,4,599,66.63%
900,0,599,66.63%
901,0,599,66.63%
902,0,599,66.63%
903,1,600,66.74%
904,1,601,66.85%
905,0,601,66.85%
906,0,601,66.85%
907,1,602,66.96%
908,3,605,67.3%
909,1,606,67.41%
910,3,609,67.74%
911,4,613,68.19%
912,0,613,68.19%
913,2,615,68.41%
914,1,616,68.52%
915,7,623,69.3%
916,2,625,69.52%
917,0,625,69.52%
918,1,626,69.63%
919,0,626,69.63%
920,0,626,69.63%
921,3,629,69.97%
922,1,630,70.08%
923,0,630,70.08%
924,10,640,71.19%
925,0,640,71.19%
926,0,640,71.19%
927,0,640,71.19%
928,1,641,71.3%
929,2,643,71.52%
930,9,652,72.53%
931,1,653,72.64%
932,1,654,72.75%
933,1,655,72.86%
934,2,657,73.08%
935,0,657,73.08%
936,0,657,73.08%
937,0,657,73.08%
938,0,657,73.08%
939,1,658,73.19%
940,0,658,73.19%
941,0,658,73.19%
942,2,660,73.41%
943,2,662,73.64%
944,1,663,73.75%
945,1,664,73.86%
946,1,665,73.97%
947,6,671,74.64%
948,1,672,74.75%
949,0,672,74.75%
950,0,672,74.75%
951,1,673,74.86%
952,0,673,74.86%
953,3,676,75.19%
954,1,677,75.31%
955,1,678,75.42%
956,0,678,75.42%
957,3,681,75.75%
958,2,683,75.97%
959,1,684,76.08%
960,1,685,76.2%
961,0,685,76.2%
962,2,687,76.42%
963,2,689,76.64%
964,2,691,76.86%
965,0,691,76.86%
966,0,691,76.86%
967,0,691,76.86%
968,2,693,77.09%
969,2,695,77.31%
970,1,696,77.42%
971,0,696,77.42%
972,2,698,77.64%
973,0,698,77.64%
974,0,698,77.64%
975,0,698,77.64%
976,0,698,77.64%
977,0,698,77.64%
978,0,698,77.64%
979,0,698,77.64%
980,0,698,77.64%
981,0,698,77.64%
982,0,698,77.64%
983,0,698,77.64%
984,0,698,77.64%
985,0,698,77.64%
986,0,698,77.64%
987,0,698,77.64%
988,1,699,77.75%
989,0,699,77.75%
990,0,699,77.75%
991,0,699,77.75%
992,0,699,77.75%
993,0,699,77.75%
994,0,699,77.75%
995,0,699,77.75%
996,0,699,77.75%
997,0,699,77.75%
998,0,699,77.75%
999,0,699,77.75%
1000,0,699,77.75%
1001,0,699,77.75%
1002,0,699,77.75%
1003,0,699,77.75%
1004,0,699,77.75%
1005,0,699,77.75%
1006,0,699,77.75%
1007,0,699,77.75%
1008,0,699,77.75%
1009,0,699,77.75%
1010,1,700,77.86%
1011,0,700,77.86%
1012,0,700,77.86%
1013,0,700,77.86%
1014,0,700,77.86%
1015,0,700,77.86%
1016,0,700,77.86%
1017,0,700,77.86%
1018,0,700,77.86%
1019,0,700,77.86%
1020,1,701,77.98%
1021,0,701,77.98%
1022,0,701,77.98%
1023,0,701,77.98%
1024,0,701,77.98%
1025,0,701,77.98%
1026,0,701,77.98%
1027,0,701,77.98%
1028,1,702,78.09%
1029,0,702,78.09%
1030,0,702,78.09%
1031,0,702,78.09%
1032,0,702,78.09%
1033,0,702,78.09%
1034,0,702,78.09%
1035,0,702,78.09%
1036,0,702,78.09%
1037,0,702,78.09%
1038,0,702,78.09%
1039,0,702,78.09%
1040,1,703,78.2%
1041,0,703,78.2%
1042,0,703,78.2%
1043,0,703,78.2%
1044,0,703,78.2%
1045,0,703,78.2%
1046,0,703,78.2%
1047,0,703,78.2%
1048,0,703,78.2%
1049,0,703,78.2%
1050,0,703,78.2%
1051,0,703,78.2%
1052,0,703,78.2%
1053,0,703,78.2%
1054,0,703,78.2%
1055,0,703,78.2%
1056,0,703,78.2%
1057,0,703,78.2%
1058,0,703,78.2%
1059,1,704,78.31%
1060,0,704,78.31%
1061,0,704,78.31%
1062,0,704,78.31%
1063,0,704,78.31%
1064,0,704,78.31%
1065,0,704,78.31%
1066,0,704,78.31%
1067,0,704,78.31%
1068,0,704,78.31%
1069,0,704,78.31%
1070,0,704,78.31%
1071,0,704,78.31%
1072,0,704,78.31%
1073,0,704,78.31%
1074,0,704,78.31%
1075,0,704,78.31%
1076,0,704,78.31%
1077,0,704,78.31%
1078,0,704,78.31%
1079,0,704,78.31%
1080,0,704,78.31%
1081,0,704,78.31%
1082,0,704,78.31%
1083,0,704,78.31%
1084,1,705,78.42%
1085,0,705,78.42%
1086,0,705,78.42%
1087,0,705,78.42%
1088,0,705,78.42%
1089,0,705,78.42%
1090,0,705,78.42%
1091,0,705,78.42%
1092,0,705,78.42%
1093,1,706,78.53%
1094,0,706,78.53%
1095,0,706,78.53%
1096,0,706,78.53%
1097,0,706,78.53%
1098,0,706,78.53%
1099,0,706,78.53%
1100,0,706,78.53%
1101,0,706,78.53%
1102,0,706,78.53%
1103,1,707,78.64%
1104,1,708,78.75%
1105,0,708,78.75%
1106,0,708,78.75%
1107,0,708,78.75%
1108,0,708,78.75%
1109,0,708,78.75%
1110,0,708,78.75%
1111,0,708,78.75%
1112,0,708,78.75%
1113,0,708,78.75%
1114,0,708,78.75%
1115,0,708,78.75%
1116,1,709,78.87%
1117,0,709,78.87%
1118,1,710,78.98%
1119,0,710,78.98%
1120,0,710,78.98%
1121,0,710,78.98%
1122,0,710,78.98%
1123,0,710,78.98%
1124,0,710,78.98%
1125,0,710,78.98%
1126,0,710,78.98%
1127,0,710,78.98%
1128,0,710,78.98%
1129,0,710,78.98%
1130,0,710,78.98%
1131,1,711,79.09%
1132,0,711,79.09%
1133,0,711,79.09%
1134,0,711,79.09%
1135,0,711,79.09%
1136,0,711,79.09%
1137,0,711,79.09%
1138,0,711,79.09%
1139,0,711,79.09%
1140,0,711,79.09%
1141,0,711,79.09%
1142,0,711,79.09%
1143,0,711,79.09%
1144,0,711,79.09%
1145,0,711,79.09%
1146,0,711,79.09%
1147,0,711,79.09%
1148,0,711,79.09%
1149,1,712,79.2%
1150,0,712,79.2%
1151,0,712,79.2%
1152,0,712,79.2%
1153,1,713,79.31%
1154,0,713,79.31%
1155,0,713,79.31%
1156,0,713,79.31%
1157,0,713,79.31%
1158,0,713,79.31%
1159,0,713,79.31%
1160,0,713,79.31%
1161,0,713,79.31%
1162,1,714,79.42%
1163,0,714,79.42%
1164,0,714,79.42%
1165,0,714,79.42%
1166,0,714,79.42%
1167,0,714,79.42%
1168,0,714,79.42%
1169,0,714,79.42%
1170,0,714,79.42%
1171,0,714,79.42%
1172,0,714,79.42%
1173,0,714,79.42%
1174,1,715,79.53%
1175,0,715,79.53%
1176,0,715,79.53%
1177,0,715,79.53%
1178,0,715,79.53%
1179,0,715,79.53%
1180,0,715,79.53%
1181,0,715,79.53%
1182,0,715,79.53%
1183,0,715,79.53%
1184,0,715,79.53%
1185,0,715,79.53%
1186,0,715,79.53%
1187,0,715,79.53%
1188,0,715,79.53%
1189,0,715,79.53%
1190,0,715,79.53%
1191,1,716,79.64%
1192,1,717,79.76%
1193,0,717,79.76%
1194,0,717,79.76%
1195,0,717,79.76%
1196,0,717,79.76%
1197,0,717,79.76%
1198,0,717,79.76%
1199,0,717,79.76%
1200,1,718,79.87%
1201,1,719,79.98%
1202,0,719,79.98%
1203,0,719,79.98%
1204,0,719,79.98%
1205,0,719,79.98%
1206,0,719,79.98%
1207,0,719,79.98%
1208,0,719,79.98%
1209,0,719,79.98%
1210,0,719,79.98%
1211,0,719,79.98%
1212,0,719,79.98%
1213,0,719,79.98%
1214,0,719,79.98%
1215,0,719,79.98%
1216,0,719,79.98%
1217,0,719,79.98%
1218,0,719,79.98%
1219,0,719,79.98%
1220,0,719,79.98%
1221,0,719,79.98%
1222,0,719,79.98%
1223,0,719,79.98%
1224,0,719,79.98%
1225,0,719,79.98%
1226,1,720,80.09%
1227,0,720,80.09%
1228,0,720,80.09%
1229,0,720,80.09%
1230,0,720,80.09%
1231,0,720,80.09%
1232,0,720,80.09%
1233,0,720,80.09%
1234,0,720,80.09%
1235,0,720,80.09%
1236,0,720,80.09%
1237,0,720,80.09%
1238,0,720,80.09%
1239,0,720,80.09%
1240,1,721,80.2%
1241,1,722,80.31%
1242,0,722,80.31%
1243,0,722,80.31%
1244,0,722,80.31%
1245,0,722,80.31%
1246,0,722,80.31%
1247,0,722,80.31%
1248,0,722,80.31%
1249,0,722,80.31%
1250,0,722,80.31%
1251,0,722,80.31%
1252,0,722,80.31%
1253,0,722,80.31%
1254,0,722,80.31%
1255,0,722,80.31%
1256,1,723,80.42%
1257,0,723,80.42%
1258,0,723,80.42%
1259,0,723,80.42%
1260,0,723,80.42%
1261,0,723,80.42%
1262,0,723,80.42%
1263,0,723,80.42%
1264,0,723,80.42%
1265,0,723,80.42%
1266,0,723,80.42%
1267,0,723,80.42%
1268,0,723,80.42%
1269,0,723,80.42%
1270,0,723,80.42%
1271,0,723,80.42%
1272,0,723,80.42%
1273,0,723,80.42%
1274,0,723,80.42%
1275,1,724,80.53%
1276,0,724,80.53%
1277,0,724,80.53%
1278,0,724,80.53%
1279,0,724,80.53%
1280,0,724,80.53%
1281,0,724,80.53%
1282,0,724,80.53%
1283,0,724,80.53%
1284,0,724,80.53%
1285,0,724,80.53%
1286,0,724,80.53%
1287,0,724,80.53%
1288,0,724,80.53%
1289,0,724,80.53%
1290,0,724,80.53%
1291,0,724,80.53%
1292,1,725,80.65%
1293,0,725,80.65%
1294,0,725,80.65%
1295,0,725,80.65%
1296,0,725,80.65%
1297,0,725,80.65%
1298,0,725,80.65%
1299,0,725,80.65%
1300,0,725,80.65%
1301,0,725,80.65%
1302,0,725,80.65%
1303,0,725,80.65%
1304,0,725,80.65%
1305,0,725,80.65%
1306,0,725,80.65%
1307,0,725,80.65%
1308,0,725,80.65%
1309,0,725,80.65%
1310,0,725,80.65%
1311,0,725,80.65%
1312,0,725,80.65%
1313,0,725,80.65%
1314,0,725,80.65%
1315,0,725,80.65%
1316,0,725,80.65%
1317,0,725,80.65%
1318,0,725,80.65%
1319,0,725,80.65%
1320,0,725,80.65%
1321,0,725,80.65%
1322,0,725,80.65%
1323,0,725,80.65%
1324,0,725,80.65%
1325,0,725,80.65%
1326,0,725,80.65%
1327,0,725,80.65%
1328,0,725,80.65%
1329,0,725,80.65%
1330,0,725,80.65%
1331,0,725,80.65%
1332,0,725,80.65%
1333,0,725,80.65%
1334,0,725,80.65%
1335,0,725,80.65%
1336,0,725,80.65%
1337,0,725,80.65%
1338,0,725,80.65%
1339,0,725,80.65%
1340,0,725,80.65%
1341,0,725,80.65%
1342,0,725,80.65%
1343,0,725,80.65%
1344,0,725,80.65%
1345,0,725,80.65%
1346,0,725,80.65%
1347,0,725,80.65%
1348,0,725,80.65%
1349,0,725,80.65%
1350,1,726,80.76%
1351,0,726,80.76%
1352,0,726,80.76%
1353,0,726,80.76%
1354,0,726,80.76%
1355,0,726,80.76%
1356,0,726,80.76%
1357,0,726,80.76%
1358,0,726,80.76%
1359,0,726,80.76%
1360,1,727,80.87%
1361,0,727,80.87%
1362,0,727,80.87%
1363,0,727,80.87%
1364,0,727,80.87%
1365,0,727,80.87%
1366,0,727,80.87%
1367,0,727,80.87%
1368,0,727,80.87%
1369,0,727,80.87%
1370,1,728,80.98%
1371,0,728,80.98%
1372,0,728,80.98%
1373,0,728,80.98%
1374,0,728,80.98%
1375,0,728,80.98%
1376,0,728,80.98%
1377,0,728,80.98%
1378,0,728,80.98%
1379,0,728,80.98%
1380,0,728,80.98%
1381,0,728,80.98%
1382,0,728,80.98%
1383,0,728,80.98%
1384,0,728,80.98%
1385,0,728,80.98%
1386,0,728,80.98%
1387,0,728,80.98%
1388,0,728,80.98%
1389,0,728,80.98%
1390,0,728,80.98%
1391,0,728,80.98%
1392,0,728,80.98%
1393,0,728,80.98%
1394,0,728,80.98%
1395,0,728,80.98%
1396,0,728,80.98%
1397,0,728,80.98%
1398,0,728,80.98%
1399,0,728,80.98%
1400,0,728,80.98%
1401,0,728,80.98%
1402,0,728,80.98%
1403,0,728,80.98%
1404,0,728,80.98%
1405,0,728,80.98%
1406,0,728,80.98%
1407,1,729,81.09%
1408,0,729,81.09%
1409,0,729,81.09%
1410,0,729,81.09%
1411,0,729,81.09%
1412,1,730,81.2%
1413,0,730,81.2%
1414,0,730,81.2%
1415,0,730,81.2%
1416,0,730,81.2%
1417,0,730,81.2%
1418,0,730,81.2%
1419,0,730,81.2%
1420,0,730,81.2%
1421,0,730,81.2%
1422,0,730,81.2%
1423,0,730,81.2%
1424,0,730,81.2%
1425,0,730,81.2%
1426,0,730,81.2%
1427,0,730,81.2%
1428,0,730,81.2%
1429,0,730,81.2%
1430,0,730,81.2%
1431,0,730,81.2%
1432,0,730,81.2%
1433,0,730,81.2%
1434,1,731,81.31%
1435,0,731,81.31%
1436,0,731,81.31%
1437,0,731,81.31%
1438,0,731,81.31%
1439,0,731,81.31%
1440,0,731,81.31%
1441,0,731,81.31%
1442,0,731,81.31%
1443,0,731,81.31%
1444,0,731,81.31%
1445,0,731,81.31%
1446,0,731,81.31%
1447,0,731,81.31%
1448,0,731,81.31%
1449,0,731,81.31%
1450,0,731,81.31%
1451,0,731,81.31%
1452,0,731,81.31%
1453,0,731,81.31%
1454,0,731,81.31%
1455,0,731,81.31%
1456,0,731,81.31%
1457,0,731,81.31%
1458,0,731,81.31%
1459,0,731,81.31%
1460,0,731,81.31%
1461,0,731,81.31%
1462,0,731,81.31%
1463,0,731,81.31%
1464,0,731,81.31%
1465,0,731,81.31%
1466,0,731,81.31%
1467,0,731,81.31%
1468,0,731,81.31%
1469,2,733,81.54%
1470,0,733,81.54%
1471,0,733,81.54%
1472,0,733,81.54%
1473,1,734,81.65%
1474,0,734,81.65%
1475,0,734,81.65%
1476,0,734,81.65%
1477,1,735,81.76%
1478,0,735,81.76%
1479,0,735,81.76%
1480,0,735,81.76%
1481,0,735,81.76%
1482,1,736,81.87%
1483,0,736,81.87%
1484,0,736,81.87%
1485,0,736,81.87%
1486,0,736,81.87%
1487,0,736,81.87%
1488,0,736,81.87%
1489,0,736,81.87%
1490,0,736,81.87%
1491,0,736,81.87%
1492,0,736,81.87%
1493,0,736,81.87%
1494,0,736,81.87%
1495,0,736,81.87%
1496,0,736,81.87%
1497,0,736,81.87%
1498,0,736,81.87%
1499,0,736,81.87%
1500,0,736,81.87%
1501,0,736,81.87%
1502,1,737,81.98%
1503,0,737,81.98%
1504,0,737,81.98%
1505,0,737,81.98%
1506,0,737,81.98%
1507,0,737,81.98%
1508,0,737,81.98%
1509,0,737,81.98%
1510,0,737,81.98%
1511,0,737,81.98%
1512,0,737,81.98%
1513,0,737,81.98%
1514,0,737,81.98%
1515,0,737,81.98%
1516,0,737,81.98%
1517,0,737,81.98%
1518,0,737,81.98%
1519,0,737,81.98%
1520,0,737,81.98%
1521,0,737,81.98%
1522,0,737,81.98%
1523,0,737,81.98%
1524,0,737,81.98%
1525,0,737,81.98%
1526,1,738,82.09%
1527,0,738,82.09%
1528,0,738,82.09%
1529,0,738,82.09%
1530,0,738,82.09%
1531,0,738,82.09%
1532,0,738,82.09%
1533,0,738,82.09%
1534,0,738,82.09%
1535,0,738,82.09%
1536,0,738,82.09%
1537,0,738,82.09%
1538,0,738,82.09%
1539,0,738,82.09%
1540,0,738,82.09%
1541,0,738,82.09%
1542,0,738,82.09%
1543,0,738,82.09%
1544,0,738,82.09%
1545,0,738,82.09%
1546,0,738,82.09%
1547,0,738,82.09%
1548,0,738,82.09%
1549,0,738,82.09%
1550,0,738,82.09%
1551,0,738,82.09%
1552,0,738,82.09%
1553,0,738,82.09%
1554,0,738,82.09%
1555,0,738,82.09%
1556,0,738,82.09%
1557,0,738,82.09%
1558,0,738,82.09%
1559,0,738,82.09%
1560,0,738,82.09%
1561,0,738,82.09%
1562,0,738,82.09%
1563,0,738,82.09%
1564,0,738,82.09%
1565,0,738,82.09%
1566,0,738,82.09%
1567,0,738,82.09%
1568,0,738,82.09%
1569,0,738,82.09%
1570,0,738,82.09%
1571,0,738,82.09%
1572,0,738,82.09%
1573,0,738,82.09%
1574,0,738,82.09%
1575,0,738,82.09%
1576,0,738,82.09%
1577,0,738,82.09%
1578,0,738,82.09%
1579,1,739,82.2%
1580,0,739,82.2%
1581,0,739,82.2%
1582,0,739,82.2%
1583,0,739,82.2%
1584,0,739,82.2%
1585,0,739,82.2%
1586,1,740,82.31%
1587,0,740,82.31%
1588,0,740,82.31%
1589,0,740,82.31%
1590,0,740,82.31%
1591,0,740,82.31%
1592,0,740,82.31%
1593,0,740,82.31%
1594,0,740,82.31%
1595,0,740,82.31%
1596,0,740,82.31%
1597,0,740,82.31%
1598,0,740,82.31%
1599,0,740,82.31%
1600,0,740,82.31%
1601,159,899,100.0%
