Length, Count, Sum (Counts <= Length), Percent of Nonzero Data, Nonzero Data Count = 813, Zero Data Count = 1031
1,1,1,0.12%
2,1,2,0.25%
3,0,2,0.25%
4,0,2,0.25%
5,1,3,0.37%
6,0,3,0.37%
7,0,3,0.37%
8,0,3,0.37%
9,0,3,0.37%
10,0,3,0.37%
11,0,3,0.37%
12,1,4,0.49%
13,0,4,0.49%
14,0,4,0.49%
15,0,4,0.49%
16,0,4,0.49%
17,0,4,0.49%
18,0,4,0.49%
19,0,4,0.49%
20,1,5,0.62%
21,0,5,0.62%
22,0,5,0.62%
23,0,5,0.62%
24,0,5,0.62%
25,0,5,0.62%
26,0,5,0.62%
27,0,5,0.62%
28,0,5,0.62%
29,0,5,0.62%
30,0,5,0.62%
31,0,5,0.62%
32,0,5,0.62%
33,0,5,0.62%
34,0,5,0.62%
35,0,5,0.62%
36,0,5,0.62%
37,0,5,0.62%
38,0,5,0.62%
39,0,5,0.62%
40,0,5,0.62%
41,0,5,0.62%
42,0,5,0.62%
43,1,6,0.74%
44,0,6,0.74%
45,0,6,0.74%
46,0,6,0.74%
47,0,6,0.74%
48,0,6,0.74%
49,1,7,0.86%
50,0,7,0.86%
51,0,7,0.86%
52,0,7,0.86%
53,0,7,0.86%
54,0,7,0.86%
55,0,7,0.86%
56,0,7,0.86%
57,0,7,0.86%
58,0,7,0.86%
59,0,7,0.86%
60,0,7,0.86%
61,0,7,0.86%
62,0,7,0.86%
63,0,7,0.86%
64,0,7,0.86%
65,0,7,0.86%
66,0,7,0.86%
67,0,7,0.86%
68,0,7,0.86%
69,0,7,0.86%
70,0,7,0.86%
71,0,7,0.86%
72,0,7,0.86%
73,0,7,0.86%
74,0,7,0.86%
75,0,7,0.86%
76,0,7,0.86%
77,0,7,0.86%
78,1,8,0.98%
79,0,8,0.98%
80,0,8,0.98%
81,0,8,0.98%
82,0,8,0.98%
83,1,9,1.11%
84,2,11,1.35%
85,0,11,1.35%
86,0,11,1.35%
87,0,11,1.35%
88,0,11,1.35%
89,0,11,1.35%
90,0,11,1.35%
91,0,11,1.35%
92,0,11,1.35%
93,0,11,1.35%
94,0,11,1.35%
95,0,11,1.35%
96,0,11,1.35%
97,0,11,1.35%
98,0,11,1.35%
99,1,12,1.48%
100,0,12,1.48%
101,0,12,1.48%
102,2,14,1.72%
103,0,14,1.72%
104,0,14,1.72%
105,0,14,1.72%
106,1,15,1.85%
107,0,15,1.85%
108,0,15,1.85%
109,0,15,1.85%
110,0,15,1.85%
111,0,15,1.85%
112,0,15,1.85%
113,0,15,1.85%
114,0,15,1.85%
115,0,15,1.85%
116,1,16,1.97%
117,0,16,1.97%
118,0,16,1.97%
119,0,16,1.97%
120,1,17,2.09%
121,0,17,2.09%
122,0,17,2.09%
123,1,18,2.21%
124,1,19,2.34%
125,0,19,2.34%
126,0,19,2.34%
127,0,19,2.34%
128,0,19,2.34%
129,0,19,2.34%
130,0,19,2.34%
131,0,19,2.34%
132,0,19,2.34%
133,0,19,2.34%
134,0,19,2.34%
135,0,19,2.34%
136,1,20,2.46%
137,0,20,2.46%
138,8,28,3.44%
139,0,28,3.44%
140,0,28,3.44%
141,0,28,3.44%
142,0,28,3.44%
143,0,28,3.44%
144,0,28,3.44%
145,1,29,3.57%
146,0,29,3.57%
147,0,29,3.57%
148,0,29,3.57%
149,0,29,3.57%
150,0,29,3.57%
151,0,29,3.57%
152,1,30,3.69%
153,0,30,3.69%
154,0,30,3.69%
155,0,30,3.69%
156,0,30,3.69%
157,0,30,3.69%
158,0,30,3.69%
159,0,30,3.69%
160,0,30,3.69%
161,0,30,3.69%
162,0,30,3.69%
163,1,31,3.81%
164,0,31,3.81%
165,0,31,3.81%
166,0,31,3.81%
167,0,31,3.81%
168,0,31,3.81%
169,0,31,3.81%
170,0,31,3.81%
171,1,32,3.94%
172,0,32,3.94%
173,0,32,3.94%
174,0,32,3.94%
175,0,32,3.94%
176,0,32,3.94%
177,0,32,3.94%
178,0,32,3.94%
179,0,32,3.94%
180,1,33,4.06%
181,0,33,4.06%
182,0,33,4.06%
183,0,33,4.06%
184,0,33,4.06%
185,0,33,4.06%
186,0,33,4.06%
187,0,33,4.06%
188,0,33,4.06%
189,1,34,4.18%
190,0,34,4.18%
191,1,35,4.31%
192,0,35,4.31%
193,0,35,4.31%
194,0,35,4.31%
195,0,35,4.31%
196,0,35,4.31%
197,0,35,4.31%
198,0,35,4.31%
199,1,36,4.43%
200,1,37,4.55%
201,0,37,4.55%
202,0,37,4.55%
203,1,38,4.67%
204,1,39,4.8%
205,0,39,4.8%
206,0,39,4.8%
207,0,39,4.8%
208,0,39,4.8%
209,0,39,4.8%
210,0,39,4.8%
211,0,39,4.8%
212,1,40,4.92%
213,0,40,4.92%
214,1,41,5.04%
215,0,41,5.04%
216,0,41,5.04%
217,0,41,5.04%
218,0,41,5.04%
219,0,41,5.04%
220,0,41,5.04%
221,0,41,5.04%
222,0,41,5.04%
223,0,41,5.04%
224,0,41,5.04%
225,0,41,5.04%
226,0,41,5.04%
227,1,42,5.17%
228,0,42,5.17%
229,0,42,5.17%
230,1,43,5.29%
231,0,43,5.29%
232,0,43,5.29%
233,0,43,5.29%
234,0,43,5.29%
235,0,43,5.29%
236,1,44,5.41%
237,1,45,5.54%
238,0,45,5.54%
239,0,45,5.54%
240,0,45,5.54%
241,0,45,5.54%
242,0,45,5.54%
243,1,46,5.66%
244,0,46,5.66%
245,1,47,5.78%
246,0,47,5.78%
247,1,48,5.9%
248,0,48,5.9%
249,1,49,6.03%
250,0,49,6.03%
251,0,49,6.03%
252,0,49,6.03%
253,0,49,6.03%
254,0,49,6.03%
255,1,50,6.15%
256,0,50,6.15%
257,0,50,6.15%
258,1,51,6.27%
259,1,52,6.4%
260,0,52,6.4%
261,0,52,6.4%
262,0,52,6.4%
263,0,52,6.4%
264,15,67,8.24%
265,0,67,8.24%
266,0,67,8.24%
267,1,68,8.36%
268,0,68,8.36%
269,0,68,8.36%
270,1,69,8.49%
271,1,70,8.61%
272,0,70,8.61%
273,0,70,8.61%
274,1,71,8.73%
275,0,71,8.73%
276,1,72,8.86%
277,5,77,9.47%
278,0,77,9.47%
279,0,77,9.47%
280,0,77,9.47%
281,0,77,9.47%
282,0,77,9.47%
283,0,77,9.47%
284,1,78,9.59%
285,0,78,9.59%
286,1,79,9.72%
287,0,79,9.72%
288,0,79,9.72%
289,0,79,9.72%
290,0,79,9.72%
291,0,79,9.72%
292,0,79,9.72%
293,0,79,9.72%
294,0,79,9.72%
295,1,80,9.84%
296,0,80,9.84%
297,0,80,9.84%
298,1,81,9.96%
299,0,81,9.96%
300,0,81,9.96%
301,0,81,9.96%
302,0,81,9.96%
303,1,82,10.09%
304,1,83,10.21%
305,0,83,10.21%
306,15,98,12.05%
307,0,98,12.05%
308,2,100,12.3%
309,0,100,12.3%
310,0,100,12.3%
311,0,100,12.3%
312,0,100,12.3%
313,0,100,12.3%
314,0,100,12.3%
315,1,101,12.42%
316,0,101,12.42%
317,0,101,12.42%
318,0,101,12.42%
319,0,101,12.42%
320,0,101,12.42%
321,0,101,12.42%
322,1,102,12.55%
323,0,102,12.55%
324,0,102,12.55%
325,0,102,12.55%
326,0,102,12.55%
327,0,102,12.55%
328,0,102,12.55%
329,0,102,12.55%
330,0,102,12.55%
331,0,102,12.55%
332,0,102,12.55%
333,0,102,12.55%
334,0,102,12.55%
335,0,102,12.55%
336,1,103,12.67%
337,2,105,12.92%
338,0,105,12.92%
339,0,105,12.92%
340,0,105,12.92%
341,0,105,12.92%
342,0,105,12.92%
343,1,106,13.04%
344,0,106,13.04%
345,0,106,13.04%
346,0,106,13.04%
347,0,106,13.04%
348,1,107,13.16%
349,0,107,13.16%
350,0,107,13.16%
351,0,107,13.16%
352,2,109,13.41%
353,0,109,13.41%
354,0,109,13.41%
355,1,110,13.53%
356,1,111,13.65%
357,1,112,13.78%
358,0,112,13.78%
359,0,112,13.78%
360,0,112,13.78%
361,0,112,13.78%
362,0,112,13.78%
363,0,112,13.78%
364,0,112,13.78%
365,0,112,13.78%
366,0,112,13.78%
367,0,112,13.78%
368,1,113,13.9%
369,0,113,13.9%
370,0,113,13.9%
371,0,113,13.9%
372,0,113,13.9%
373,0,113,13.9%
374,0,113,13.9%
375,1,114,14.02%
376,1,115,14.15%
377,0,115,14.15%
378,1,116,14.27%
379,0,116,14.27%
380,0,116,14.27%
381,0,116,14.27%
382,0,116,14.27%
383,0,116,14.27%
384,0,116,14.27%
385,0,116,14.27%
386,0,116,14.27%
387,0,116,14.27%
388,1,117,14.39%
389,0,117,14.39%
390,0,117,14.39%
391,0,117,14.39%
392,1,118,14.51%
393,0,118,14.51%
394,1,119,14.64%
395,0,119,14.64%
396,0,119,14.64%
397,1,120,14.76%
398,0,120,14.76%
399,1,121,14.88%
400,0,121,14.88%
401,0,121,14.88%
402,0,121,14.88%
403,1,122,15.01%
404,0,122,15.01%
405,0,122,15.01%
406,3,125,15.38%
407,3,128,15.74%
408,1,129,15.87%
409,0,129,15.87%
410,0,129,15.87%
411,2,131,16.11%
412,0,131,16.11%
413,0,131,16.11%
414,0,131,16.11%
415,1,132,16.24%
416,0,132,16.24%
417,0,132,16.24%
418,0,132,16.24%
419,0,132,16.24%
420,0,132,16.24%
421,0,132,16.24%
422,0,132,16.24%
423,1,133,16.36%
424,0,133,16.36%
425,0,133,16.36%
426,0,133,16.36%
427,1,134,16.48%
428,0,134,16.48%
429,0,134,16.48%
430,0,134,16.48%
431,0,134,16.48%
432,0,134,16.48%
433,0,134,16.48%
434,1,135,16.61%
435,1,136,16.73%
436,0,136,16.73%
437,0,136,16.73%
438,0,136,16.73%
439,0,136,16.73%
440,0,136,16.73%
441,0,136,16.73%
442,0,136,16.73%
443,0,136,16.73%
444,0,136,16.73%
445,0,136,16.73%
446,1,137,16.85%
447,0,137,16.85%
448,0,137,16.85%
449,1,138,16.97%
450,0,138,16.97%
451,0,138,16.97%
452,0,138,16.97%
453,0,138,16.97%
454,0,138,16.97%
455,0,138,16.97%
456,0,138,16.97%
457,0,138,16.97%
458,1,139,17.1%
459,0,139,17.1%
460,0,139,17.1%
461,0,139,17.1%
462,0,139,17.1%
463,0,139,17.1%
464,0,139,17.1%
465,0,139,17.1%
466,1,140,17.22%
467,0,140,17.22%
468,1,141,17.34%
469,0,141,17.34%
470,1,142,17.47%
471,0,142,17.47%
472,0,142,17.47%
473,0,142,17.47%
474,0,142,17.47%
475,0,142,17.47%
476,0,142,17.47%
477,0,142,17.47%
478,0,142,17.47%
479,0,142,17.47%
480,1,143,17.59%
481,0,143,17.59%
482,0,143,17.59%
483,0,143,17.59%
484,0,143,17.59%
485,0,143,17.59%
486,0,143,17.59%
487,0,143,17.59%
488,0,143,17.59%
489,1,144,17.71%
490,0,144,17.71%
491,1,145,17.84%
492,0,145,17.84%
493,0,145,17.84%
494,0,145,17.84%
495,1,146,17.96%
496,0,146,17.96%
497,0,146,17.96%
498,0,146,17.96%
499,1,147,18.08%
500,0,147,18.08%
501,0,147,18.08%
502,0,147,18.08%
503,1,148,18.2%
504,0,148,18.2%
505,0,148,18.2%
506,1,149,18.33%
507,0,149,18.33%
508,0,149,18.33%
509,0,149,18.33%
510,0,149,18.33%
511,0,149,18.33%
512,0,149,18.33%
513,0,149,18.33%
514,1,150,18.45%
515,0,150,18.45%
516,0,150,18.45%
517,1,151,18.57%
518,0,151,18.57%
519,0,151,18.57%
520,0,151,18.57%
521,0,151,18.57%
522,0,151,18.57%
523,0,151,18.57%
524,0,151,18.57%
525,0,151,18.57%
526,0,151,18.57%
527,0,151,18.57%
528,0,151,18.57%
529,0,151,18.57%
530,1,152,18.7%
531,1,153,18.82%
532,1,154,18.94%
533,0,154,18.94%
534,0,154,18.94%
535,0,154,18.94%
536,0,154,18.94%
537,0,154,18.94%
538,0,154,18.94%
539,0,154,18.94%
540,2,156,19.19%
541,0,156,19.19%
542,0,156,19.19%
543,0,156,19.19%
544,2,158,19.43%
545,0,158,19.43%
546,0,158,19.43%
547,0,158,19.43%
548,8,166,20.42%
549,0,166,20.42%
550,0,166,20.42%
551,1,167,20.54%
552,0,167,20.54%
553,0,167,20.54%
554,0,167,20.54%
555,0,167,20.54%
556,1,168,20.66%
557,0,168,20.66%
558,0,168,20.66%
559,0,168,20.66%
560,0,168,20.66%
561,0,168,20.66%
562,0,168,20.66%
563,0,168,20.66%
564,0,168,20.66%
565,2,170,20.91%
566,0,170,20.91%
567,0,170,20.91%
568,0,170,20.91%
569,1,171,21.03%
570,0,171,21.03%
571,0,171,21.03%
572,0,171,21.03%
573,0,171,21.03%
574,0,171,21.03%
575,1,172,21.16%
576,0,172,21.16%
577,0,172,21.16%
578,2,174,21.4%
579,0,174,21.4%
580,0,174,21.4%
581,0,174,21.4%
582,5,179,22.02%
583,0,179,22.02%
584,0,179,22.02%
585,0,179,22.02%
586,0,179,22.02%
587,0,179,22.02%
588,0,179,22.02%
589,0,179,22.02%
590,0,179,22.02%
591,0,179,22.02%
592,1,180,22.14%
593,0,180,22.14%
594,0,180,22.14%
595,0,180,22.14%
596,1,181,22.26%
597,0,181,22.26%
598,1,182,22.39%
599,0,182,22.39%
600,0,182,22.39%
601,0,182,22.39%
602,0,182,22.39%
603,0,182,22.39%
604,0,182,22.39%
605,0,182,22.39%
606,0,182,22.39%
607,1,183,22.51%
608,0,183,22.51%
609,0,183,22.51%
610,0,183,22.51%
611,0,183,22.51%
612,0,183,22.51%
613,0,183,22.51%
614,0,183,22.51%
615,0,183,22.51%
616,0,183,22.51%
617,0,183,22.51%
618,0,183,22.51%
619,0,183,22.51%
620,0,183,22.51%
621,0,183,22.51%
622,0,183,22.51%
623,0,183,22.51%
624,0,183,22.51%
625,0,183,22.51%
626,0,183,22.51%
627,0,183,22.51%
628,0,183,22.51%
629,0,183,22.51%
630,0,183,22.51%
631,0,183,22.51%
632,0,183,22.51%
633,1,184,22.63%
634,0,184,22.63%
635,0,184,22.63%
636,0,184,22.63%
637,0,184,22.63%
638,0,184,22.63%
639,0,184,22.63%
640,1,185,22.76%
641,0,185,22.76%
642,0,185,22.76%
643,1,186,22.88%
644,0,186,22.88%
645,0,186,22.88%
646,0,186,22.88%
647,1,187,23.0%
648,0,187,23.0%
649,0,187,23.0%
650,0,187,23.0%
651,0,187,23.0%
652,0,187,23.0%
653,0,187,23.0%
654,1,188,23.12%
655,0,188,23.12%
656,0,188,23.12%
657,0,188,23.12%
658,0,188,23.12%
659,0,188,23.12%
660,1,189,23.25%
661,0,189,23.25%
662,0,189,23.25%
663,1,190,23.37%
664,0,190,23.37%
665,9,199,24.48%
666,0,199,24.48%
667,1,200,24.6%
668,0,200,24.6%
669,0,200,24.6%
670,0,200,24.6%
671,0,200,24.6%
672,0,200,24.6%
673,0,200,24.6%
674,0,200,24.6%
675,0,200,24.6%
676,0,200,24.6%
677,1,201,24.72%
678,0,201,24.72%
679,1,202,24.85%
680,0,202,24.85%
681,0,202,24.85%
682,1,203,24.97%
683,0,203,24.97%
684,0,203,24.97%
685,1,204,25.09%
686,0,204,25.09%
687,0,204,25.09%
688,0,204,25.09%
689,0,204,25.09%
690,0,204,25.09%
691,0,204,25.09%
692,0,204,25.09%
693,0,204,25.09%
694,0,204,25.09%
695,0,204,25.09%
696,0,204,25.09%
697,1,205,25.22%
698,0,205,25.22%
699,0,205,25.22%
700,0,205,25.22%
701,1,206,25.34%
702,0,206,25.34%
703,0,206,25.34%
704,0,206,25.34%
705,1,207,25.46%
706,0,207,25.46%
707,0,207,25.46%
708,0,207,25.46%
709,4,211,25.95%
710,0,211,25.95%
711,1,212,26.08%
712,0,212,26.08%
713,0,212,26.08%
714,0,212,26.08%
715,0,212,26.08%
716,0,212,26.08%
717,1,213,26.2%
718,0,213,26.2%
719,0,213,26.2%
720,0,213,26.2%
721,0,213,26.2%
722,0,213,26.2%
723,0,213,26.2%
724,0,213,26.2%
725,0,213,26.2%
726,0,213,26.2%
727,1,214,26.32%
728,0,214,26.32%
729,0,214,26.32%
730,0,214,26.32%
731,1,215,26.45%
732,0,215,26.45%
733,4,219,26.94%
734,1,220,27.06%
735,1,221,27.18%
736,2,223,27.43%
737,0,223,27.43%
738,2,225,27.68%
739,2,227,27.92%
740,0,227,27.92%
741,1,228,28.04%
742,0,228,28.04%
743,2,230,28.29%
744,583,813,100.0%
