Length, Count, Sum (Counts <= Length), Percent of Nonzero Data, Nonzero Data Count = 840, Zero Data Count = 1004
1,1,1,0.12%
2,0,1,0.12%
3,0,1,0.12%
4,0,1,0.12%
5,0,1,0.12%
6,0,1,0.12%
7,0,1,0.12%
8,0,1,0.12%
9,0,1,0.12%
10,0,1,0.12%
11,0,1,0.12%
12,0,1,0.12%
13,0,1,0.12%
14,1,2,0.24%
15,0,2,0.24%
16,0,2,0.24%
17,0,2,0.24%
18,0,2,0.24%
19,0,2,0.24%
20,0,2,0.24%
21,0,2,0.24%
22,0,2,0.24%
23,0,2,0.24%
24,0,2,0.24%
25,0,2,0.24%
26,0,2,0.24%
27,0,2,0.24%
28,1,3,0.36%
29,0,3,0.36%
30,0,3,0.36%
31,0,3,0.36%
32,0,3,0.36%
33,0,3,0.36%
34,0,3,0.36%
35,0,3,0.36%
36,0,3,0.36%
37,0,3,0.36%
38,0,3,0.36%
39,1,4,0.48%
40,0,4,0.48%
41,0,4,0.48%
42,0,4,0.48%
43,0,4,0.48%
44,1,5,0.6%
45,1,6,0.71%
46,0,6,0.71%
47,0,6,0.71%
48,0,6,0.71%
49,0,6,0.71%
50,1,7,0.83%
51,0,7,0.83%
52,1,8,0.95%
53,0,8,0.95%
54,0,8,0.95%
55,1,9,1.07%
56,0,9,1.07%
57,0,9,1.07%
58,0,9,1.07%
59,0,9,1.07%
60,0,9,1.07%
61,0,9,1.07%
62,0,9,1.07%
63,0,9,1.07%
64,0,9,1.07%
65,0,9,1.07%
66,0,9,1.07%
67,0,9,1.07%
68,0,9,1.07%
69,0,9,1.07%
70,0,9,1.07%
71,0,9,1.07%
72,0,9,1.07%
73,1,10,1.19%
74,0,10,1.19%
75,0,10,1.19%
76,0,10,1.19%
77,0,10,1.19%
78,0,10,1.19%
79,1,11,1.31%
80,0,11,1.31%
81,0,11,1.31%
82,0,11,1.31%
83,0,11,1.31%
84,0,11,1.31%
85,0,11,1.31%
86,0,11,1.31%
87,0,11,1.31%
88,0,11,1.31%
89,1,12,1.43%
90,0,12,1.43%
91,0,12,1.43%
92,0,12,1.43%
93,1,13,1.55%
94,0,13,1.55%
95,0,13,1.55%
96,0,13,1.55%
97,1,14,1.67%
98,0,14,1.67%
99,0,14,1.67%
100,0,14,1.67%
101,0,14,1.67%
102,0,14,1.67%
103,0,14,1.67%
104,0,14,1.67%
105,0,14,1.67%
106,1,15,1.79%
107,1,16,1.9%
108,0,16,1.9%
109,0,16,1.9%
110,0,16,1.9%
111,0,16,1.9%
112,0,16,1.9%
113,0,16,1.9%
114,0,16,1.9%
115,0,16,1.9%
116,0,16,1.9%
117,0,16,1.9%
118,0,16,1.9%
119,0,16,1.9%
120,0,16,1.9%
121,1,17,2.02%
122,0,17,2.02%
123,0,17,2.02%
124,0,17,2.02%
125,0,17,2.02%
126,0,17,2.02%
127,0,17,2.02%
128,0,17,2.02%
129,0,17,2.02%
130,0,17,2.02%
131,0,17,2.02%
132,0,17,2.02%
133,0,17,2.02%
134,0,17,2.02%
135,0,17,2.02%
136,1,18,2.14%
137,0,18,2.14%
138,0,18,2.14%
139,0,18,2.14%
140,1,19,2.26%
141,0,19,2.26%
142,0,19,2.26%
143,0,19,2.26%
144,0,19,2.26%
145,2,21,2.5%
146,0,21,2.5%
147,0,21,2.5%
148,0,21,2.5%
149,0,21,2.5%
150,0,21,2.5%
151,0,21,2.5%
152,0,21,2.5%
153,0,21,2.5%
154,0,21,2.5%
155,1,22,2.62%
156,0,22,2.62%
157,2,24,2.86%
158,1,25,2.98%
159,0,25,2.98%
160,0,25,2.98%
161,0,25,2.98%
162,0,25,2.98%
163,0,25,2.98%
164,0,25,2.98%
165,1,26,3.1%
166,0,26,3.1%
167,0,26,3.1%
168,0,26,3.1%
169,0,26,3.1%
170,2,28,3.33%
171,0,28,3.33%
172,0,28,3.33%
173,0,28,3.33%
174,0,28,3.33%
175,0,28,3.33%
176,1,29,3.45%
177,0,29,3.45%
178,0,29,3.45%
179,0,29,3.45%
180,1,30,3.57%
181,1,31,3.69%
182,0,31,3.69%
183,0,31,3.69%
184,0,31,3.69%
185,0,31,3.69%
186,0,31,3.69%
187,1,32,3.81%
188,0,32,3.81%
189,0,32,3.81%
190,0,32,3.81%
191,0,32,3.81%
192,0,32,3.81%
193,0,32,3.81%
194,0,32,3.81%
195,0,32,3.81%
196,0,32,3.81%
197,0,32,3.81%
198,0,32,3.81%
199,0,32,3.81%
200,2,34,4.05%
201,1,35,4.17%
202,1,36,4.29%
203,0,36,4.29%
204,0,36,4.29%
205,0,36,4.29%
206,0,36,4.29%
207,1,37,4.4%
208,0,37,4.4%
209,0,37,4.4%
210,0,37,4.4%
211,1,38,4.52%
212,0,38,4.52%
213,1,39,4.64%
214,0,39,4.64%
215,1,40,4.76%
216,2,42,5.0%
217,0,42,5.0%
218,0,42,5.0%
219,0,42,5.0%
220,0,42,5.0%
221,0,42,5.0%
222,2,44,5.24%
223,0,44,5.24%
224,0,44,5.24%
225,0,44,5.24%
226,0,44,5.24%
227,0,44,5.24%
228,0,44,5.24%
229,0,44,5.24%
230,1,45,5.36%
231,0,45,5.36%
232,0,45,5.36%
233,0,45,5.36%
234,0,45,5.36%
235,0,45,5.36%
236,1,46,5.48%
237,0,46,5.48%
238,0,46,5.48%
239,0,46,5.48%
240,0,46,5.48%
241,0,46,5.48%
242,0,46,5.48%
243,1,47,5.6%
244,1,48,5.71%
245,0,48,5.71%
246,0,48,5.71%
247,0,48,5.71%
248,1,49,5.83%
249,0,49,5.83%
250,0,49,5.83%
251,0,49,5.83%
252,0,49,5.83%
253,0,49,5.83%
254,0,49,5.83%
255,0,49,5.83%
256,0,49,5.83%
257,0,49,5.83%
258,0,49,5.83%
259,1,50,5.95%
260,1,51,6.07%
261,0,51,6.07%
262,0,51,6.07%
263,1,52,6.19%
264,0,52,6.19%
265,0,52,6.19%
266,0,52,6.19%
267,0,52,6.19%
268,0,52,6.19%
269,0,52,6.19%
270,2,54,6.43%
271,0,54,6.43%
272,0,54,6.43%
273,1,55,6.55%
274,0,55,6.55%
275,0,55,6.55%
276,0,55,6.55%
277,0,55,6.55%
278,0,55,6.55%
279,0,55,6.55%
280,0,55,6.55%
281,0,55,6.55%
282,0,55,6.55%
283,0,55,6.55%
284,0,55,6.55%
285,1,56,6.67%
286,0,56,6.67%
287,0,56,6.67%
288,0,56,6.67%
289,1,57,6.79%
290,0,57,6.79%
291,0,57,6.79%
292,0,57,6.79%
293,0,57,6.79%
294,0,57,6.79%
295,0,57,6.79%
296,0,57,6.79%
297,0,57,6.79%
298,0,57,6.79%
299,0,57,6.79%
300,0,57,6.79%
301,0,57,6.79%
302,0,57,6.79%
303,2,59,7.02%
304,0,59,7.02%
305,1,60,7.14%
306,0,60,7.14%
307,0,60,7.14%
308,1,61,7.26%
309,0,61,7.26%
310,0,61,7.26%
311,2,63,7.5%
312,0,63,7.5%
313,0,63,7.5%
314,0,63,7.5%
315,0,63,7.5%
316,0,63,7.5%
317,0,63,7.5%
318,0,63,7.5%
319,0,63,7.5%
320,0,63,7.5%
321,0,63,7.5%
322,0,63,7.5%
323,0,63,7.5%
324,0,63,7.5%
325,2,65,7.74%
326,0,65,7.74%
327,0,65,7.74%
328,1,66,7.86%
329,0,66,7.86%
330,0,66,7.86%
331,0,66,7.86%
332,0,66,7.86%
333,0,66,7.86%
334,0,66,7.86%
335,0,66,7.86%
336,0,66,7.86%
337,0,66,7.86%
338,0,66,7.86%
339,0,66,7.86%
340,0,66,7.86%
341,0,66,7.86%
342,0,66,7.86%
343,2,68,8.1%
344,0,68,8.1%
345,0,68,8.1%
346,0,68,8.1%
347,0,68,8.1%
348,0,68,8.1%
349,3,71,8.45%
350,1,72,8.57%
351,15,87,10.36%
352,10,97,11.55%
353,0,97,11.55%
354,0,97,11.55%
355,0,97,11.55%
356,0,97,11.55%
357,0,97,11.55%
358,5,102,12.14%
359,0,102,12.14%
360,3,105,12.5%
361,0,105,12.5%
362,0,105,12.5%
363,1,106,12.62%
364,0,106,12.62%
365,0,106,12.62%
366,1,107,12.74%
367,0,107,12.74%
368,0,107,12.74%
369,0,107,12.74%
370,1,108,12.86%
371,1,109,12.98%
372,1,110,13.1%
373,0,110,13.1%
374,0,110,13.1%
375,0,110,13.1%
376,0,110,13.1%
377,0,110,13.1%
378,0,110,13.1%
379,0,110,13.1%
380,0,110,13.1%
381,1,111,13.21%
382,1,112,13.33%
383,0,112,13.33%
384,0,112,13.33%
385,0,112,13.33%
386,0,112,13.33%
387,0,112,13.33%
388,0,112,13.33%
389,2,114,13.57%
390,0,114,13.57%
391,1,115,13.69%
392,0,115,13.69%
393,1,116,13.81%
394,0,116,13.81%
395,0,116,13.81%
396,0,116,13.81%
397,1,117,13.93%
398,0,117,13.93%
399,0,117,13.93%
400,0,117,13.93%
401,1,118,14.05%
402,0,118,14.05%
403,0,118,14.05%
404,0,118,14.05%
405,0,118,14.05%
406,2,120,14.29%
407,0,120,14.29%
408,0,120,14.29%
409,0,120,14.29%
410,0,120,14.29%
411,0,120,14.29%
412,1,121,14.4%
413,0,121,14.4%
414,0,121,14.4%
415,0,121,14.4%
416,0,121,14.4%
417,0,121,14.4%
418,0,121,14.4%
419,0,121,14.4%
420,1,122,14.52%
421,0,122,14.52%
422,1,123,14.64%
423,0,123,14.64%
424,0,123,14.64%
425,0,123,14.64%
426,0,123,14.64%
427,0,123,14.64%
428,0,123,14.64%
429,0,123,14.64%
430,0,123,14.64%
431,0,123,14.64%
432,0,123,14.64%
433,0,123,14.64%
434,0,123,14.64%
435,2,125,14.88%
436,0,125,14.88%
437,0,125,14.88%
438,1,126,15.0%
439,0,126,15.0%
440,0,126,15.0%
441,1,127,15.12%
442,0,127,15.12%
443,0,127,15.12%
444,0,127,15.12%
445,1,128,15.24%
446,1,129,15.36%
447,0,129,15.36%
448,0,129,15.36%
449,0,129,15.36%
450,0,129,15.36%
451,0,129,15.36%
452,0,129,15.36%
453,1,130,15.48%
454,1,131,15.6%
455,0,131,15.6%
456,0,131,15.6%
457,0,131,15.6%
458,0,131,15.6%
459,0,131,15.6%
460,0,131,15.6%
461,1,132,15.71%
462,0,132,15.71%
463,0,132,15.71%
464,1,133,15.83%
465,1,134,15.95%
466,1,135,16.07%
467,0,135,16.07%
468,0,135,16.07%
469,0,135,16.07%
470,0,135,16.07%
471,0,135,16.07%
472,0,135,16.07%
473,0,135,16.07%
474,0,135,16.07%
475,0,135,16.07%
476,0,135,16.07%
477,1,136,16.19%
478,0,136,16.19%
479,2,138,16.43%
480,0,138,16.43%
481,0,138,16.43%
482,1,139,16.55%
483,1,140,16.67%
484,0,140,16.67%
485,0,140,16.67%
486,0,140,16.67%
487,1,141,16.79%
488,0,141,16.79%
489,0,141,16.79%
490,0,141,16.79%
491,1,142,16.9%
492,1,143,17.02%
493,0,143,17.02%
494,0,143,17.02%
495,2,145,17.26%
496,1,146,17.38%
497,0,146,17.38%
498,1,147,17.5%
499,0,147,17.5%
500,0,147,17.5%
501,1,148,17.62%
502,0,148,17.62%
503,1,149,17.74%
504,0,149,17.74%
505,0,149,17.74%
506,0,149,17.74%
507,0,149,17.74%
508,0,149,17.74%
509,0,149,17.74%
510,0,149,17.74%
511,0,149,17.74%
512,0,149,17.74%
513,0,149,17.74%
514,1,150,17.86%
515,0,150,17.86%
516,1,151,17.98%
517,0,151,17.98%
518,0,151,17.98%
519,0,151,17.98%
520,0,151,17.98%
521,0,151,17.98%
522,0,151,17.98%
523,1,152,18.1%
524,0,152,18.1%
525,0,152,18.1%
526,0,152,18.1%
527,0,152,18.1%
528,1,153,18.21%
529,1,154,18.33%
530,0,154,18.33%
531,0,154,18.33%
532,0,154,18.33%
533,0,154,18.33%
534,0,154,18.33%
535,1,155,18.45%
536,0,155,18.45%
537,0,155,18.45%
538,0,155,18.45%
539,0,155,18.45%
540,0,155,18.45%
541,0,155,18.45%
542,1,156,18.57%
543,0,156,18.57%
544,0,156,18.57%
545,0,156,18.57%
546,1,157,18.69%
547,0,157,18.69%
548,0,157,18.69%
549,1,158,18.81%
550,0,158,18.81%
551,0,158,18.81%
552,0,158,18.81%
553,0,158,18.81%
554,0,158,18.81%
555,0,158,18.81%
556,0,158,18.81%
557,0,158,18.81%
558,0,158,18.81%
559,0,158,18.81%
560,0,158,18.81%
561,0,158,18.81%
562,1,159,18.93%
563,0,159,18.93%
564,1,160,19.05%
565,0,160,19.05%
566,0,160,19.05%
567,0,160,19.05%
568,0,160,19.05%
569,0,160,19.05%
570,0,160,19.05%
571,1,161,19.17%
572,0,161,19.17%
573,2,163,19.4%
574,0,163,19.4%
575,0,163,19.4%
576,8,171,20.36%
577,0,171,20.36%
578,0,171,20.36%
579,1,172,20.48%
580,0,172,20.48%
581,1,173,20.6%
582,0,173,20.6%
583,0,173,20.6%
584,0,173,20.6%
585,0,173,20.6%
586,0,173,20.6%
587,1,174,20.71%
588,0,174,20.71%
589,0,174,20.71%
590,1,175,20.83%
591,0,175,20.83%
592,0,175,20.83%
593,0,175,20.83%
594,0,175,20.83%
595,0,175,20.83%
596,1,176,20.95%
597,0,176,20.95%
598,0,176,20.95%
599,1,177,21.07%
600,0,177,21.07%
601,1,178,21.19%
602,1,179,21.31%
603,0,179,21.31%
604,0,179,21.31%
605,0,179,21.31%
606,0,179,21.31%
607,0,179,21.31%
608,0,179,21.31%
609,0,179,21.31%
610,0,179,21.31%
611,0,179,21.31%
612,0,179,21.31%
613,0,179,21.31%
614,1,180,21.43%
615,0,180,21.43%
616,0,180,21.43%
617,1,181,21.55%
618,1,182,21.67%
619,0,182,21.67%
620,0,182,21.67%
621,0,182,21.67%
622,2,184,21.9%
623,0,184,21.9%
624,0,184,21.9%
625,0,184,21.9%
626,3,187,22.26%
627,0,187,22.26%
628,0,187,22.26%
629,0,187,22.26%
630,4,191,22.74%
631,0,191,22.74%
632,2,193,22.98%
633,0,193,22.98%
634,0,193,22.98%
635,0,193,22.98%
636,0,193,22.98%
637,0,193,22.98%
638,1,194,23.1%
639,0,194,23.1%
640,1,195,23.21%
641,0,195,23.21%
642,0,195,23.21%
643,0,195,23.21%
644,0,195,23.21%
645,0,195,23.21%
646,0,195,23.21%
647,0,195,23.21%
648,1,196,23.33%
649,1,197,23.45%
650,0,197,23.45%
651,0,197,23.45%
652,0,197,23.45%
653,1,198,23.57%
654,4,202,24.05%
655,1,203,24.17%
656,1,204,24.29%
657,1,205,24.4%
658,0,205,24.4%
659,2,207,24.64%
660,1,208,24.76%
661,1,209,24.88%
662,0,209,24.88%
663,1,210,25.0%
664,2,212,25.24%
665,1,213,25.36%
666,0,213,25.36%
667,1,214,25.48%
668,1,215,25.6%
669,3,218,25.95%
670,5,223,26.55%
671,1,224,26.67%
672,1,225,26.79%
673,2,227,27.02%
674,1,228,27.14%
675,3,231,27.5%
676,1,232,27.62%
677,0,232,27.62%
678,0,232,27.62%
679,6,238,28.33%
680,2,240,28.57%
681,0,240,28.57%
682,1,241,28.69%
683,2,243,28.93%
684,1,244,29.05%
685,2,246,29.29%
686,0,246,29.29%
687,2,248,29.52%
688,3,251,29.88%
689,1,252,30.0%
690,0,252,30.0%
691,1,253,30.12%
692,1,254,30.24%
693,7,261,31.07%
694,0,261,31.07%
695,4,265,31.55%
696,0,265,31.55%
697,3,268,31.9%
698,2,270,32.14%
699,5,275,32.74%
700,1,276,32.86%
701,1,277,32.98%
702,2,279,33.21%
703,7,286,34.05%
704,1,287,34.17%
705,0,287,34.17%
706,0,287,34.17%
707,0,287,34.17%
708,1,288,34.29%
709,1,289,34.4%
710,0,289,34.4%
711,2,291,34.64%
712,6,297,35.36%
713,3,300,35.71%
714,3,303,36.07%
715,1,304,36.19%
716,3,307,36.55%
717,2,309,36.79%
718,0,309,36.79%
719,0,309,36.79%
720,0,309,36.79%
721,0,309,36.79%
722,4,313,37.26%
723,3,316,37.62%
724,1,317,37.74%
725,2,319,37.98%
726,0,319,37.98%
727,6,325,38.69%
728,3,328,39.05%
729,0,328,39.05%
730,1,329,39.17%
731,1,330,39.29%
732,2,332,39.52%
733,2,334,39.76%
734,1,335,39.88%
735,0,335,39.88%
736,1,336,40.0%
737,6,342,40.71%
738,10,352,41.9%
739,2,354,42.14%
740,2,356,42.38%
741,7,363,43.21%
742,0,363,43.21%
743,0,363,43.21%
744,0,363,43.21%
745,4,367,43.69%
746,2,369,43.93%
747,1,370,44.05%
748,3,373,44.4%
749,0,373,44.4%
750,3,376,44.76%
751,3,379,45.12%
752,2,381,45.36%
753,2,383,45.6%
754,0,383,45.6%
755,1,384,45.71%
756,0,384,45.71%
757,4,388,46.19%
758,2,390,46.43%
759,0,390,46.43%
760,0,390,46.43%
761,2,392,46.67%
762,0,392,46.67%
763,2,394,46.9%
764,0,394,46.9%
765,1,395,47.02%
766,1,396,47.14%
767,0,396,47.14%
768,0,396,47.14%
769,1,397,47.26%
770,0,397,47.26%
771,2,399,47.5%
772,0,399,47.5%
773,0,399,47.5%
774,0,399,47.5%
775,1,400,47.62%
776,4,404,48.1%
777,1,405,48.21%
778,0,405,48.21%
779,1,406,48.33%
780,1,407,48.45%
781,0,407,48.45%
782,1,408,48.57%
783,0,408,48.57%
784,4,412,49.05%
785,3,415,49.4%
786,3,418,49.76%
787,2,420,50.0%
788,0,420,50.0%
789,2,422,50.24%
790,4,426,50.71%
791,2,428,50.95%
792,3,431,51.31%
793,0,431,51.31%
794,4,435,51.79%
795,8,443,52.74%
796,3,446,53.1%
797,3,449,53.45%
798,0,449,53.45%
799,0,449,53.45%
800,3,452,53.81%
801,1,453,53.93%
802,0,453,53.93%
803,2,455,54.17%
804,3,458,54.52%
805,0,458,54.52%
806,0,458,54.52%
807,0,458,54.52%
808,1,459,54.64%
809,1,460,54.76%
810,1,461,54.88%
811,3,464,55.24%
812,0,464,55.24%
813,0,464,55.24%
814,0,464,55.24%
815,0,464,55.24%
816,0,464,55.24%
817,0,464,55.24%
818,2,466,55.48%
819,2,468,55.71%
820,1,469,55.83%
821,2,471,56.07%
822,4,475,56.55%
823,2,477,56.79%
824,5,482,57.38%
825,1,483,57.5%
826,0,483,57.5%
827,4,487,57.98%
828,4,491,58.45%
829,9,500,59.52%
830,3,503,59.88%
831,0,503,59.88%
832,3,506,60.24%
833,4,510,60.71%
834,2,512,60.95%
835,0,512,60.95%
836,0,512,60.95%
837,1,513,61.07%
838,4,517,61.55%
839,2,519,61.79%
840,0,519,61.79%
841,2,521,62.02%
842,2,523,62.26%
843,3,526,62.62%
844,1,527,62.74%
845,1,528,62.86%
846,0,528,62.86%
847,2,530,63.1%
848,5,535,63.69%
849,0,535,63.69%
850,0,535,63.69%
851,4,539,64.17%
852,2,541,64.4%
853,1,542,64.52%
854,2,544,64.76%
855,3,547,65.12%
856,3,550,65.48%
857,2,552,65.71%
858,3,555,66.07%
859,2,557,66.31%
860,1,558,66.43%
861,2,560,66.67%
862,2,562,66.9%
863,2,564,67.14%
864,0,564,67.14%
865,0,564,67.14%
866,2,566,67.38%
867,3,569,67.74%
868,0,569,67.74%
869,0,569,67.74%
870,0,569,67.74%
871,1,570,67.86%
872,1,571,67.98%
873,0,571,67.98%
874,0,571,67.98%
875,1,572,68.1%
876,3,575,68.45%
877,1,576,68.57%
878,3,579,68.93%
879,4,583,69.4%
880,0,583,69.4%
881,2,585,69.64%
882,1,586,69.76%
883,7,593,70.6%
884,2,595,70.83%
885,0,595,70.83%
886,1,596,70.95%
887,0,596,70.95%
888,0,596,70.95%
889,3,599,71.31%
890,1,600,71.43%
891,0,600,71.43%
892,9,609,72.5%
893,1,610,72.62%
894,0,610,72.62%
895,0,610,72.62%
896,1,611,72.74%
897,1,612,72.86%
898,0,612,72.86%
899,1,613,72.98%
900,1,614,73.1%
901,1,615,73.21%
902,2,617,73.45%
903,0,617,73.45%
904,0,617,73.45%
905,0,617,73.45%
906,0,617,73.45%
907,1,618,73.57%
908,0,618,73.57%
909,0,618,73.57%
910,2,620,73.81%
911,2,622,74.05%
912,1,623,74.17%
913,1,624,74.29%
914,1,625,74.4%
915,5,630,75.0%
916,1,631,75.12%
917,0,631,75.12%
918,0,631,75.12%
919,1,632,75.24%
920,0,632,75.24%
921,3,635,75.6%
922,1,636,75.71%
923,1,637,75.83%
924,0,637,75.83%
925,3,640,76.19%
926,2,642,76.43%
927,2,644,76.67%
928,1,645,76.79%
929,0,645,76.79%
930,195,840,100.0%
