Length, Count, Sum (Counts <= Length), Percent of Nonzero Data, Nonzero Data Count = 284, Zero Data Count = 1560
1,2,2,0.7%
2,0,2,0.7%
3,1,3,1.06%
4,0,3,1.06%
5,0,3,1.06%
6,0,3,1.06%
7,0,3,1.06%
8,0,3,1.06%
9,0,3,1.06%
10,0,3,1.06%
11,0,3,1.06%
12,0,3,1.06%
13,0,3,1.06%
14,0,3,1.06%
15,0,3,1.06%
16,0,3,1.06%
17,0,3,1.06%
18,1,4,1.41%
19,0,4,1.41%
20,0,4,1.41%
21,0,4,1.41%
22,0,4,1.41%
23,0,4,1.41%
24,0,4,1.41%
25,0,4,1.41%
26,0,4,1.41%
27,0,4,1.41%
28,0,4,1.41%
29,0,4,1.41%
30,0,4,1.41%
31,1,5,1.76%
32,0,5,1.76%
33,1,6,2.11%
34,0,6,2.11%
35,0,6,2.11%
36,0,6,2.11%
37,0,6,2.11%
38,0,6,2.11%
39,0,6,2.11%
40,0,6,2.11%
41,1,7,2.46%
42,0,7,2.46%
43,0,7,2.46%
44,0,7,2.46%
45,0,7,2.46%
46,0,7,2.46%
47,0,7,2.46%
48,0,7,2.46%
49,0,7,2.46%
50,0,7,2.46%
51,0,7,2.46%
52,1,8,2.82%
53,0,8,2.82%
54,1,9,3.17%
55,0,9,3.17%
56,0,9,3.17%
57,0,9,3.17%
58,0,9,3.17%
59,0,9,3.17%
60,1,10,3.52%
61,0,10,3.52%
62,0,10,3.52%
63,1,11,3.87%
64,0,11,3.87%
65,0,11,3.87%
66,0,11,3.87%
67,0,11,3.87%
68,0,11,3.87%
69,0,11,3.87%
70,0,11,3.87%
71,1,12,4.23%
72,0,12,4.23%
73,0,12,4.23%
74,0,12,4.23%
75,1,13,4.58%
76,0,13,4.58%
77,0,13,4.58%
78,0,13,4.58%
79,0,13,4.58%
80,0,13,4.58%
81,0,13,4.58%
82,0,13,4.58%
83,0,13,4.58%
84,1,14,4.93%
85,0,14,4.93%
86,0,14,4.93%
87,0,14,4.93%
88,0,14,4.93%
89,0,14,4.93%
90,1,15,5.28%
91,0,15,5.28%
92,0,15,5.28%
93,0,15,5.28%
94,0,15,5.28%
95,0,15,5.28%
96,0,15,5.28%
97,0,15,5.28%
98,0,15,5.28%
99,0,15,5.28%
100,1,16,5.63%
101,0,16,5.63%
102,0,16,5.63%
103,0,16,5.63%
104,0,16,5.63%
105,0,16,5.63%
106,1,17,5.99%
107,0,17,5.99%
108,0,17,5.99%
109,0,17,5.99%
110,1,18,6.34%
111,0,18,6.34%
112,0,18,6.34%
113,1,19,6.69%
114,1,20,7.04%
115,0,20,7.04%
116,0,20,7.04%
117,0,20,7.04%
118,0,20,7.04%
119,0,20,7.04%
120,0,20,7.04%
121,0,20,7.04%
122,1,21,7.39%
123,1,22,7.75%
124,0,22,7.75%
125,0,22,7.75%
126,0,22,7.75%
127,0,22,7.75%
128,0,22,7.75%
129,0,22,7.75%
130,0,22,7.75%
131,0,22,7.75%
132,0,22,7.75%
133,0,22,7.75%
134,1,23,8.1%
135,0,23,8.1%
136,0,23,8.1%
137,0,23,8.1%
138,0,23,8.1%
139,0,23,8.1%
140,0,23,8.1%
141,1,24,8.45%
142,0,24,8.45%
143,0,24,8.45%
144,0,24,8.45%
145,0,24,8.45%
146,0,24,8.45%
147,0,24,8.45%
148,0,24,8.45%
149,1,25,8.8%
150,0,25,8.8%
151,0,25,8.8%
152,0,25,8.8%
153,0,25,8.8%
154,0,25,8.8%
155,0,25,8.8%
156,0,25,8.8%
157,0,25,8.8%
158,1,26,9.15%
159,0,26,9.15%
160,0,26,9.15%
161,0,26,9.15%
162,0,26,9.15%
163,0,26,9.15%
164,0,26,9.15%
165,0,26,9.15%
166,0,26,9.15%
167,0,26,9.15%
168,0,26,9.15%
169,0,26,9.15%
170,0,26,9.15%
171,1,27,9.51%
172,0,27,9.51%
173,0,27,9.51%
174,0,27,9.51%
175,0,27,9.51%
176,0,27,9.51%
177,0,27,9.51%
178,0,27,9.51%
179,0,27,9.51%
180,0,27,9.51%
181,0,27,9.51%
182,0,27,9.51%
183,0,27,9.51%
184,0,27,9.51%
185,1,28,9.86%
186,0,28,9.86%
187,0,28,9.86%
188,0,28,9.86%
189,1,29,10.21%
190,0,29,10.21%
191,2,31,10.92%
192,0,31,10.92%
193,0,31,10.92%
194,0,31,10.92%
195,0,31,10.92%
196,0,31,10.92%
197,1,32,11.27%
198,0,32,11.27%
199,0,32,11.27%
200,0,32,11.27%
201,0,32,11.27%
202,0,32,11.27%
203,0,32,11.27%
204,0,32,11.27%
205,0,32,11.27%
206,0,32,11.27%
207,0,32,11.27%
208,0,32,11.27%
209,0,32,11.27%
210,0,32,11.27%
211,0,32,11.27%
212,0,32,11.27%
213,0,32,11.27%
214,0,32,11.27%
215,0,32,11.27%
216,0,32,11.27%
217,0,32,11.27%
218,0,32,11.27%
219,0,32,11.27%
220,0,32,11.27%
221,0,32,11.27%
222,1,33,11.62%
223,0,33,11.62%
224,0,33,11.62%
225,1,34,11.97%
226,0,34,11.97%
227,0,34,11.97%
228,0,34,11.97%
229,0,34,11.97%
230,0,34,11.97%
231,0,34,11.97%
232,0,34,11.97%
233,0,34,11.97%
234,0,34,11.97%
235,0,34,11.97%
236,0,34,11.97%
237,0,34,11.97%
238,0,34,11.97%
239,0,34,11.97%
240,0,34,11.97%
241,1,35,12.32%
242,1,36,12.68%
243,0,36,12.68%
244,0,36,12.68%
245,0,36,12.68%
246,0,36,12.68%
247,0,36,12.68%
248,1,37,13.03%
249,0,37,13.03%
250,0,37,13.03%
251,0,37,13.03%
252,0,37,13.03%
253,0,37,13.03%
254,0,37,13.03%
255,0,37,13.03%
256,1,38,13.38%
257,0,38,13.38%
258,0,38,13.38%
259,0,38,13.38%
260,1,39,13.73%
261,0,39,13.73%
262,0,39,13.73%
263,0,39,13.73%
264,0,39,13.73%
265,0,39,13.73%
266,0,39,13.73%
267,0,39,13.73%
268,0,39,13.73%
269,0,39,13.73%
270,0,39,13.73%
271,0,39,13.73%
272,0,39,13.73%
273,1,40,14.08%
274,0,40,14.08%
275,0,40,14.08%
276,0,40,14.08%
277,0,40,14.08%
278,1,41,14.44%
279,1,42,14.79%
280,0,42,14.79%
281,0,42,14.79%
282,1,43,15.14%
283,0,43,15.14%
284,0,43,15.14%
285,0,43,15.14%
286,0,43,15.14%
287,0,43,15.14%
288,0,43,15.14%
289,0,43,15.14%
290,0,43,15.14%
291,0,43,15.14%
292,0,43,15.14%
293,0,43,15.14%
294,1,44,15.49%
295,0,44,15.49%
296,0,44,15.49%
297,0,44,15.49%
298,0,44,15.49%
299,0,44,15.49%
300,0,44,15.49%
301,0,44,15.49%
302,0,44,15.49%
303,0,44,15.49%
304,0,44,15.49%
305,0,44,15.49%
306,0,44,15.49%
307,0,44,15.49%
308,0,44,15.49%
309,0,44,15.49%
310,0,44,15.49%
311,0,44,15.49%
312,0,44,15.49%
313,0,44,15.49%
314,0,44,15.49%
315,0,44,15.49%
316,0,44,15.49%
317,0,44,15.49%
318,0,44,15.49%
319,1,45,15.85%
320,0,45,15.85%
321,0,45,15.85%
322,0,45,15.85%
323,0,45,15.85%
324,0,45,15.85%
325,0,45,15.85%
326,1,46,16.2%
327,0,46,16.2%
328,0,46,16.2%
329,1,47,16.55%
330,0,47,16.55%
331,0,47,16.55%
332,0,47,16.55%
333,0,47,16.55%
334,1,48,16.9%
335,0,48,16.9%
336,0,48,16.9%
337,0,48,16.9%
338,0,48,16.9%
339,0,48,16.9%
340,0,48,16.9%
341,0,48,16.9%
342,0,48,16.9%
343,0,48,16.9%
344,0,48,16.9%
345,0,48,16.9%
346,0,48,16.9%
347,0,48,16.9%
348,0,48,16.9%
349,0,48,16.9%
350,0,48,16.9%
351,0,48,16.9%
352,1,49,17.25%
353,0,49,17.25%
354,0,49,17.25%
355,0,49,17.25%
356,0,49,17.25%
357,0,49,17.25%
358,0,49,17.25%
359,0,49,17.25%
360,0,49,17.25%
361,0,49,17.25%
362,0,49,17.25%
363,0,49,17.25%
364,0,49,17.25%
365,0,49,17.25%
366,1,50,17.61%
367,0,50,17.61%
368,0,50,17.61%
369,0,50,17.61%
370,0,50,17.61%
371,0,50,17.61%
372,0,50,17.61%
373,0,50,17.61%
374,0,50,17.61%
375,0,50,17.61%
376,0,50,17.61%
377,0,50,17.61%
378,0,50,17.61%
379,0,50,17.61%
380,0,50,17.61%
381,0,50,17.61%
382,0,50,17.61%
383,0,50,17.61%
384,0,50,17.61%
385,0,50,17.61%
386,0,50,17.61%
387,0,50,17.61%
388,0,50,17.61%
389,0,50,17.61%
390,0,50,17.61%
391,0,50,17.61%
392,0,50,17.61%
393,0,50,17.61%
394,0,50,17.61%
395,0,50,17.61%
396,0,50,17.61%
397,0,50,17.61%
398,0,50,17.61%
399,1,51,17.96%
400,1,52,18.31%
401,1,53,18.66%
402,0,53,18.66%
403,0,53,18.66%
404,0,53,18.66%
405,0,53,18.66%
406,0,53,18.66%
407,0,53,18.66%
408,0,53,18.66%
409,1,54,19.01%
410,1,55,19.37%
411,0,55,19.37%
412,0,55,19.37%
413,0,55,19.37%
414,0,55,19.37%
415,0,55,19.37%
416,0,55,19.37%
417,0,55,19.37%
418,0,55,19.37%
419,1,56,19.72%
420,0,56,19.72%
421,0,56,19.72%
422,0,56,19.72%
423,1,57,20.07%
424,0,57,20.07%
425,0,57,20.07%
426,0,57,20.07%
427,0,57,20.07%
428,0,57,20.07%
429,0,57,20.07%
430,0,57,20.07%
431,0,57,20.07%
432,0,57,20.07%
433,0,57,20.07%
434,0,57,20.07%
435,0,57,20.07%
436,0,57,20.07%
437,0,57,20.07%
438,0,57,20.07%
439,1,58,20.42%
440,0,58,20.42%
441,0,58,20.42%
442,0,58,20.42%
443,0,58,20.42%
444,0,58,20.42%
445,0,58,20.42%
446,0,58,20.42%
447,0,58,20.42%
448,1,59,20.77%
449,0,59,20.77%
450,0,59,20.77%
451,0,59,20.77%
452,1,60,21.13%
453,0,60,21.13%
454,0,60,21.13%
455,1,61,21.48%
456,0,61,21.48%
457,0,61,21.48%
458,0,61,21.48%
459,0,61,21.48%
460,0,61,21.48%
461,0,61,21.48%
462,0,61,21.48%
463,0,61,21.48%
464,0,61,21.48%
465,0,61,21.48%
466,0,61,21.48%
467,0,61,21.48%
468,0,61,21.48%
469,0,61,21.48%
470,0,61,21.48%
471,0,61,21.48%
472,0,61,21.48%
473,0,61,21.48%
474,0,61,21.48%
475,0,61,21.48%
476,0,61,21.48%
477,0,61,21.48%
478,0,61,21.48%
479,0,61,21.48%
480,0,61,21.48%
481,0,61,21.48%
482,0,61,21.48%
483,0,61,21.48%
484,0,61,21.48%
485,0,61,21.48%
486,0,61,21.48%
487,0,61,21.48%
488,0,61,21.48%
489,0,61,21.48%
490,0,61,21.48%
491,0,61,21.48%
492,0,61,21.48%
493,0,61,21.48%
494,0,61,21.48%
495,0,61,21.48%
496,0,61,21.48%
497,0,61,21.48%
498,0,61,21.48%
499,0,61,21.48%
500,0,61,21.48%
501,1,62,21.83%
502,0,62,21.83%
503,0,62,21.83%
504,0,62,21.83%
505,0,62,21.83%
506,0,62,21.83%
507,0,62,21.83%
508,1,63,22.18%
509,0,63,22.18%
510,0,63,22.18%
511,0,63,22.18%
512,0,63,22.18%
513,1,64,22.54%
514,1,65,22.89%
515,0,65,22.89%
516,0,65,22.89%
517,0,65,22.89%
518,0,65,22.89%
519,0,65,22.89%
520,0,65,22.89%
521,0,65,22.89%
522,1,66,23.24%
523,218,284,100.0%
