Length, Count, Sum (Counts <= Length), Percent of Nonzero Data, Nonzero Data Count = 831, Zero Data Count = 1013
1,0,0,0.0%
2,0,0,0.0%
3,0,0,0.0%
4,1,1,0.12%
5,0,1,0.12%
6,0,1,0.12%
7,0,1,0.12%
8,0,1,0.12%
9,0,1,0.12%
10,0,1,0.12%
11,0,1,0.12%
12,0,1,0.12%
13,0,1,0.12%
14,0,1,0.12%
15,0,1,0.12%
16,0,1,0.12%
17,0,1,0.12%
18,0,1,0.12%
19,0,1,0.12%
20,0,1,0.12%
21,0,1,0.12%
22,0,1,0.12%
23,1,2,0.24%
24,0,2,0.24%
25,0,2,0.24%
26,0,2,0.24%
27,0,2,0.24%
28,1,3,0.36%
29,0,3,0.36%
30,0,3,0.36%
31,0,3,0.36%
32,0,3,0.36%
33,0,3,0.36%
34,0,3,0.36%
35,0,3,0.36%
36,0,3,0.36%
37,0,3,0.36%
38,1,4,0.48%
39,1,5,0.6%
40,0,5,0.6%
41,0,5,0.6%
42,0,5,0.6%
43,0,5,0.6%
44,0,5,0.6%
45,0,5,0.6%
46,0,5,0.6%
47,0,5,0.6%
48,0,5,0.6%
49,0,5,0.6%
50,0,5,0.6%
51,0,5,0.6%
52,1,6,0.72%
53,0,6,0.72%
54,1,7,0.84%
55,0,7,0.84%
56,0,7,0.84%
57,0,7,0.84%
58,0,7,0.84%
59,1,8,0.96%
60,0,8,0.96%
61,0,8,0.96%
62,0,8,0.96%
63,0,8,0.96%
64,1,9,1.08%
65,0,9,1.08%
66,0,9,1.08%
67,0,9,1.08%
68,0,9,1.08%
69,0,9,1.08%
70,0,9,1.08%
71,0,9,1.08%
72,0,9,1.08%
73,0,9,1.08%
74,0,9,1.08%
75,0,9,1.08%
76,0,9,1.08%
77,0,9,1.08%
78,0,9,1.08%
79,0,9,1.08%
80,1,10,1.2%
81,0,10,1.2%
82,0,10,1.2%
83,0,10,1.2%
84,0,10,1.2%
85,0,10,1.2%
86,0,10,1.2%
87,0,10,1.2%
88,1,11,1.32%
89,0,11,1.32%
90,0,11,1.32%
91,0,11,1.32%
92,0,11,1.32%
93,0,11,1.32%
94,0,11,1.32%
95,0,11,1.32%
96,0,11,1.32%
97,0,11,1.32%
98,1,12,1.44%
99,1,13,1.56%
100,0,13,1.56%
101,1,14,1.68%
102,1,15,1.81%
103,0,15,1.81%
104,0,15,1.81%
105,0,15,1.81%
106,1,16,1.93%
107,0,16,1.93%
108,0,16,1.93%
109,0,16,1.93%
110,0,16,1.93%
111,0,16,1.93%
112,0,16,1.93%
113,0,16,1.93%
114,0,16,1.93%
115,1,17,2.05%
116,1,18,2.17%
117,0,18,2.17%
118,0,18,2.17%
119,0,18,2.17%
120,0,18,2.17%
121,0,18,2.17%
122,0,18,2.17%
123,0,18,2.17%
124,0,18,2.17%
125,0,18,2.17%
126,0,18,2.17%
127,0,18,2.17%
128,0,18,2.17%
129,0,18,2.17%
130,1,19,2.29%
131,0,19,2.29%
132,0,19,2.29%
133,0,19,2.29%
134,0,19,2.29%
135,0,19,2.29%
136,0,19,2.29%
137,0,19,2.29%
138,0,19,2.29%
139,0,19,2.29%
140,1,20,2.41%
141,0,20,2.41%
142,0,20,2.41%
143,0,20,2.41%
144,0,20,2.41%
145,4,24,2.89%
146,0,24,2.89%
147,0,24,2.89%
148,1,25,3.01%
149,0,25,3.01%
150,0,25,3.01%
151,0,25,3.01%
152,0,25,3.01%
153,0,25,3.01%
154,0,25,3.01%
155,1,26,3.13%
156,0,26,3.13%
157,0,26,3.13%
158,0,26,3.13%
159,0,26,3.13%
160,0,26,3.13%
161,0,26,3.13%
162,0,26,3.13%
163,0,26,3.13%
164,0,26,3.13%
165,0,26,3.13%
166,1,27,3.25%
167,0,27,3.25%
168,0,27,3.25%
169,0,27,3.25%
170,1,28,3.37%
171,1,29,3.49%
172,0,29,3.49%
173,0,29,3.49%
174,1,30,3.61%
175,0,30,3.61%
176,0,30,3.61%
177,0,30,3.61%
178,0,30,3.61%
179,1,31,3.73%
180,0,31,3.73%
181,1,32,3.85%
182,0,32,3.85%
183,0,32,3.85%
184,0,32,3.85%
185,0,32,3.85%
186,0,32,3.85%
187,0,32,3.85%
188,0,32,3.85%
189,1,33,3.97%
190,0,33,3.97%
191,0,33,3.97%
192,0,33,3.97%
193,0,33,3.97%
194,0,33,3.97%
195,0,33,3.97%
196,1,34,4.09%
197,0,34,4.09%
198,0,34,4.09%
199,0,34,4.09%
200,2,36,4.33%
201,1,37,4.45%
202,1,38,4.57%
203,0,38,4.57%
204,0,38,4.57%
205,0,38,4.57%
206,0,38,4.57%
207,0,38,4.57%
208,0,38,4.57%
209,0,38,4.57%
210,0,38,4.57%
211,0,38,4.57%
212,0,38,4.57%
213,1,39,4.69%
214,0,39,4.69%
215,1,40,4.81%
216,0,40,4.81%
217,0,40,4.81%
218,2,42,5.05%
219,0,42,5.05%
220,1,43,5.17%
221,0,43,5.17%
222,0,43,5.17%
223,0,43,5.17%
224,0,43,5.17%
225,0,43,5.17%
226,0,43,5.17%
227,0,43,5.17%
228,0,43,5.17%
229,0,43,5.17%
230,0,43,5.17%
231,2,45,5.42%
232,0,45,5.42%
233,0,45,5.42%
234,0,45,5.42%
235,0,45,5.42%
236,1,46,5.54%
237,0,46,5.54%
238,0,46,5.54%
239,1,47,5.66%
240,0,47,5.66%
241,0,47,5.66%
242,0,47,5.66%
243,1,48,5.78%
244,1,49,5.9%
245,0,49,5.9%
246,0,49,5.9%
247,0,49,5.9%
248,0,49,5.9%
249,0,49,5.9%
250,0,49,5.9%
251,0,49,5.9%
252,0,49,5.9%
253,0,49,5.9%
254,0,49,5.9%
255,0,49,5.9%
256,0,49,5.9%
257,1,50,6.02%
258,0,50,6.02%
259,1,51,6.14%
260,0,51,6.14%
261,0,51,6.14%
262,0,51,6.14%
263,1,52,6.26%
264,0,52,6.26%
265,0,52,6.26%
266,0,52,6.26%
267,0,52,6.26%
268,0,52,6.26%
269,1,53,6.38%
270,2,55,6.62%
271,0,55,6.62%
272,0,55,6.62%
273,0,55,6.62%
274,0,55,6.62%
275,0,55,6.62%
276,0,55,6.62%
277,0,55,6.62%
278,0,55,6.62%
279,0,55,6.62%
280,0,55,6.62%
281,0,55,6.62%
282,0,55,6.62%
283,0,55,6.62%
284,0,55,6.62%
285,0,55,6.62%
286,0,55,6.62%
287,0,55,6.62%
288,0,55,6.62%
289,0,55,6.62%
290,0,55,6.62%
291,1,56,6.74%
292,0,56,6.74%
293,0,56,6.74%
294,1,57,6.86%
295,0,57,6.86%
296,0,57,6.86%
297,0,57,6.86%
298,0,57,6.86%
299,0,57,6.86%
300,0,57,6.86%
301,0,57,6.86%
302,0,57,6.86%
303,2,59,7.1%
304,0,59,7.1%
305,1,60,7.22%
306,0,60,7.22%
307,0,60,7.22%
308,0,60,7.22%
309,0,60,7.22%
310,0,60,7.22%
311,2,62,7.46%
312,0,62,7.46%
313,0,62,7.46%
314,0,62,7.46%
315,0,62,7.46%
316,0,62,7.46%
317,1,63,7.58%
318,0,63,7.58%
319,0,63,7.58%
320,0,63,7.58%
321,0,63,7.58%
322,0,63,7.58%
323,0,63,7.58%
324,0,63,7.58%
325,2,65,7.82%
326,0,65,7.82%
327,0,65,7.82%
328,0,65,7.82%
329,0,65,7.82%
330,0,65,7.82%
331,0,65,7.82%
332,2,67,8.06%
333,0,67,8.06%
334,0,67,8.06%
335,0,67,8.06%
336,1,68,8.18%
337,0,68,8.18%
338,0,68,8.18%
339,1,69,8.3%
340,5,74,8.9%
341,0,74,8.9%
342,1,75,9.03%
343,0,75,9.03%
344,0,75,9.03%
345,0,75,9.03%
346,1,76,9.15%
347,0,76,9.15%
348,1,77,9.27%
349,1,78,9.39%
350,1,79,9.51%
351,15,94,11.31%
352,10,104,12.52%
353,0,104,12.52%
354,1,105,12.64%
355,0,105,12.64%
356,0,105,12.64%
357,1,106,12.76%
358,7,113,13.6%
359,0,113,13.6%
360,3,116,13.96%
361,0,116,13.96%
362,0,116,13.96%
363,1,117,14.08%
364,4,121,14.56%
365,1,122,14.68%
366,2,124,14.92%
367,1,125,15.04%
368,0,125,15.04%
369,2,127,15.28%
370,2,129,15.52%
371,0,129,15.52%
372,1,130,15.64%
373,1,131,15.76%
374,4,135,16.25%
375,2,137,16.49%
376,1,138,16.61%
377,1,139,16.73%
378,1,140,16.85%
379,3,143,17.21%
380,6,149,17.93%
381,0,149,17.93%
382,2,151,18.17%
383,2,153,18.41%
384,1,154,18.53%
385,3,157,18.89%
386,0,157,18.89%
387,0,157,18.89%
388,0,157,18.89%
389,5,162,19.49%
390,3,165,19.86%
391,0,165,19.86%
392,1,166,19.98%
393,1,167,20.1%
394,1,168,20.22%
395,2,170,20.46%
396,0,170,20.46%
397,2,172,20.7%
398,4,176,21.18%
399,1,177,21.3%
400,0,177,21.3%
401,1,178,21.42%
402,1,179,21.54%
403,10,189,22.74%
404,1,190,22.86%
405,4,194,23.35%
406,0,194,23.35%
407,3,197,23.71%
408,2,199,23.95%
409,6,205,24.67%
410,2,207,24.91%
411,1,208,25.03%
412,2,210,25.27%
413,8,218,26.23%
414,1,219,26.35%
415,0,219,26.35%
416,0,219,26.35%
417,0,219,26.35%
418,1,220,26.47%
419,1,221,26.59%
420,0,221,26.59%
421,2,223,26.84%
422,8,231,27.8%
423,5,236,28.4%
424,3,239,28.76%
425,1,240,28.88%
426,3,243,29.24%
427,2,245,29.48%
428,0,245,29.48%
429,0,245,29.48%
430,1,246,29.6%
431,0,246,29.6%
432,5,251,30.2%
433,4,255,30.69%
434,1,256,30.81%
435,1,257,30.93%
436,0,257,30.93%
437,6,263,31.65%
438,3,266,32.01%
439,0,266,32.01%
440,1,267,32.13%
441,0,267,32.13%
442,2,269,32.37%
443,2,271,32.61%
444,1,272,32.73%
445,0,272,32.73%
446,2,274,32.97%
447,6,280,33.69%
448,10,290,34.9%
449,1,291,35.02%
450,2,293,35.26%
451,9,302,36.34%
452,0,302,36.34%
453,1,303,36.46%
454,1,304,36.58%
455,4,308,37.06%
456,2,310,37.3%
457,0,310,37.3%
458,3,313,37.67%
459,1,314,37.79%
460,3,317,38.15%
461,3,320,38.51%
462,2,322,38.75%
463,3,325,39.11%
464,0,325,39.11%
465,2,327,39.35%
466,1,328,39.47%
467,4,332,39.95%
468,2,334,40.19%
469,0,334,40.19%
470,0,334,40.19%
471,2,336,40.43%
472,0,336,40.43%
473,3,339,40.79%
474,0,339,40.79%
475,1,340,40.91%
476,1,341,41.03%
477,0,341,41.03%
478,0,341,41.03%
479,2,343,41.28%
480,0,343,41.28%
481,2,345,41.52%
482,0,345,41.52%
483,2,347,41.76%
484,0,347,41.76%
485,1,348,41.88%
486,10,358,43.08%
487,2,360,43.32%
488,1,361,43.44%
489,1,362,43.56%
490,1,363,43.68%
491,1,364,43.8%
492,1,365,43.92%
493,0,365,43.92%
494,3,368,44.28%
495,3,371,44.65%
496,3,374,45.01%
497,2,376,45.25%
498,1,377,45.37%
499,2,379,45.61%
500,4,383,46.09%
501,5,388,46.69%
502,2,390,46.93%
503,0,390,46.93%
504,8,398,47.89%
505,7,405,48.74%
506,3,408,49.1%
507,4,412,49.58%
508,0,412,49.58%
509,0,412,49.58%
510,3,415,49.94%
511,1,416,50.06%
512,0,416,50.06%
513,2,418,50.3%
514,3,421,50.66%
515,0,421,50.66%
516,1,422,50.78%
517,0,422,50.78%
518,0,422,50.78%
519,0,422,50.78%
520,1,423,50.9%
521,3,426,51.26%
522,0,426,51.26%
523,1,427,51.38%
524,0,427,51.38%
525,0,427,51.38%
526,0,427,51.38%
527,0,427,51.38%
528,2,429,51.62%
529,2,431,51.87%
530,1,432,51.99%
531,2,434,52.23%
532,5,439,52.83%
533,2,441,53.07%
534,5,446,53.67%
535,1,447,53.79%
536,0,447,53.79%
537,4,451,54.27%
538,4,455,54.75%
539,10,465,55.96%
540,1,466,56.08%
541,0,466,56.08%
542,3,469,56.44%
543,5,474,57.04%
544,3,477,57.4%
545,0,477,57.4%
546,0,477,57.4%
547,1,478,57.52%
548,5,483,58.12%
549,2,485,58.36%
550,0,485,58.36%
551,2,487,58.6%
552,2,489,58.84%
553,2,491,59.09%
554,0,491,59.09%
555,1,492,59.21%
556,0,492,59.21%
557,3,495,59.57%
558,6,501,60.29%
559,0,501,60.29%
560,0,501,60.29%
561,4,505,60.77%
562,3,508,61.13%
563,1,509,61.25%
564,2,511,61.49%
565,4,515,61.97%
566,3,518,62.33%
567,3,521,62.7%
568,3,524,63.06%
569,2,526,63.3%
570,1,527,63.42%
571,2,529,63.66%
572,2,531,63.9%
573,1,532,64.02%
574,2,534,64.26%
575,0,534,64.26%
576,2,536,64.5%
577,3,539,64.86%
578,0,539,64.86%
579,0,539,64.86%
580,0,539,64.86%
581,1,540,64.98%
582,2,542,65.22%
583,0,542,65.22%
584,0,542,65.22%
585,1,543,65.34%
586,3,546,65.7%
587,1,547,65.82%
588,3,550,66.19%
589,4,554,66.67%
590,0,554,66.67%
591,2,556,66.91%
592,1,557,67.03%
593,7,564,67.87%
594,2,566,68.11%
595,0,566,68.11%
596,2,568,68.35%
597,0,568,68.35%
598,0,568,68.35%
599,3,571,68.71%
600,1,572,68.83%
601,0,572,68.83%
602,9,581,69.92%
603,0,581,69.92%
604,0,581,69.92%
605,0,581,69.92%
606,1,582,70.04%
607,1,583,70.16%
608,0,583,70.16%
609,1,584,70.28%
610,2,586,70.52%
611,2,588,70.76%
612,2,590,71.0%
613,0,590,71.0%
614,0,590,71.0%
615,0,590,71.0%
616,0,590,71.0%
617,1,591,71.12%
618,1,592,71.24%
619,1,593,71.36%
620,2,595,71.6%
621,2,597,71.84%
622,1,598,71.96%
623,1,599,72.08%
624,1,600,72.2%
625,7,607,73.04%
626,2,609,73.29%
627,0,609,73.29%
628,1,610,73.41%
629,1,611,73.53%
630,0,611,73.53%
631,3,614,73.89%
632,1,615,74.01%
633,1,616,74.13%
634,0,616,74.13%
635,3,619,74.49%
636,2,621,74.73%
637,2,623,74.97%
638,1,624,75.09%
639,0,624,75.09%
640,11,635,76.41%
641,2,637,76.65%
642,2,639,76.9%
643,0,639,76.9%
644,0,639,76.9%
645,0,639,76.9%
646,2,641,77.14%
647,2,643,77.38%
648,1,644,77.5%
649,187,831,100.0%
