Length, Count, Sum (Counts <= Length), Percent of Nonzero Data, Nonzero Data Count = 840, Zero Data Count = 1004
1,1,1,0.12%
2,0,1,0.12%
3,0,1,0.12%
4,0,1,0.12%
5,0,1,0.12%
6,0,1,0.12%
7,0,1,0.12%
8,0,1,0.12%
9,0,1,0.12%
10,0,1,0.12%
11,1,2,0.24%
12,0,2,0.24%
13,0,2,0.24%
14,0,2,0.24%
15,0,2,0.24%
16,0,2,0.24%
17,0,2,0.24%
18,0,2,0.24%
19,0,2,0.24%
20,0,2,0.24%
21,0,2,0.24%
22,0,2,0.24%
23,0,2,0.24%
24,0,2,0.24%
25,0,2,0.24%
26,0,2,0.24%
27,0,2,0.24%
28,1,3,0.36%
29,0,3,0.36%
30,0,3,0.36%
31,0,3,0.36%
32,0,3,0.36%
33,0,3,0.36%
34,0,3,0.36%
35,0,3,0.36%
36,0,3,0.36%
37,0,3,0.36%
38,0,3,0.36%
39,1,4,0.48%
40,0,4,0.48%
41,0,4,0.48%
42,1,5,0.6%
43,0,5,0.6%
44,0,5,0.6%
45,0,5,0.6%
46,1,6,0.71%
47,1,7,0.83%
48,0,7,0.83%
49,0,7,0.83%
50,0,7,0.83%
51,0,7,0.83%
52,2,9,1.07%
53,0,9,1.07%
54,0,9,1.07%
55,0,9,1.07%
56,0,9,1.07%
57,0,9,1.07%
58,0,9,1.07%
59,0,9,1.07%
60,0,9,1.07%
61,0,9,1.07%
62,0,9,1.07%
63,0,9,1.07%
64,0,9,1.07%
65,0,9,1.07%
66,0,9,1.07%
67,0,9,1.07%
68,0,9,1.07%
69,0,9,1.07%
70,0,9,1.07%
71,0,9,1.07%
72,0,9,1.07%
73,0,9,1.07%
74,0,9,1.07%
75,1,10,1.19%
76,1,11,1.31%
77,0,11,1.31%
78,0,11,1.31%
79,0,11,1.31%
80,0,11,1.31%
81,0,11,1.31%
82,0,11,1.31%
83,0,11,1.31%
84,0,11,1.31%
85,0,11,1.31%
86,1,12,1.43%
87,0,12,1.43%
88,0,12,1.43%
89,0,12,1.43%
90,1,13,1.55%
91,0,13,1.55%
92,0,13,1.55%
93,0,13,1.55%
94,1,14,1.67%
95,0,14,1.67%
96,0,14,1.67%
97,0,14,1.67%
98,0,14,1.67%
99,0,14,1.67%
100,0,14,1.67%
101,0,14,1.67%
102,0,14,1.67%
103,1,15,1.79%
104,1,16,1.9%
105,0,16,1.9%
106,0,16,1.9%
107,0,16,1.9%
108,0,16,1.9%
109,0,16,1.9%
110,0,16,1.9%
111,0,16,1.9%
112,0,16,1.9%
113,0,16,1.9%
114,0,16,1.9%
115,0,16,1.9%
116,0,16,1.9%
117,0,16,1.9%
118,0,16,1.9%
119,0,16,1.9%
120,0,16,1.9%
121,0,16,1.9%
122,0,16,1.9%
123,1,17,2.02%
124,0,17,2.02%
125,0,17,2.02%
126,0,17,2.02%
127,0,17,2.02%
128,0,17,2.02%
129,0,17,2.02%
130,0,17,2.02%
131,0,17,2.02%
132,0,17,2.02%
133,1,18,2.14%
134,0,18,2.14%
135,0,18,2.14%
136,0,18,2.14%
137,0,18,2.14%
138,0,18,2.14%
139,0,18,2.14%
140,1,19,2.26%
141,0,19,2.26%
142,0,19,2.26%
143,0,19,2.26%
144,0,19,2.26%
145,2,21,2.5%
146,0,21,2.5%
147,0,21,2.5%
148,0,21,2.5%
149,0,21,2.5%
150,0,21,2.5%
151,0,21,2.5%
152,0,21,2.5%
153,0,21,2.5%
154,1,22,2.62%
155,1,23,2.74%
156,0,23,2.74%
157,0,23,2.74%
158,0,23,2.74%
159,1,24,2.86%
160,1,25,2.98%
161,0,25,2.98%
162,1,26,3.1%
163,0,26,3.1%
164,0,26,3.1%
165,0,26,3.1%
166,0,26,3.1%
167,1,27,3.21%
168,0,27,3.21%
169,0,27,3.21%
170,1,28,3.33%
171,0,28,3.33%
172,0,28,3.33%
173,0,28,3.33%
174,0,28,3.33%
175,0,28,3.33%
176,0,28,3.33%
177,1,29,3.45%
178,1,30,3.57%
179,0,30,3.57%
180,0,30,3.57%
181,1,31,3.69%
182,0,31,3.69%
183,0,31,3.69%
184,1,32,3.81%
185,0,32,3.81%
186,0,32,3.81%
187,0,32,3.81%
188,0,32,3.81%
189,0,32,3.81%
190,0,32,3.81%
191,0,32,3.81%
192,0,32,3.81%
193,0,32,3.81%
194,0,32,3.81%
195,0,32,3.81%
196,0,32,3.81%
197,0,32,3.81%
198,0,32,3.81%
199,0,32,3.81%
200,2,34,4.05%
201,1,35,4.17%
202,1,36,4.29%
203,0,36,4.29%
204,0,36,4.29%
205,0,36,4.29%
206,0,36,4.29%
207,0,36,4.29%
208,1,37,4.4%
209,1,38,4.52%
210,0,38,4.52%
211,0,38,4.52%
212,0,38,4.52%
213,3,41,4.88%
214,0,41,4.88%
215,1,42,5.0%
216,0,42,5.0%
217,0,42,5.0%
218,0,42,5.0%
219,2,44,5.24%
220,0,44,5.24%
221,0,44,5.24%
222,0,44,5.24%
223,0,44,5.24%
224,0,44,5.24%
225,0,44,5.24%
226,0,44,5.24%
227,1,45,5.36%
228,0,45,5.36%
229,0,45,5.36%
230,0,45,5.36%
231,0,45,5.36%
232,0,45,5.36%
233,0,45,5.36%
234,0,45,5.36%
235,0,45,5.36%
236,1,46,5.48%
237,0,46,5.48%
238,0,46,5.48%
239,0,46,5.48%
240,0,46,5.48%
241,0,46,5.48%
242,0,46,5.48%
243,1,47,5.6%
244,1,48,5.71%
245,1,49,5.83%
246,0,49,5.83%
247,0,49,5.83%
248,0,49,5.83%
249,0,49,5.83%
250,0,49,5.83%
251,0,49,5.83%
252,0,49,5.83%
253,0,49,5.83%
254,0,49,5.83%
255,0,49,5.83%
256,0,49,5.83%
257,1,50,5.95%
258,0,50,5.95%
259,1,51,6.07%
260,0,51,6.07%
261,0,51,6.07%
262,0,51,6.07%
263,1,52,6.19%
264,0,52,6.19%
265,0,52,6.19%
266,0,52,6.19%
267,0,52,6.19%
268,0,52,6.19%
269,0,52,6.19%
270,2,54,6.43%
271,0,54,6.43%
272,0,54,6.43%
273,0,54,6.43%
274,0,54,6.43%
275,1,55,6.55%
276,0,55,6.55%
277,0,55,6.55%
278,0,55,6.55%
279,0,55,6.55%
280,0,55,6.55%
281,0,55,6.55%
282,1,56,6.67%
283,0,56,6.67%
284,0,56,6.67%
285,0,56,6.67%
286,0,56,6.67%
287,0,56,6.67%
288,0,56,6.67%
289,0,56,6.67%
290,0,56,6.67%
291,1,57,6.79%
292,0,57,6.79%
293,0,57,6.79%
294,0,57,6.79%
295,0,57,6.79%
296,0,57,6.79%
297,0,57,6.79%
298,0,57,6.79%
299,0,57,6.79%
300,0,57,6.79%
301,0,57,6.79%
302,0,57,6.79%
303,2,59,7.02%
304,0,59,7.02%
305,2,61,7.26%
306,0,61,7.26%
307,0,61,7.26%
308,0,61,7.26%
309,0,61,7.26%
310,0,61,7.26%
311,2,63,7.5%
312,0,63,7.5%
313,0,63,7.5%
314,0,63,7.5%
315,0,63,7.5%
316,0,63,7.5%
317,0,63,7.5%
318,0,63,7.5%
319,0,63,7.5%
320,0,63,7.5%
321,0,63,7.5%
322,0,63,7.5%
323,0,63,7.5%
324,0,63,7.5%
325,2,65,7.74%
326,0,65,7.74%
327,0,65,7.74%
328,0,65,7.74%
329,0,65,7.74%
330,1,66,7.86%
331,0,66,7.86%
332,0,66,7.86%
333,0,66,7.86%
334,0,66,7.86%
335,0,66,7.86%
336,0,66,7.86%
337,0,66,7.86%
338,0,66,7.86%
339,0,66,7.86%
340,1,67,7.98%
341,0,67,7.98%
342,0,67,7.98%
343,1,68,8.1%
344,0,68,8.1%
345,0,68,8.1%
346,2,70,8.33%
347,0,70,8.33%
348,0,70,8.33%
349,1,71,8.45%
350,1,72,8.57%
351,15,87,10.36%
352,10,97,11.55%
353,0,97,11.55%
354,0,97,11.55%
355,0,97,11.55%
356,0,97,11.55%
357,0,97,11.55%
358,5,102,12.14%
359,0,102,12.14%
360,3,105,12.5%
361,0,105,12.5%
362,0,105,12.5%
363,1,106,12.62%
364,0,106,12.62%
365,0,106,12.62%
366,1,107,12.74%
367,0,107,12.74%
368,1,108,12.86%
369,0,108,12.86%
370,0,108,12.86%
371,0,108,12.86%
372,2,110,13.1%
373,0,110,13.1%
374,0,110,13.1%
375,0,110,13.1%
376,0,110,13.1%
377,0,110,13.1%
378,1,111,13.21%
379,0,111,13.21%
380,0,111,13.21%
381,0,111,13.21%
382,1,112,13.33%
383,0,112,13.33%
384,0,112,13.33%
385,0,112,13.33%
386,1,113,13.45%
387,0,113,13.45%
388,0,113,13.45%
389,0,113,13.45%
390,0,113,13.45%
391,1,114,13.57%
392,0,114,13.57%
393,2,116,13.81%
394,0,116,13.81%
395,0,116,13.81%
396,0,116,13.81%
397,1,117,13.93%
398,1,118,14.05%
399,0,118,14.05%
400,0,118,14.05%
401,0,118,14.05%
402,0,118,14.05%
403,0,118,14.05%
404,0,118,14.05%
405,0,118,14.05%
406,2,120,14.29%
407,0,120,14.29%
408,0,120,14.29%
409,0,120,14.29%
410,0,120,14.29%
411,0,120,14.29%
412,1,121,14.4%
413,0,121,14.4%
414,0,121,14.4%
415,0,121,14.4%
416,0,121,14.4%
417,0,121,14.4%
418,0,121,14.4%
419,0,121,14.4%
420,0,121,14.4%
421,0,121,14.4%
422,2,123,14.64%
423,0,123,14.64%
424,0,123,14.64%
425,0,123,14.64%
426,0,123,14.64%
427,0,123,14.64%
428,0,123,14.64%
429,0,123,14.64%
430,0,123,14.64%
431,0,123,14.64%
432,0,123,14.64%
433,0,123,14.64%
434,0,123,14.64%
435,1,124,14.76%
436,0,124,14.76%
437,1,125,14.88%
438,0,125,14.88%
439,0,125,14.88%
440,1,126,15.0%
441,1,127,15.12%
442,1,128,15.24%
443,0,128,15.24%
444,0,128,15.24%
445,0,128,15.24%
446,1,129,15.36%
447,0,129,15.36%
448,0,129,15.36%
449,0,129,15.36%
450,0,129,15.36%
451,1,130,15.48%
452,0,130,15.48%
453,1,131,15.6%
454,0,131,15.6%
455,0,131,15.6%
456,0,131,15.6%
457,0,131,15.6%
458,0,131,15.6%
459,0,131,15.6%
460,0,131,15.6%
461,1,132,15.71%
462,0,132,15.71%
463,1,133,15.83%
464,0,133,15.83%
465,1,134,15.95%
466,1,135,16.07%
467,0,135,16.07%
468,0,135,16.07%
469,0,135,16.07%
470,0,135,16.07%
471,0,135,16.07%
472,0,135,16.07%
473,0,135,16.07%
474,1,136,16.19%
475,0,136,16.19%
476,1,137,16.31%
477,0,137,16.31%
478,0,137,16.31%
479,1,138,16.43%
480,0,138,16.43%
481,0,138,16.43%
482,1,139,16.55%
483,1,140,16.67%
484,0,140,16.67%
485,0,140,16.67%
486,0,140,16.67%
487,1,141,16.79%
488,0,141,16.79%
489,1,142,16.9%
490,0,142,16.9%
491,1,143,17.02%
492,1,144,17.14%
493,0,144,17.14%
494,0,144,17.14%
495,1,145,17.26%
496,1,146,17.38%
497,0,146,17.38%
498,1,147,17.5%
499,0,147,17.5%
500,0,147,17.5%
501,1,148,17.62%
502,0,148,17.62%
503,1,149,17.74%
504,0,149,17.74%
505,0,149,17.74%
506,0,149,17.74%
507,0,149,17.74%
508,0,149,17.74%
509,0,149,17.74%
510,0,149,17.74%
511,1,150,17.86%
512,0,150,17.86%
513,0,150,17.86%
514,0,150,17.86%
515,0,150,17.86%
516,1,151,17.98%
517,0,151,17.98%
518,0,151,17.98%
519,0,151,17.98%
520,1,152,18.1%
521,0,152,18.1%
522,0,152,18.1%
523,0,152,18.1%
524,0,152,18.1%
525,0,152,18.1%
526,0,152,18.1%
527,0,152,18.1%
528,1,153,18.21%
529,1,154,18.33%
530,0,154,18.33%
531,0,154,18.33%
532,1,155,18.45%
533,0,155,18.45%
534,0,155,18.45%
535,0,155,18.45%
536,0,155,18.45%
537,0,155,18.45%
538,0,155,18.45%
539,1,156,18.57%
540,0,156,18.57%
541,0,156,18.57%
542,0,156,18.57%
543,0,156,18.57%
544,0,156,18.57%
545,0,156,18.57%
546,2,158,18.81%
547,0,158,18.81%
548,0,158,18.81%
549,0,158,18.81%
550,0,158,18.81%
551,0,158,18.81%
552,0,158,18.81%
553,0,158,18.81%
554,0,158,18.81%
555,0,158,18.81%
556,0,158,18.81%
557,0,158,18.81%
558,0,158,18.81%
559,0,158,18.81%
560,0,158,18.81%
561,0,158,18.81%
562,1,159,18.93%
563,0,159,18.93%
564,1,160,19.05%
565,0,160,19.05%
566,0,160,19.05%
567,0,160,19.05%
568,0,160,19.05%
569,0,160,19.05%
570,0,160,19.05%
571,1,161,19.17%
572,0,161,19.17%
573,2,163,19.4%
574,0,163,19.4%
575,0,163,19.4%
576,8,171,20.36%
577,0,171,20.36%
578,0,171,20.36%
579,1,172,20.48%
580,0,172,20.48%
581,0,172,20.48%
582,0,172,20.48%
583,1,173,20.6%
584,1,174,20.71%
585,0,174,20.71%
586,0,174,20.71%
587,0,174,20.71%
588,0,174,20.71%
589,0,174,20.71%
590,1,175,20.83%
591,0,175,20.83%
592,0,175,20.83%
593,0,175,20.83%
594,0,175,20.83%
595,0,175,20.83%
596,1,176,20.95%
597,0,176,20.95%
598,1,177,21.07%
599,2,179,21.31%
600,0,179,21.31%
601,0,179,21.31%
602,0,179,21.31%
603,0,179,21.31%
604,0,179,21.31%
605,0,179,21.31%
606,0,179,21.31%
607,0,179,21.31%
608,0,179,21.31%
609,0,179,21.31%
610,0,179,21.31%
611,0,179,21.31%
612,0,179,21.31%
613,0,179,21.31%
614,2,181,21.55%
615,0,181,21.55%
616,0,181,21.55%
617,0,181,21.55%
618,1,182,21.67%
619,0,182,21.67%
620,0,182,21.67%
621,0,182,21.67%
622,0,182,21.67%
623,0,182,21.67%
624,2,184,21.9%
625,0,184,21.9%
626,2,186,22.14%
627,0,186,22.14%
628,1,187,22.26%
629,0,187,22.26%
630,0,187,22.26%
631,0,187,22.26%
632,5,192,22.86%
633,0,192,22.86%
634,1,193,22.98%
635,0,193,22.98%
636,0,193,22.98%
637,1,194,23.1%
638,0,194,23.1%
639,0,194,23.1%
640,1,195,23.21%
641,0,195,23.21%
642,0,195,23.21%
643,0,195,23.21%
644,0,195,23.21%
645,0,195,23.21%
646,0,195,23.21%
647,0,195,23.21%
648,0,195,23.21%
649,1,196,23.33%
650,2,198,23.57%
651,0,198,23.57%
652,0,198,23.57%
653,0,198,23.57%
654,0,198,23.57%
655,0,198,23.57%
656,4,202,24.05%
657,1,203,24.17%
658,1,204,24.29%
659,1,205,24.4%
660,0,205,24.4%
661,3,208,24.76%
662,1,209,24.88%
663,0,209,24.88%
664,0,209,24.88%
665,1,210,25.0%
666,2,212,25.24%
667,1,213,25.36%
668,0,213,25.36%
669,1,214,25.48%
670,1,215,25.6%
671,4,219,26.07%
672,5,224,26.67%
673,1,225,26.79%
674,1,226,26.9%
675,2,228,27.14%
676,1,229,27.26%
677,3,232,27.62%
678,0,232,27.62%
679,1,233,27.74%
680,0,233,27.74%
681,5,238,28.33%
682,2,240,28.57%
683,1,241,28.69%
684,1,242,28.81%
685,1,243,28.93%
686,1,244,29.05%
687,2,246,29.29%
688,0,246,29.29%
689,2,248,29.52%
690,3,251,29.88%
691,1,252,30.0%
692,0,252,30.0%
693,6,258,30.71%
694,1,259,30.83%
695,2,261,31.07%
696,0,261,31.07%
697,4,265,31.55%
698,0,265,31.55%
699,3,268,31.9%
700,2,270,32.14%
701,5,275,32.74%
702,1,276,32.86%
703,1,277,32.98%
704,3,280,33.33%
705,7,287,34.17%
706,0,287,34.17%
707,0,287,34.17%
708,1,288,34.29%
709,0,288,34.29%
710,1,289,34.4%
711,1,290,34.52%
712,0,290,34.52%
713,1,291,34.64%
714,6,297,35.36%
715,3,300,35.71%
716,3,303,36.07%
717,1,304,36.19%
718,3,307,36.55%
719,2,309,36.79%
720,0,309,36.79%
721,0,309,36.79%
722,0,309,36.79%
723,0,309,36.79%
724,4,313,37.26%
725,4,317,37.74%
726,1,318,37.86%
727,1,319,37.98%
728,1,320,38.1%
729,6,326,38.81%
730,3,329,39.17%
731,0,329,39.17%
732,1,330,39.29%
733,0,330,39.29%
734,2,332,39.52%
735,2,334,39.76%
736,1,335,39.88%
737,0,335,39.88%
738,1,336,40.0%
739,7,343,40.83%
740,10,353,42.02%
741,1,354,42.14%
742,2,356,42.38%
743,7,363,43.21%
744,0,363,43.21%
745,0,363,43.21%
746,0,363,43.21%
747,5,368,43.81%
748,2,370,44.05%
749,0,370,44.05%
750,3,373,44.4%
751,0,373,44.4%
752,3,376,44.76%
753,3,379,45.12%
754,2,381,45.36%
755,2,383,45.6%
756,0,383,45.6%
757,1,384,45.71%
758,0,384,45.71%
759,4,388,46.19%
760,2,390,46.43%
761,0,390,46.43%
762,0,390,46.43%
763,2,392,46.67%
764,0,392,46.67%
765,2,394,46.9%
766,0,394,46.9%
767,1,395,47.02%
768,1,396,47.14%
769,0,396,47.14%
770,0,396,47.14%
771,1,397,47.26%
772,0,397,47.26%
773,2,399,47.5%
774,0,399,47.5%
775,0,399,47.5%
776,0,399,47.5%
777,1,400,47.62%
778,4,404,48.1%
779,1,405,48.21%
780,0,405,48.21%
781,1,406,48.33%
782,1,407,48.45%
783,0,407,48.45%
784,2,409,48.69%
785,0,409,48.69%
786,3,412,49.05%
787,3,415,49.4%
788,3,418,49.76%
789,2,420,50.0%
790,0,420,50.0%
791,2,422,50.24%
792,6,428,50.95%
793,2,430,51.19%
794,2,432,51.43%
795,0,432,51.43%
796,4,436,51.9%
797,7,443,52.74%
798,3,446,53.1%
799,3,449,53.45%
800,0,449,53.45%
801,0,449,53.45%
802,3,452,53.81%
803,1,453,53.93%
804,0,453,53.93%
805,2,455,54.17%
806,4,459,54.64%
807,0,459,54.64%
808,1,460,54.76%
809,0,460,54.76%
810,0,460,54.76%
811,0,460,54.76%
812,1,461,54.88%
813,3,464,55.24%
814,0,464,55.24%
815,0,464,55.24%
816,0,464,55.24%
817,0,464,55.24%
818,0,464,55.24%
819,0,464,55.24%
820,2,466,55.48%
821,2,468,55.71%
822,1,469,55.83%
823,2,471,56.07%
824,4,475,56.55%
825,2,477,56.79%
826,5,482,57.38%
827,3,485,57.74%
828,0,485,57.74%
829,4,489,58.21%
830,4,493,58.69%
831,10,503,59.88%
832,1,504,60.0%
833,0,504,60.0%
834,3,507,60.36%
835,4,511,60.83%
836,1,512,60.95%
837,0,512,60.95%
838,0,512,60.95%
839,1,513,61.07%
840,5,518,61.67%
841,2,520,61.9%
842,0,520,61.9%
843,2,522,62.14%
844,3,525,62.5%
845,2,527,62.74%
846,0,527,62.74%
847,1,528,62.86%
848,0,528,62.86%
849,2,530,63.1%
850,5,535,63.69%
851,0,535,63.69%
852,0,535,63.69%
853,4,539,64.17%
854,2,541,64.4%
855,1,542,64.52%
856,2,544,64.76%
857,3,547,65.12%
858,3,550,65.48%
859,2,552,65.71%
860,4,556,66.19%
861,2,558,66.43%
862,1,559,66.55%
863,2,561,66.79%
864,2,563,67.02%
865,1,564,67.14%
866,0,564,67.14%
867,0,564,67.14%
868,2,566,67.38%
869,3,569,67.74%
870,0,569,67.74%
871,0,569,67.74%
872,0,569,67.74%
873,1,570,67.86%
874,1,571,67.98%
875,0,571,67.98%
876,0,571,67.98%
877,1,572,68.1%
878,3,575,68.45%
879,1,576,68.57%
880,3,579,68.93%
881,4,583,69.4%
882,0,583,69.4%
883,2,585,69.64%
884,1,586,69.76%
885,7,593,70.6%
886,2,595,70.83%
887,0,595,70.83%
888,1,596,70.95%
889,0,596,70.95%
890,0,596,70.95%
891,3,599,71.31%
892,1,600,71.43%
893,1,601,71.55%
894,9,610,72.62%
895,0,610,72.62%
896,0,610,72.62%
897,0,610,72.62%
898,1,611,72.74%
899,1,612,72.86%
900,0,612,72.86%
901,1,613,72.98%
902,1,614,73.1%
903,1,615,73.21%
904,2,617,73.45%
905,0,617,73.45%
906,0,617,73.45%
907,0,617,73.45%
908,0,617,73.45%
909,1,618,73.57%
910,0,618,73.57%
911,0,618,73.57%
912,2,620,73.81%
913,2,622,74.05%
914,1,623,74.17%
915,1,624,74.29%
916,1,625,74.4%
917,5,630,75.0%
918,1,631,75.12%
919,0,631,75.12%
920,0,631,75.12%
921,1,632,75.24%
922,0,632,75.24%
923,3,635,75.6%
924,1,636,75.71%
925,1,637,75.83%
926,0,637,75.83%
927,12,649,77.26%
928,2,651,77.5%
929,189,840,100.0%
