Length, Count, Sum (Counts <= Length), Percent of Nonzero Data, Nonzero Data Count = 807, Zero Data Count = 1037
1,1,1,0.12%
2,1,2,0.25%
3,1,3,0.37%
4,0,3,0.37%
5,2,5,0.62%
6,0,5,0.62%
7,0,5,0.62%
8,0,5,0.62%
9,0,5,0.62%
10,0,5,0.62%
11,0,5,0.62%
12,1,6,0.74%
13,1,7,0.87%
14,0,7,0.87%
15,0,7,0.87%
16,0,7,0.87%
17,0,7,0.87%
18,0,7,0.87%
19,0,7,0.87%
20,0,7,0.87%
21,0,7,0.87%
22,0,7,0.87%
23,0,7,0.87%
24,0,7,0.87%
25,0,7,0.87%
26,0,7,0.87%
27,0,7,0.87%
28,0,7,0.87%
29,0,7,0.87%
30,0,7,0.87%
31,1,8,0.99%
32,1,9,1.12%
33,0,9,1.12%
34,0,9,1.12%
35,0,9,1.12%
36,0,9,1.12%
37,0,9,1.12%
38,0,9,1.12%
39,0,9,1.12%
40,0,9,1.12%
41,0,9,1.12%
42,0,9,1.12%
43,1,10,1.24%
44,1,11,1.36%
45,0,11,1.36%
46,0,11,1.36%
47,1,12,1.49%
48,0,12,1.49%
49,0,12,1.49%
50,1,13,1.61%
51,0,13,1.61%
52,0,13,1.61%
53,0,13,1.61%
54,0,13,1.61%
55,0,13,1.61%
56,0,13,1.61%
57,0,13,1.61%
58,0,13,1.61%
59,0,13,1.61%
60,1,14,1.73%
61,0,14,1.73%
62,0,14,1.73%
63,0,14,1.73%
64,0,14,1.73%
65,0,14,1.73%
66,0,14,1.73%
67,0,14,1.73%
68,1,15,1.86%
69,0,15,1.86%
70,0,15,1.86%
71,0,15,1.86%
72,0,15,1.86%
73,1,16,1.98%
74,0,16,1.98%
75,0,16,1.98%
76,0,16,1.98%
77,0,16,1.98%
78,0,16,1.98%
79,0,16,1.98%
80,0,16,1.98%
81,0,16,1.98%
82,0,16,1.98%
83,0,16,1.98%
84,0,16,1.98%
85,0,16,1.98%
86,0,16,1.98%
87,0,16,1.98%
88,0,16,1.98%
89,0,16,1.98%
90,0,16,1.98%
91,1,17,2.11%
92,0,17,2.11%
93,0,17,2.11%
94,0,17,2.11%
95,0,17,2.11%
96,0,17,2.11%
97,1,18,2.23%
98,0,18,2.23%
99,0,18,2.23%
100,0,18,2.23%
101,0,18,2.23%
102,0,18,2.23%
103,0,18,2.23%
104,0,18,2.23%
105,0,18,2.23%
106,0,18,2.23%
107,0,18,2.23%
108,0,18,2.23%
109,0,18,2.23%
110,0,18,2.23%
111,0,18,2.23%
112,0,18,2.23%
113,0,18,2.23%
114,0,18,2.23%
115,0,18,2.23%
116,0,18,2.23%
117,0,18,2.23%
118,0,18,2.23%
119,0,18,2.23%
120,0,18,2.23%
121,0,18,2.23%
122,0,18,2.23%
123,0,18,2.23%
124,0,18,2.23%
125,0,18,2.23%
126,1,19,2.35%
127,0,19,2.35%
128,0,19,2.35%
129,0,19,2.35%
130,0,19,2.35%
131,1,20,2.48%
132,2,22,2.73%
133,0,22,2.73%
134,0,22,2.73%
135,0,22,2.73%
136,0,22,2.73%
137,0,22,2.73%
138,0,22,2.73%
139,0,22,2.73%
140,0,22,2.73%
141,0,22,2.73%
142,0,22,2.73%
143,0,22,2.73%
144,0,22,2.73%
145,2,24,2.97%
146,0,24,2.97%
147,1,25,3.1%
148,0,25,3.1%
149,0,25,3.1%
150,1,26,3.22%
151,0,26,3.22%
152,0,26,3.22%
153,0,26,3.22%
154,1,27,3.35%
155,0,27,3.35%
156,0,27,3.35%
157,0,27,3.35%
158,0,27,3.35%
159,0,27,3.35%
160,0,27,3.35%
161,0,27,3.35%
162,0,27,3.35%
163,0,27,3.35%
164,1,28,3.47%
165,0,28,3.47%
166,0,28,3.47%
167,0,28,3.47%
168,1,29,3.59%
169,0,29,3.59%
170,0,29,3.59%
171,0,29,3.59%
172,1,30,3.72%
173,0,30,3.72%
174,0,30,3.72%
175,0,30,3.72%
176,0,30,3.72%
177,0,30,3.72%
178,0,30,3.72%
179,0,30,3.72%
180,0,30,3.72%
181,1,31,3.84%
182,0,31,3.84%
183,0,31,3.84%
184,1,32,3.97%
185,0,32,3.97%
186,7,39,4.83%
187,0,39,4.83%
188,0,39,4.83%
189,0,39,4.83%
190,0,39,4.83%
191,0,39,4.83%
192,0,39,4.83%
193,1,40,4.96%
194,0,40,4.96%
195,0,40,4.96%
196,0,40,4.96%
197,0,40,4.96%
198,0,40,4.96%
199,0,40,4.96%
200,0,40,4.96%
201,0,40,4.96%
202,0,40,4.96%
203,0,40,4.96%
204,0,40,4.96%
205,0,40,4.96%
206,0,40,4.96%
207,0,40,4.96%
208,0,40,4.96%
209,0,40,4.96%
210,0,40,4.96%
211,1,41,5.08%
212,0,41,5.08%
213,0,41,5.08%
214,0,41,5.08%
215,0,41,5.08%
216,0,41,5.08%
217,0,41,5.08%
218,0,41,5.08%
219,1,42,5.2%
220,0,42,5.2%
221,0,42,5.2%
222,0,42,5.2%
223,0,42,5.2%
224,0,42,5.2%
225,0,42,5.2%
226,0,42,5.2%
227,0,42,5.2%
228,1,43,5.33%
229,0,43,5.33%
230,0,43,5.33%
231,0,43,5.33%
232,0,43,5.33%
233,0,43,5.33%
234,2,45,5.58%
235,0,45,5.58%
236,0,45,5.58%
237,1,46,5.7%
238,1,47,5.82%
239,1,48,5.95%
240,0,48,5.95%
241,1,49,6.07%
242,5,54,6.69%
243,0,54,6.69%
244,1,55,6.82%
245,0,55,6.82%
246,0,55,6.82%
247,1,56,6.94%
248,0,56,6.94%
249,0,56,6.94%
250,1,57,7.06%
251,1,58,7.19%
252,1,59,7.31%
253,0,59,7.31%
254,0,59,7.31%
255,0,59,7.31%
256,0,59,7.31%
257,0,59,7.31%
258,0,59,7.31%
259,2,61,7.56%
260,2,63,7.81%
261,0,63,7.81%
262,1,64,7.93%
263,0,64,7.93%
264,0,64,7.93%
265,0,64,7.93%
266,4,68,8.43%
267,1,69,8.55%
268,1,70,8.67%
269,1,71,8.8%
270,0,71,8.8%
271,2,73,9.05%
272,2,75,9.29%
273,0,75,9.29%
274,0,75,9.29%
275,2,77,9.54%
276,4,81,10.04%
277,2,83,10.29%
278,2,85,10.53%
279,1,86,10.66%
280,1,87,10.78%
281,4,91,11.28%
282,5,96,11.9%
283,0,96,11.9%
284,1,97,12.02%
285,2,99,12.27%
286,1,100,12.39%
287,3,103,12.76%
288,0,103,12.76%
289,0,103,12.76%
290,0,103,12.76%
291,6,109,13.51%
292,3,112,13.88%
293,1,113,14.0%
294,1,114,14.13%
295,2,116,14.37%
296,1,117,14.5%
297,3,120,14.87%
298,0,120,14.87%
299,2,122,15.12%
300,3,125,15.49%
301,1,126,15.61%
302,0,126,15.61%
303,1,127,15.74%
304,1,128,15.86%
305,10,138,17.1%
306,2,140,17.35%
307,4,144,17.84%
308,0,144,17.84%
309,3,147,18.22%
310,2,149,18.46%
311,8,157,19.45%
312,16,173,21.44%
313,1,174,21.56%
314,2,176,21.81%
315,9,185,22.92%
316,1,186,23.05%
317,0,186,23.05%
318,1,187,23.17%
319,1,188,23.3%
320,1,189,23.42%
321,1,190,23.54%
322,1,191,23.67%
323,12,203,25.15%
324,9,212,26.27%
325,595,807,100.0%
