Length, Count, Sum (Counts <= Length), Percent of Nonzero Data, Nonzero Data Count = 852, Zero Data Count = 992
1,1,1,0.12%
2,1,2,0.23%
3,1,3,0.35%
4,1,4,0.47%
5,0,4,0.47%
6,0,4,0.47%
7,0,4,0.47%
8,0,4,0.47%
9,0,4,0.47%
10,0,4,0.47%
11,1,5,0.59%
12,0,5,0.59%
13,0,5,0.59%
14,0,5,0.59%
15,0,5,0.59%
16,0,5,0.59%
17,0,5,0.59%
18,1,6,0.7%
19,0,6,0.7%
20,0,6,0.7%
21,0,6,0.7%
22,1,7,0.82%
23,0,7,0.82%
24,0,7,0.82%
25,0,7,0.82%
26,0,7,0.82%
27,0,7,0.82%
28,1,8,0.94%
29,0,8,0.94%
30,0,8,0.94%
31,0,8,0.94%
32,1,9,1.06%
33,1,10,1.17%
34,0,10,1.17%
35,0,10,1.17%
36,0,10,1.17%
37,0,10,1.17%
38,0,10,1.17%
39,1,11,1.29%
40,0,11,1.29%
41,0,11,1.29%
42,0,11,1.29%
43,0,11,1.29%
44,0,11,1.29%
45,0,11,1.29%
46,0,11,1.29%
47,0,11,1.29%
48,0,11,1.29%
49,0,11,1.29%
50,0,11,1.29%
51,1,12,1.41%
52,1,13,1.53%
53,0,13,1.53%
54,2,15,1.76%
55,0,15,1.76%
56,0,15,1.76%
57,0,15,1.76%
58,0,15,1.76%
59,0,15,1.76%
60,0,15,1.76%
61,0,15,1.76%
62,1,16,1.88%
63,0,16,1.88%
64,0,16,1.88%
65,0,16,1.88%
66,0,16,1.88%
67,1,17,2.0%
68,0,17,2.0%
69,0,17,2.0%
70,0,17,2.0%
71,0,17,2.0%
72,0,17,2.0%
73,0,17,2.0%
74,0,17,2.0%
75,0,17,2.0%
76,1,18,2.11%
77,2,20,2.35%
78,0,20,2.35%
79,1,21,2.46%
80,0,21,2.46%
81,0,21,2.46%
82,0,21,2.46%
83,0,21,2.46%
84,1,22,2.58%
85,0,22,2.58%
86,0,22,2.58%
87,0,22,2.58%
88,0,22,2.58%
89,0,22,2.58%
90,0,22,2.58%
91,0,22,2.58%
92,0,22,2.58%
93,0,22,2.58%
94,0,22,2.58%
95,0,22,2.58%
96,0,22,2.58%
97,0,22,2.58%
98,0,22,2.58%
99,0,22,2.58%
100,0,22,2.58%
101,0,22,2.58%
102,0,22,2.58%
103,0,22,2.58%
104,0,22,2.58%
105,0,22,2.58%
106,0,22,2.58%
107,0,22,2.58%
108,1,23,2.7%
109,0,23,2.7%
110,1,24,2.82%
111,0,24,2.82%
112,0,24,2.82%
113,2,26,3.05%
114,0,26,3.05%
115,0,26,3.05%
116,0,26,3.05%
117,0,26,3.05%
118,0,26,3.05%
119,2,28,3.29%
120,0,28,3.29%
121,0,28,3.29%
122,0,28,3.29%
123,0,28,3.29%
124,0,28,3.29%
125,0,28,3.29%
126,0,28,3.29%
127,1,29,3.4%
128,0,29,3.4%
129,0,29,3.4%
130,0,29,3.4%
131,0,29,3.4%
132,0,29,3.4%
133,0,29,3.4%
134,0,29,3.4%
135,0,29,3.4%
136,0,29,3.4%
137,0,29,3.4%
138,1,30,3.52%
139,0,30,3.52%
140,0,30,3.52%
141,0,30,3.52%
142,0,30,3.52%
143,0,30,3.52%
144,0,30,3.52%
145,3,33,3.87%
146,0,33,3.87%
147,0,33,3.87%
148,0,33,3.87%
149,0,33,3.87%
150,0,33,3.87%
151,0,33,3.87%
152,0,33,3.87%
153,0,33,3.87%
154,0,33,3.87%
155,1,34,3.99%
156,0,34,3.99%
157,2,36,4.23%
158,1,37,4.34%
159,0,37,4.34%
160,0,37,4.34%
161,0,37,4.34%
162,0,37,4.34%
163,0,37,4.34%
164,0,37,4.34%
165,0,37,4.34%
166,0,37,4.34%
167,0,37,4.34%
168,0,37,4.34%
169,1,38,4.46%
170,1,39,4.58%
171,0,39,4.58%
172,0,39,4.58%
173,0,39,4.58%
174,1,40,4.69%
175,0,40,4.69%
176,0,40,4.69%
177,0,40,4.69%
178,1,41,4.81%
179,0,41,4.81%
180,0,41,4.81%
181,2,43,5.05%
182,1,44,5.16%
183,0,44,5.16%
184,0,44,5.16%
185,0,44,5.16%
186,0,44,5.16%
187,0,44,5.16%
188,0,44,5.16%
189,0,44,5.16%
190,0,44,5.16%
191,1,45,5.28%
192,0,45,5.28%
193,0,45,5.28%
194,0,45,5.28%
195,0,45,5.28%
196,1,46,5.4%
197,0,46,5.4%
198,0,46,5.4%
199,0,46,5.4%
200,2,48,5.63%
201,1,49,5.75%
202,1,50,5.87%
203,0,50,5.87%
204,0,50,5.87%
205,1,51,5.99%
206,0,51,5.99%
207,0,51,5.99%
208,0,51,5.99%
209,0,51,5.99%
210,0,51,5.99%
211,1,52,6.1%
212,0,52,6.1%
213,0,52,6.1%
214,0,52,6.1%
215,1,53,6.22%
216,0,53,6.22%
217,0,53,6.22%
218,0,53,6.22%
219,0,53,6.22%
220,0,53,6.22%
221,0,53,6.22%
222,0,53,6.22%
223,0,53,6.22%
224,0,53,6.22%
225,0,53,6.22%
226,0,53,6.22%
227,0,53,6.22%
228,0,53,6.22%
229,0,53,6.22%
230,0,53,6.22%
231,0,53,6.22%
232,0,53,6.22%
233,0,53,6.22%
234,0,53,6.22%
235,0,53,6.22%
236,1,54,6.34%
237,0,54,6.34%
238,0,54,6.34%
239,0,54,6.34%
240,1,55,6.46%
241,0,55,6.46%
242,0,55,6.46%
243,0,55,6.46%
244,1,56,6.57%
245,0,56,6.57%
246,2,58,6.81%
247,0,58,6.81%
248,0,58,6.81%
249,0,58,6.81%
250,0,58,6.81%
251,0,58,6.81%
252,0,58,6.81%
253,0,58,6.81%
254,0,58,6.81%
255,0,58,6.81%
256,0,58,6.81%
257,0,58,6.81%
258,0,58,6.81%
259,1,59,6.92%
260,0,59,6.92%
261,1,60,7.04%
262,0,60,7.04%
263,1,61,7.16%
264,0,61,7.16%
265,0,61,7.16%
266,0,61,7.16%
267,0,61,7.16%
268,1,62,7.28%
269,0,62,7.28%
270,2,64,7.51%
271,0,64,7.51%
272,0,64,7.51%
273,0,64,7.51%
274,0,64,7.51%
275,0,64,7.51%
276,0,64,7.51%
277,0,64,7.51%
278,1,65,7.63%
279,0,65,7.63%
280,0,65,7.63%
281,0,65,7.63%
282,0,65,7.63%
283,0,65,7.63%
284,0,65,7.63%
285,0,65,7.63%
286,1,66,7.75%
287,1,67,7.86%
288,0,67,7.86%
289,0,67,7.86%
290,0,67,7.86%
291,0,67,7.86%
292,0,67,7.86%
293,0,67,7.86%
294,0,67,7.86%
295,0,67,7.86%
296,0,67,7.86%
297,0,67,7.86%
298,2,69,8.1%
299,0,69,8.1%
300,0,69,8.1%
301,0,69,8.1%
302,0,69,8.1%
303,2,71,8.33%
304,0,71,8.33%
305,0,71,8.33%
306,0,71,8.33%
307,0,71,8.33%
308,0,71,8.33%
309,0,71,8.33%
310,0,71,8.33%
311,2,73,8.57%
312,0,73,8.57%
313,0,73,8.57%
314,0,73,8.57%
315,0,73,8.57%
316,0,73,8.57%
317,0,73,8.57%
318,0,73,8.57%
319,0,73,8.57%
320,0,73,8.57%
321,0,73,8.57%
322,0,73,8.57%
323,0,73,8.57%
324,0,73,8.57%
325,2,75,8.8%
326,0,75,8.8%
327,0,75,8.8%
328,0,75,8.8%
329,0,75,8.8%
330,0,75,8.8%
331,0,75,8.8%
332,0,75,8.8%
333,0,75,8.8%
334,0,75,8.8%
335,0,75,8.8%
336,0,75,8.8%
337,0,75,8.8%
338,0,75,8.8%
339,0,75,8.8%
340,0,75,8.8%
341,0,75,8.8%
342,1,76,8.92%
343,1,77,9.04%
344,0,77,9.04%
345,0,77,9.04%
346,0,77,9.04%
347,0,77,9.04%
348,0,77,9.04%
349,1,78,9.15%
350,1,79,9.27%
351,16,95,11.15%
352,10,105,12.32%
353,0,105,12.32%
354,0,105,12.32%
355,0,105,12.32%
356,0,105,12.32%
357,0,105,12.32%
358,5,110,12.91%
359,0,110,12.91%
360,3,113,13.26%
361,1,114,13.38%
362,0,114,13.38%
363,1,115,13.5%
364,0,115,13.5%
365,0,115,13.5%
366,1,116,13.62%
367,0,116,13.62%
368,0,116,13.62%
369,0,116,13.62%
370,0,116,13.62%
371,0,116,13.62%
372,1,117,13.73%
373,0,117,13.73%
374,1,118,13.85%
375,0,118,13.85%
376,1,119,13.97%
377,0,119,13.97%
378,0,119,13.97%
379,0,119,13.97%
380,0,119,13.97%
381,0,119,13.97%
382,1,120,14.08%
383,0,120,14.08%
384,0,120,14.08%
385,0,120,14.08%
386,0,120,14.08%
387,0,120,14.08%
388,0,120,14.08%
389,1,121,14.2%
390,0,121,14.2%
391,0,121,14.2%
392,1,122,14.32%
393,1,123,14.44%
394,0,123,14.44%
395,0,123,14.44%
396,0,123,14.44%
397,1,124,14.55%
398,0,124,14.55%
399,0,124,14.55%
400,0,124,14.55%
401,0,124,14.55%
402,0,124,14.55%
403,0,124,14.55%
404,0,124,14.55%
405,1,125,14.67%
406,2,127,14.91%
407,1,128,15.02%
408,0,128,15.02%
409,1,129,15.14%
410,0,129,15.14%
411,1,130,15.26%
412,1,131,15.38%
413,0,131,15.38%
414,0,131,15.38%
415,0,131,15.38%
416,1,132,15.49%
417,0,132,15.49%
418,0,132,15.49%
419,0,132,15.49%
420,1,133,15.61%
421,0,133,15.61%
422,1,134,15.73%
423,0,134,15.73%
424,0,134,15.73%
425,0,134,15.73%
426,0,134,15.73%
427,0,134,15.73%
428,0,134,15.73%
429,0,134,15.73%
430,0,134,15.73%
431,0,134,15.73%
432,1,135,15.85%
433,1,136,15.96%
434,0,136,15.96%
435,1,137,16.08%
436,0,137,16.08%
437,0,137,16.08%
438,0,137,16.08%
439,1,138,16.2%
440,0,138,16.2%
441,1,139,16.31%
442,0,139,16.31%
443,0,139,16.31%
444,0,139,16.31%
445,1,140,16.43%
446,2,142,16.67%
447,0,142,16.67%
448,0,142,16.67%
449,0,142,16.67%
450,0,142,16.67%
451,0,142,16.67%
452,0,142,16.67%
453,1,143,16.78%
454,0,143,16.78%
455,0,143,16.78%
456,0,143,16.78%
457,1,144,16.9%
458,0,144,16.9%
459,0,144,16.9%
460,0,144,16.9%
461,0,144,16.9%
462,0,144,16.9%
463,0,144,16.9%
464,0,144,16.9%
465,2,146,17.14%
466,0,146,17.14%
467,0,146,17.14%
468,0,146,17.14%
469,0,146,17.14%
470,0,146,17.14%
471,0,146,17.14%
472,0,146,17.14%
473,0,146,17.14%
474,0,146,17.14%
475,0,146,17.14%
476,0,146,17.14%
477,1,147,17.25%
478,0,147,17.25%
479,0,147,17.25%
480,0,147,17.25%
481,0,147,17.25%
482,1,148,17.37%
483,0,148,17.37%
484,1,149,17.49%
485,0,149,17.49%
486,0,149,17.49%
487,1,150,17.61%
488,0,150,17.61%
489,0,150,17.61%
490,0,150,17.61%
491,0,150,17.61%
492,0,150,17.61%
493,1,151,17.72%
494,0,151,17.72%
495,1,152,17.84%
496,1,153,17.96%
497,0,153,17.96%
498,1,154,18.08%
499,2,156,18.31%
500,0,156,18.31%
501,0,156,18.31%
502,0,156,18.31%
503,1,157,18.43%
504,0,157,18.43%
505,0,157,18.43%
506,0,157,18.43%
507,0,157,18.43%
508,0,157,18.43%
509,0,157,18.43%
510,0,157,18.43%
511,0,157,18.43%
512,0,157,18.43%
513,0,157,18.43%
514,1,158,18.54%
515,0,158,18.54%
516,0,158,18.54%
517,0,158,18.54%
518,0,158,18.54%
519,1,159,18.66%
520,0,159,18.66%
521,0,159,18.66%
522,0,159,18.66%
523,0,159,18.66%
524,0,159,18.66%
525,0,159,18.66%
526,0,159,18.66%
527,0,159,18.66%
528,1,160,18.78%
529,2,162,19.01%
530,1,163,19.13%
531,0,163,19.13%
532,0,163,19.13%
533,0,163,19.13%
534,0,163,19.13%
535,0,163,19.13%
536,0,163,19.13%
537,1,164,19.25%
538,0,164,19.25%
539,0,164,19.25%
540,0,164,19.25%
541,0,164,19.25%
542,0,164,19.25%
543,0,164,19.25%
544,0,164,19.25%
545,0,164,19.25%
546,1,165,19.37%
547,0,165,19.37%
548,1,166,19.48%
549,0,166,19.48%
550,1,167,19.6%
551,0,167,19.6%
552,0,167,19.6%
553,0,167,19.6%
554,0,167,19.6%
555,0,167,19.6%
556,0,167,19.6%
557,0,167,19.6%
558,0,167,19.6%
559,0,167,19.6%
560,0,167,19.6%
561,0,167,19.6%
562,0,167,19.6%
563,0,167,19.6%
564,1,168,19.72%
565,0,168,19.72%
566,0,168,19.72%
567,0,168,19.72%
568,0,168,19.72%
569,1,169,19.84%
570,1,170,19.95%
571,0,170,19.95%
572,0,170,19.95%
573,4,174,20.42%
574,0,174,20.42%
575,0,174,20.42%
576,8,182,21.36%
577,1,183,21.48%
578,0,183,21.48%
579,2,185,21.71%
580,0,185,21.71%
581,0,185,21.71%
582,0,185,21.71%
583,0,185,21.71%
584,0,185,21.71%
585,1,186,21.83%
586,0,186,21.83%
587,0,186,21.83%
588,0,186,21.83%
589,1,187,21.95%
590,0,187,21.95%
591,0,187,21.95%
592,0,187,21.95%
593,0,187,21.95%
594,0,187,21.95%
595,0,187,21.95%
596,1,188,22.07%
597,0,188,22.07%
598,0,188,22.07%
599,1,189,22.18%
600,0,189,22.18%
601,0,189,22.18%
602,0,189,22.18%
603,0,189,22.18%
604,0,189,22.18%
605,0,189,22.18%
606,0,189,22.18%
607,0,189,22.18%
608,1,190,22.3%
609,0,190,22.3%
610,0,190,22.3%
611,0,190,22.3%
612,0,190,22.3%
613,0,190,22.3%
614,0,190,22.3%
615,0,190,22.3%
616,0,190,22.3%
617,0,190,22.3%
618,0,190,22.3%
619,0,190,22.3%
620,0,190,22.3%
621,0,190,22.3%
622,0,190,22.3%
623,0,190,22.3%
624,0,190,22.3%
625,0,190,22.3%
626,1,191,22.42%
627,0,191,22.42%
628,1,192,22.54%
629,0,192,22.54%
630,0,192,22.54%
631,0,192,22.54%
632,1,193,22.65%
633,0,193,22.65%
634,0,193,22.65%
635,1,194,22.77%
636,0,194,22.77%
637,0,194,22.77%
638,0,194,22.77%
639,0,194,22.77%
640,0,194,22.77%
641,0,194,22.77%
642,1,195,22.89%
643,0,195,22.89%
644,0,195,22.89%
645,1,196,23.0%
646,0,196,23.0%
647,1,197,23.12%
648,0,197,23.12%
649,1,198,23.24%
650,0,198,23.24%
651,0,198,23.24%
652,0,198,23.24%
653,0,198,23.24%
654,0,198,23.24%
655,0,198,23.24%
656,0,198,23.24%
657,0,198,23.24%
658,0,198,23.24%
659,0,198,23.24%
660,0,198,23.24%
661,1,199,23.36%
662,0,199,23.36%
663,0,199,23.36%
664,0,199,23.36%
665,0,199,23.36%
666,0,199,23.36%
667,0,199,23.36%
668,0,199,23.36%
669,0,199,23.36%
670,0,199,23.36%
671,0,199,23.36%
672,0,199,23.36%
673,0,199,23.36%
674,0,199,23.36%
675,0,199,23.36%
676,0,199,23.36%
677,0,199,23.36%
678,0,199,23.36%
679,0,199,23.36%
680,0,199,23.36%
681,0,199,23.36%
682,0,199,23.36%
683,1,200,23.47%
684,0,200,23.47%
685,0,200,23.47%
686,0,200,23.47%
687,0,200,23.47%
688,0,200,23.47%
689,0,200,23.47%
690,0,200,23.47%
691,0,200,23.47%
692,1,201,23.59%
693,6,207,24.3%
694,0,207,24.3%
695,0,207,24.3%
696,0,207,24.3%
697,0,207,24.3%
698,0,207,24.3%
699,0,207,24.3%
700,1,208,24.41%
701,0,208,24.41%
702,1,209,24.53%
703,0,209,24.53%
704,1,210,24.65%
705,1,211,24.77%
706,1,212,24.88%
707,0,212,24.88%
708,0,212,24.88%
709,0,212,24.88%
710,0,212,24.88%
711,0,212,24.88%
712,0,212,24.88%
713,0,212,24.88%
714,0,212,24.88%
715,0,212,24.88%
716,0,212,24.88%
717,0,212,24.88%
718,0,212,24.88%
719,0,212,24.88%
720,0,212,24.88%
721,0,212,24.88%
722,0,212,24.88%
723,0,212,24.88%
724,0,212,24.88%
725,1,213,25.0%
726,0,213,25.0%
727,2,215,25.23%
728,0,215,25.23%
729,0,215,25.23%
730,0,215,25.23%
731,1,216,25.35%
732,0,216,25.35%
733,0,216,25.35%
734,0,216,25.35%
735,0,216,25.35%
736,0,216,25.35%
737,0,216,25.35%
738,0,216,25.35%
739,1,217,25.47%
740,1,218,25.59%
741,0,218,25.59%
742,1,219,25.7%
743,0,219,25.7%
744,1,220,25.82%
745,0,220,25.82%
746,0,220,25.82%
747,0,220,25.82%
748,0,220,25.82%
749,0,220,25.82%
750,0,220,25.82%
751,0,220,25.82%
752,0,220,25.82%
753,1,221,25.94%
754,1,222,26.06%
755,0,222,26.06%
756,0,222,26.06%
757,0,222,26.06%
758,0,222,26.06%
759,0,222,26.06%
760,1,223,26.17%
761,1,224,26.29%
762,0,224,26.29%
763,1,225,26.41%
764,0,225,26.41%
765,0,225,26.41%
766,0,225,26.41%
767,0,225,26.41%
768,0,225,26.41%
769,1,226,26.53%
770,0,226,26.53%
771,0,226,26.53%
772,0,226,26.53%
773,0,226,26.53%
774,0,226,26.53%
775,0,226,26.53%
776,0,226,26.53%
777,0,226,26.53%
778,0,226,26.53%
779,0,226,26.53%
780,0,226,26.53%
781,0,226,26.53%
782,0,226,26.53%
783,0,226,26.53%
784,0,226,26.53%
785,1,227,26.64%
786,0,227,26.64%
787,0,227,26.64%
788,0,227,26.64%
789,0,227,26.64%
790,0,227,26.64%
791,0,227,26.64%
792,1,228,26.76%
793,0,228,26.76%
794,0,228,26.76%
795,2,230,27.0%
796,0,230,27.0%
797,0,230,27.0%
798,0,230,27.0%
799,0,230,27.0%
800,0,230,27.0%
801,0,230,27.0%
802,1,231,27.11%
803,0,231,27.11%
804,1,232,27.23%
805,1,233,27.35%
806,0,233,27.35%
807,1,234,27.46%
808,0,234,27.46%
809,0,234,27.46%
810,1,235,27.58%
811,0,235,27.58%
812,0,235,27.58%
813,0,235,27.58%
814,0,235,27.58%
815,0,235,27.58%
816,2,237,27.82%
817,0,237,27.82%
818,0,237,27.82%
819,0,237,27.82%
820,0,237,27.82%
821,0,237,27.82%
822,0,237,27.82%
823,0,237,27.82%
824,0,237,27.82%
825,0,237,27.82%
826,0,237,27.82%
827,9,246,28.87%
828,0,246,28.87%
829,1,247,28.99%
830,0,247,28.99%
831,0,247,28.99%
832,0,247,28.99%
833,1,248,29.11%
834,0,248,29.11%
835,0,248,29.11%
836,0,248,29.11%
837,0,248,29.11%
838,0,248,29.11%
839,0,248,29.11%
840,1,249,29.23%
841,0,249,29.23%
842,0,249,29.23%
843,0,249,29.23%
844,1,250,29.34%
845,0,250,29.34%
846,0,250,29.34%
847,0,250,29.34%
848,0,250,29.34%
849,0,250,29.34%
850,0,250,29.34%
851,0,250,29.34%
852,0,250,29.34%
853,0,250,29.34%
854,0,250,29.34%
855,0,250,29.34%
856,1,251,29.46%
857,0,251,29.46%
858,0,251,29.46%
859,1,252,29.58%
860,0,252,29.58%
861,0,252,29.58%
862,0,252,29.58%
863,0,252,29.58%
864,0,252,29.58%
865,0,252,29.58%
866,0,252,29.58%
867,0,252,29.58%
868,0,252,29.58%
869,0,252,29.58%
870,0,252,29.58%
871,1,253,29.69%
872,0,253,29.69%
873,0,253,29.69%
874,0,253,29.69%
875,0,253,29.69%
876,1,254,29.81%
877,0,254,29.81%
878,0,254,29.81%
879,0,254,29.81%
880,0,254,29.81%
881,0,254,29.81%
882,0,254,29.81%
883,0,254,29.81%
884,0,254,29.81%
885,0,254,29.81%
886,0,254,29.81%
887,0,254,29.81%
888,0,254,29.81%
889,0,254,29.81%
890,0,254,29.81%
891,0,254,29.81%
892,0,254,29.81%
893,0,254,29.81%
894,0,254,29.81%
895,0,254,29.81%
896,1,255,29.93%
897,0,255,29.93%
898,1,256,30.05%
899,0,256,30.05%
900,0,256,30.05%
901,1,257,30.16%
902,0,257,30.16%
903,0,257,30.16%
904,1,258,30.28%
905,0,258,30.28%
906,2,260,30.52%
907,1,261,30.63%
908,0,261,30.63%
909,0,261,30.63%
910,0,261,30.63%
911,0,261,30.63%
912,1,262,30.75%
913,0,262,30.75%
914,0,262,30.75%
915,0,262,30.75%
916,0,262,30.75%
917,0,262,30.75%
918,0,262,30.75%
919,0,262,30.75%
920,0,262,30.75%
921,0,262,30.75%
922,0,262,30.75%
923,0,262,30.75%
924,0,262,30.75%
925,0,262,30.75%
926,0,262,30.75%
927,1,263,30.87%
928,1,264,30.99%
929,0,264,30.99%
930,0,264,30.99%
931,1,265,31.1%
932,0,265,31.1%
933,0,265,31.1%
934,0,265,31.1%
935,1,266,31.22%
936,0,266,31.22%
937,0,266,31.22%
938,0,266,31.22%
939,0,266,31.22%
940,0,266,31.22%
941,0,266,31.22%
942,1,267,31.34%
943,0,267,31.34%
944,0,267,31.34%
945,0,267,31.34%
946,2,269,31.57%
947,0,269,31.57%
948,0,269,31.57%
949,0,269,31.57%
950,0,269,31.57%
951,1,270,31.69%
952,0,270,31.69%
953,0,270,31.69%
954,0,270,31.69%
955,0,270,31.69%
956,1,271,31.81%
957,0,271,31.81%
958,1,272,31.92%
959,0,272,31.92%
960,0,272,31.92%
961,0,272,31.92%
962,0,272,31.92%
963,0,272,31.92%
964,1,273,32.04%
965,1,274,32.16%
966,0,274,32.16%
967,0,274,32.16%
968,0,274,32.16%
969,0,274,32.16%
970,0,274,32.16%
971,1,275,32.28%
972,0,275,32.28%
973,0,275,32.28%
974,0,275,32.28%
975,0,275,32.28%
976,0,275,32.28%
977,0,275,32.28%
978,0,275,32.28%
979,1,276,32.39%
980,0,276,32.39%
981,0,276,32.39%
982,0,276,32.39%
983,0,276,32.39%
984,0,276,32.39%
985,1,277,32.51%
986,0,277,32.51%
987,1,278,32.63%
988,0,278,32.63%
989,1,279,32.75%
990,0,279,32.75%
991,1,280,32.86%
992,0,280,32.86%
993,0,280,32.86%
994,2,282,33.1%
995,0,282,33.1%
996,0,282,33.1%
997,0,282,33.1%
998,2,284,33.33%
999,0,284,33.33%
1000,0,284,33.33%
1001,0,284,33.33%
1002,5,289,33.92%
1003,1,290,34.04%
1004,0,290,34.04%
1005,0,290,34.04%
1006,0,290,34.04%
1007,0,290,34.04%
1008,0,290,34.04%
1009,0,290,34.04%
1010,0,290,34.04%
1011,0,290,34.04%
1012,0,290,34.04%
1013,0,290,34.04%
1014,0,290,34.04%
1015,0,290,34.04%
1016,1,291,34.15%
1017,0,291,34.15%
1018,0,291,34.15%
1019,0,291,34.15%
1020,1,292,34.27%
1021,1,293,34.39%
1022,1,294,34.51%
1023,0,294,34.51%
1024,0,294,34.51%
1025,1,295,34.62%
1026,1,296,34.74%
1027,1,297,34.86%
1028,1,298,34.98%
1029,2,300,35.21%
1030,0,300,35.21%
1031,2,302,35.45%
1032,1,303,35.56%
1033,1,304,35.68%
1034,0,304,35.68%
1035,1,305,35.8%
1036,2,307,36.03%
1037,1,308,36.15%
1038,0,308,36.15%
1039,1,309,36.27%
1040,1,310,36.38%
1041,3,313,36.74%
1042,5,318,37.32%
1043,0,318,37.32%
1044,1,319,37.44%
1045,2,321,37.68%
1046,1,322,37.79%
1047,1,323,37.91%
1048,0,323,37.91%
1049,0,323,37.91%
1050,0,323,37.91%
1051,4,327,38.38%
1052,2,329,38.62%
1053,0,329,38.62%
1054,1,330,38.73%
1055,1,331,38.85%
1056,2,333,39.08%
1057,2,335,39.32%
1058,0,335,39.32%
1059,2,337,39.55%
1060,3,340,39.91%
1061,1,341,40.02%
1062,0,341,40.02%
1063,1,342,40.14%
1064,0,342,40.14%
1065,1,343,40.26%
1066,0,343,40.26%
1067,4,347,40.73%
1068,0,347,40.73%
1069,3,350,41.08%
1070,2,352,41.31%
1071,4,356,41.78%
1072,1,357,41.9%
1073,1,358,42.02%
1074,2,360,42.25%
1075,6,366,42.96%
1076,0,366,42.96%
1077,0,366,42.96%
1078,0,366,42.96%
1079,0,366,42.96%
1080,1,367,43.08%
1081,1,368,43.19%
1082,0,368,43.19%
1083,2,370,43.43%
1084,5,375,44.01%
1085,3,378,44.37%
1086,2,380,44.6%
1087,0,380,44.6%
1088,3,383,44.95%
1089,3,386,45.31%
1090,0,386,45.31%
1091,0,386,45.31%
1092,0,386,45.31%
1093,0,386,45.31%
1094,4,390,45.77%
1095,3,393,46.13%
1096,1,394,46.24%
1097,0,394,46.24%
1098,0,394,46.24%
1099,6,400,46.95%
1100,3,403,47.3%
1101,0,403,47.3%
1102,1,404,47.42%
1103,0,404,47.42%
1104,1,405,47.54%
1105,1,406,47.65%
1106,1,407,47.77%
1107,0,407,47.77%
1108,1,408,47.89%
1109,6,414,48.59%
1110,10,424,49.77%
1111,1,425,49.88%
1112,2,427,50.12%
1113,7,434,50.94%
1114,0,434,50.94%
1115,0,434,50.94%
1116,0,434,50.94%
1117,4,438,51.41%
1118,2,440,51.64%
1119,0,440,51.64%
1120,2,442,51.88%
1121,0,442,51.88%
1122,3,445,52.23%
1123,4,449,52.7%
1124,2,451,52.93%
1125,2,453,53.17%
1126,1,454,53.29%
1127,1,455,53.4%
1128,0,455,53.4%
1129,4,459,53.87%
1130,2,461,54.11%
1131,0,461,54.11%
1132,0,461,54.11%
1133,2,463,54.34%
1134,0,463,54.34%
1135,0,463,54.34%
1136,0,463,54.34%
1137,1,464,54.46%
1138,1,465,54.58%
1139,1,466,54.69%
1140,0,466,54.69%
1141,1,467,54.81%
1142,0,467,54.81%
1143,3,470,55.16%
1144,0,470,55.16%
1145,1,471,55.28%
1146,0,471,55.28%
1147,1,472,55.4%
1148,5,477,55.99%
1149,0,477,55.99%
1150,0,477,55.99%
1151,2,479,56.22%
1152,1,480,56.34%
1153,0,480,56.34%
1154,0,480,56.34%
1155,0,480,56.34%
1156,2,482,56.57%
1157,3,485,56.92%
1158,3,488,57.28%
1159,1,489,57.39%
1160,1,490,57.51%
1161,1,491,57.63%
1162,3,494,57.98%
1163,2,496,58.22%
1164,1,497,58.33%
1165,0,497,58.33%
1166,4,501,58.8%
1167,8,509,59.74%
1168,3,512,60.09%
1169,2,514,60.33%
1170,0,514,60.33%
1171,0,514,60.33%
1172,3,517,60.68%
1173,1,518,60.8%
1174,0,518,60.8%
1175,1,519,60.92%
1176,3,522,61.27%
1177,0,522,61.27%
1178,0,522,61.27%
1179,0,522,61.27%
1180,0,522,61.27%
1181,2,524,61.5%
1182,1,525,61.62%
1183,3,528,61.97%
1184,0,528,61.97%
1185,0,528,61.97%
1186,0,528,61.97%
1187,0,528,61.97%
1188,0,528,61.97%
1189,0,528,61.97%
1190,2,530,62.21%
1191,2,532,62.44%
1192,1,533,62.56%
1193,2,535,62.79%
1194,1,536,62.91%
1195,2,538,63.15%
1196,5,543,63.73%
1197,0,543,63.73%
1198,0,543,63.73%
1199,309,852,100.0%
