Length, Count, Sum (Counts <= Length), Percent of Nonzero Data, Nonzero Data Count = 532, Zero Data Count = 1312
1,3,3,0.56%
2,0,3,0.56%
3,1,4,0.75%
4,9,13,2.44%
5,1,14,2.63%
6,0,14,2.63%
7,1,15,2.82%
8,1,16,3.01%
9,0,16,3.01%
10,1,17,3.2%
11,0,17,3.2%
12,3,20,3.76%
13,3,23,4.32%
14,3,26,4.89%
15,3,29,5.45%
16,0,29,5.45%
17,3,32,6.02%
18,4,36,6.77%
19,3,39,7.33%
20,2,41,7.71%
21,0,41,7.71%
22,7,48,9.02%
23,7,55,10.34%
24,3,58,10.9%
25,8,66,12.41%
26,0,66,12.41%
27,0,66,12.41%
28,3,69,12.97%
29,1,70,13.16%
30,1,71,13.35%
31,2,73,13.72%
32,3,76,14.29%
33,1,77,14.47%
34,0,77,14.47%
35,0,77,14.47%
36,0,77,14.47%
37,0,77,14.47%
38,2,79,14.85%
39,4,83,15.6%
40,0,83,15.6%
41,0,83,15.6%
42,0,83,15.6%
43,0,83,15.6%
44,0,83,15.6%
45,0,83,15.6%
46,2,85,15.98%
47,2,87,16.35%
48,1,88,16.54%
49,3,91,17.11%
50,4,95,17.86%
51,3,98,18.42%
52,434,532,100.0%
