Length, Count, Sum (Counts <= Length), Percent of Nonzero Data, Nonzero Data Count = 491, Zero Data Count = 1353
1,6,6,1.22%
2,1,7,1.43%
3,1,8,1.63%
4,5,13,2.65%
5,4,17,3.46%
6,12,29,5.91%
7,1,30,6.11%
8,0,30,6.11%
9,3,33,6.72%
10,6,39,7.94%
11,1,40,8.15%
12,0,40,8.15%
13,0,40,8.15%
14,1,41,8.35%
15,5,46,9.37%
16,2,48,9.78%
17,0,48,9.78%
18,3,51,10.39%
19,2,53,10.79%
20,2,55,11.2%
21,1,56,11.41%
22,1,57,11.61%
23,0,57,11.61%
24,3,60,12.22%
25,5,65,13.24%
26,0,65,13.24%
27,0,65,13.24%
28,4,69,14.05%
29,2,71,14.46%
30,2,73,14.87%
31,2,75,15.27%
32,4,79,16.09%
33,3,82,16.7%
34,4,86,17.52%
35,3,89,18.13%
36,2,91,18.53%
37,1,92,18.74%
38,3,95,19.35%
39,2,97,19.76%
40,1,98,19.96%
41,3,101,20.57%
42,0,101,20.57%
43,2,103,20.98%
44,3,106,21.59%
45,0,106,21.59%
46,0,106,21.59%
47,0,106,21.59%
48,2,108,22.0%
49,2,110,22.4%
50,0,110,22.4%
51,0,110,22.4%
52,1,111,22.61%
53,3,114,23.22%
54,2,116,23.63%
55,3,119,24.24%
56,4,123,25.05%
57,0,123,25.05%
58,3,126,25.66%
59,1,127,25.87%
60,7,134,27.29%
61,2,136,27.7%
62,0,136,27.7%
63,1,137,27.9%
64,0,137,27.9%
65,2,139,28.31%
66,3,142,28.92%
67,1,143,29.12%
68,0,143,29.12%
69,9,152,30.96%
70,0,152,30.96%
71,1,153,31.16%
72,0,153,31.16%
73,1,154,31.36%
74,1,155,31.57%
75,0,155,31.57%
76,1,156,31.77%
77,1,157,31.98%
78,1,158,32.18%
79,2,160,32.59%
80,0,160,32.59%
81,0,160,32.59%
82,0,160,32.59%
83,0,160,32.59%
84,1,161,32.79%
85,0,161,32.79%
86,1,162,32.99%
87,2,164,33.4%
88,2,166,33.81%
89,4,170,34.62%
90,1,171,34.83%
91,3,174,35.44%
92,7,181,36.86%
93,2,183,37.27%
94,0,183,37.27%
95,1,184,37.47%
96,1,185,37.68%
97,0,185,37.68%
98,4,189,38.49%
99,1,190,38.7%
100,1,191,38.9%
101,0,191,38.9%
102,3,194,39.51%
103,3,197,40.12%
104,2,199,40.53%
105,1,200,40.73%
106,0,200,40.73%
107,11,211,42.97%
108,2,213,43.38%
109,5,218,44.4%
110,1,219,44.6%
111,0,219,44.6%
112,1,220,44.81%
113,2,222,45.21%
114,2,224,45.62%
115,1,225,45.82%
116,2,227,46.23%
117,2,229,46.64%
118,0,229,46.64%
119,0,229,46.64%
120,0,229,46.64%
121,0,229,46.64%
122,1,230,46.84%
123,0,230,46.84%
124,0,230,46.84%
125,0,230,46.84%
126,0,230,46.84%
127,0,230,46.84%
128,0,230,46.84%
129,0,230,46.84%
130,0,230,46.84%
131,0,230,46.84%
132,0,230,46.84%
133,0,230,46.84%
134,0,230,46.84%
135,0,230,46.84%
136,0,230,46.84%
137,0,230,46.84%
138,0,230,46.84%
139,0,230,46.84%
140,0,230,46.84%
141,1,231,47.05%
142,1,232,47.25%
143,0,232,47.25%
144,0,232,47.25%
145,0,232,47.25%
146,0,232,47.25%
147,0,232,47.25%
148,1,233,47.45%
149,1,234,47.66%
150,0,234,47.66%
151,0,234,47.66%
152,0,234,47.66%
153,0,234,47.66%
154,0,234,47.66%
155,0,234,47.66%
156,1,235,47.86%
157,0,235,47.86%
158,0,235,47.86%
159,0,235,47.86%
160,1,236,48.07%
161,0,236,48.07%
162,0,236,48.07%
163,0,236,48.07%
164,0,236,48.07%
165,0,236,48.07%
166,0,236,48.07%
167,0,236,48.07%
168,0,236,48.07%
169,0,236,48.07%
170,0,236,48.07%
171,0,236,48.07%
172,0,236,48.07%
173,1,237,48.27%
174,0,237,48.27%
175,0,237,48.27%
176,0,237,48.27%
177,0,237,48.27%
178,1,238,48.47%
179,1,239,48.68%
180,0,239,48.68%
181,0,239,48.68%
182,0,239,48.68%
183,0,239,48.68%
184,0,239,48.68%
185,0,239,48.68%
186,0,239,48.68%
187,1,240,48.88%
188,0,240,48.88%
189,0,240,48.88%
190,0,240,48.88%
191,0,240,48.88%
192,0,240,48.88%
193,0,240,48.88%
194,1,241,49.08%
195,0,241,49.08%
196,0,241,49.08%
197,0,241,49.08%
198,0,241,49.08%
199,0,241,49.08%
200,0,241,49.08%
201,0,241,49.08%
202,0,241,49.08%
203,0,241,49.08%
204,1,242,49.29%
205,0,242,49.29%
206,0,242,49.29%
207,0,242,49.29%
208,0,242,49.29%
209,0,242,49.29%
210,0,242,49.29%
211,0,242,49.29%
212,0,242,49.29%
213,0,242,49.29%
214,0,242,49.29%
215,0,242,49.29%
216,0,242,49.29%
217,0,242,49.29%
218,0,242,49.29%
219,0,242,49.29%
220,0,242,49.29%
221,0,242,49.29%
222,1,243,49.49%
223,0,243,49.49%
224,0,243,49.49%
225,1,244,49.69%
226,1,245,49.9%
227,0,245,49.9%
228,0,245,49.9%
229,0,245,49.9%
230,0,245,49.9%
231,0,245,49.9%
232,0,245,49.9%
233,0,245,49.9%
234,0,245,49.9%
235,0,245,49.9%
236,0,245,49.9%
237,0,245,49.9%
238,0,245,49.9%
239,0,245,49.9%
240,0,245,49.9%
241,0,245,49.9%
242,0,245,49.9%
243,0,245,49.9%
244,0,245,49.9%
245,0,245,49.9%
246,0,245,49.9%
247,0,245,49.9%
248,0,245,49.9%
249,0,245,49.9%
250,0,245,49.9%
251,0,245,49.9%
252,1,246,50.1%
253,0,246,50.1%
254,0,246,50.1%
255,0,246,50.1%
256,0,246,50.1%
257,0,246,50.1%
258,0,246,50.1%
259,0,246,50.1%
260,0,246,50.1%
261,0,246,50.1%
262,0,246,50.1%
263,0,246,50.1%
264,0,246,50.1%
265,0,246,50.1%
266,0,246,50.1%
267,0,246,50.1%
268,0,246,50.1%
269,0,246,50.1%
270,0,246,50.1%
271,0,246,50.1%
272,0,246,50.1%
273,0,246,50.1%
274,0,246,50.1%
275,0,246,50.1%
276,0,246,50.1%
277,0,246,50.1%
278,0,246,50.1%
279,0,246,50.1%
280,0,246,50.1%
281,0,246,50.1%
282,0,246,50.1%
283,0,246,50.1%
284,0,246,50.1%
285,0,246,50.1%
286,0,246,50.1%
287,0,246,50.1%
288,0,246,50.1%
289,0,246,50.1%
290,0,246,50.1%
291,0,246,50.1%
292,0,246,50.1%
293,0,246,50.1%
294,1,247,50.31%
295,0,247,50.31%
296,0,247,50.31%
297,0,247,50.31%
298,0,247,50.31%
299,0,247,50.31%
300,1,248,50.51%
301,1,249,50.71%
302,0,249,50.71%
303,0,249,50.71%
304,0,249,50.71%
305,0,249,50.71%
306,0,249,50.71%
307,0,249,50.71%
308,0,249,50.71%
309,1,250,50.92%
310,1,251,51.12%
311,0,251,51.12%
312,0,251,51.12%
313,0,251,51.12%
314,0,251,51.12%
315,0,251,51.12%
316,0,251,51.12%
317,0,251,51.12%
318,0,251,51.12%
319,1,252,51.32%
320,0,252,51.32%
321,0,252,51.32%
322,0,252,51.32%
323,0,252,51.32%
324,0,252,51.32%
325,0,252,51.32%
326,0,252,51.32%
327,0,252,51.32%
328,0,252,51.32%
329,0,252,51.32%
330,0,252,51.32%
331,0,252,51.32%
332,0,252,51.32%
333,0,252,51.32%
334,0,252,51.32%
335,0,252,51.32%
336,1,253,51.53%
337,1,254,51.73%
338,0,254,51.73%
339,0,254,51.73%
340,0,254,51.73%
341,0,254,51.73%
342,0,254,51.73%
343,0,254,51.73%
344,0,254,51.73%
345,1,255,51.93%
346,1,256,52.14%
347,0,256,52.14%
348,0,256,52.14%
349,0,256,52.14%
350,0,256,52.14%
351,0,256,52.14%
352,1,257,52.34%
353,0,257,52.34%
354,0,257,52.34%
355,1,258,52.55%
356,0,258,52.55%
357,0,258,52.55%
358,0,258,52.55%
359,0,258,52.55%
360,0,258,52.55%
361,0,258,52.55%
362,0,258,52.55%
363,0,258,52.55%
364,0,258,52.55%
365,0,258,52.55%
366,1,259,52.75%
367,0,259,52.75%
368,0,259,52.75%
369,0,259,52.75%
370,0,259,52.75%
371,0,259,52.75%
372,0,259,52.75%
373,0,259,52.75%
374,0,259,52.75%
375,0,259,52.75%
376,0,259,52.75%
377,0,259,52.75%
378,0,259,52.75%
379,0,259,52.75%
380,0,259,52.75%
381,0,259,52.75%
382,0,259,52.75%
383,0,259,52.75%
384,0,259,52.75%
385,0,259,52.75%
386,0,259,52.75%
387,0,259,52.75%
388,0,259,52.75%
389,0,259,52.75%
390,0,259,52.75%
391,0,259,52.75%
392,0,259,52.75%
393,0,259,52.75%
394,0,259,52.75%
395,0,259,52.75%
396,0,259,52.75%
397,0,259,52.75%
398,0,259,52.75%
399,0,259,52.75%
400,0,259,52.75%
401,0,259,52.75%
402,0,259,52.75%
403,0,259,52.75%
404,0,259,52.75%
405,0,259,52.75%
406,0,259,52.75%
407,0,259,52.75%
408,2,261,53.16%
409,0,261,53.16%
410,0,261,53.16%
411,0,261,53.16%
412,0,261,53.16%
413,1,262,53.36%
414,1,263,53.56%
415,0,263,53.56%
416,0,263,53.56%
417,0,263,53.56%
418,0,263,53.56%
419,0,263,53.56%
420,1,264,53.77%
421,0,264,53.77%
422,1,265,53.97%
423,1,266,54.18%
424,0,266,54.18%
425,0,266,54.18%
426,0,266,54.18%
427,1,267,54.38%
428,0,267,54.38%
429,0,267,54.38%
430,0,267,54.38%
431,0,267,54.38%
432,0,267,54.38%
433,0,267,54.38%
434,0,267,54.38%
435,0,267,54.38%
436,0,267,54.38%
437,0,267,54.38%
438,0,267,54.38%
439,0,267,54.38%
440,0,267,54.38%
441,0,267,54.38%
442,0,267,54.38%
443,0,267,54.38%
444,0,267,54.38%
445,0,267,54.38%
446,0,267,54.38%
447,0,267,54.38%
448,1,268,54.58%
449,0,268,54.58%
450,0,268,54.58%
451,0,268,54.58%
452,0,268,54.58%
453,0,268,54.58%
454,0,268,54.58%
455,0,268,54.58%
456,0,268,54.58%
457,0,268,54.58%
458,0,268,54.58%
459,1,269,54.79%
460,0,269,54.79%
461,0,269,54.79%
462,0,269,54.79%
463,0,269,54.79%
464,0,269,54.79%
465,0,269,54.79%
466,0,269,54.79%
467,0,269,54.79%
468,0,269,54.79%
469,0,269,54.79%
470,0,269,54.79%
471,0,269,54.79%
472,0,269,54.79%
473,1,270,54.99%
474,0,270,54.99%
475,0,270,54.99%
476,0,270,54.99%
477,0,270,54.99%
478,0,270,54.99%
479,0,270,54.99%
480,0,270,54.99%
481,0,270,54.99%
482,0,270,54.99%
483,1,271,55.19%
484,0,271,55.19%
485,0,271,55.19%
486,0,271,55.19%
487,0,271,55.19%
488,0,271,55.19%
489,0,271,55.19%
490,0,271,55.19%
491,0,271,55.19%
492,0,271,55.19%
493,0,271,55.19%
494,0,271,55.19%
495,0,271,55.19%
496,0,271,55.19%
497,0,271,55.19%
498,0,271,55.19%
499,0,271,55.19%
500,0,271,55.19%
501,0,271,55.19%
502,0,271,55.19%
503,0,271,55.19%
504,0,271,55.19%
505,1,272,55.4%
506,0,272,55.4%
507,1,273,55.6%
508,0,273,55.6%
509,0,273,55.6%
510,0,273,55.6%
511,0,273,55.6%
512,0,273,55.6%
513,0,273,55.6%
514,1,274,55.8%
515,0,274,55.8%
516,0,274,55.8%
517,0,274,55.8%
518,0,274,55.8%
519,0,274,55.8%
520,0,274,55.8%
521,0,274,55.8%
522,0,274,55.8%
523,0,274,55.8%
524,0,274,55.8%
525,0,274,55.8%
526,0,274,55.8%
527,0,274,55.8%
528,0,274,55.8%
529,0,274,55.8%
530,0,274,55.8%
531,0,274,55.8%
532,0,274,55.8%
533,0,274,55.8%
534,0,274,55.8%
535,0,274,55.8%
536,0,274,55.8%
537,0,274,55.8%
538,0,274,55.8%
539,0,274,55.8%
540,0,274,55.8%
541,0,274,55.8%
542,0,274,55.8%
543,0,274,55.8%
544,0,274,55.8%
545,0,274,55.8%
546,0,274,55.8%
547,0,274,55.8%
548,0,274,55.8%
549,0,274,55.8%
550,0,274,55.8%
551,0,274,55.8%
552,1,275,56.01%
553,1,276,56.21%
554,0,276,56.21%
555,0,276,56.21%
556,0,276,56.21%
557,1,277,56.42%
558,0,277,56.42%
559,0,277,56.42%
560,0,277,56.42%
561,0,277,56.42%
562,0,277,56.42%
563,0,277,56.42%
564,0,277,56.42%
565,0,277,56.42%
566,0,277,56.42%
567,0,277,56.42%
568,0,277,56.42%
569,0,277,56.42%
570,0,277,56.42%
571,0,277,56.42%
572,0,277,56.42%
573,0,277,56.42%
574,0,277,56.42%
575,0,277,56.42%
576,0,277,56.42%
577,0,277,56.42%
578,0,277,56.42%
579,0,277,56.42%
580,0,277,56.42%
581,0,277,56.42%
582,0,277,56.42%
583,0,277,56.42%
584,1,278,56.62%
585,0,278,56.62%
586,0,278,56.62%
587,0,278,56.62%
588,0,278,56.62%
589,1,279,56.82%
590,0,279,56.82%
591,0,279,56.82%
592,0,279,56.82%
593,0,279,56.82%
594,1,280,57.03%
595,0,280,57.03%
596,0,280,57.03%
597,0,280,57.03%
598,0,280,57.03%
599,0,280,57.03%
600,0,280,57.03%
601,0,280,57.03%
602,0,280,57.03%
603,0,280,57.03%
604,0,280,57.03%
605,0,280,57.03%
606,0,280,57.03%
607,0,280,57.03%
608,0,280,57.03%
609,0,280,57.03%
610,0,280,57.03%
611,0,280,57.03%
612,0,280,57.03%
613,0,280,57.03%
614,0,280,57.03%
615,0,280,57.03%
616,0,280,57.03%
617,0,280,57.03%
618,1,281,57.23%
619,0,281,57.23%
620,0,281,57.23%
621,0,281,57.23%
622,1,282,57.43%
623,0,282,57.43%
624,0,282,57.43%
625,0,282,57.43%
626,0,282,57.43%
627,0,282,57.43%
628,1,283,57.64%
629,0,283,57.64%
630,0,283,57.64%
631,0,283,57.64%
632,1,284,57.84%
633,0,284,57.84%
634,0,284,57.84%
635,0,284,57.84%
636,1,285,58.04%
637,0,285,58.04%
638,0,285,58.04%
639,0,285,58.04%
640,0,285,58.04%
641,0,285,58.04%
642,0,285,58.04%
643,0,285,58.04%
644,0,285,58.04%
645,1,286,58.25%
646,205,491,100.0%
