Length, Count, Sum (Counts <= Length), Percent of Nonzero Data, Nonzero Data Count = 738, Zero Data Count = 1106
1,1,1,0.14%
2,0,1,0.14%
3,1,2,0.27%
4,0,2,0.27%
5,0,2,0.27%
6,0,2,0.27%
7,0,2,0.27%
8,0,2,0.27%
9,0,2,0.27%
10,0,2,0.27%
11,1,3,0.41%
12,0,3,0.41%
13,0,3,0.41%
14,0,3,0.41%
15,1,4,0.54%
16,0,4,0.54%
17,0,4,0.54%
18,1,5,0.68%
19,1,6,0.81%
20,1,7,0.95%
21,0,7,0.95%
22,0,7,0.95%
23,0,7,0.95%
24,0,7,0.95%
25,0,7,0.95%
26,0,7,0.95%
27,0,7,0.95%
28,0,7,0.95%
29,0,7,0.95%
30,0,7,0.95%
31,0,7,0.95%
32,0,7,0.95%
33,0,7,0.95%
34,0,7,0.95%
35,0,7,0.95%
36,0,7,0.95%
37,0,7,0.95%
38,1,8,1.08%
39,1,9,1.22%
40,0,9,1.22%
41,1,10,1.36%
42,1,11,1.49%
43,0,11,1.49%
44,0,11,1.49%
45,0,11,1.49%
46,0,11,1.49%
47,0,11,1.49%
48,0,11,1.49%
49,0,11,1.49%
50,0,11,1.49%
51,1,12,1.63%
52,1,13,1.76%
53,0,13,1.76%
54,0,13,1.76%
55,1,14,1.9%
56,0,14,1.9%
57,1,15,2.03%
58,0,15,2.03%
59,0,15,2.03%
60,0,15,2.03%
61,0,15,2.03%
62,1,16,2.17%
63,1,17,2.3%
64,0,17,2.3%
65,0,17,2.3%
66,1,18,2.44%
67,0,18,2.44%
68,0,18,2.44%
69,1,19,2.57%
70,4,23,3.12%
71,1,24,3.25%
72,0,24,3.25%
73,0,24,3.25%
74,2,26,3.52%
75,0,26,3.52%
76,0,26,3.52%
77,0,26,3.52%
78,2,28,3.79%
79,0,28,3.79%
80,0,28,3.79%
81,0,28,3.79%
82,0,28,3.79%
83,0,28,3.79%
84,0,28,3.79%
85,1,29,3.93%
86,1,30,4.07%
87,0,30,4.07%
88,0,30,4.07%
89,0,30,4.07%
90,1,31,4.2%
91,0,31,4.2%
92,1,32,4.34%
93,0,32,4.34%
94,0,32,4.34%
95,0,32,4.34%
96,1,33,4.47%
97,1,34,4.61%
98,0,34,4.61%
99,0,34,4.61%
100,0,34,4.61%
101,0,34,4.61%
102,0,34,4.61%
103,0,34,4.61%
104,0,34,4.61%
105,0,34,4.61%
106,1,35,4.74%
107,0,35,4.74%
108,0,35,4.74%
109,1,36,4.88%
110,0,36,4.88%
111,0,36,4.88%
112,0,36,4.88%
113,0,36,4.88%
114,0,36,4.88%
115,0,36,4.88%
116,0,36,4.88%
117,0,36,4.88%
118,0,36,4.88%
119,0,36,4.88%
120,0,36,4.88%
121,1,37,5.01%
122,0,37,5.01%
123,0,37,5.01%
124,0,37,5.01%
125,1,38,5.15%
126,0,38,5.15%
127,0,38,5.15%
128,1,39,5.28%
129,1,40,5.42%
130,0,40,5.42%
131,0,40,5.42%
132,0,40,5.42%
133,1,41,5.56%
134,0,41,5.56%
135,0,41,5.56%
136,0,41,5.56%
137,0,41,5.56%
138,0,41,5.56%
139,0,41,5.56%
140,0,41,5.56%
141,0,41,5.56%
142,0,41,5.56%
143,1,42,5.69%
144,0,42,5.69%
145,0,42,5.69%
146,0,42,5.69%
147,0,42,5.69%
148,0,42,5.69%
149,0,42,5.69%
150,1,43,5.83%
151,1,44,5.96%
152,1,45,6.1%
153,0,45,6.1%
154,1,46,6.23%
155,0,46,6.23%
156,0,46,6.23%
157,0,46,6.23%
158,1,47,6.37%
159,0,47,6.37%
160,0,47,6.37%
161,0,47,6.37%
162,0,47,6.37%
163,0,47,6.37%
164,0,47,6.37%
165,0,47,6.37%
166,0,47,6.37%
167,0,47,6.37%
168,0,47,6.37%
169,1,48,6.5%
170,0,48,6.5%
171,1,49,6.64%
172,0,49,6.64%
173,0,49,6.64%
174,0,49,6.64%
175,0,49,6.64%
176,0,49,6.64%
177,0,49,6.64%
178,0,49,6.64%
179,0,49,6.64%
180,0,49,6.64%
181,0,49,6.64%
182,0,49,6.64%
183,0,49,6.64%
184,1,50,6.78%
185,0,50,6.78%
186,0,50,6.78%
187,0,50,6.78%
188,0,50,6.78%
189,0,50,6.78%
190,0,50,6.78%
191,0,50,6.78%
192,0,50,6.78%
193,1,51,6.91%
194,1,52,7.05%
195,1,53,7.18%
196,0,53,7.18%
197,0,53,7.18%
198,0,53,7.18%
199,0,53,7.18%
200,0,53,7.18%
201,0,53,7.18%
202,0,53,7.18%
203,1,54,7.32%
204,0,54,7.32%
205,0,54,7.32%
206,0,54,7.32%
207,2,56,7.59%
208,0,56,7.59%
209,0,56,7.59%
210,0,56,7.59%
211,8,64,8.67%
212,1,65,8.81%
213,0,65,8.81%
214,1,66,8.94%
215,0,66,8.94%
216,0,66,8.94%
217,0,66,8.94%
218,0,66,8.94%
219,1,67,9.08%
220,0,67,9.08%
221,0,67,9.08%
222,0,67,9.08%
223,0,67,9.08%
224,0,67,9.08%
225,0,67,9.08%
226,0,67,9.08%
227,0,67,9.08%
228,2,69,9.35%
229,0,69,9.35%
230,0,69,9.35%
231,1,70,9.49%
232,1,71,9.62%
233,0,71,9.62%
234,0,71,9.62%
235,0,71,9.62%
236,0,71,9.62%
237,0,71,9.62%
238,1,72,9.76%
239,0,72,9.76%
240,0,72,9.76%
241,2,74,10.03%
242,0,74,10.03%
243,1,75,10.16%
244,0,75,10.16%
245,5,80,10.84%
246,0,80,10.84%
247,0,80,10.84%
248,0,80,10.84%
249,0,80,10.84%
250,0,80,10.84%
251,0,80,10.84%
252,1,81,10.98%
253,0,81,10.98%
254,0,81,10.98%
255,2,83,11.25%
256,0,83,11.25%
257,0,83,11.25%
258,0,83,11.25%
259,1,84,11.38%
260,0,84,11.38%
261,1,85,11.52%
262,0,85,11.52%
263,0,85,11.52%
264,0,85,11.52%
265,1,86,11.65%
266,0,86,11.65%
267,0,86,11.65%
268,0,86,11.65%
269,0,86,11.65%
270,2,88,11.92%
271,0,88,11.92%
272,0,88,11.92%
273,0,88,11.92%
274,1,89,12.06%
275,0,89,12.06%
276,0,89,12.06%
277,0,89,12.06%
278,0,89,12.06%
279,0,89,12.06%
280,0,89,12.06%
281,0,89,12.06%
282,0,89,12.06%
283,0,89,12.06%
284,0,89,12.06%
285,0,89,12.06%
286,0,89,12.06%
287,0,89,12.06%
288,0,89,12.06%
289,0,89,12.06%
290,0,89,12.06%
291,0,89,12.06%
292,0,89,12.06%
293,0,89,12.06%
294,0,89,12.06%
295,0,89,12.06%
296,1,90,12.2%
297,0,90,12.2%
298,0,90,12.2%
299,0,90,12.2%
300,0,90,12.2%
301,0,90,12.2%
302,0,90,12.2%
303,1,91,12.33%
304,0,91,12.33%
305,0,91,12.33%
306,1,92,12.47%
307,0,92,12.47%
308,0,92,12.47%
309,0,92,12.47%
310,0,92,12.47%
311,0,92,12.47%
312,0,92,12.47%
313,0,92,12.47%
314,0,92,12.47%
315,0,92,12.47%
316,0,92,12.47%
317,1,93,12.6%
318,0,93,12.6%
319,0,93,12.6%
320,0,93,12.6%
321,0,93,12.6%
322,0,93,12.6%
323,0,93,12.6%
324,0,93,12.6%
325,0,93,12.6%
326,1,94,12.74%
327,0,94,12.74%
328,9,103,13.96%
329,0,103,13.96%
330,1,104,14.09%
331,0,104,14.09%
332,0,104,14.09%
333,0,104,14.09%
334,0,104,14.09%
335,0,104,14.09%
336,0,104,14.09%
337,0,104,14.09%
338,0,104,14.09%
339,0,104,14.09%
340,1,105,14.23%
341,0,105,14.23%
342,1,106,14.36%
343,0,106,14.36%
344,0,106,14.36%
345,1,107,14.5%
346,0,107,14.5%
347,0,107,14.5%
348,1,108,14.63%
349,0,108,14.63%
350,0,108,14.63%
351,0,108,14.63%
352,0,108,14.63%
353,1,109,14.77%
354,0,109,14.77%
355,0,109,14.77%
356,0,109,14.77%
357,0,109,14.77%
358,0,109,14.77%
359,0,109,14.77%
360,1,110,14.91%
361,1,111,15.04%
362,0,111,15.04%
363,0,111,15.04%
364,0,111,15.04%
365,0,111,15.04%
366,0,111,15.04%
367,0,111,15.04%
368,0,111,15.04%
369,0,111,15.04%
370,0,111,15.04%
371,0,111,15.04%
372,1,112,15.18%
373,0,112,15.18%
374,0,112,15.18%
375,0,112,15.18%
376,0,112,15.18%
377,0,112,15.18%
378,0,112,15.18%
379,0,112,15.18%
380,0,112,15.18%
381,0,112,15.18%
382,0,112,15.18%
383,0,112,15.18%
384,0,112,15.18%
385,0,112,15.18%
386,0,112,15.18%
387,0,112,15.18%
388,0,112,15.18%
389,0,112,15.18%
390,0,112,15.18%
391,0,112,15.18%
392,0,112,15.18%
393,0,112,15.18%
394,1,113,15.31%
395,0,113,15.31%
396,0,113,15.31%
397,0,113,15.31%
398,0,113,15.31%
399,1,114,15.45%
400,0,114,15.45%
401,0,114,15.45%
402,1,115,15.58%
403,0,115,15.58%
404,0,115,15.58%
405,0,115,15.58%
406,0,115,15.58%
407,2,117,15.85%
408,1,118,15.99%
409,0,118,15.99%
410,1,119,16.12%
411,0,119,16.12%
412,0,119,16.12%
413,1,120,16.26%
414,0,120,16.26%
415,0,120,16.26%
416,0,120,16.26%
417,0,120,16.26%
418,0,120,16.26%
419,0,120,16.26%
420,0,120,16.26%
421,0,120,16.26%
422,0,120,16.26%
423,0,120,16.26%
424,0,120,16.26%
425,0,120,16.26%
426,0,120,16.26%
427,0,120,16.26%
428,0,120,16.26%
429,0,120,16.26%
430,0,120,16.26%
431,0,120,16.26%
432,0,120,16.26%
433,0,120,16.26%
434,0,120,16.26%
435,0,120,16.26%
436,0,120,16.26%
437,0,120,16.26%
438,1,121,16.4%
439,0,121,16.4%
440,0,121,16.4%
441,0,121,16.4%
442,0,121,16.4%
443,0,121,16.4%
444,0,121,16.4%
445,1,122,16.53%
446,0,122,16.53%
447,1,123,16.67%
448,0,123,16.67%
449,0,123,16.67%
450,0,123,16.67%
451,0,123,16.67%
452,2,125,16.94%
453,0,125,16.94%
454,1,126,17.07%
455,0,126,17.07%
456,0,126,17.07%
457,1,127,17.21%
458,0,127,17.21%
459,1,128,17.34%
460,0,128,17.34%
461,0,128,17.34%
462,0,128,17.34%
463,0,128,17.34%
464,0,128,17.34%
465,1,129,17.48%
466,1,130,17.62%
467,0,130,17.62%
468,0,130,17.62%
469,2,132,17.89%
470,0,132,17.89%
471,2,134,18.16%
472,1,135,18.29%
473,0,135,18.29%
474,0,135,18.29%
475,0,135,18.29%
476,0,135,18.29%
477,0,135,18.29%
478,0,135,18.29%
479,0,135,18.29%
480,0,135,18.29%
481,0,135,18.29%
482,0,135,18.29%
483,0,135,18.29%
484,0,135,18.29%
485,0,135,18.29%
486,0,135,18.29%
487,0,135,18.29%
488,0,135,18.29%
489,0,135,18.29%
490,1,136,18.43%
491,0,136,18.43%
492,1,137,18.56%
493,0,137,18.56%
494,0,137,18.56%
495,1,138,18.7%
496,0,138,18.7%
497,0,138,18.7%
498,0,138,18.7%
499,0,138,18.7%
500,1,139,18.83%
501,0,139,18.83%
502,0,139,18.83%
503,1,140,18.97%
504,2,142,19.24%
505,0,142,19.24%
506,0,142,19.24%
507,0,142,19.24%
508,0,142,19.24%
509,0,142,19.24%
510,0,142,19.24%
511,2,144,19.51%
512,0,144,19.51%
513,0,144,19.51%
514,0,144,19.51%
515,2,146,19.78%
516,0,146,19.78%
517,0,146,19.78%
518,0,146,19.78%
519,1,147,19.92%
520,0,147,19.92%
521,0,147,19.92%
522,2,149,20.19%
523,1,150,20.33%
524,1,151,20.46%
525,0,151,20.46%
526,0,151,20.46%
527,0,151,20.46%
528,0,151,20.46%
529,0,151,20.46%
530,0,151,20.46%
531,0,151,20.46%
532,0,151,20.46%
533,0,151,20.46%
534,0,151,20.46%
535,0,151,20.46%
536,0,151,20.46%
537,0,151,20.46%
538,1,152,20.6%
539,0,152,20.6%
540,0,152,20.6%
541,0,152,20.6%
542,0,152,20.6%
543,1,153,20.73%
544,0,153,20.73%
545,0,153,20.73%
546,0,153,20.73%
547,0,153,20.73%
548,0,153,20.73%
549,0,153,20.73%
550,0,153,20.73%
551,0,153,20.73%
552,0,153,20.73%
553,1,154,20.87%
554,0,154,20.87%
555,1,155,21.0%
556,0,155,21.0%
557,1,156,21.14%
558,0,156,21.14%
559,0,156,21.14%
560,0,156,21.14%
561,1,157,21.27%
562,0,157,21.27%
563,0,157,21.27%
564,0,157,21.27%
565,0,157,21.27%
566,0,157,21.27%
567,1,158,21.41%
568,0,158,21.41%
569,0,158,21.41%
570,0,158,21.41%
571,0,158,21.41%
572,1,159,21.54%
573,0,159,21.54%
574,0,159,21.54%
575,0,159,21.54%
576,0,159,21.54%
577,0,159,21.54%
578,0,159,21.54%
579,0,159,21.54%
580,0,159,21.54%
581,0,159,21.54%
582,0,159,21.54%
583,0,159,21.54%
584,1,160,21.68%
585,0,160,21.68%
586,1,161,21.82%
587,0,161,21.82%
588,1,162,21.95%
589,0,162,21.95%
590,1,163,22.09%
591,0,163,22.09%
592,0,163,22.09%
593,0,163,22.09%
594,0,163,22.09%
595,0,163,22.09%
596,0,163,22.09%
597,0,163,22.09%
598,0,163,22.09%
599,0,163,22.09%
600,0,163,22.09%
601,0,163,22.09%
602,0,163,22.09%
603,1,164,22.22%
604,1,165,22.36%
605,0,165,22.36%
606,0,165,22.36%
607,0,165,22.36%
608,0,165,22.36%
609,0,165,22.36%
610,0,165,22.36%
611,0,165,22.36%
612,0,165,22.36%
613,0,165,22.36%
614,0,165,22.36%
615,0,165,22.36%
616,0,165,22.36%
617,0,165,22.36%
618,0,165,22.36%
619,0,165,22.36%
620,0,165,22.36%
621,0,165,22.36%
622,1,166,22.49%
623,1,167,22.63%
624,1,168,22.76%
625,0,168,22.76%
626,0,168,22.76%
627,1,169,22.9%
628,0,169,22.9%
629,0,169,22.9%
630,0,169,22.9%
631,0,169,22.9%
632,0,169,22.9%
633,0,169,22.9%
634,0,169,22.9%
635,0,169,22.9%
636,1,170,23.04%
637,0,170,23.04%
638,1,171,23.17%
639,0,171,23.17%
640,1,172,23.31%
641,0,172,23.31%
642,1,173,23.44%
643,0,173,23.44%
644,0,173,23.44%
645,0,173,23.44%
646,1,174,23.58%
647,0,174,23.58%
648,0,174,23.58%
649,0,174,23.58%
650,0,174,23.58%
651,0,174,23.58%
652,0,174,23.58%
653,1,175,23.71%
654,0,175,23.71%
655,0,175,23.71%
656,0,175,23.71%
657,0,175,23.71%
658,0,175,23.71%
659,0,175,23.71%
660,0,175,23.71%
661,0,175,23.71%
662,0,175,23.71%
663,0,175,23.71%
664,0,175,23.71%
665,0,175,23.71%
666,0,175,23.71%
667,0,175,23.71%
668,1,176,23.85%
669,0,176,23.85%
670,0,176,23.85%
671,0,176,23.85%
672,0,176,23.85%
673,0,176,23.85%
674,1,177,23.98%
675,0,177,23.98%
676,1,178,24.12%
677,1,179,24.25%
678,1,180,24.39%
679,0,180,24.39%
680,0,180,24.39%
681,0,180,24.39%
682,2,182,24.66%
683,0,182,24.66%
684,0,182,24.66%
685,0,182,24.66%
686,0,182,24.66%
687,0,182,24.66%
688,0,182,24.66%
689,2,184,24.93%
690,1,185,25.07%
691,0,185,25.07%
692,0,185,25.07%
693,0,185,25.07%
694,0,185,25.07%
695,0,185,25.07%
696,0,185,25.07%
697,0,185,25.07%
698,0,185,25.07%
699,1,186,25.2%
700,1,187,25.34%
701,0,187,25.34%
702,0,187,25.34%
703,0,187,25.34%
704,0,187,25.34%
705,0,187,25.34%
706,0,187,25.34%
707,0,187,25.34%
708,0,187,25.34%
709,0,187,25.34%
710,0,187,25.34%
711,1,188,25.47%
712,0,188,25.47%
713,0,188,25.47%
714,0,188,25.47%
715,0,188,25.47%
716,0,188,25.47%
717,3,191,25.88%
718,0,191,25.88%
719,1,192,26.02%
720,0,192,26.02%
721,0,192,26.02%
722,0,192,26.02%
723,0,192,26.02%
724,0,192,26.02%
725,1,193,26.15%
726,0,193,26.15%
727,0,193,26.15%
728,0,193,26.15%
729,0,193,26.15%
730,0,193,26.15%
731,0,193,26.15%
732,0,193,26.15%
733,0,193,26.15%
734,0,193,26.15%
735,1,194,26.29%
736,0,194,26.29%
737,0,194,26.29%
738,0,194,26.29%
739,0,194,26.29%
740,0,194,26.29%
741,0,194,26.29%
742,0,194,26.29%
743,0,194,26.29%
744,1,195,26.42%
745,0,195,26.42%
746,0,195,26.42%
747,0,195,26.42%
748,0,195,26.42%
749,0,195,26.42%
750,0,195,26.42%
751,0,195,26.42%
752,0,195,26.42%
753,1,196,26.56%
754,0,196,26.56%
755,0,196,26.56%
756,0,196,26.56%
757,0,196,26.56%
758,1,197,26.69%
759,0,197,26.69%
760,0,197,26.69%
761,0,197,26.69%
762,0,197,26.69%
763,1,198,26.83%
764,0,198,26.83%
765,2,200,27.1%
766,0,200,27.1%
767,0,200,27.1%
768,0,200,27.1%
769,0,200,27.1%
770,0,200,27.1%
771,0,200,27.1%
772,0,200,27.1%
773,1,201,27.24%
774,537,738,100.0%
