Length, Count, Sum (Counts <= Length), Percent of Nonzero Data, Nonzero Data Count = 809, Zero Data Count = 1035
1,0,0,0.0%
2,1,1,0.12%
3,2,3,0.37%
4,0,3,0.37%
5,0,3,0.37%
6,0,3,0.37%
7,0,3,0.37%
8,0,3,0.37%
9,0,3,0.37%
10,1,4,0.49%
11,1,5,0.62%
12,0,5,0.62%
13,0,5,0.62%
14,0,5,0.62%
15,0,5,0.62%
16,0,5,0.62%
17,0,5,0.62%
18,0,5,0.62%
19,0,5,0.62%
20,0,5,0.62%
21,0,5,0.62%
22,0,5,0.62%
23,0,5,0.62%
24,0,5,0.62%
25,0,5,0.62%
26,0,5,0.62%
27,0,5,0.62%
28,0,5,0.62%
29,1,6,0.74%
30,0,6,0.74%
31,0,6,0.74%
32,0,6,0.74%
33,0,6,0.74%
34,0,6,0.74%
35,0,6,0.74%
36,0,6,0.74%
37,0,6,0.74%
38,0,6,0.74%
39,1,7,0.87%
40,0,7,0.87%
41,1,8,0.99%
42,1,9,1.11%
43,0,9,1.11%
44,0,9,1.11%
45,0,9,1.11%
46,0,9,1.11%
47,0,9,1.11%
48,0,9,1.11%
49,0,9,1.11%
50,0,9,1.11%
51,0,9,1.11%
52,0,9,1.11%
53,0,9,1.11%
54,0,9,1.11%
55,0,9,1.11%
56,0,9,1.11%
57,0,9,1.11%
58,1,10,1.24%
59,0,10,1.24%
60,0,10,1.24%
61,0,10,1.24%
62,0,10,1.24%
63,0,10,1.24%
64,0,10,1.24%
65,0,10,1.24%
66,1,11,1.36%
67,0,11,1.36%
68,0,11,1.36%
69,0,11,1.36%
70,0,11,1.36%
71,0,11,1.36%
72,0,11,1.36%
73,0,11,1.36%
74,0,11,1.36%
75,0,11,1.36%
76,0,11,1.36%
77,0,11,1.36%
78,0,11,1.36%
79,0,11,1.36%
80,0,11,1.36%
81,1,12,1.48%
82,0,12,1.48%
83,0,12,1.48%
84,0,12,1.48%
85,0,12,1.48%
86,0,12,1.48%
87,0,12,1.48%
88,0,12,1.48%
89,1,13,1.61%
90,0,13,1.61%
91,0,13,1.61%
92,0,13,1.61%
93,0,13,1.61%
94,0,13,1.61%
95,1,14,1.73%
96,0,14,1.73%
97,0,14,1.73%
98,0,14,1.73%
99,0,14,1.73%
100,1,15,1.85%
101,0,15,1.85%
102,1,16,1.98%
103,0,16,1.98%
104,0,16,1.98%
105,0,16,1.98%
106,0,16,1.98%
107,0,16,1.98%
108,0,16,1.98%
109,0,16,1.98%
110,0,16,1.98%
111,0,16,1.98%
112,0,16,1.98%
113,0,16,1.98%
114,0,16,1.98%
115,0,16,1.98%
116,0,16,1.98%
117,0,16,1.98%
118,0,16,1.98%
119,0,16,1.98%
120,0,16,1.98%
121,0,16,1.98%
122,0,16,1.98%
123,0,16,1.98%
124,1,17,2.1%
125,0,17,2.1%
126,0,17,2.1%
127,0,17,2.1%
128,0,17,2.1%
129,1,18,2.22%
130,2,20,2.47%
131,1,21,2.6%
132,0,21,2.6%
133,0,21,2.6%
134,0,21,2.6%
135,0,21,2.6%
136,0,21,2.6%
137,0,21,2.6%
138,0,21,2.6%
139,0,21,2.6%
140,0,21,2.6%
141,0,21,2.6%
142,0,21,2.6%
143,0,21,2.6%
144,0,21,2.6%
145,3,24,2.97%
146,1,25,3.09%
147,0,25,3.09%
148,1,26,3.21%
149,1,27,3.34%
150,0,27,3.34%
151,0,27,3.34%
152,1,28,3.46%
153,0,28,3.46%
154,0,28,3.46%
155,0,28,3.46%
156,0,28,3.46%
157,0,28,3.46%
158,0,28,3.46%
159,0,28,3.46%
160,0,28,3.46%
161,0,28,3.46%
162,1,29,3.58%
163,0,29,3.58%
164,0,29,3.58%
165,0,29,3.58%
166,1,30,3.71%
167,0,30,3.71%
168,0,30,3.71%
169,0,30,3.71%
170,1,31,3.83%
171,0,31,3.83%
172,1,32,3.96%
173,0,32,3.96%
174,0,32,3.96%
175,0,32,3.96%
176,0,32,3.96%
177,0,32,3.96%
178,0,32,3.96%
179,0,32,3.96%
180,0,32,3.96%
181,1,33,4.08%
182,1,34,4.2%
183,0,34,4.2%
184,7,41,5.07%
185,0,41,5.07%
186,0,41,5.07%
187,0,41,5.07%
188,0,41,5.07%
189,0,41,5.07%
190,0,41,5.07%
191,0,41,5.07%
192,0,41,5.07%
193,0,41,5.07%
194,0,41,5.07%
195,0,41,5.07%
196,0,41,5.07%
197,0,41,5.07%
198,0,41,5.07%
199,0,41,5.07%
200,0,41,5.07%
201,0,41,5.07%
202,0,41,5.07%
203,0,41,5.07%
204,0,41,5.07%
205,0,41,5.07%
206,0,41,5.07%
207,0,41,5.07%
208,0,41,5.07%
209,1,42,5.19%
210,0,42,5.19%
211,0,42,5.19%
212,0,42,5.19%
213,0,42,5.19%
214,0,42,5.19%
215,0,42,5.19%
216,0,42,5.19%
217,1,43,5.32%
218,0,43,5.32%
219,0,43,5.32%
220,0,43,5.32%
221,0,43,5.32%
222,0,43,5.32%
223,0,43,5.32%
224,0,43,5.32%
225,0,43,5.32%
226,1,44,5.44%
227,0,44,5.44%
228,0,44,5.44%
229,0,44,5.44%
230,0,44,5.44%
231,0,44,5.44%
232,0,44,5.44%
233,0,44,5.44%
234,0,44,5.44%
235,1,45,5.56%
236,0,45,5.56%
237,1,46,5.69%
238,0,46,5.69%
239,0,46,5.69%
240,0,46,5.69%
241,0,46,5.69%
242,0,46,5.69%
243,0,46,5.69%
244,0,46,5.69%
245,1,47,5.81%
246,0,47,5.81%
247,0,47,5.81%
248,0,47,5.81%
249,1,48,5.93%
250,1,49,6.06%
251,0,49,6.06%
252,0,49,6.06%
253,0,49,6.06%
254,0,49,6.06%
255,0,49,6.06%
256,0,49,6.06%
257,0,49,6.06%
258,1,50,6.18%
259,1,51,6.3%
260,1,52,6.43%
261,0,52,6.43%
262,0,52,6.43%
263,0,52,6.43%
264,0,52,6.43%
265,0,52,6.43%
266,0,52,6.43%
267,0,52,6.43%
268,0,52,6.43%
269,0,52,6.43%
270,0,52,6.43%
271,0,52,6.43%
272,0,52,6.43%
273,1,53,6.55%
274,0,53,6.55%
275,0,53,6.55%
276,1,54,6.67%
277,0,54,6.67%
278,0,54,6.67%
279,0,54,6.67%
280,0,54,6.67%
281,0,54,6.67%
282,0,54,6.67%
283,0,54,6.67%
284,0,54,6.67%
285,0,54,6.67%
286,0,54,6.67%
287,0,54,6.67%
288,0,54,6.67%
289,1,55,6.8%
290,0,55,6.8%
291,1,56,6.92%
292,1,57,7.05%
293,1,58,7.17%
294,0,58,7.17%
295,1,59,7.29%
296,0,59,7.29%
297,0,59,7.29%
298,0,59,7.29%
299,0,59,7.29%
300,0,59,7.29%
301,0,59,7.29%
302,0,59,7.29%
303,0,59,7.29%
304,1,60,7.42%
305,0,60,7.42%
306,0,60,7.42%
307,0,60,7.42%
308,0,60,7.42%
309,0,60,7.42%
310,15,75,9.27%
311,2,77,9.52%
312,0,77,9.52%
313,1,78,9.64%
314,0,78,9.64%
315,0,78,9.64%
316,1,79,9.77%
317,1,80,9.89%
318,0,80,9.89%
319,0,80,9.89%
320,1,81,10.01%
321,0,81,10.01%
322,1,82,10.14%
323,3,85,10.51%
324,0,85,10.51%
325,0,85,10.51%
326,0,85,10.51%
327,0,85,10.51%
328,0,85,10.51%
329,0,85,10.51%
330,1,86,10.63%
331,0,86,10.63%
332,0,86,10.63%
333,2,88,10.88%
334,0,88,10.88%
335,0,88,10.88%
336,0,88,10.88%
337,1,89,11.0%
338,0,89,11.0%
339,0,89,11.0%
340,1,90,11.12%
341,6,96,11.87%
342,0,96,11.87%
343,1,97,11.99%
344,1,98,12.11%
345,0,98,12.11%
346,0,98,12.11%
347,0,98,12.11%
348,0,98,12.11%
349,2,100,12.36%
350,1,101,12.48%
351,0,101,12.48%
352,15,116,14.34%
353,0,116,14.34%
354,2,118,14.59%
355,0,118,14.59%
356,0,118,14.59%
357,0,118,14.59%
358,1,119,14.71%
359,1,120,14.83%
360,1,121,14.96%
361,1,122,15.08%
362,0,122,15.08%
363,1,123,15.2%
364,0,123,15.2%
365,4,127,15.7%
366,1,128,15.82%
367,1,129,15.95%
368,2,131,16.19%
369,0,131,16.19%
370,2,133,16.44%
371,2,135,16.69%
372,0,135,16.69%
373,0,135,16.69%
374,1,136,16.81%
375,4,140,17.31%
376,2,142,17.55%
377,1,143,17.68%
378,1,144,17.8%
379,1,145,17.92%
380,3,148,18.29%
381,5,153,18.91%
382,1,154,19.04%
383,3,157,19.41%
384,2,159,19.65%
385,1,160,19.78%
386,3,163,20.15%
387,0,163,20.15%
388,0,163,20.15%
389,0,163,20.15%
390,5,168,20.77%
391,2,170,21.01%
392,0,170,21.01%
393,1,171,21.14%
394,1,172,21.26%
395,1,173,21.38%
396,2,175,21.63%
397,0,175,21.63%
398,3,178,22.0%
399,3,181,22.37%
400,1,182,22.5%
401,1,183,22.62%
402,1,184,22.74%
403,2,186,22.99%
404,10,196,24.23%
405,1,197,24.35%
406,4,201,24.85%
407,0,201,24.85%
408,3,204,25.22%
409,2,206,25.46%
410,6,212,26.21%
411,1,213,26.33%
412,1,214,26.45%
413,2,216,26.7%
414,8,224,27.69%
415,1,225,27.81%
416,0,225,27.81%
417,0,225,27.81%
418,0,225,27.81%
419,1,226,27.94%
420,1,227,28.06%
421,1,228,28.18%
422,581,809,100.0%
