Length, Count, Sum (Counts <= Length), Percent of Nonzero Data, Nonzero Data Count = 829, Zero Data Count = 1015
1,1,1,0.12%
2,0,1,0.12%
3,0,1,0.12%
4,0,1,0.12%
5,0,1,0.12%
6,0,1,0.12%
7,0,1,0.12%
8,0,1,0.12%
9,0,1,0.12%
10,0,1,0.12%
11,0,1,0.12%
12,0,1,0.12%
13,0,1,0.12%
14,0,1,0.12%
15,0,1,0.12%
16,0,1,0.12%
17,0,1,0.12%
18,0,1,0.12%
19,0,1,0.12%
20,0,1,0.12%
21,1,2,0.24%
22,1,3,0.36%
23,0,3,0.36%
24,0,3,0.36%
25,0,3,0.36%
26,0,3,0.36%
27,0,3,0.36%
28,1,4,0.48%
29,1,5,0.6%
30,0,5,0.6%
31,0,5,0.6%
32,0,5,0.6%
33,0,5,0.6%
34,1,6,0.72%
35,0,6,0.72%
36,0,6,0.72%
37,0,6,0.72%
38,0,6,0.72%
39,1,7,0.84%
40,0,7,0.84%
41,0,7,0.84%
42,1,8,0.97%
43,0,8,0.97%
44,1,9,1.09%
45,0,9,1.09%
46,1,10,1.21%
47,0,10,1.21%
48,0,10,1.21%
49,0,10,1.21%
50,0,10,1.21%
51,1,11,1.33%
52,0,11,1.33%
53,0,11,1.33%
54,0,11,1.33%
55,0,11,1.33%
56,0,11,1.33%
57,0,11,1.33%
58,0,11,1.33%
59,0,11,1.33%
60,0,11,1.33%
61,0,11,1.33%
62,0,11,1.33%
63,0,11,1.33%
64,0,11,1.33%
65,0,11,1.33%
66,0,11,1.33%
67,0,11,1.33%
68,0,11,1.33%
69,0,11,1.33%
70,0,11,1.33%
71,1,12,1.45%
72,0,12,1.45%
73,0,12,1.45%
74,0,12,1.45%
75,1,13,1.57%
76,0,13,1.57%
77,0,13,1.57%
78,0,13,1.57%
79,0,13,1.57%
80,2,15,1.81%
81,0,15,1.81%
82,0,15,1.81%
83,0,15,1.81%
84,0,15,1.81%
85,0,15,1.81%
86,2,17,2.05%
87,0,17,2.05%
88,0,17,2.05%
89,0,17,2.05%
90,0,17,2.05%
91,0,17,2.05%
92,0,17,2.05%
93,0,17,2.05%
94,1,18,2.17%
95,0,18,2.17%
96,0,18,2.17%
97,0,18,2.17%
98,0,18,2.17%
99,0,18,2.17%
100,0,18,2.17%
101,0,18,2.17%
102,0,18,2.17%
103,0,18,2.17%
104,0,18,2.17%
105,0,18,2.17%
106,0,18,2.17%
107,0,18,2.17%
108,0,18,2.17%
109,0,18,2.17%
110,0,18,2.17%
111,0,18,2.17%
112,1,19,2.29%
113,0,19,2.29%
114,0,19,2.29%
115,0,19,2.29%
116,0,19,2.29%
117,0,19,2.29%
118,0,19,2.29%
119,1,20,2.41%
120,0,20,2.41%
121,0,20,2.41%
122,0,20,2.41%
123,0,20,2.41%
124,1,21,2.53%
125,1,22,2.65%
126,0,22,2.65%
127,0,22,2.65%
128,0,22,2.65%
129,0,22,2.65%
130,0,22,2.65%
131,0,22,2.65%
132,0,22,2.65%
133,0,22,2.65%
134,0,22,2.65%
135,0,22,2.65%
136,0,22,2.65%
137,0,22,2.65%
138,0,22,2.65%
139,0,22,2.65%
140,0,22,2.65%
141,1,23,2.77%
142,0,23,2.77%
143,0,23,2.77%
144,0,23,2.77%
145,2,25,3.02%
146,0,25,3.02%
147,0,25,3.02%
148,0,25,3.02%
149,1,26,3.14%
150,0,26,3.14%
151,0,26,3.14%
152,0,26,3.14%
153,0,26,3.14%
154,0,26,3.14%
155,2,28,3.38%
156,1,29,3.5%
157,0,29,3.5%
158,0,29,3.5%
159,0,29,3.5%
160,0,29,3.5%
161,0,29,3.5%
162,0,29,3.5%
163,0,29,3.5%
164,0,29,3.5%
165,0,29,3.5%
166,0,29,3.5%
167,0,29,3.5%
168,0,29,3.5%
169,0,29,3.5%
170,1,30,3.62%
171,0,30,3.62%
172,1,31,3.74%
173,0,31,3.74%
174,1,32,3.86%
175,0,32,3.86%
176,0,32,3.86%
177,0,32,3.86%
178,1,33,3.98%
179,0,33,3.98%
180,0,33,3.98%
181,1,34,4.1%
182,0,34,4.1%
183,0,34,4.1%
184,0,34,4.1%
185,0,34,4.1%
186,0,34,4.1%
187,0,34,4.1%
188,0,34,4.1%
189,0,34,4.1%
190,0,34,4.1%
191,0,34,4.1%
192,0,34,4.1%
193,0,34,4.1%
194,0,34,4.1%
195,0,34,4.1%
196,0,34,4.1%
197,0,34,4.1%
198,0,34,4.1%
199,0,34,4.1%
200,1,35,4.22%
201,1,36,4.34%
202,1,37,4.46%
203,0,37,4.46%
204,0,37,4.46%
205,1,38,4.58%
206,0,38,4.58%
207,1,39,4.7%
208,0,39,4.7%
209,0,39,4.7%
210,0,39,4.7%
211,0,39,4.7%
212,0,39,4.7%
213,2,41,4.95%
214,0,41,4.95%
215,1,42,5.07%
216,0,42,5.07%
217,0,42,5.07%
218,0,42,5.07%
219,0,42,5.07%
220,0,42,5.07%
221,0,42,5.07%
222,0,42,5.07%
223,0,42,5.07%
224,0,42,5.07%
225,0,42,5.07%
226,0,42,5.07%
227,0,42,5.07%
228,1,43,5.19%
229,0,43,5.19%
230,0,43,5.19%
231,0,43,5.19%
232,0,43,5.19%
233,0,43,5.19%
234,0,43,5.19%
235,1,44,5.31%
236,1,45,5.43%
237,0,45,5.43%
238,0,45,5.43%
239,0,45,5.43%
240,0,45,5.43%
241,0,45,5.43%
242,0,45,5.43%
243,0,45,5.43%
244,1,46,5.55%
245,1,47,5.67%
246,0,47,5.67%
247,0,47,5.67%
248,0,47,5.67%
249,0,47,5.67%
250,0,47,5.67%
251,0,47,5.67%
252,0,47,5.67%
253,1,48,5.79%
254,0,48,5.79%
255,0,48,5.79%
256,0,48,5.79%
257,0,48,5.79%
258,0,48,5.79%
259,1,49,5.91%
260,0,49,5.91%
261,0,49,5.91%
262,0,49,5.91%
263,1,50,6.03%
264,0,50,6.03%
265,1,51,6.15%
266,0,51,6.15%
267,2,53,6.39%
268,0,53,6.39%
269,0,53,6.39%
270,0,53,6.39%
271,1,54,6.51%
272,0,54,6.51%
273,0,54,6.51%
274,0,54,6.51%
275,0,54,6.51%
276,0,54,6.51%
277,0,54,6.51%
278,0,54,6.51%
279,0,54,6.51%
280,0,54,6.51%
281,0,54,6.51%
282,0,54,6.51%
283,0,54,6.51%
284,0,54,6.51%
285,0,54,6.51%
286,0,54,6.51%
287,1,55,6.63%
288,0,55,6.63%
289,0,55,6.63%
290,0,55,6.63%
291,0,55,6.63%
292,1,56,6.76%
293,0,56,6.76%
294,0,56,6.76%
295,0,56,6.76%
296,0,56,6.76%
297,0,56,6.76%
298,0,56,6.76%
299,0,56,6.76%
300,1,57,6.88%
301,0,57,6.88%
302,0,57,6.88%
303,0,57,6.88%
304,0,57,6.88%
305,0,57,6.88%
306,0,57,6.88%
307,0,57,6.88%
308,0,57,6.88%
309,1,58,7.0%
310,0,58,7.0%
311,2,60,7.24%
312,0,60,7.24%
313,0,60,7.24%
314,0,60,7.24%
315,0,60,7.24%
316,0,60,7.24%
317,0,60,7.24%
318,1,61,7.36%
319,0,61,7.36%
320,0,61,7.36%
321,0,61,7.36%
322,0,61,7.36%
323,0,61,7.36%
324,0,61,7.36%
325,2,63,7.6%
326,1,64,7.72%
327,0,64,7.72%
328,1,65,7.84%
329,0,65,7.84%
330,0,65,7.84%
331,0,65,7.84%
332,1,66,7.96%
333,1,67,8.08%
334,0,67,8.08%
335,0,67,8.08%
336,0,67,8.08%
337,0,67,8.08%
338,0,67,8.08%
339,0,67,8.08%
340,0,67,8.08%
341,1,68,8.2%
342,0,68,8.2%
343,2,70,8.44%
344,0,70,8.44%
345,0,70,8.44%
346,0,70,8.44%
347,0,70,8.44%
348,0,70,8.44%
349,0,70,8.44%
350,1,71,8.56%
351,15,86,10.37%
352,10,96,11.58%
353,0,96,11.58%
354,0,96,11.58%
355,0,96,11.58%
356,1,97,11.7%
357,0,97,11.7%
358,5,102,12.3%
359,1,103,12.42%
360,2,105,12.67%
361,0,105,12.67%
362,0,105,12.67%
363,1,106,12.79%
364,0,106,12.79%
365,0,106,12.79%
366,1,107,12.91%
367,0,107,12.91%
368,1,108,13.03%
369,0,108,13.03%
370,0,108,13.03%
371,0,108,13.03%
372,2,110,13.27%
373,0,110,13.27%
374,1,111,13.39%
375,0,111,13.39%
376,1,112,13.51%
377,0,112,13.51%
378,1,113,13.63%
379,0,113,13.63%
380,0,113,13.63%
381,0,113,13.63%
382,1,114,13.75%
383,0,114,13.75%
384,0,114,13.75%
385,0,114,13.75%
386,0,114,13.75%
387,2,116,13.99%
388,0,116,13.99%
389,1,117,14.11%
390,0,117,14.11%
391,0,117,14.11%
392,0,117,14.11%
393,1,118,14.23%
394,0,118,14.23%
395,0,118,14.23%
396,0,118,14.23%
397,1,119,14.35%
398,0,119,14.35%
399,1,120,14.48%
400,1,121,14.6%
401,0,121,14.6%
402,0,121,14.6%
403,0,121,14.6%
404,0,121,14.6%
405,0,121,14.6%
406,3,124,14.96%
407,0,124,14.96%
408,0,124,14.96%
409,0,124,14.96%
410,0,124,14.96%
411,0,124,14.96%
412,1,125,15.08%
413,1,126,15.2%
414,0,126,15.2%
415,0,126,15.2%
416,0,126,15.2%
417,0,126,15.2%
418,1,127,15.32%
419,0,127,15.32%
420,0,127,15.32%
421,0,127,15.32%
422,1,128,15.44%
423,0,128,15.44%
424,1,129,15.56%
425,0,129,15.56%
426,0,129,15.56%
427,0,129,15.56%
428,0,129,15.56%
429,0,129,15.56%
430,0,129,15.56%
431,0,129,15.56%
432,1,130,15.68%
433,2,132,15.92%
434,0,132,15.92%
435,1,133,16.04%
436,1,134,16.16%
437,1,135,16.28%
438,0,135,16.28%
439,0,135,16.28%
440,0,135,16.28%
441,1,136,16.41%
442,0,136,16.41%
443,0,136,16.41%
444,1,137,16.53%
445,0,137,16.53%
446,1,138,16.65%
447,0,138,16.65%
448,0,138,16.65%
449,0,138,16.65%
450,0,138,16.65%
451,1,139,16.77%
452,0,139,16.77%
453,0,139,16.77%
454,0,139,16.77%
455,0,139,16.77%
456,0,139,16.77%
457,0,139,16.77%
458,0,139,16.77%
459,1,140,16.89%
460,0,140,16.89%
461,0,140,16.89%
462,0,140,16.89%
463,0,140,16.89%
464,0,140,16.89%
465,1,141,17.01%
466,2,143,17.25%
467,0,143,17.25%
468,0,143,17.25%
469,0,143,17.25%
470,0,143,17.25%
471,0,143,17.25%
472,0,143,17.25%
473,0,143,17.25%
474,0,143,17.25%
475,0,143,17.25%
476,0,143,17.25%
477,0,143,17.25%
478,0,143,17.25%
479,0,143,17.25%
480,0,143,17.25%
481,1,144,17.37%
482,1,145,17.49%
483,0,145,17.49%
484,1,146,17.61%
485,0,146,17.61%
486,1,147,17.73%
487,0,147,17.73%
488,0,147,17.73%
489,0,147,17.73%
490,0,147,17.73%
491,0,147,17.73%
492,0,147,17.73%
493,0,147,17.73%
494,0,147,17.73%
495,1,148,17.85%
496,1,149,17.97%
497,0,149,17.97%
498,0,149,17.97%
499,0,149,17.97%
500,0,149,17.97%
501,0,149,17.97%
502,0,149,17.97%
503,1,150,18.09%
504,1,151,18.21%
505,0,151,18.21%
506,0,151,18.21%
507,0,151,18.21%
508,0,151,18.21%
509,0,151,18.21%
510,0,151,18.21%
511,0,151,18.21%
512,0,151,18.21%
513,0,151,18.21%
514,0,151,18.21%
515,0,151,18.21%
516,0,151,18.21%
517,1,152,18.34%
518,0,152,18.34%
519,0,152,18.34%
520,0,152,18.34%
521,0,152,18.34%
522,0,152,18.34%
523,0,152,18.34%
524,0,152,18.34%
525,0,152,18.34%
526,0,152,18.34%
527,0,152,18.34%
528,1,153,18.46%
529,1,154,18.58%
530,0,154,18.58%
531,0,154,18.58%
532,0,154,18.58%
533,0,154,18.58%
534,0,154,18.58%
535,0,154,18.58%
536,1,155,18.7%
537,1,156,18.82%
538,0,156,18.82%
539,0,156,18.82%
540,2,158,19.06%
541,0,158,19.06%
542,0,158,19.06%
543,0,158,19.06%
544,1,159,19.18%
545,0,159,19.18%
546,1,160,19.3%
547,0,160,19.3%
548,0,160,19.3%
549,0,160,19.3%
550,0,160,19.3%
551,0,160,19.3%
552,1,161,19.42%
553,0,161,19.42%
554,0,161,19.42%
555,0,161,19.42%
556,1,162,19.54%
557,0,162,19.54%
558,0,162,19.54%
559,0,162,19.54%
560,0,162,19.54%
561,0,162,19.54%
562,0,162,19.54%
563,1,163,19.66%
564,1,164,19.78%
565,0,164,19.78%
566,0,164,19.78%
567,0,164,19.78%
568,0,164,19.78%
569,0,164,19.78%
570,0,164,19.78%
571,0,164,19.78%
572,0,164,19.78%
573,2,166,20.02%
574,0,166,20.02%
575,1,167,20.14%
576,8,175,21.11%
577,0,175,21.11%
578,0,175,21.11%
579,2,177,21.35%
580,0,177,21.35%
581,0,177,21.35%
582,0,177,21.35%
583,0,177,21.35%
584,0,177,21.35%
585,0,177,21.35%
586,0,177,21.35%
587,0,177,21.35%
588,0,177,21.35%
589,0,177,21.35%
590,0,177,21.35%
591,0,177,21.35%
592,0,177,21.35%
593,0,177,21.35%
594,0,177,21.35%
595,1,178,21.47%
596,0,178,21.47%
597,0,178,21.47%
598,0,178,21.47%
599,1,179,21.59%
600,0,179,21.59%
601,0,179,21.59%
602,0,179,21.59%
603,0,179,21.59%
604,0,179,21.59%
605,0,179,21.59%
606,0,179,21.59%
607,0,179,21.59%
608,0,179,21.59%
609,1,180,21.71%
610,0,180,21.71%
611,0,180,21.71%
612,0,180,21.71%
613,0,180,21.71%
614,0,180,21.71%
615,0,180,21.71%
616,0,180,21.71%
617,0,180,21.71%
618,0,180,21.71%
619,0,180,21.71%
620,2,182,21.95%
621,0,182,21.95%
622,0,182,21.95%
623,0,182,21.95%
624,1,183,22.07%
625,0,183,22.07%
626,1,184,22.2%
627,0,184,22.2%
628,4,188,22.68%
629,0,188,22.68%
630,1,189,22.8%
631,0,189,22.8%
632,1,190,22.92%
633,0,190,22.92%
634,0,190,22.92%
635,0,190,22.92%
636,1,191,23.04%
637,0,191,23.04%
638,0,191,23.04%
639,0,191,23.04%
640,0,191,23.04%
641,0,191,23.04%
642,0,191,23.04%
643,0,191,23.04%
644,0,191,23.04%
645,0,191,23.04%
646,1,192,23.16%
647,0,192,23.16%
648,0,192,23.16%
649,1,193,23.28%
650,0,193,23.28%
651,0,193,23.28%
652,4,197,23.76%
653,1,198,23.88%
654,1,199,24.0%
655,1,200,24.13%
656,0,200,24.13%
657,2,202,24.37%
658,1,203,24.49%
659,1,204,24.61%
660,1,205,24.73%
661,1,206,24.85%
662,2,208,25.09%
663,1,209,25.21%
664,0,209,25.21%
665,1,210,25.33%
666,1,211,25.45%
667,3,214,25.81%
668,5,219,26.42%
669,1,220,26.54%
670,1,221,26.66%
671,2,223,26.9%
672,1,224,27.02%
673,4,228,27.5%
674,0,228,27.5%
675,0,228,27.5%
676,0,228,27.5%
677,5,233,28.11%
678,2,235,28.35%
679,0,235,28.35%
680,1,236,28.47%
681,1,237,28.59%
682,1,238,28.71%
683,3,241,29.07%
684,0,241,29.07%
685,2,243,29.31%
686,3,246,29.67%
687,1,247,29.79%
688,0,247,29.79%
689,1,248,29.92%
690,1,249,30.04%
691,2,251,30.28%
692,0,251,30.28%
693,9,260,31.36%
694,2,262,31.6%
695,3,265,31.97%
696,2,267,32.21%
697,5,272,32.81%
698,2,274,33.05%
699,1,275,33.17%
700,2,277,33.41%
701,7,284,34.26%
702,0,284,34.26%
703,0,284,34.26%
704,1,285,34.38%
705,0,285,34.38%
706,1,286,34.5%
707,2,288,34.74%
708,0,288,34.74%
709,1,289,34.86%
710,6,295,35.59%
711,3,298,35.95%
712,3,301,36.31%
713,1,302,36.43%
714,3,305,36.79%
715,2,307,37.03%
716,0,307,37.03%
717,0,307,37.03%
718,0,307,37.03%
719,0,307,37.03%
720,4,311,37.52%
721,3,314,37.88%
722,1,315,38.0%
723,1,316,38.12%
724,0,316,38.12%
725,7,323,38.96%
726,3,326,39.32%
727,1,327,39.45%
728,1,328,39.57%
729,0,328,39.57%
730,2,330,39.81%
731,2,332,40.05%
732,1,333,40.17%
733,0,333,40.17%
734,1,334,40.29%
735,6,340,41.01%
736,11,351,42.34%
737,1,352,42.46%
738,2,354,42.7%
739,7,361,43.55%
740,0,361,43.55%
741,0,361,43.55%
742,0,361,43.55%
743,4,365,44.03%
744,2,367,44.27%
745,0,367,44.27%
746,3,370,44.63%
747,0,370,44.63%
748,3,373,44.99%
749,3,376,45.36%
750,2,378,45.6%
751,2,380,45.84%
752,0,380,45.84%
753,1,381,45.96%
754,0,381,45.96%
755,4,385,46.44%
756,2,387,46.68%
757,0,387,46.68%
758,0,387,46.68%
759,2,389,46.92%
760,0,389,46.92%
761,2,391,47.17%
762,0,391,47.17%
763,1,392,47.29%
764,1,393,47.41%
765,0,393,47.41%
766,0,393,47.41%
767,1,394,47.53%
768,0,394,47.53%
769,3,397,47.89%
770,0,397,47.89%
771,0,397,47.89%
772,1,398,48.01%
773,1,399,48.13%
774,4,403,48.61%
775,1,404,48.73%
776,0,404,48.73%
777,1,405,48.85%
778,1,406,48.97%
779,0,406,48.97%
780,1,407,49.1%
781,0,407,49.1%
782,3,410,49.46%
783,4,414,49.94%
784,3,417,50.3%
785,2,419,50.54%
786,0,419,50.54%
787,2,421,50.78%
788,4,425,51.27%
789,2,427,51.51%
790,2,429,51.75%
791,0,429,51.75%
792,400,829,100.0%
