Length, Count, Sum (Counts <= Length), Percent of Nonzero Data, Nonzero Data Count = 861, Zero Data Count = 983
1,1,1,0.12%
2,0,1,0.12%
3,1,2,0.23%
4,1,3,0.35%
5,0,3,0.35%
6,0,3,0.35%
7,0,3,0.35%
8,0,3,0.35%
9,1,4,0.46%
10,0,4,0.46%
11,0,4,0.46%
12,0,4,0.46%
13,0,4,0.46%
14,1,5,0.58%
15,0,5,0.58%
16,0,5,0.58%
17,0,5,0.58%
18,0,5,0.58%
19,0,5,0.58%
20,0,5,0.58%
21,0,5,0.58%
22,0,5,0.58%
23,0,5,0.58%
24,0,5,0.58%
25,0,5,0.58%
26,0,5,0.58%
27,0,5,0.58%
28,1,6,0.7%
29,0,6,0.7%
30,0,6,0.7%
31,0,6,0.7%
32,0,6,0.7%
33,0,6,0.7%
34,0,6,0.7%
35,0,6,0.7%
36,0,6,0.7%
37,0,6,0.7%
38,1,7,0.81%
39,1,8,0.93%
40,0,8,0.93%
41,0,8,0.93%
42,0,8,0.93%
43,0,8,0.93%
44,0,8,0.93%
45,0,8,0.93%
46,0,8,0.93%
47,0,8,0.93%
48,1,9,1.05%
49,0,9,1.05%
50,0,9,1.05%
51,0,9,1.05%
52,3,12,1.39%
53,0,12,1.39%
54,0,12,1.39%
55,0,12,1.39%
56,1,13,1.51%
57,0,13,1.51%
58,0,13,1.51%
59,0,13,1.51%
60,0,13,1.51%
61,0,13,1.51%
62,0,13,1.51%
63,1,14,1.63%
64,0,14,1.63%
65,1,15,1.74%
66,1,16,1.86%
67,0,16,1.86%
68,0,16,1.86%
69,0,16,1.86%
70,0,16,1.86%
71,0,16,1.86%
72,0,16,1.86%
73,0,16,1.86%
74,0,16,1.86%
75,0,16,1.86%
76,0,16,1.86%
77,0,16,1.86%
78,0,16,1.86%
79,0,16,1.86%
80,0,16,1.86%
81,0,16,1.86%
82,0,16,1.86%
83,0,16,1.86%
84,0,16,1.86%
85,1,17,1.97%
86,0,17,1.97%
87,0,17,1.97%
88,0,17,1.97%
89,0,17,1.97%
90,0,17,1.97%
91,0,17,1.97%
92,1,18,2.09%
93,0,18,2.09%
94,0,18,2.09%
95,1,19,2.21%
96,1,20,2.32%
97,0,20,2.32%
98,0,20,2.32%
99,0,20,2.32%
100,0,20,2.32%
101,0,20,2.32%
102,0,20,2.32%
103,0,20,2.32%
104,0,20,2.32%
105,0,20,2.32%
106,1,21,2.44%
107,0,21,2.44%
108,0,21,2.44%
109,0,21,2.44%
110,0,21,2.44%
111,0,21,2.44%
112,0,21,2.44%
113,0,21,2.44%
114,0,21,2.44%
115,0,21,2.44%
116,1,22,2.56%
117,0,22,2.56%
118,0,22,2.56%
119,0,22,2.56%
120,0,22,2.56%
121,0,22,2.56%
122,0,22,2.56%
123,0,22,2.56%
124,1,23,2.67%
125,1,24,2.79%
126,0,24,2.79%
127,0,24,2.79%
128,1,25,2.9%
129,1,26,3.02%
130,0,26,3.02%
131,0,26,3.02%
132,0,26,3.02%
133,0,26,3.02%
134,0,26,3.02%
135,0,26,3.02%
136,0,26,3.02%
137,0,26,3.02%
138,0,26,3.02%
139,1,27,3.14%
140,1,28,3.25%
141,0,28,3.25%
142,0,28,3.25%
143,0,28,3.25%
144,0,28,3.25%
145,2,30,3.48%
146,1,31,3.6%
147,0,31,3.6%
148,0,31,3.6%
149,0,31,3.6%
150,1,32,3.72%
151,1,33,3.83%
152,0,33,3.83%
153,0,33,3.83%
154,0,33,3.83%
155,1,34,3.95%
156,0,34,3.95%
157,0,34,3.95%
158,0,34,3.95%
159,0,34,3.95%
160,0,34,3.95%
161,0,34,3.95%
162,0,34,3.95%
163,0,34,3.95%
164,0,34,3.95%
165,0,34,3.95%
166,0,34,3.95%
167,0,34,3.95%
168,0,34,3.95%
169,0,34,3.95%
170,2,36,4.18%
171,0,36,4.18%
172,0,36,4.18%
173,0,36,4.18%
174,0,36,4.18%
175,2,38,4.41%
176,0,38,4.41%
177,0,38,4.41%
178,0,38,4.41%
179,0,38,4.41%
180,0,38,4.41%
181,3,41,4.76%
182,0,41,4.76%
183,0,41,4.76%
184,1,42,4.88%
185,0,42,4.88%
186,0,42,4.88%
187,0,42,4.88%
188,0,42,4.88%
189,1,43,4.99%
190,0,43,4.99%
191,0,43,4.99%
192,0,43,4.99%
193,0,43,4.99%
194,0,43,4.99%
195,0,43,4.99%
196,0,43,4.99%
197,0,43,4.99%
198,0,43,4.99%
199,0,43,4.99%
200,2,45,5.23%
201,1,46,5.34%
202,1,47,5.46%
203,0,47,5.46%
204,0,47,5.46%
205,0,47,5.46%
206,0,47,5.46%
207,1,48,5.57%
208,0,48,5.57%
209,0,48,5.57%
210,0,48,5.57%
211,0,48,5.57%
212,1,49,5.69%
213,1,50,5.81%
214,0,50,5.81%
215,1,51,5.92%
216,0,51,5.92%
217,0,51,5.92%
218,0,51,5.92%
219,1,52,6.04%
220,1,53,6.16%
221,0,53,6.16%
222,0,53,6.16%
223,0,53,6.16%
224,0,53,6.16%
225,0,53,6.16%
226,0,53,6.16%
227,0,53,6.16%
228,0,53,6.16%
229,0,53,6.16%
230,0,53,6.16%
231,1,54,6.27%
232,0,54,6.27%
233,0,54,6.27%
234,0,54,6.27%
235,0,54,6.27%
236,1,55,6.39%
237,0,55,6.39%
238,0,55,6.39%
239,0,55,6.39%
240,0,55,6.39%
241,0,55,6.39%
242,0,55,6.39%
243,1,56,6.5%
244,2,58,6.74%
245,0,58,6.74%
246,0,58,6.74%
247,0,58,6.74%
248,0,58,6.74%
249,0,58,6.74%
250,0,58,6.74%
251,0,58,6.74%
252,1,59,6.85%
253,0,59,6.85%
254,0,59,6.85%
255,1,60,6.97%
256,0,60,6.97%
257,0,60,6.97%
258,0,60,6.97%
259,1,61,7.08%
260,0,61,7.08%
261,0,61,7.08%
262,0,61,7.08%
263,1,62,7.2%
264,0,62,7.2%
265,1,63,7.32%
266,0,63,7.32%
267,1,64,7.43%
268,0,64,7.43%
269,0,64,7.43%
270,3,67,7.78%
271,0,67,7.78%
272,0,67,7.78%
273,0,67,7.78%
274,1,68,7.9%
275,0,68,7.9%
276,0,68,7.9%
277,0,68,7.9%
278,0,68,7.9%
279,0,68,7.9%
280,0,68,7.9%
281,0,68,7.9%
282,0,68,7.9%
283,0,68,7.9%
284,0,68,7.9%
285,0,68,7.9%
286,0,68,7.9%
287,0,68,7.9%
288,0,68,7.9%
289,0,68,7.9%
290,0,68,7.9%
291,0,68,7.9%
292,0,68,7.9%
293,0,68,7.9%
294,0,68,7.9%
295,0,68,7.9%
296,0,68,7.9%
297,0,68,7.9%
298,0,68,7.9%
299,0,68,7.9%
300,0,68,7.9%
301,0,68,7.9%
302,1,69,8.01%
303,2,71,8.25%
304,0,71,8.25%
305,1,72,8.36%
306,0,72,8.36%
307,0,72,8.36%
308,2,74,8.59%
309,0,74,8.59%
310,0,74,8.59%
311,2,76,8.83%
312,0,76,8.83%
313,0,76,8.83%
314,0,76,8.83%
315,0,76,8.83%
316,0,76,8.83%
317,0,76,8.83%
318,0,76,8.83%
319,0,76,8.83%
320,0,76,8.83%
321,0,76,8.83%
322,0,76,8.83%
323,0,76,8.83%
324,0,76,8.83%
325,2,78,9.06%
326,0,78,9.06%
327,0,78,9.06%
328,0,78,9.06%
329,0,78,9.06%
330,1,79,9.18%
331,0,79,9.18%
332,0,79,9.18%
333,0,79,9.18%
334,0,79,9.18%
335,0,79,9.18%
336,0,79,9.18%
337,0,79,9.18%
338,0,79,9.18%
339,0,79,9.18%
340,1,80,9.29%
341,0,80,9.29%
342,0,80,9.29%
343,1,81,9.41%
344,0,81,9.41%
345,0,81,9.41%
346,0,81,9.41%
347,0,81,9.41%
348,1,82,9.52%
349,1,83,9.64%
350,1,84,9.76%
351,15,99,11.5%
352,10,109,12.66%
353,0,109,12.66%
354,0,109,12.66%
355,0,109,12.66%
356,0,109,12.66%
357,0,109,12.66%
358,5,114,13.24%
359,0,114,13.24%
360,4,118,13.7%
361,1,119,13.82%
362,0,119,13.82%
363,1,120,13.94%
364,0,120,13.94%
365,0,120,13.94%
366,1,121,14.05%
367,0,121,14.05%
368,0,121,14.05%
369,0,121,14.05%
370,0,121,14.05%
371,0,121,14.05%
372,2,123,14.29%
373,0,123,14.29%
374,0,123,14.29%
375,0,123,14.29%
376,0,123,14.29%
377,0,123,14.29%
378,0,123,14.29%
379,0,123,14.29%
380,0,123,14.29%
381,0,123,14.29%
382,1,124,14.4%
383,0,124,14.4%
384,0,124,14.4%
385,0,124,14.4%
386,0,124,14.4%
387,0,124,14.4%
388,0,124,14.4%
389,0,124,14.4%
390,0,124,14.4%
391,0,124,14.4%
392,0,124,14.4%
393,1,125,14.52%
394,0,125,14.52%
395,0,125,14.52%
396,0,125,14.52%
397,1,126,14.63%
398,0,126,14.63%
399,0,126,14.63%
400,0,126,14.63%
401,0,126,14.63%
402,0,126,14.63%
403,0,126,14.63%
404,1,127,14.75%
405,0,127,14.75%
406,2,129,14.98%
407,0,129,14.98%
408,0,129,14.98%
409,0,129,14.98%
410,0,129,14.98%
411,0,129,14.98%
412,1,130,15.1%
413,1,131,15.21%
414,0,131,15.21%
415,0,131,15.21%
416,0,131,15.21%
417,0,131,15.21%
418,0,131,15.21%
419,0,131,15.21%
420,0,131,15.21%
421,0,131,15.21%
422,1,132,15.33%
423,1,133,15.45%
424,0,133,15.45%
425,0,133,15.45%
426,0,133,15.45%
427,0,133,15.45%
428,0,133,15.45%
429,0,133,15.45%
430,0,133,15.45%
431,0,133,15.45%
432,0,133,15.45%
433,0,133,15.45%
434,0,133,15.45%
435,1,134,15.56%
436,1,135,15.68%
437,0,135,15.68%
438,1,136,15.8%
439,0,136,15.8%
440,0,136,15.8%
441,1,137,15.91%
442,0,137,15.91%
443,0,137,15.91%
444,0,137,15.91%
445,0,137,15.91%
446,1,138,16.03%
447,0,138,16.03%
448,0,138,16.03%
449,0,138,16.03%
450,0,138,16.03%
451,1,139,16.14%
452,0,139,16.14%
453,1,140,16.26%
454,1,141,16.38%
455,0,141,16.38%
456,0,141,16.38%
457,0,141,16.38%
458,0,141,16.38%
459,0,141,16.38%
460,0,141,16.38%
461,0,141,16.38%
462,0,141,16.38%
463,0,141,16.38%
464,0,141,16.38%
465,1,142,16.49%
466,1,143,16.61%
467,0,143,16.61%
468,0,143,16.61%
469,1,144,16.72%
470,0,144,16.72%
471,1,145,16.84%
472,0,145,16.84%
473,1,146,16.96%
474,0,146,16.96%
475,0,146,16.96%
476,0,146,16.96%
477,0,146,16.96%
478,0,146,16.96%
479,1,147,17.07%
480,0,147,17.07%
481,0,147,17.07%
482,2,149,17.31%
483,1,150,17.42%
484,0,150,17.42%
485,0,150,17.42%
486,0,150,17.42%
487,1,151,17.54%
488,0,151,17.54%
489,0,151,17.54%
490,1,152,17.65%
491,1,153,17.77%
492,0,153,17.77%
493,0,153,17.77%
494,1,154,17.89%
495,1,155,18.0%
496,1,156,18.12%
497,0,156,18.12%
498,0,156,18.12%
499,0,156,18.12%
500,0,156,18.12%
501,1,157,18.23%
502,0,157,18.23%
503,1,158,18.35%
504,0,158,18.35%
505,0,158,18.35%
506,0,158,18.35%
507,0,158,18.35%
508,1,159,18.47%
509,0,159,18.47%
510,0,159,18.47%
511,0,159,18.47%
512,0,159,18.47%
513,0,159,18.47%
514,0,159,18.47%
515,0,159,18.47%
516,1,160,18.58%
517,0,160,18.58%
518,0,160,18.58%
519,1,161,18.7%
520,0,161,18.7%
521,0,161,18.7%
522,0,161,18.7%
523,0,161,18.7%
524,0,161,18.7%
525,0,161,18.7%
526,0,161,18.7%
527,0,161,18.7%
528,1,162,18.82%
529,1,163,18.93%
530,0,163,18.93%
531,0,163,18.93%
532,0,163,18.93%
533,0,163,18.93%
534,0,163,18.93%
535,0,163,18.93%
536,0,163,18.93%
537,0,163,18.93%
538,0,163,18.93%
539,1,164,19.05%
540,0,164,19.05%
541,0,164,19.05%
542,0,164,19.05%
543,0,164,19.05%
544,0,164,19.05%
545,0,164,19.05%
546,2,166,19.28%
547,0,166,19.28%
548,0,166,19.28%
549,0,166,19.28%
550,0,166,19.28%
551,0,166,19.28%
552,0,166,19.28%
553,0,166,19.28%
554,0,166,19.28%
555,0,166,19.28%
556,0,166,19.28%
557,0,166,19.28%
558,0,166,19.28%
559,0,166,19.28%
560,1,167,19.4%
561,1,168,19.51%
562,0,168,19.51%
563,0,168,19.51%
564,1,169,19.63%
565,0,169,19.63%
566,0,169,19.63%
567,1,170,19.74%
568,0,170,19.74%
569,0,170,19.74%
570,0,170,19.74%
571,1,171,19.86%
572,0,171,19.86%
573,2,173,20.09%
574,0,173,20.09%
575,0,173,20.09%
576,9,182,21.14%
577,0,182,21.14%
578,0,182,21.14%
579,1,183,21.25%
580,0,183,21.25%
581,1,184,21.37%
582,0,184,21.37%
583,0,184,21.37%
584,0,184,21.37%
585,0,184,21.37%
586,0,184,21.37%
587,0,184,21.37%
588,0,184,21.37%
589,0,184,21.37%
590,1,185,21.49%
591,0,185,21.49%
592,0,185,21.49%
593,0,185,21.49%
594,0,185,21.49%
595,0,185,21.49%
596,1,186,21.6%
597,0,186,21.6%
598,0,186,21.6%
599,2,188,21.84%
600,0,188,21.84%
601,0,188,21.84%
602,0,188,21.84%
603,1,189,21.95%
604,1,190,22.07%
605,0,190,22.07%
606,0,190,22.07%
607,0,190,22.07%
608,0,190,22.07%
609,0,190,22.07%
610,0,190,22.07%
611,0,190,22.07%
612,1,191,22.18%
613,0,191,22.18%
614,1,192,22.3%
615,0,192,22.3%
616,0,192,22.3%
617,0,192,22.3%
618,0,192,22.3%
619,0,192,22.3%
620,0,192,22.3%
621,0,192,22.3%
622,1,193,22.42%
623,0,193,22.42%
624,0,193,22.42%
625,0,193,22.42%
626,2,195,22.65%
627,0,195,22.65%
628,0,195,22.65%
629,0,195,22.65%
630,0,195,22.65%
631,0,195,22.65%
632,1,196,22.76%
633,0,196,22.76%
634,0,196,22.76%
635,3,199,23.11%
636,0,199,23.11%
637,0,199,23.11%
638,0,199,23.11%
639,0,199,23.11%
640,0,199,23.11%
641,0,199,23.11%
642,0,199,23.11%
643,0,199,23.11%
644,0,199,23.11%
645,0,199,23.11%
646,0,199,23.11%
647,1,200,23.23%
648,0,200,23.23%
649,1,201,23.34%
650,0,201,23.34%
651,1,202,23.46%
652,0,202,23.46%
653,1,203,23.58%
654,0,203,23.58%
655,0,203,23.58%
656,0,203,23.58%
657,0,203,23.58%
658,0,203,23.58%
659,0,203,23.58%
660,0,203,23.58%
661,0,203,23.58%
662,0,203,23.58%
663,0,203,23.58%
664,0,203,23.58%
665,0,203,23.58%
666,0,203,23.58%
667,0,203,23.58%
668,0,203,23.58%
669,0,203,23.58%
670,1,204,23.69%
671,0,204,23.69%
672,0,204,23.69%
673,0,204,23.69%
674,0,204,23.69%
675,0,204,23.69%
676,0,204,23.69%
677,0,204,23.69%
678,0,204,23.69%
679,1,205,23.81%
680,0,205,23.81%
681,0,205,23.81%
682,0,205,23.81%
683,1,206,23.93%
684,0,206,23.93%
685,0,206,23.93%
686,0,206,23.93%
687,0,206,23.93%
688,0,206,23.93%
689,0,206,23.93%
690,1,207,24.04%
691,0,207,24.04%
692,0,207,24.04%
693,5,212,24.62%
694,0,212,24.62%
695,0,212,24.62%
696,0,212,24.62%
697,0,212,24.62%
698,0,212,24.62%
699,0,212,24.62%
700,0,212,24.62%
701,0,212,24.62%
702,0,212,24.62%
703,0,212,24.62%
704,1,213,24.74%
705,1,214,24.85%
706,0,214,24.85%
707,0,214,24.85%
708,0,214,24.85%
709,0,214,24.85%
710,0,214,24.85%
711,0,214,24.85%
712,0,214,24.85%
713,0,214,24.85%
714,0,214,24.85%
715,0,214,24.85%
716,0,214,24.85%
717,0,214,24.85%
718,0,214,24.85%
719,1,215,24.97%
720,0,215,24.97%
721,0,215,24.97%
722,0,215,24.97%
723,0,215,24.97%
724,0,215,24.97%
725,1,216,25.09%
726,0,216,25.09%
727,0,216,25.09%
728,0,216,25.09%
729,0,216,25.09%
730,0,216,25.09%
731,0,216,25.09%
732,0,216,25.09%
733,0,216,25.09%
734,0,216,25.09%
735,1,217,25.2%
736,0,217,25.2%
737,0,217,25.2%
738,0,217,25.2%
739,1,218,25.32%
740,0,218,25.32%
741,0,218,25.32%
742,0,218,25.32%
743,0,218,25.32%
744,1,219,25.44%
745,0,219,25.44%
746,0,219,25.44%
747,1,220,25.55%
748,0,220,25.55%
749,0,220,25.55%
750,0,220,25.55%
751,0,220,25.55%
752,0,220,25.55%
753,1,221,25.67%
754,2,223,25.9%
755,1,224,26.02%
756,0,224,26.02%
757,0,224,26.02%
758,0,224,26.02%
759,0,224,26.02%
760,0,224,26.02%
761,0,224,26.02%
762,0,224,26.02%
763,0,224,26.02%
764,0,224,26.02%
765,0,224,26.02%
766,0,224,26.02%
767,0,224,26.02%
768,1,225,26.13%
769,1,226,26.25%
770,0,226,26.25%
771,0,226,26.25%
772,0,226,26.25%
773,0,226,26.25%
774,1,227,26.36%
775,0,227,26.36%
776,0,227,26.36%
777,0,227,26.36%
778,1,228,26.48%
779,0,228,26.48%
780,0,228,26.48%
781,0,228,26.48%
782,0,228,26.48%
783,0,228,26.48%
784,0,228,26.48%
785,1,229,26.6%
786,0,229,26.6%
787,0,229,26.6%
788,0,229,26.6%
789,2,231,26.83%
790,0,231,26.83%
791,0,231,26.83%
792,1,232,26.95%
793,1,233,27.06%
794,0,233,27.06%
795,2,235,27.29%
796,0,235,27.29%
797,0,235,27.29%
798,0,235,27.29%
799,0,235,27.29%
800,0,235,27.29%
801,0,235,27.29%
802,1,236,27.41%
803,0,236,27.41%
804,1,237,27.53%
805,0,237,27.53%
806,0,237,27.53%
807,0,237,27.53%
808,1,238,27.64%
809,0,238,27.64%
810,0,238,27.64%
811,0,238,27.64%
812,0,238,27.64%
813,0,238,27.64%
814,0,238,27.64%
815,0,238,27.64%
816,2,240,27.87%
817,0,240,27.87%
818,0,240,27.87%
819,0,240,27.87%
820,0,240,27.87%
821,0,240,27.87%
822,1,241,27.99%
823,0,241,27.99%
824,0,241,27.99%
825,0,241,27.99%
826,0,241,27.99%
827,0,241,27.99%
828,0,241,27.99%
829,0,241,27.99%
830,0,241,27.99%
831,0,241,27.99%
832,0,241,27.99%
833,0,241,27.99%
834,0,241,27.99%
835,0,241,27.99%
836,0,241,27.99%
837,1,242,28.11%
838,0,242,28.11%
839,0,242,28.11%
840,1,243,28.22%
841,0,243,28.22%
842,0,243,28.22%
843,0,243,28.22%
844,1,244,28.34%
845,0,244,28.34%
846,0,244,28.34%
847,0,244,28.34%
848,0,244,28.34%
849,0,244,28.34%
850,0,244,28.34%
851,0,244,28.34%
852,0,244,28.34%
853,0,244,28.34%
854,0,244,28.34%
855,0,244,28.34%
856,1,245,28.46%
857,0,245,28.46%
858,0,245,28.46%
859,0,245,28.46%
860,0,245,28.46%
861,0,245,28.46%
862,0,245,28.46%
863,0,245,28.46%
864,0,245,28.46%
865,0,245,28.46%
866,0,245,28.46%
867,1,246,28.57%
868,0,246,28.57%
869,0,246,28.57%
870,0,246,28.57%
871,1,247,28.69%
872,0,247,28.69%
873,0,247,28.69%
874,0,247,28.69%
875,0,247,28.69%
876,1,248,28.8%
877,0,248,28.8%
878,0,248,28.8%
879,0,248,28.8%
880,0,248,28.8%
881,1,249,28.92%
882,0,249,28.92%
883,0,249,28.92%
884,1,250,29.04%
885,0,250,29.04%
886,0,250,29.04%
887,0,250,29.04%
888,0,250,29.04%
889,9,259,30.08%
890,0,259,30.08%
891,1,260,30.2%
892,0,260,30.2%
893,0,260,30.2%
894,0,260,30.2%
895,0,260,30.2%
896,1,261,30.31%
897,0,261,30.31%
898,0,261,30.31%
899,0,261,30.31%
900,0,261,30.31%
901,1,262,30.43%
902,0,262,30.43%
903,0,262,30.43%
904,1,263,30.55%
905,0,263,30.55%
906,2,265,30.78%
907,1,266,30.89%
908,0,266,30.89%
909,0,266,30.89%
910,0,266,30.89%
911,0,266,30.89%
912,0,266,30.89%
913,0,266,30.89%
914,0,266,30.89%
915,0,266,30.89%
916,0,266,30.89%
917,0,266,30.89%
918,0,266,30.89%
919,0,266,30.89%
920,0,266,30.89%
921,1,267,31.01%
922,0,267,31.01%
923,0,267,31.01%
924,0,267,31.01%
925,0,267,31.01%
926,0,267,31.01%
927,1,268,31.13%
928,2,270,31.36%
929,0,270,31.36%
930,0,270,31.36%
931,1,271,31.48%
932,0,271,31.48%
933,0,271,31.48%
934,0,271,31.48%
935,1,272,31.59%
936,0,272,31.59%
937,1,273,31.71%
938,0,273,31.71%
939,0,273,31.71%
940,0,273,31.71%
941,0,273,31.71%
942,1,274,31.82%
943,0,274,31.82%
944,0,274,31.82%
945,0,274,31.82%
946,1,275,31.94%
947,0,275,31.94%
948,0,275,31.94%
949,0,275,31.94%
950,0,275,31.94%
951,0,275,31.94%
952,0,275,31.94%
953,0,275,31.94%
954,0,275,31.94%
955,0,275,31.94%
956,1,276,32.06%
957,0,276,32.06%
958,0,276,32.06%
959,0,276,32.06%
960,1,277,32.17%
961,0,277,32.17%
962,0,277,32.17%
963,0,277,32.17%
964,1,278,32.29%
965,0,278,32.29%
966,0,278,32.29%
967,0,278,32.29%
968,1,279,32.4%
969,0,279,32.4%
970,0,279,32.4%
971,0,279,32.4%
972,0,279,32.4%
973,0,279,32.4%
974,1,280,32.52%
975,0,280,32.52%
976,0,280,32.52%
977,0,280,32.52%
978,0,280,32.52%
979,1,281,32.64%
980,0,281,32.64%
981,0,281,32.64%
982,0,281,32.64%
983,0,281,32.64%
984,0,281,32.64%
985,1,282,32.75%
986,0,282,32.75%
987,1,283,32.87%
988,0,283,32.87%
989,1,284,32.98%
990,0,284,32.98%
991,1,285,33.1%
992,0,285,33.1%
993,0,285,33.1%
994,1,286,33.22%
995,0,286,33.22%
996,0,286,33.22%
997,0,286,33.22%
998,1,287,33.33%
999,1,288,33.45%
1000,0,288,33.45%
1001,0,288,33.45%
1002,0,288,33.45%
1003,0,288,33.45%
1004,0,288,33.45%
1005,0,288,33.45%
1006,0,288,33.45%
1007,0,288,33.45%
1008,0,288,33.45%
1009,0,288,33.45%
1010,0,288,33.45%
1011,0,288,33.45%
1012,0,288,33.45%
1013,1,289,33.57%
1014,0,289,33.57%
1015,0,289,33.57%
1016,1,290,33.68%
1017,0,290,33.68%
1018,0,290,33.68%
1019,0,290,33.68%
1020,1,291,33.8%
1021,0,291,33.8%
1022,0,291,33.8%
1023,0,291,33.8%
1024,0,291,33.8%
1025,1,292,33.91%
1026,0,292,33.91%
1027,1,293,34.03%
1028,0,293,34.03%
1029,1,294,34.15%
1030,0,294,34.15%
1031,1,295,34.26%
1032,0,295,34.26%
1033,1,296,34.38%
1034,0,296,34.38%
1035,0,296,34.38%
1036,0,296,34.38%
1037,0,296,34.38%
1038,0,296,34.38%
1039,0,296,34.38%
1040,0,296,34.38%
1041,0,296,34.38%
1042,0,296,34.38%
1043,0,296,34.38%
1044,0,296,34.38%
1045,0,296,34.38%
1046,0,296,34.38%
1047,0,296,34.38%
1048,0,296,34.38%
1049,0,296,34.38%
1050,0,296,34.38%
1051,0,296,34.38%
1052,0,296,34.38%
1053,0,296,34.38%
1054,0,296,34.38%
1055,0,296,34.38%
1056,0,296,34.38%
1057,0,296,34.38%
1058,1,297,34.49%
1059,0,297,34.49%
1060,0,297,34.49%
1061,0,297,34.49%
1062,0,297,34.49%
1063,0,297,34.49%
1064,0,297,34.49%
1065,1,298,34.61%
1066,0,298,34.61%
1067,0,298,34.61%
1068,1,299,34.73%
1069,0,299,34.73%
1070,0,299,34.73%
1071,0,299,34.73%
1072,1,300,34.84%
1073,0,300,34.84%
1074,0,300,34.84%
1075,0,300,34.84%
1076,4,304,35.31%
1077,0,304,35.31%
1078,0,304,35.31%
1079,0,304,35.31%
1080,0,304,35.31%
1081,0,304,35.31%
1082,0,304,35.31%
1083,2,306,35.54%
1084,1,307,35.66%
1085,0,307,35.66%
1086,0,307,35.66%
1087,0,307,35.66%
1088,0,307,35.66%
1089,0,307,35.66%
1090,0,307,35.66%
1091,0,307,35.66%
1092,0,307,35.66%
1093,0,307,35.66%
1094,1,308,35.77%
1095,0,308,35.77%
1096,1,309,35.89%
1097,0,309,35.89%
1098,0,309,35.89%
1099,0,309,35.89%
1100,1,310,36.0%
1101,1,311,36.12%
1102,1,312,36.24%
1103,1,313,36.35%
1104,0,313,36.35%
1105,2,315,36.59%
1106,1,316,36.7%
1107,0,316,36.7%
1108,0,316,36.7%
1109,2,318,36.93%
1110,2,320,37.17%
1111,0,320,37.17%
1112,0,320,37.17%
1113,1,321,37.28%
1114,1,322,37.4%
1115,3,325,37.75%
1116,5,330,38.33%
1117,0,330,38.33%
1118,2,332,38.56%
1119,2,334,38.79%
1120,1,335,38.91%
1121,1,336,39.02%
1122,1,337,39.14%
1123,0,337,39.14%
1124,1,338,39.26%
1125,4,342,39.72%
1126,2,344,39.95%
1127,0,344,39.95%
1128,1,345,40.07%
1129,1,346,40.19%
1130,0,346,40.19%
1131,2,348,40.42%
1132,0,348,40.42%
1133,2,350,40.65%
1134,2,352,40.88%
1135,0,352,40.88%
1136,0,352,40.88%
1137,1,353,41.0%
1138,0,353,41.0%
1139,1,354,41.11%
1140,1,355,41.23%
1141,5,360,41.81%
1142,1,361,41.93%
1143,4,365,42.39%
1144,2,367,42.62%
1145,3,370,42.97%
1146,1,371,43.09%
1147,2,373,43.32%
1148,3,376,43.67%
1149,6,382,44.37%
1150,0,382,44.37%
1151,2,384,44.6%
1152,0,384,44.6%
1153,0,384,44.6%
1154,1,385,44.72%
1155,1,386,44.83%
1156,0,386,44.83%
1157,2,388,45.06%
1158,4,392,45.53%
1159,2,394,45.76%
1160,3,397,46.11%
1161,0,397,46.11%
1162,3,400,46.46%
1163,2,402,46.69%
1164,0,402,46.69%
1165,0,402,46.69%
1166,0,402,46.69%
1167,0,402,46.69%
1168,4,406,47.15%
1169,3,409,47.5%
1170,1,410,47.62%
1171,0,410,47.62%
1172,0,410,47.62%
1173,7,417,48.43%
1174,3,420,48.78%
1175,0,420,48.78%
1176,1,421,48.9%
1177,0,421,48.9%
1178,1,422,49.01%
1179,1,423,49.13%
1180,1,424,49.25%
1181,0,424,49.25%
1182,1,425,49.36%
1183,6,431,50.06%
1184,11,442,51.34%
1185,3,445,51.68%
1186,2,447,51.92%
1187,6,453,52.61%
1188,0,453,52.61%
1189,0,453,52.61%
1190,0,453,52.61%
1191,4,457,53.08%
1192,2,459,53.31%
1193,0,459,53.31%
1194,2,461,53.54%
1195,0,461,53.54%
1196,2,463,53.77%
1197,3,466,54.12%
1198,2,468,54.36%
1199,3,471,54.7%
1200,0,471,54.7%
1201,1,472,54.82%
1202,0,472,54.82%
1203,5,477,55.4%
1204,2,479,55.63%
1205,0,479,55.63%
1206,0,479,55.63%
1207,3,482,55.98%
1208,0,482,55.98%
1209,0,482,55.98%
1210,0,482,55.98%
1211,1,483,56.1%
1212,1,484,56.21%
1213,0,484,56.21%
1214,0,484,56.21%
1215,0,484,56.21%
1216,0,484,56.21%
1217,2,486,56.45%
1218,0,486,56.45%
1219,0,486,56.45%
1220,0,486,56.45%
1221,1,487,56.56%
1222,4,491,57.03%
1223,0,491,57.03%
1224,0,491,57.03%
1225,1,492,57.14%
1226,1,493,57.26%
1227,0,493,57.26%
1228,0,493,57.26%
1229,0,493,57.26%
1230,2,495,57.49%
1231,3,498,57.84%
1232,3,501,58.19%
1233,1,502,58.3%
1234,0,502,58.3%
1235,1,503,58.42%
1236,2,505,58.65%
1237,2,507,58.89%
1238,1,508,59.0%
1239,0,508,59.0%
1240,4,512,59.47%
1241,7,519,60.28%
1242,4,523,60.74%
1243,3,526,61.09%
1244,0,526,61.09%
1245,0,526,61.09%
1246,3,529,61.44%
1247,1,530,61.56%
1248,0,530,61.56%
1249,1,531,61.67%
1250,3,534,62.02%
1251,0,534,62.02%
1252,0,534,62.02%
1253,0,534,62.02%
1254,0,534,62.02%
1255,0,534,62.02%
1256,2,536,62.25%
1257,3,539,62.6%
1258,0,539,62.6%
1259,0,539,62.6%
1260,0,539,62.6%
1261,0,539,62.6%
1262,0,539,62.6%
1263,0,539,62.6%
1264,2,541,62.83%
1265,1,542,62.95%
1266,1,543,63.07%
1267,2,545,63.3%
1268,1,546,63.41%
1269,2,548,63.65%
1270,5,553,64.23%
1271,0,553,64.23%
1272,0,553,64.23%
1273,2,555,64.46%
1274,4,559,64.92%
1275,8,567,65.85%
1276,1,568,65.97%
1277,0,568,65.97%
1278,4,572,66.43%
1279,4,576,66.9%
1280,1,577,67.02%
1281,0,577,67.02%
1282,0,577,67.02%
1283,1,578,67.13%
1284,4,582,67.6%
1285,2,584,67.83%
1286,0,584,67.83%
1287,0,584,67.83%
1288,2,586,68.06%
1289,2,588,68.29%
1290,0,588,68.29%
1291,0,588,68.29%
1292,0,588,68.29%
1293,2,590,68.52%
1294,3,593,68.87%
1295,0,593,68.87%
1296,0,593,68.87%
1297,4,597,69.34%
1298,2,599,69.57%
1299,1,600,69.69%
1300,2,602,69.92%
1301,2,604,70.15%
1302,2,606,70.38%
1303,2,608,70.62%
1304,3,611,70.96%
1305,2,613,71.2%
1306,1,614,71.31%
1307,2,616,71.54%
1308,2,618,71.78%
1309,1,619,71.89%
1310,0,619,71.89%
1311,0,619,71.89%
1312,1,620,72.01%
1313,3,623,72.36%
1314,1,624,72.47%
1315,0,624,72.47%
1316,0,624,72.47%
1317,1,625,72.59%
1318,1,626,72.71%
1319,0,626,72.71%
1320,0,626,72.71%
1321,1,627,72.82%
1322,3,630,73.17%
1323,0,630,73.17%
1324,3,633,73.52%
1325,4,637,73.98%
1326,0,637,73.98%
1327,2,639,74.22%
1328,1,640,74.33%
1329,7,647,75.15%
1330,1,648,75.26%
1331,0,648,75.26%
1332,1,649,75.38%
1333,0,649,75.38%
1334,0,649,75.38%
1335,212,861,100.0%
