Length, Count, Sum (Counts <= Length), Percent of Nonzero Data, Nonzero Data Count = 673, Zero Data Count = 1171
1,1,1,0.15%
2,0,1,0.15%
3,1,2,0.3%
4,1,3,0.45%
5,0,3,0.45%
6,1,4,0.59%
7,0,4,0.59%
8,0,4,0.59%
9,0,4,0.59%
10,0,4,0.59%
11,0,4,0.59%
12,0,4,0.59%
13,0,4,0.59%
14,0,4,0.59%
15,1,5,0.74%
16,0,5,0.74%
17,0,5,0.74%
18,0,5,0.74%
19,0,5,0.74%
20,0,5,0.74%
21,0,5,0.74%
22,0,5,0.74%
23,0,5,0.74%
24,0,5,0.74%
25,0,5,0.74%
26,0,5,0.74%
27,0,5,0.74%
28,0,5,0.74%
29,0,5,0.74%
30,0,5,0.74%
31,0,5,0.74%
32,0,5,0.74%
33,0,5,0.74%
34,0,5,0.74%
35,0,5,0.74%
36,0,5,0.74%
37,0,5,0.74%
38,0,5,0.74%
39,0,5,0.74%
40,0,5,0.74%
41,1,6,0.89%
42,0,6,0.89%
43,0,6,0.89%
44,0,6,0.89%
45,0,6,0.89%
46,0,6,0.89%
47,0,6,0.89%
48,1,7,1.04%
49,0,7,1.04%
50,0,7,1.04%
51,1,8,1.19%
52,1,9,1.34%
53,0,9,1.34%
54,0,9,1.34%
55,0,9,1.34%
56,0,9,1.34%
57,0,9,1.34%
58,0,9,1.34%
59,0,9,1.34%
60,0,9,1.34%
61,0,9,1.34%
62,1,10,1.49%
63,1,11,1.63%
64,0,11,1.63%
65,0,11,1.63%
66,0,11,1.63%
67,0,11,1.63%
68,0,11,1.63%
69,0,11,1.63%
70,0,11,1.63%
71,1,12,1.78%
72,0,12,1.78%
73,9,21,3.12%
74,0,21,3.12%
75,1,22,3.27%
76,0,22,3.27%
77,0,22,3.27%
78,0,22,3.27%
79,0,22,3.27%
80,0,22,3.27%
81,0,22,3.27%
82,0,22,3.27%
83,0,22,3.27%
84,0,22,3.27%
85,2,24,3.57%
86,0,24,3.57%
87,1,25,3.71%
88,0,25,3.71%
89,0,25,3.71%
90,1,26,3.86%
91,0,26,3.86%
92,1,27,4.01%
93,1,28,4.16%
94,0,28,4.16%
95,0,28,4.16%
96,1,29,4.31%
97,0,29,4.31%
98,1,30,4.46%
99,0,30,4.46%
100,0,30,4.46%
101,0,30,4.46%
102,0,30,4.46%
103,0,30,4.46%
104,0,30,4.46%
105,1,31,4.61%
106,1,32,4.75%
107,0,32,4.75%
108,0,32,4.75%
109,0,32,4.75%
110,0,32,4.75%
111,0,32,4.75%
112,0,32,4.75%
113,0,32,4.75%
114,0,32,4.75%
115,0,32,4.75%
116,0,32,4.75%
117,0,32,4.75%
118,0,32,4.75%
119,0,32,4.75%
120,0,32,4.75%
121,0,32,4.75%
122,0,32,4.75%
123,0,32,4.75%
124,0,32,4.75%
125,1,33,4.9%
126,0,33,4.9%
127,0,33,4.9%
128,1,34,5.05%
129,0,34,5.05%
130,0,34,5.05%
131,0,34,5.05%
132,0,34,5.05%
133,0,34,5.05%
134,0,34,5.05%
135,0,34,5.05%
136,0,34,5.05%
137,0,34,5.05%
138,0,34,5.05%
139,1,35,5.2%
140,0,35,5.2%
141,0,35,5.2%
142,0,35,5.2%
143,0,35,5.2%
144,1,36,5.35%
145,0,36,5.35%
146,0,36,5.35%
147,1,37,5.5%
148,0,37,5.5%
149,0,37,5.5%
150,1,38,5.65%
151,1,39,5.79%
152,2,41,6.09%
153,1,42,6.24%
154,0,42,6.24%
155,1,43,6.39%
156,0,43,6.39%
157,0,43,6.39%
158,1,44,6.54%
159,0,44,6.54%
160,0,44,6.54%
161,0,44,6.54%
162,0,44,6.54%
163,0,44,6.54%
164,0,44,6.54%
165,0,44,6.54%
166,0,44,6.54%
167,0,44,6.54%
168,0,44,6.54%
169,0,44,6.54%
170,0,44,6.54%
171,0,44,6.54%
172,0,44,6.54%
173,0,44,6.54%
174,0,44,6.54%
175,0,44,6.54%
176,0,44,6.54%
177,0,44,6.54%
178,0,44,6.54%
179,0,44,6.54%
180,0,44,6.54%
181,0,44,6.54%
182,0,44,6.54%
183,1,45,6.69%
184,1,46,6.84%
185,0,46,6.84%
186,0,46,6.84%
187,0,46,6.84%
188,0,46,6.84%
189,0,46,6.84%
190,1,47,6.98%
191,0,47,6.98%
192,1,48,7.13%
193,0,48,7.13%
194,0,48,7.13%
195,0,48,7.13%
196,0,48,7.13%
197,2,50,7.43%
198,0,50,7.43%
199,1,51,7.58%
200,0,51,7.58%
201,0,51,7.58%
202,1,52,7.73%
203,0,52,7.73%
204,1,53,7.88%
205,0,53,7.88%
206,0,53,7.88%
207,0,53,7.88%
208,0,53,7.88%
209,0,53,7.88%
210,1,54,8.02%
211,1,55,8.17%
212,1,56,8.32%
213,0,56,8.32%
214,2,58,8.62%
215,0,58,8.62%
216,2,60,8.92%
217,1,61,9.06%
218,0,61,9.06%
219,0,61,9.06%
220,0,61,9.06%
221,0,61,9.06%
222,0,61,9.06%
223,0,61,9.06%
224,0,61,9.06%
225,0,61,9.06%
226,0,61,9.06%
227,0,61,9.06%
228,0,61,9.06%
229,0,61,9.06%
230,0,61,9.06%
231,1,62,9.21%
232,0,62,9.21%
233,0,62,9.21%
234,0,62,9.21%
235,0,62,9.21%
236,0,62,9.21%
237,1,63,9.36%
238,0,63,9.36%
239,0,63,9.36%
240,1,64,9.51%
241,0,64,9.51%
242,0,64,9.51%
243,1,65,9.66%
244,0,65,9.66%
245,1,66,9.81%
246,0,66,9.81%
247,0,66,9.81%
248,1,67,9.96%
249,2,69,10.25%
250,0,69,10.25%
251,0,69,10.25%
252,1,70,10.4%
253,0,70,10.4%
254,0,70,10.4%
255,1,71,10.55%
256,2,73,10.85%
257,0,73,10.85%
258,0,73,10.85%
259,0,73,10.85%
260,2,75,11.14%
261,0,75,11.14%
262,0,75,11.14%
263,0,75,11.14%
264,0,75,11.14%
265,1,76,11.29%
266,0,76,11.29%
267,2,78,11.59%
268,1,79,11.74%
269,1,80,11.89%
270,1,81,12.04%
271,0,81,12.04%
272,0,81,12.04%
273,0,81,12.04%
274,1,82,12.18%
275,0,82,12.18%
276,0,82,12.18%
277,0,82,12.18%
278,0,82,12.18%
279,0,82,12.18%
280,0,82,12.18%
281,0,82,12.18%
282,0,82,12.18%
283,1,83,12.33%
284,0,83,12.33%
285,0,83,12.33%
286,0,83,12.33%
287,0,83,12.33%
288,1,84,12.48%
289,0,84,12.48%
290,0,84,12.48%
291,0,84,12.48%
292,0,84,12.48%
293,0,84,12.48%
294,0,84,12.48%
295,0,84,12.48%
296,0,84,12.48%
297,0,84,12.48%
298,1,85,12.63%
299,0,85,12.63%
300,1,86,12.78%
301,0,86,12.78%
302,1,87,12.93%
303,0,87,12.93%
304,0,87,12.93%
305,0,87,12.93%
306,1,88,13.08%
307,0,88,13.08%
308,0,88,13.08%
309,0,88,13.08%
310,0,88,13.08%
311,0,88,13.08%
312,0,88,13.08%
313,0,88,13.08%
314,0,88,13.08%
315,0,88,13.08%
316,0,88,13.08%
317,1,89,13.22%
318,0,89,13.22%
319,0,89,13.22%
320,0,89,13.22%
321,0,89,13.22%
322,0,89,13.22%
323,0,89,13.22%
324,0,89,13.22%
325,0,89,13.22%
326,0,89,13.22%
327,0,89,13.22%
328,0,89,13.22%
329,1,90,13.37%
330,0,90,13.37%
331,1,91,13.52%
332,0,91,13.52%
333,1,92,13.67%
334,0,92,13.67%
335,1,93,13.82%
336,0,93,13.82%
337,0,93,13.82%
338,0,93,13.82%
339,0,93,13.82%
340,0,93,13.82%
341,0,93,13.82%
342,0,93,13.82%
343,0,93,13.82%
344,0,93,13.82%
345,0,93,13.82%
346,0,93,13.82%
347,0,93,13.82%
348,0,93,13.82%
349,0,93,13.82%
350,0,93,13.82%
351,0,93,13.82%
352,0,93,13.82%
353,0,93,13.82%
354,0,93,13.82%
355,0,93,13.82%
356,0,93,13.82%
357,0,93,13.82%
358,0,93,13.82%
359,0,93,13.82%
360,0,93,13.82%
361,1,94,13.97%
362,0,94,13.97%
363,0,94,13.97%
364,0,94,13.97%
365,0,94,13.97%
366,0,94,13.97%
367,0,94,13.97%
368,1,95,14.12%
369,1,96,14.26%
370,0,96,14.26%
371,0,96,14.26%
372,2,98,14.56%
373,0,98,14.56%
374,0,98,14.56%
375,0,98,14.56%
376,0,98,14.56%
377,0,98,14.56%
378,0,98,14.56%
379,0,98,14.56%
380,0,98,14.56%
381,1,99,14.71%
382,0,99,14.71%
383,1,100,14.86%
384,0,100,14.86%
385,1,101,15.01%
386,0,101,15.01%
387,1,102,15.16%
388,0,102,15.16%
389,0,102,15.16%
390,0,102,15.16%
391,1,103,15.3%
392,0,103,15.3%
393,0,103,15.3%
394,0,103,15.3%
395,0,103,15.3%
396,0,103,15.3%
397,0,103,15.3%
398,0,103,15.3%
399,0,103,15.3%
400,0,103,15.3%
401,0,103,15.3%
402,0,103,15.3%
403,0,103,15.3%
404,0,103,15.3%
405,0,103,15.3%
406,0,103,15.3%
407,0,103,15.3%
408,0,103,15.3%
409,0,103,15.3%
410,0,103,15.3%
411,0,103,15.3%
412,0,103,15.3%
413,1,104,15.45%
414,0,104,15.45%
415,0,104,15.45%
416,0,104,15.45%
417,0,104,15.45%
418,0,104,15.45%
419,1,105,15.6%
420,0,105,15.6%
421,1,106,15.75%
422,1,107,15.9%
423,1,108,16.05%
424,0,108,16.05%
425,0,108,16.05%
426,0,108,16.05%
427,2,110,16.34%
428,0,110,16.34%
429,0,110,16.34%
430,0,110,16.34%
431,0,110,16.34%
432,0,110,16.34%
433,0,110,16.34%
434,2,112,16.64%
435,1,113,16.79%
436,0,113,16.79%
437,0,113,16.79%
438,0,113,16.79%
439,0,113,16.79%
440,0,113,16.79%
441,0,113,16.79%
442,0,113,16.79%
443,0,113,16.79%
444,1,114,16.94%
445,1,115,17.09%
446,0,115,17.09%
447,0,115,17.09%
448,0,115,17.09%
449,0,115,17.09%
450,0,115,17.09%
451,0,115,17.09%
452,0,115,17.09%
453,0,115,17.09%
454,0,115,17.09%
455,0,115,17.09%
456,1,116,17.24%
457,0,116,17.24%
458,0,116,17.24%
459,0,116,17.24%
460,0,116,17.24%
461,0,116,17.24%
462,3,119,17.68%
463,0,119,17.68%
464,0,119,17.68%
465,0,119,17.68%
466,0,119,17.68%
467,0,119,17.68%
468,0,119,17.68%
469,0,119,17.68%
470,1,120,17.83%
471,0,120,17.83%
472,0,120,17.83%
473,0,120,17.83%
474,0,120,17.83%
475,0,120,17.83%
476,0,120,17.83%
477,0,120,17.83%
478,0,120,17.83%
479,0,120,17.83%
480,0,120,17.83%
481,0,120,17.83%
482,0,120,17.83%
483,0,120,17.83%
484,0,120,17.83%
485,0,120,17.83%
486,0,120,17.83%
487,0,120,17.83%
488,0,120,17.83%
489,1,121,17.98%
490,1,122,18.13%
491,0,122,18.13%
492,0,122,18.13%
493,0,122,18.13%
494,0,122,18.13%
495,0,122,18.13%
496,0,122,18.13%
497,0,122,18.13%
498,1,123,18.28%
499,0,123,18.28%
500,0,123,18.28%
501,0,123,18.28%
502,0,123,18.28%
503,1,124,18.42%
504,0,124,18.42%
505,0,124,18.42%
506,0,124,18.42%
507,0,124,18.42%
508,1,125,18.57%
509,0,125,18.57%
510,2,127,18.87%
511,0,127,18.87%
512,0,127,18.87%
513,0,127,18.87%
514,0,127,18.87%
515,0,127,18.87%
516,0,127,18.87%
517,0,127,18.87%
518,1,128,19.02%
519,545,673,100.0%
