Length, Count, Sum (Counts <= Length), Percent of Nonzero Data, Nonzero Data Count = 854, Zero Data Count = 990
1,1,1,0.12%
2,0,1,0.12%
3,1,2,0.23%
4,0,2,0.23%
5,1,3,0.35%
6,1,4,0.47%
7,0,4,0.47%
8,0,4,0.47%
9,0,4,0.47%
10,0,4,0.47%
11,0,4,0.47%
12,0,4,0.47%
13,0,4,0.47%
14,0,4,0.47%
15,0,4,0.47%
16,0,4,0.47%
17,0,4,0.47%
18,0,4,0.47%
19,0,4,0.47%
20,0,4,0.47%
21,0,4,0.47%
22,0,4,0.47%
23,0,4,0.47%
24,0,4,0.47%
25,0,4,0.47%
26,0,4,0.47%
27,0,4,0.47%
28,1,5,0.59%
29,0,5,0.59%
30,0,5,0.59%
31,0,5,0.59%
32,0,5,0.59%
33,0,5,0.59%
34,0,5,0.59%
35,1,6,0.7%
36,0,6,0.7%
37,0,6,0.7%
38,0,6,0.7%
39,1,7,0.82%
40,0,7,0.82%
41,0,7,0.82%
42,0,7,0.82%
43,0,7,0.82%
44,0,7,0.82%
45,0,7,0.82%
46,0,7,0.82%
47,0,7,0.82%
48,0,7,0.82%
49,0,7,0.82%
50,0,7,0.82%
51,0,7,0.82%
52,2,9,1.05%
53,0,9,1.05%
54,0,9,1.05%
55,0,9,1.05%
56,1,10,1.17%
57,0,10,1.17%
58,0,10,1.17%
59,0,10,1.17%
60,0,10,1.17%
61,0,10,1.17%
62,0,10,1.17%
63,1,11,1.29%
64,1,12,1.41%
65,0,12,1.41%
66,0,12,1.41%
67,0,12,1.41%
68,0,12,1.41%
69,1,13,1.52%
70,0,13,1.52%
71,0,13,1.52%
72,0,13,1.52%
73,0,13,1.52%
74,0,13,1.52%
75,0,13,1.52%
76,0,13,1.52%
77,0,13,1.52%
78,0,13,1.52%
79,1,14,1.64%
80,0,14,1.64%
81,1,15,1.76%
82,0,15,1.76%
83,0,15,1.76%
84,0,15,1.76%
85,1,16,1.87%
86,1,17,1.99%
87,0,17,1.99%
88,0,17,1.99%
89,0,17,1.99%
90,0,17,1.99%
91,0,17,1.99%
92,1,18,2.11%
93,0,18,2.11%
94,0,18,2.11%
95,0,18,2.11%
96,1,19,2.22%
97,0,19,2.22%
98,0,19,2.22%
99,0,19,2.22%
100,0,19,2.22%
101,0,19,2.22%
102,0,19,2.22%
103,0,19,2.22%
104,0,19,2.22%
105,0,19,2.22%
106,1,20,2.34%
107,0,20,2.34%
108,0,20,2.34%
109,0,20,2.34%
110,1,21,2.46%
111,0,21,2.46%
112,0,21,2.46%
113,0,21,2.46%
114,0,21,2.46%
115,2,23,2.69%
116,0,23,2.69%
117,0,23,2.69%
118,0,23,2.69%
119,0,23,2.69%
120,0,23,2.69%
121,2,25,2.93%
122,0,25,2.93%
123,0,25,2.93%
124,0,25,2.93%
125,1,26,3.04%
126,0,26,3.04%
127,0,26,3.04%
128,1,27,3.16%
129,1,28,3.28%
130,0,28,3.28%
131,0,28,3.28%
132,0,28,3.28%
133,0,28,3.28%
134,0,28,3.28%
135,0,28,3.28%
136,0,28,3.28%
137,0,28,3.28%
138,0,28,3.28%
139,0,28,3.28%
140,0,28,3.28%
141,0,28,3.28%
142,0,28,3.28%
143,0,28,3.28%
144,0,28,3.28%
145,2,30,3.51%
146,0,30,3.51%
147,1,31,3.63%
148,0,31,3.63%
149,0,31,3.63%
150,1,32,3.75%
151,1,33,3.86%
152,0,33,3.86%
153,0,33,3.86%
154,0,33,3.86%
155,1,34,3.98%
156,0,34,3.98%
157,0,34,3.98%
158,0,34,3.98%
159,1,35,4.1%
160,1,36,4.22%
161,0,36,4.22%
162,0,36,4.22%
163,0,36,4.22%
164,0,36,4.22%
165,0,36,4.22%
166,0,36,4.22%
167,0,36,4.22%
168,0,36,4.22%
169,0,36,4.22%
170,1,37,4.33%
171,0,37,4.33%
172,0,37,4.33%
173,0,37,4.33%
174,0,37,4.33%
175,0,37,4.33%
176,1,38,4.45%
177,0,38,4.45%
178,0,38,4.45%
179,0,38,4.45%
180,0,38,4.45%
181,1,39,4.57%
182,0,39,4.57%
183,0,39,4.57%
184,2,41,4.8%
185,0,41,4.8%
186,0,41,4.8%
187,0,41,4.8%
188,0,41,4.8%
189,0,41,4.8%
190,0,41,4.8%
191,0,41,4.8%
192,0,41,4.8%
193,0,41,4.8%
194,0,41,4.8%
195,0,41,4.8%
196,0,41,4.8%
197,0,41,4.8%
198,0,41,4.8%
199,0,41,4.8%
200,1,42,4.92%
201,1,43,5.04%
202,1,44,5.15%
203,0,44,5.15%
204,0,44,5.15%
205,0,44,5.15%
206,0,44,5.15%
207,1,45,5.27%
208,0,45,5.27%
209,0,45,5.27%
210,0,45,5.27%
211,0,45,5.27%
212,1,46,5.39%
213,1,47,5.5%
214,0,47,5.5%
215,1,48,5.62%
216,0,48,5.62%
217,0,48,5.62%
218,0,48,5.62%
219,0,48,5.62%
220,0,48,5.62%
221,0,48,5.62%
222,0,48,5.62%
223,0,48,5.62%
224,0,48,5.62%
225,0,48,5.62%
226,0,48,5.62%
227,0,48,5.62%
228,0,48,5.62%
229,0,48,5.62%
230,0,48,5.62%
231,1,49,5.74%
232,0,49,5.74%
233,0,49,5.74%
234,0,49,5.74%
235,0,49,5.74%
236,1,50,5.85%
237,0,50,5.85%
238,0,50,5.85%
239,0,50,5.85%
240,0,50,5.85%
241,0,50,5.85%
242,1,51,5.97%
243,1,52,6.09%
244,1,53,6.21%
245,0,53,6.21%
246,0,53,6.21%
247,0,53,6.21%
248,2,55,6.44%
249,0,55,6.44%
250,0,55,6.44%
251,0,55,6.44%
252,1,56,6.56%
253,0,56,6.56%
254,0,56,6.56%
255,1,57,6.67%
256,0,57,6.67%
257,0,57,6.67%
258,0,57,6.67%
259,1,58,6.79%
260,0,58,6.79%
261,0,58,6.79%
262,0,58,6.79%
263,2,60,7.03%
264,0,60,7.03%
265,1,61,7.14%
266,0,61,7.14%
267,0,61,7.14%
268,0,61,7.14%
269,0,61,7.14%
270,4,65,7.61%
271,0,65,7.61%
272,0,65,7.61%
273,0,65,7.61%
274,1,66,7.73%
275,0,66,7.73%
276,0,66,7.73%
277,0,66,7.73%
278,0,66,7.73%
279,0,66,7.73%
280,1,67,7.85%
281,0,67,7.85%
282,0,67,7.85%
283,0,67,7.85%
284,0,67,7.85%
285,0,67,7.85%
286,0,67,7.85%
287,0,67,7.85%
288,1,68,7.96%
289,0,68,7.96%
290,0,68,7.96%
291,0,68,7.96%
292,0,68,7.96%
293,0,68,7.96%
294,0,68,7.96%
295,0,68,7.96%
296,0,68,7.96%
297,0,68,7.96%
298,0,68,7.96%
299,0,68,7.96%
300,1,69,8.08%
301,0,69,8.08%
302,0,69,8.08%
303,2,71,8.31%
304,0,71,8.31%
305,0,71,8.31%
306,0,71,8.31%
307,0,71,8.31%
308,0,71,8.31%
309,0,71,8.31%
310,0,71,8.31%
311,2,73,8.55%
312,0,73,8.55%
313,0,73,8.55%
314,0,73,8.55%
315,0,73,8.55%
316,0,73,8.55%
317,0,73,8.55%
318,0,73,8.55%
319,0,73,8.55%
320,0,73,8.55%
321,0,73,8.55%
322,0,73,8.55%
323,0,73,8.55%
324,0,73,8.55%
325,2,75,8.78%
326,0,75,8.78%
327,0,75,8.78%
328,0,75,8.78%
329,0,75,8.78%
330,0,75,8.78%
331,0,75,8.78%
332,0,75,8.78%
333,0,75,8.78%
334,0,75,8.78%
335,0,75,8.78%
336,0,75,8.78%
337,0,75,8.78%
338,0,75,8.78%
339,0,75,8.78%
340,0,75,8.78%
341,0,75,8.78%
342,0,75,8.78%
343,1,76,8.9%
344,1,77,9.02%
345,0,77,9.02%
346,0,77,9.02%
347,0,77,9.02%
348,0,77,9.02%
349,1,78,9.13%
350,1,79,9.25%
351,15,94,11.01%
352,10,104,12.18%
353,1,105,12.3%
354,0,105,12.3%
355,0,105,12.3%
356,0,105,12.3%
357,0,105,12.3%
358,5,110,12.88%
359,0,110,12.88%
360,3,113,13.23%
361,1,114,13.35%
362,0,114,13.35%
363,2,116,13.58%
364,0,116,13.58%
365,0,116,13.58%
366,1,117,13.7%
367,0,117,13.7%
368,0,117,13.7%
369,0,117,13.7%
370,0,117,13.7%
371,0,117,13.7%
372,2,119,13.93%
373,0,119,13.93%
374,0,119,13.93%
375,0,119,13.93%
376,1,120,14.05%
377,0,120,14.05%
378,1,121,14.17%
379,0,121,14.17%
380,0,121,14.17%
381,0,121,14.17%
382,1,122,14.29%
383,0,122,14.29%
384,0,122,14.29%
385,0,122,14.29%
386,0,122,14.29%
387,0,122,14.29%
388,0,122,14.29%
389,0,122,14.29%
390,0,122,14.29%
391,1,123,14.4%
392,0,123,14.4%
393,1,124,14.52%
394,1,125,14.64%
395,0,125,14.64%
396,0,125,14.64%
397,1,126,14.75%
398,0,126,14.75%
399,0,126,14.75%
400,0,126,14.75%
401,0,126,14.75%
402,0,126,14.75%
403,0,126,14.75%
404,0,126,14.75%
405,0,126,14.75%
406,2,128,14.99%
407,1,129,15.11%
408,0,129,15.11%
409,1,130,15.22%
410,0,130,15.22%
411,1,131,15.34%
412,1,132,15.46%
413,1,133,15.57%
414,0,133,15.57%
415,0,133,15.57%
416,0,133,15.57%
417,0,133,15.57%
418,0,133,15.57%
419,0,133,15.57%
420,0,133,15.57%
421,0,133,15.57%
422,2,135,15.81%
423,0,135,15.81%
424,0,135,15.81%
425,0,135,15.81%
426,0,135,15.81%
427,0,135,15.81%
428,0,135,15.81%
429,0,135,15.81%
430,0,135,15.81%
431,0,135,15.81%
432,0,135,15.81%
433,0,135,15.81%
434,1,136,15.93%
435,2,138,16.16%
436,0,138,16.16%
437,0,138,16.16%
438,0,138,16.16%
439,0,138,16.16%
440,0,138,16.16%
441,2,140,16.39%
442,0,140,16.39%
443,0,140,16.39%
444,0,140,16.39%
445,0,140,16.39%
446,1,141,16.51%
447,0,141,16.51%
448,1,142,16.63%
449,0,142,16.63%
450,0,142,16.63%
451,0,142,16.63%
452,0,142,16.63%
453,1,143,16.74%
454,0,143,16.74%
455,0,143,16.74%
456,0,143,16.74%
457,0,143,16.74%
458,0,143,16.74%
459,1,144,16.86%
460,0,144,16.86%
461,0,144,16.86%
462,0,144,16.86%
463,0,144,16.86%
464,0,144,16.86%
465,1,145,16.98%
466,0,145,16.98%
467,1,146,17.1%
468,0,146,17.1%
469,0,146,17.1%
470,0,146,17.1%
471,0,146,17.1%
472,0,146,17.1%
473,0,146,17.1%
474,0,146,17.1%
475,0,146,17.1%
476,0,146,17.1%
477,0,146,17.1%
478,0,146,17.1%
479,1,147,17.21%
480,0,147,17.21%
481,0,147,17.21%
482,1,148,17.33%
483,0,148,17.33%
484,0,148,17.33%
485,0,148,17.33%
486,1,149,17.45%
487,1,150,17.56%
488,0,150,17.56%
489,0,150,17.56%
490,1,151,17.68%
491,0,151,17.68%
492,0,151,17.68%
493,0,151,17.68%
494,0,151,17.68%
495,1,152,17.8%
496,1,153,17.92%
497,0,153,17.92%
498,0,153,17.92%
499,0,153,17.92%
500,1,154,18.03%
501,2,156,18.27%
502,0,156,18.27%
503,1,157,18.38%
504,0,157,18.38%
505,0,157,18.38%
506,0,157,18.38%
507,0,157,18.38%
508,0,157,18.38%
509,0,157,18.38%
510,0,157,18.38%
511,0,157,18.38%
512,0,157,18.38%
513,0,157,18.38%
514,0,157,18.38%
515,0,157,18.38%
516,1,158,18.5%
517,0,158,18.5%
518,0,158,18.5%
519,1,159,18.62%
520,0,159,18.62%
521,1,160,18.74%
522,0,160,18.74%
523,0,160,18.74%
524,0,160,18.74%
525,0,160,18.74%
526,0,160,18.74%
527,0,160,18.74%
528,1,161,18.85%
529,1,162,18.97%
530,0,162,18.97%
531,0,162,18.97%
532,0,162,18.97%
533,0,162,18.97%
534,0,162,18.97%
535,0,162,18.97%
536,0,162,18.97%
537,0,162,18.97%
538,0,162,18.97%
539,1,163,19.09%
540,0,163,19.09%
541,0,163,19.09%
542,0,163,19.09%
543,0,163,19.09%
544,0,163,19.09%
545,0,163,19.09%
546,1,164,19.2%
547,0,164,19.2%
548,0,164,19.2%
549,0,164,19.2%
550,0,164,19.2%
551,0,164,19.2%
552,1,165,19.32%
553,0,165,19.32%
554,0,165,19.32%
555,0,165,19.32%
556,0,165,19.32%
557,0,165,19.32%
558,0,165,19.32%
559,0,165,19.32%
560,0,165,19.32%
561,0,165,19.32%
562,0,165,19.32%
563,0,165,19.32%
564,1,166,19.44%
565,0,166,19.44%
566,0,166,19.44%
567,1,167,19.56%
568,0,167,19.56%
569,0,167,19.56%
570,0,167,19.56%
571,1,168,19.67%
572,1,169,19.79%
573,2,171,20.02%
574,0,171,20.02%
575,2,173,20.26%
576,8,181,21.19%
577,0,181,21.19%
578,0,181,21.19%
579,2,183,21.43%
580,0,183,21.43%
581,0,183,21.43%
582,0,183,21.43%
583,0,183,21.43%
584,0,183,21.43%
585,0,183,21.43%
586,0,183,21.43%
587,1,184,21.55%
588,0,184,21.55%
589,0,184,21.55%
590,0,184,21.55%
591,1,185,21.66%
592,0,185,21.66%
593,0,185,21.66%
594,0,185,21.66%
595,0,185,21.66%
596,0,185,21.66%
597,0,185,21.66%
598,1,186,21.78%
599,1,187,21.9%
600,0,187,21.9%
601,0,187,21.9%
602,0,187,21.9%
603,1,188,22.01%
604,1,189,22.13%
605,0,189,22.13%
606,0,189,22.13%
607,0,189,22.13%
608,0,189,22.13%
609,0,189,22.13%
610,1,190,22.25%
611,0,190,22.25%
612,0,190,22.25%
613,0,190,22.25%
614,0,190,22.25%
615,0,190,22.25%
616,0,190,22.25%
617,0,190,22.25%
618,0,190,22.25%
619,0,190,22.25%
620,0,190,22.25%
621,0,190,22.25%
622,1,191,22.37%
623,0,191,22.37%
624,0,191,22.37%
625,0,191,22.37%
626,1,192,22.48%
627,0,192,22.48%
628,0,192,22.48%
629,0,192,22.48%
630,1,193,22.6%
631,0,193,22.6%
632,1,194,22.72%
633,0,194,22.72%
634,0,194,22.72%
635,1,195,22.83%
636,0,195,22.83%
637,0,195,22.83%
638,0,195,22.83%
639,0,195,22.83%
640,0,195,22.83%
641,0,195,22.83%
642,0,195,22.83%
643,0,195,22.83%
644,1,196,22.95%
645,0,196,22.95%
646,0,196,22.95%
647,1,197,23.07%
648,0,197,23.07%
649,1,198,23.19%
650,0,198,23.19%
651,0,198,23.19%
652,0,198,23.19%
653,1,199,23.3%
654,0,199,23.3%
655,0,199,23.3%
656,0,199,23.3%
657,0,199,23.3%
658,0,199,23.3%
659,0,199,23.3%
660,0,199,23.3%
661,0,199,23.3%
662,0,199,23.3%
663,0,199,23.3%
664,0,199,23.3%
665,0,199,23.3%
666,0,199,23.3%
667,0,199,23.3%
668,0,199,23.3%
669,0,199,23.3%
670,0,199,23.3%
671,0,199,23.3%
672,0,199,23.3%
673,0,199,23.3%
674,0,199,23.3%
675,0,199,23.3%
676,0,199,23.3%
677,0,199,23.3%
678,0,199,23.3%
679,0,199,23.3%
680,0,199,23.3%
681,0,199,23.3%
682,0,199,23.3%
683,1,200,23.42%
684,0,200,23.42%
685,0,200,23.42%
686,0,200,23.42%
687,0,200,23.42%
688,0,200,23.42%
689,0,200,23.42%
690,0,200,23.42%
691,0,200,23.42%
692,0,200,23.42%
693,5,205,24.0%
694,1,206,24.12%
695,1,207,24.24%
696,0,207,24.24%
697,0,207,24.24%
698,0,207,24.24%
699,0,207,24.24%
700,0,207,24.24%
701,0,207,24.24%
702,0,207,24.24%
703,0,207,24.24%
704,2,209,24.47%
705,1,210,24.59%
706,0,210,24.59%
707,0,210,24.59%
708,1,211,24.71%
709,0,211,24.71%
710,0,211,24.71%
711,0,211,24.71%
712,0,211,24.71%
713,0,211,24.71%
714,0,211,24.71%
715,0,211,24.71%
716,0,211,24.71%
717,0,211,24.71%
718,0,211,24.71%
719,1,212,24.82%
720,0,212,24.82%
721,0,212,24.82%
722,0,212,24.82%
723,0,212,24.82%
724,0,212,24.82%
725,1,213,24.94%
726,0,213,24.94%
727,0,213,24.94%
728,0,213,24.94%
729,2,215,25.18%
730,0,215,25.18%
731,0,215,25.18%
732,0,215,25.18%
733,1,216,25.29%
734,0,216,25.29%
735,1,217,25.41%
736,0,217,25.41%
737,0,217,25.41%
738,0,217,25.41%
739,1,218,25.53%
740,0,218,25.53%
741,0,218,25.53%
742,1,219,25.64%
743,0,219,25.64%
744,1,220,25.76%
745,0,220,25.76%
746,0,220,25.76%
747,0,220,25.76%
748,0,220,25.76%
749,0,220,25.76%
750,0,220,25.76%
751,0,220,25.76%
752,0,220,25.76%
753,1,221,25.88%
754,1,222,26.0%
755,0,222,26.0%
756,0,222,26.0%
757,0,222,26.0%
758,0,222,26.0%
759,0,222,26.0%
760,0,222,26.0%
761,0,222,26.0%
762,1,223,26.11%
763,0,223,26.11%
764,0,223,26.11%
765,0,223,26.11%
766,0,223,26.11%
767,0,223,26.11%
768,0,223,26.11%
769,1,224,26.23%
770,0,224,26.23%
771,0,224,26.23%
772,0,224,26.23%
773,0,224,26.23%
774,1,225,26.35%
775,0,225,26.35%
776,0,225,26.35%
777,0,225,26.35%
778,1,226,26.46%
779,0,226,26.46%
780,0,226,26.46%
781,0,226,26.46%
782,0,226,26.46%
783,0,226,26.46%
784,0,226,26.46%
785,1,227,26.58%
786,0,227,26.58%
787,0,227,26.58%
788,0,227,26.58%
789,0,227,26.58%
790,0,227,26.58%
791,0,227,26.58%
792,1,228,26.7%
793,0,228,26.7%
794,0,228,26.7%
795,2,230,26.93%
796,0,230,26.93%
797,0,230,26.93%
798,0,230,26.93%
799,0,230,26.93%
800,0,230,26.93%
801,0,230,26.93%
802,0,230,26.93%
803,0,230,26.93%
804,2,232,27.17%
805,0,232,27.17%
806,0,232,27.17%
807,1,233,27.28%
808,0,233,27.28%
809,0,233,27.28%
810,0,233,27.28%
811,0,233,27.28%
812,0,233,27.28%
813,0,233,27.28%
814,0,233,27.28%
815,0,233,27.28%
816,2,235,27.52%
817,0,235,27.52%
818,1,236,27.63%
819,0,236,27.63%
820,0,236,27.63%
821,0,236,27.63%
822,0,236,27.63%
823,0,236,27.63%
824,0,236,27.63%
825,0,236,27.63%
826,0,236,27.63%
827,0,236,27.63%
828,0,236,27.63%
829,9,245,28.69%
830,0,245,28.69%
831,1,246,28.81%
832,0,246,28.81%
833,0,246,28.81%
834,0,246,28.81%
835,0,246,28.81%
836,0,246,28.81%
837,1,247,28.92%
838,0,247,28.92%
839,0,247,28.92%
840,1,248,29.04%
841,0,248,29.04%
842,0,248,29.04%
843,0,248,29.04%
844,0,248,29.04%
845,0,248,29.04%
846,1,249,29.16%
847,0,249,29.16%
848,0,249,29.16%
849,0,249,29.16%
850,0,249,29.16%
851,0,249,29.16%
852,0,249,29.16%
853,0,249,29.16%
854,0,249,29.16%
855,0,249,29.16%
856,1,250,29.27%
857,0,250,29.27%
858,0,250,29.27%
859,0,250,29.27%
860,0,250,29.27%
861,1,251,29.39%
862,0,251,29.39%
863,0,251,29.39%
864,0,251,29.39%
865,0,251,29.39%
866,0,251,29.39%
867,0,251,29.39%
868,0,251,29.39%
869,0,251,29.39%
870,0,251,29.39%
871,1,252,29.51%
872,0,252,29.51%
873,0,252,29.51%
874,0,252,29.51%
875,0,252,29.51%
876,1,253,29.63%
877,0,253,29.63%
878,0,253,29.63%
879,0,253,29.63%
880,0,253,29.63%
881,1,254,29.74%
882,0,254,29.74%
883,0,254,29.74%
884,1,255,29.86%
885,0,255,29.86%
886,0,255,29.86%
887,0,255,29.86%
888,0,255,29.86%
889,0,255,29.86%
890,0,255,29.86%
891,0,255,29.86%
892,0,255,29.86%
893,0,255,29.86%
894,0,255,29.86%
895,0,255,29.86%
896,1,256,29.98%
897,0,256,29.98%
898,0,256,29.98%
899,0,256,29.98%
900,1,257,30.09%
901,1,258,30.21%
902,0,258,30.21%
903,0,258,30.21%
904,1,259,30.33%
905,0,259,30.33%
906,1,260,30.44%
907,1,261,30.56%
908,1,262,30.68%
909,1,263,30.8%
910,0,263,30.8%
911,0,263,30.8%
912,0,263,30.8%
913,0,263,30.8%
914,1,264,30.91%
915,0,264,30.91%
916,0,264,30.91%
917,0,264,30.91%
918,0,264,30.91%
919,0,264,30.91%
920,0,264,30.91%
921,0,264,30.91%
922,0,264,30.91%
923,0,264,30.91%
924,0,264,30.91%
925,0,264,30.91%
926,0,264,30.91%
927,1,265,31.03%
928,1,266,31.15%
929,0,266,31.15%
930,0,266,31.15%
931,1,267,31.26%
932,0,267,31.26%
933,0,267,31.26%
934,0,267,31.26%
935,1,268,31.38%
936,0,268,31.38%
937,0,268,31.38%
938,0,268,31.38%
939,0,268,31.38%
940,0,268,31.38%
941,0,268,31.38%
942,1,269,31.5%
943,0,269,31.5%
944,0,269,31.5%
945,0,269,31.5%
946,1,270,31.62%
947,0,270,31.62%
948,1,271,31.73%
949,0,271,31.73%
950,0,271,31.73%
951,0,271,31.73%
952,0,271,31.73%
953,1,272,31.85%
954,0,272,31.85%
955,0,272,31.85%
956,0,272,31.85%
957,0,272,31.85%
958,1,273,31.97%
959,0,273,31.97%
960,1,274,32.08%
961,0,274,32.08%
962,0,274,32.08%
963,0,274,32.08%
964,1,275,32.2%
965,0,275,32.2%
966,0,275,32.2%
967,1,276,32.32%
968,0,276,32.32%
969,0,276,32.32%
970,0,276,32.32%
971,0,276,32.32%
972,0,276,32.32%
973,1,277,32.44%
974,0,277,32.44%
975,0,277,32.44%
976,0,277,32.44%
977,0,277,32.44%
978,0,277,32.44%
979,1,278,32.55%
980,0,278,32.55%
981,0,278,32.55%
982,0,278,32.55%
983,0,278,32.55%
984,0,278,32.55%
985,1,279,32.67%
986,0,279,32.67%
987,1,280,32.79%
988,0,280,32.79%
989,1,281,32.9%
990,0,281,32.9%
991,1,282,33.02%
992,0,282,33.02%
993,0,282,33.02%
994,1,283,33.14%
995,0,283,33.14%
996,0,283,33.14%
997,0,283,33.14%
998,1,284,33.26%
999,0,284,33.26%
1000,0,284,33.26%
1001,0,284,33.26%
1002,0,284,33.26%
1003,0,284,33.26%
1004,1,285,33.37%
1005,1,286,33.49%
1006,0,286,33.49%
1007,0,286,33.49%
1008,0,286,33.49%
1009,0,286,33.49%
1010,0,286,33.49%
1011,0,286,33.49%
1012,0,286,33.49%
1013,0,286,33.49%
1014,0,286,33.49%
1015,0,286,33.49%
1016,1,287,33.61%
1017,0,287,33.61%
1018,0,287,33.61%
1019,0,287,33.61%
1020,0,287,33.61%
1021,0,287,33.61%
1022,0,287,33.61%
1023,1,288,33.72%
1024,1,289,33.84%
1025,1,290,33.96%
1026,0,290,33.96%
1027,0,290,33.96%
1028,0,290,33.96%
1029,1,291,34.07%
1030,0,291,34.07%
1031,0,291,34.07%
1032,0,291,34.07%
1033,1,292,34.19%
1034,0,292,34.19%
1035,0,292,34.19%
1036,0,292,34.19%
1037,0,292,34.19%
1038,0,292,34.19%
1039,1,293,34.31%
1040,0,293,34.31%
1041,0,293,34.31%
1042,0,293,34.31%
1043,0,293,34.31%
1044,0,293,34.31%
1045,0,293,34.31%
1046,0,293,34.31%
1047,0,293,34.31%
1048,0,293,34.31%
1049,0,293,34.31%
1050,0,293,34.31%
1051,0,293,34.31%
1052,0,293,34.31%
1053,0,293,34.31%
1054,0,293,34.31%
1055,0,293,34.31%
1056,0,293,34.31%
1057,0,293,34.31%
1058,1,294,34.43%
1059,0,294,34.43%
1060,0,294,34.43%
1061,0,294,34.43%
1062,1,295,34.54%
1063,0,295,34.54%
1064,0,295,34.54%
1065,0,295,34.54%
1066,0,295,34.54%
1067,0,295,34.54%
1068,1,296,34.66%
1069,0,296,34.66%
1070,0,296,34.66%
1071,0,296,34.66%
1072,1,297,34.78%
1073,0,297,34.78%
1074,0,297,34.78%
1075,0,297,34.78%
1076,4,301,35.25%
1077,0,301,35.25%
1078,0,301,35.25%
1079,0,301,35.25%
1080,0,301,35.25%
1081,0,301,35.25%
1082,0,301,35.25%
1083,1,302,35.36%
1084,0,302,35.36%
1085,0,302,35.36%
1086,0,302,35.36%
1087,1,303,35.48%
1088,0,303,35.48%
1089,0,303,35.48%
1090,0,303,35.48%
1091,1,304,35.6%
1092,0,304,35.6%
1093,0,304,35.6%
1094,1,305,35.71%
1095,0,305,35.71%
1096,1,306,35.83%
1097,0,306,35.83%
1098,0,306,35.83%
1099,0,306,35.83%
1100,1,307,35.95%
1101,1,308,36.07%
1102,1,309,36.18%
1103,1,310,36.3%
1104,0,310,36.3%
1105,2,312,36.53%
1106,1,313,36.65%
1107,0,313,36.65%
1108,0,313,36.65%
1109,2,315,36.89%
1110,2,317,37.12%
1111,0,317,37.12%
1112,0,317,37.12%
1113,1,318,37.24%
1114,1,319,37.35%
1115,3,322,37.7%
1116,5,327,38.29%
1117,0,327,38.29%
1118,1,328,38.41%
1119,2,330,38.64%
1120,1,331,38.76%
1121,1,332,38.88%
1122,0,332,38.88%
1123,0,332,38.88%
1124,2,334,39.11%
1125,5,339,39.7%
1126,2,341,39.93%
1127,0,341,39.93%
1128,2,343,40.16%
1129,1,344,40.28%
1130,0,344,40.28%
1131,2,346,40.52%
1132,0,346,40.52%
1133,2,348,40.75%
1134,2,350,40.98%
1135,0,350,40.98%
1136,0,350,40.98%
1137,1,351,41.1%
1138,0,351,41.1%
1139,1,352,41.22%
1140,0,352,41.22%
1141,5,357,41.8%
1142,1,358,41.92%
1143,5,363,42.51%
1144,2,365,42.74%
1145,3,368,43.09%
1146,1,369,43.21%
1147,2,371,43.44%
1148,3,374,43.79%
1149,6,380,44.5%
1150,0,380,44.5%
1151,1,381,44.61%
1152,0,381,44.61%
1153,0,381,44.61%
1154,1,382,44.73%
1155,1,383,44.85%
1156,0,383,44.85%
1157,2,385,45.08%
1158,4,389,45.55%
1159,2,391,45.78%
1160,3,394,46.14%
1161,0,394,46.14%
1162,3,397,46.49%
1163,2,399,46.72%
1164,0,399,46.72%
1165,0,399,46.72%
1166,0,399,46.72%
1167,0,399,46.72%
1168,4,403,47.19%
1169,4,407,47.66%
1170,1,408,47.78%
1171,0,408,47.78%
1172,0,408,47.78%
1173,7,415,48.59%
1174,3,418,48.95%
1175,0,418,48.95%
1176,1,419,49.06%
1177,0,419,49.06%
1178,1,420,49.18%
1179,1,421,49.3%
1180,1,422,49.41%
1181,0,422,49.41%
1182,1,423,49.53%
1183,8,431,50.47%
1184,10,441,51.64%
1185,1,442,51.76%
1186,2,444,51.99%
1187,6,450,52.69%
1188,0,450,52.69%
1189,0,450,52.69%
1190,0,450,52.69%
1191,4,454,53.16%
1192,2,456,53.4%
1193,0,456,53.4%
1194,2,458,53.63%
1195,0,458,53.63%
1196,2,460,53.86%
1197,3,463,54.22%
1198,2,465,54.45%
1199,3,468,54.8%
1200,0,468,54.8%
1201,1,469,54.92%
1202,0,469,54.92%
1203,4,473,55.39%
1204,2,475,55.62%
1205,0,475,55.62%
1206,0,475,55.62%
1207,2,477,55.85%
1208,0,477,55.85%
1209,0,477,55.85%
1210,0,477,55.85%
1211,1,478,55.97%
1212,1,479,56.09%
1213,0,479,56.09%
1214,0,479,56.09%
1215,0,479,56.09%
1216,0,479,56.09%
1217,2,481,56.32%
1218,2,483,56.56%
1219,0,483,56.56%
1220,0,483,56.56%
1221,1,484,56.67%
1222,4,488,57.14%
1223,0,488,57.14%
1224,0,488,57.14%
1225,1,489,57.26%
1226,1,490,57.38%
1227,0,490,57.38%
1228,0,490,57.38%
1229,0,490,57.38%
1230,2,492,57.61%
1231,3,495,57.96%
1232,3,498,58.31%
1233,1,499,58.43%
1234,0,499,58.43%
1235,1,500,58.55%
1236,2,502,58.78%
1237,2,504,59.02%
1238,1,505,59.13%
1239,0,505,59.13%
1240,4,509,59.6%
1241,7,516,60.42%
1242,4,520,60.89%
1243,1,521,61.01%
1244,0,521,61.01%
1245,0,521,61.01%
1246,3,524,61.36%
1247,1,525,61.48%
1248,0,525,61.48%
1249,1,526,61.59%
1250,3,529,61.94%
1251,0,529,61.94%
1252,0,529,61.94%
1253,0,529,61.94%
1254,0,529,61.94%
1255,0,529,61.94%
1256,2,531,62.18%
1257,3,534,62.53%
1258,0,534,62.53%
1259,0,534,62.53%
1260,0,534,62.53%
1261,0,534,62.53%
1262,0,534,62.53%
1263,0,534,62.53%
1264,2,536,62.76%
1265,1,537,62.88%
1266,2,539,63.11%
1267,2,541,63.35%
1268,1,542,63.47%
1269,2,544,63.7%
1270,5,549,64.29%
1271,0,549,64.29%
1272,0,549,64.29%
1273,2,551,64.52%
1274,4,555,64.99%
1275,299,854,100.0%
