Length, Count, Sum (Counts <= Length), Percent of Nonzero Data, Nonzero Data Count = 834, Zero Data Count = 1010
1,1,1,0.12%
2,1,2,0.24%
3,2,4,0.48%
4,0,4,0.48%
5,0,4,0.48%
6,0,4,0.48%
7,0,4,0.48%
8,0,4,0.48%
9,0,4,0.48%
10,0,4,0.48%
11,1,5,0.6%
12,0,5,0.6%
13,0,5,0.6%
14,0,5,0.6%
15,0,5,0.6%
16,0,5,0.6%
17,0,5,0.6%
18,0,5,0.6%
19,0,5,0.6%
20,0,5,0.6%
21,0,5,0.6%
22,0,5,0.6%
23,0,5,0.6%
24,0,5,0.6%
25,0,5,0.6%
26,0,5,0.6%
27,0,5,0.6%
28,0,5,0.6%
29,0,5,0.6%
30,0,5,0.6%
31,0,5,0.6%
32,0,5,0.6%
33,0,5,0.6%
34,1,6,0.72%
35,0,6,0.72%
36,0,6,0.72%
37,0,6,0.72%
38,0,6,0.72%
39,0,6,0.72%
40,1,7,0.84%
41,0,7,0.84%
42,0,7,0.84%
43,0,7,0.84%
44,0,7,0.84%
45,0,7,0.84%
46,0,7,0.84%
47,0,7,0.84%
48,0,7,0.84%
49,0,7,0.84%
50,0,7,0.84%
51,0,7,0.84%
52,1,8,0.96%
53,0,8,0.96%
54,0,8,0.96%
55,0,8,0.96%
56,0,8,0.96%
57,0,8,0.96%
58,0,8,0.96%
59,0,8,0.96%
60,0,8,0.96%
61,0,8,0.96%
62,0,8,0.96%
63,1,9,1.08%
64,0,9,1.08%
65,0,9,1.08%
66,0,9,1.08%
67,0,9,1.08%
68,0,9,1.08%
69,1,10,1.2%
70,0,10,1.2%
71,0,10,1.2%
72,0,10,1.2%
73,0,10,1.2%
74,1,11,1.32%
75,2,13,1.56%
76,0,13,1.56%
77,0,13,1.56%
78,0,13,1.56%
79,0,13,1.56%
80,0,13,1.56%
81,0,13,1.56%
82,0,13,1.56%
83,0,13,1.56%
84,0,13,1.56%
85,1,14,1.68%
86,0,14,1.68%
87,0,14,1.68%
88,0,14,1.68%
89,0,14,1.68%
90,1,15,1.8%
91,0,15,1.8%
92,1,16,1.92%
93,2,18,2.16%
94,0,18,2.16%
95,0,18,2.16%
96,1,19,2.28%
97,1,20,2.4%
98,0,20,2.4%
99,0,20,2.4%
100,0,20,2.4%
101,0,20,2.4%
102,0,20,2.4%
103,0,20,2.4%
104,0,20,2.4%
105,0,20,2.4%
106,1,21,2.52%
107,1,22,2.64%
108,0,22,2.64%
109,0,22,2.64%
110,0,22,2.64%
111,1,23,2.76%
112,0,23,2.76%
113,0,23,2.76%
114,0,23,2.76%
115,1,24,2.88%
116,0,24,2.88%
117,0,24,2.88%
118,0,24,2.88%
119,0,24,2.88%
120,0,24,2.88%
121,0,24,2.88%
122,0,24,2.88%
123,0,24,2.88%
124,0,24,2.88%
125,1,25,3.0%
126,0,25,3.0%
127,1,26,3.12%
128,1,27,3.24%
129,8,35,4.2%
130,0,35,4.2%
131,0,35,4.2%
132,0,35,4.2%
133,0,35,4.2%
134,0,35,4.2%
135,0,35,4.2%
136,0,35,4.2%
137,0,35,4.2%
138,0,35,4.2%
139,0,35,4.2%
140,0,35,4.2%
141,0,35,4.2%
142,0,35,4.2%
143,0,35,4.2%
144,0,35,4.2%
145,1,36,4.32%
146,0,36,4.32%
147,0,36,4.32%
148,0,36,4.32%
149,0,36,4.32%
150,1,37,4.44%
151,1,38,4.56%
152,0,38,4.56%
153,0,38,4.56%
154,1,39,4.68%
155,0,39,4.68%
156,0,39,4.68%
157,0,39,4.68%
158,0,39,4.68%
159,0,39,4.68%
160,0,39,4.68%
161,0,39,4.68%
162,1,40,4.8%
163,0,40,4.8%
164,0,40,4.8%
165,0,40,4.8%
166,0,40,4.8%
167,0,40,4.8%
168,0,40,4.8%
169,0,40,4.8%
170,0,40,4.8%
171,1,41,4.92%
172,0,41,4.92%
173,0,41,4.92%
174,0,41,4.92%
175,0,41,4.92%
176,0,41,4.92%
177,0,41,4.92%
178,0,41,4.92%
179,0,41,4.92%
180,1,42,5.04%
181,0,42,5.04%
182,1,43,5.16%
183,0,43,5.16%
184,1,44,5.28%
185,0,44,5.28%
186,0,44,5.28%
187,0,44,5.28%
188,0,44,5.28%
189,0,44,5.28%
190,1,45,5.4%
191,0,45,5.4%
192,0,45,5.4%
193,0,45,5.4%
194,1,46,5.52%
195,1,47,5.64%
196,0,47,5.64%
197,0,47,5.64%
198,0,47,5.64%
199,0,47,5.64%
200,0,47,5.64%
201,0,47,5.64%
202,0,47,5.64%
203,1,48,5.76%
204,0,48,5.76%
205,1,49,5.88%
206,0,49,5.88%
207,0,49,5.88%
208,0,49,5.88%
209,0,49,5.88%
210,0,49,5.88%
211,0,49,5.88%
212,1,50,6.0%
213,0,50,6.0%
214,0,50,6.0%
215,0,50,6.0%
216,0,50,6.0%
217,0,50,6.0%
218,1,51,6.12%
219,0,51,6.12%
220,0,51,6.12%
221,1,52,6.24%
222,0,52,6.24%
223,0,52,6.24%
224,0,52,6.24%
225,0,52,6.24%
226,0,52,6.24%
227,0,52,6.24%
228,0,52,6.24%
229,0,52,6.24%
230,0,52,6.24%
231,1,53,6.35%
232,0,53,6.35%
233,0,53,6.35%
234,1,54,6.47%
235,0,54,6.47%
236,1,55,6.59%
237,0,55,6.59%
238,1,56,6.71%
239,0,56,6.71%
240,1,57,6.83%
241,0,57,6.83%
242,0,57,6.83%
243,1,58,6.95%
244,0,58,6.95%
245,0,58,6.95%
246,0,58,6.95%
247,0,58,6.95%
248,0,58,6.95%
249,1,59,7.07%
250,0,59,7.07%
251,0,59,7.07%
252,1,60,7.19%
253,0,60,7.19%
254,0,60,7.19%
255,16,76,9.11%
256,0,76,9.11%
257,0,76,9.11%
258,1,77,9.23%
259,1,78,9.35%
260,0,78,9.35%
261,1,79,9.47%
262,1,80,9.59%
263,0,80,9.59%
264,0,80,9.59%
265,2,82,9.83%
266,0,82,9.83%
267,1,83,9.95%
268,5,88,10.55%
269,0,88,10.55%
270,1,89,10.67%
271,0,89,10.67%
272,0,89,10.67%
273,0,89,10.67%
274,1,90,10.79%
275,1,91,10.91%
276,0,91,10.91%
277,0,91,10.91%
278,0,91,10.91%
279,0,91,10.91%
280,0,91,10.91%
281,0,91,10.91%
282,0,91,10.91%
283,0,91,10.91%
284,0,91,10.91%
285,0,91,10.91%
286,1,92,11.03%
287,0,92,11.03%
288,0,92,11.03%
289,1,93,11.15%
290,0,93,11.15%
291,0,93,11.15%
292,0,93,11.15%
293,0,93,11.15%
294,1,94,11.27%
295,1,95,11.39%
296,0,95,11.39%
297,15,110,13.19%
298,0,110,13.19%
299,2,112,13.43%
300,0,112,13.43%
301,0,112,13.43%
302,0,112,13.43%
303,0,112,13.43%
304,0,112,13.43%
305,0,112,13.43%
306,1,113,13.55%
307,0,113,13.55%
308,0,113,13.55%
309,0,113,13.55%
310,0,113,13.55%
311,0,113,13.55%
312,0,113,13.55%
313,1,114,13.67%
314,0,114,13.67%
315,0,114,13.67%
316,0,114,13.67%
317,0,114,13.67%
318,0,114,13.67%
319,0,114,13.67%
320,0,114,13.67%
321,0,114,13.67%
322,0,114,13.67%
323,0,114,13.67%
324,0,114,13.67%
325,0,114,13.67%
326,0,114,13.67%
327,1,115,13.79%
328,2,117,14.03%
329,0,117,14.03%
330,0,117,14.03%
331,0,117,14.03%
332,0,117,14.03%
333,0,117,14.03%
334,0,117,14.03%
335,0,117,14.03%
336,0,117,14.03%
337,0,117,14.03%
338,0,117,14.03%
339,1,118,14.15%
340,0,118,14.15%
341,0,118,14.15%
342,0,118,14.15%
343,2,120,14.39%
344,0,120,14.39%
345,0,120,14.39%
346,1,121,14.51%
347,1,122,14.63%
348,1,123,14.75%
349,0,123,14.75%
350,0,123,14.75%
351,0,123,14.75%
352,0,123,14.75%
353,0,123,14.75%
354,0,123,14.75%
355,0,123,14.75%
356,0,123,14.75%
357,0,123,14.75%
358,0,123,14.75%
359,0,123,14.75%
360,0,123,14.75%
361,1,124,14.87%
362,0,124,14.87%
363,0,124,14.87%
364,0,124,14.87%
365,0,124,14.87%
366,1,125,14.99%
367,1,126,15.11%
368,0,126,15.11%
369,1,127,15.23%
370,0,127,15.23%
371,0,127,15.23%
372,1,128,15.35%
373,0,128,15.35%
374,0,128,15.35%
375,0,128,15.35%
376,0,128,15.35%
377,0,128,15.35%
378,0,128,15.35%
379,1,129,15.47%
380,0,129,15.47%
381,0,129,15.47%
382,0,129,15.47%
383,1,130,15.59%
384,0,130,15.59%
385,1,131,15.71%
386,0,131,15.71%
387,0,131,15.71%
388,0,131,15.71%
389,0,131,15.71%
390,1,132,15.83%
391,0,132,15.83%
392,0,132,15.83%
393,0,132,15.83%
394,1,133,15.95%
395,0,133,15.95%
396,0,133,15.95%
397,2,135,16.19%
398,4,139,16.67%
399,1,140,16.79%
400,0,140,16.79%
401,0,140,16.79%
402,2,142,17.03%
403,0,142,17.03%
404,0,142,17.03%
405,0,142,17.03%
406,1,143,17.15%
407,0,143,17.15%
408,0,143,17.15%
409,0,143,17.15%
410,0,143,17.15%
411,0,143,17.15%
412,0,143,17.15%
413,0,143,17.15%
414,1,144,17.27%
415,0,144,17.27%
416,0,144,17.27%
417,0,144,17.27%
418,1,145,17.39%
419,0,145,17.39%
420,0,145,17.39%
421,0,145,17.39%
422,0,145,17.39%
423,0,145,17.39%
424,0,145,17.39%
425,1,146,17.51%
426,0,146,17.51%
427,0,146,17.51%
428,0,146,17.51%
429,0,146,17.51%
430,0,146,17.51%
431,0,146,17.51%
432,0,146,17.51%
433,0,146,17.51%
434,0,146,17.51%
435,1,147,17.63%
436,0,147,17.63%
437,1,148,17.75%
438,0,148,17.75%
439,0,148,17.75%
440,0,148,17.75%
441,0,148,17.75%
442,0,148,17.75%
443,0,148,17.75%
444,0,148,17.75%
445,0,148,17.75%
446,0,148,17.75%
447,0,148,17.75%
448,0,148,17.75%
449,1,149,17.87%
450,0,149,17.87%
451,0,149,17.87%
452,0,149,17.87%
453,0,149,17.87%
454,0,149,17.87%
455,0,149,17.87%
456,0,149,17.87%
457,1,150,17.99%
458,0,150,17.99%
459,0,150,17.99%
460,0,150,17.99%
461,0,150,17.99%
462,0,150,17.99%
463,0,150,17.99%
464,0,150,17.99%
465,0,150,17.99%
466,0,150,17.99%
467,0,150,17.99%
468,0,150,17.99%
469,0,150,17.99%
470,0,150,17.99%
471,1,151,18.11%
472,0,151,18.11%
473,0,151,18.11%
474,0,151,18.11%
475,0,151,18.11%
476,0,151,18.11%
477,0,151,18.11%
478,0,151,18.11%
479,0,151,18.11%
480,1,152,18.23%
481,0,152,18.23%
482,1,153,18.35%
483,0,153,18.35%
484,0,153,18.35%
485,0,153,18.35%
486,1,154,18.47%
487,0,154,18.47%
488,0,154,18.47%
489,0,154,18.47%
490,1,155,18.59%
491,0,155,18.59%
492,0,155,18.59%
493,0,155,18.59%
494,0,155,18.59%
495,0,155,18.59%
496,0,155,18.59%
497,1,156,18.71%
498,0,156,18.71%
499,1,157,18.82%
500,0,157,18.82%
501,0,157,18.82%
502,0,157,18.82%
503,0,157,18.82%
504,0,157,18.82%
505,0,157,18.82%
506,0,157,18.82%
507,0,157,18.82%
508,0,157,18.82%
509,0,157,18.82%
510,0,157,18.82%
511,0,157,18.82%
512,0,157,18.82%
513,0,157,18.82%
514,0,157,18.82%
515,0,157,18.82%
516,0,157,18.82%
517,0,157,18.82%
518,0,157,18.82%
519,1,158,18.94%
520,0,158,18.94%
521,1,159,19.06%
522,1,160,19.18%
523,1,161,19.3%
524,0,161,19.3%
525,0,161,19.3%
526,0,161,19.3%
527,0,161,19.3%
528,0,161,19.3%
529,0,161,19.3%
530,0,161,19.3%
531,1,162,19.42%
532,0,162,19.42%
533,0,162,19.42%
534,0,162,19.42%
535,2,164,19.66%
536,0,164,19.66%
537,0,164,19.66%
538,0,164,19.66%
539,8,172,20.62%
540,0,172,20.62%
541,0,172,20.62%
542,1,173,20.74%
543,0,173,20.74%
544,0,173,20.74%
545,0,173,20.74%
546,0,173,20.74%
547,1,174,20.86%
548,0,174,20.86%
549,0,174,20.86%
550,0,174,20.86%
551,0,174,20.86%
552,0,174,20.86%
553,0,174,20.86%
554,0,174,20.86%
555,0,174,20.86%
556,2,176,21.1%
557,0,176,21.1%
558,0,176,21.1%
559,0,176,21.1%
560,1,177,21.22%
561,0,177,21.22%
562,0,177,21.22%
563,0,177,21.22%
564,0,177,21.22%
565,0,177,21.22%
566,1,178,21.34%
567,1,179,21.46%
568,0,179,21.46%
569,2,181,21.7%
570,0,181,21.7%
571,0,181,21.7%
572,0,181,21.7%
573,5,186,22.3%
574,0,186,22.3%
575,0,186,22.3%
576,0,186,22.3%
577,0,186,22.3%
578,0,186,22.3%
579,0,186,22.3%
580,0,186,22.3%
581,0,186,22.3%
582,0,186,22.3%
583,1,187,22.42%
584,0,187,22.42%
585,0,187,22.42%
586,0,187,22.42%
587,1,188,22.54%
588,0,188,22.54%
589,1,189,22.66%
590,0,189,22.66%
591,0,189,22.66%
592,0,189,22.66%
593,0,189,22.66%
594,0,189,22.66%
595,0,189,22.66%
596,0,189,22.66%
597,0,189,22.66%
598,1,190,22.78%
599,0,190,22.78%
600,0,190,22.78%
601,0,190,22.78%
602,0,190,22.78%
603,1,191,22.9%
604,1,192,23.02%
605,0,192,23.02%
606,0,192,23.02%
607,0,192,23.02%
608,0,192,23.02%
609,0,192,23.02%
610,0,192,23.02%
611,0,192,23.02%
612,0,192,23.02%
613,0,192,23.02%
614,0,192,23.02%
615,0,192,23.02%
616,0,192,23.02%
617,0,192,23.02%
618,0,192,23.02%
619,0,192,23.02%
620,0,192,23.02%
621,0,192,23.02%
622,1,193,23.14%
623,0,193,23.14%
624,1,194,23.26%
625,0,194,23.26%
626,0,194,23.26%
627,0,194,23.26%
628,0,194,23.26%
629,0,194,23.26%
630,0,194,23.26%
631,1,195,23.38%
632,0,195,23.38%
633,0,195,23.38%
634,1,196,23.5%
635,1,197,23.62%
636,0,197,23.62%
637,0,197,23.62%
638,0,197,23.62%
639,0,197,23.62%
640,0,197,23.62%
641,0,197,23.62%
642,0,197,23.62%
643,0,197,23.62%
644,0,197,23.62%
645,1,198,23.74%
646,0,198,23.74%
647,1,199,23.86%
648,0,199,23.86%
649,0,199,23.86%
650,0,199,23.86%
651,0,199,23.86%
652,0,199,23.86%
653,1,200,23.98%
654,1,201,24.1%
655,0,201,24.1%
656,9,210,25.18%
657,0,210,25.18%
658,1,211,25.3%
659,0,211,25.3%
660,0,211,25.3%
661,0,211,25.3%
662,0,211,25.3%
663,0,211,25.3%
664,0,211,25.3%
665,0,211,25.3%
666,0,211,25.3%
667,0,211,25.3%
668,1,212,25.42%
669,0,212,25.42%
670,1,213,25.54%
671,0,213,25.54%
672,0,213,25.54%
673,1,214,25.66%
674,0,214,25.66%
675,0,214,25.66%
676,1,215,25.78%
677,0,215,25.78%
678,0,215,25.78%
679,0,215,25.78%
680,0,215,25.78%
681,0,215,25.78%
682,0,215,25.78%
683,0,215,25.78%
684,0,215,25.78%
685,0,215,25.78%
686,0,215,25.78%
687,0,215,25.78%
688,1,216,25.9%
689,0,216,25.9%
690,0,216,25.9%
691,0,216,25.9%
692,0,216,25.9%
693,0,216,25.9%
694,0,216,25.9%
695,0,216,25.9%
696,0,216,25.9%
697,0,216,25.9%
698,0,216,25.9%
699,0,216,25.9%
700,0,216,25.9%
701,0,216,25.9%
702,0,216,25.9%
703,0,216,25.9%
704,0,216,25.9%
705,0,216,25.9%
706,0,216,25.9%
707,0,216,25.9%
708,0,216,25.9%
709,0,216,25.9%
710,0,216,25.9%
711,0,216,25.9%
712,0,216,25.9%
713,0,216,25.9%
714,0,216,25.9%
715,0,216,25.9%
716,0,216,25.9%
717,0,216,25.9%
718,0,216,25.9%
719,1,217,26.02%
720,0,217,26.02%
721,0,217,26.02%
722,1,218,26.14%
723,0,218,26.14%
724,0,218,26.14%
725,0,218,26.14%
726,0,218,26.14%
727,1,219,26.26%
728,0,219,26.26%
729,0,219,26.26%
730,1,220,26.38%
731,0,220,26.38%
732,0,220,26.38%
733,0,220,26.38%
734,0,220,26.38%
735,3,223,26.74%
736,1,224,26.86%
737,0,224,26.86%
738,1,225,26.98%
739,0,225,26.98%
740,0,225,26.98%
741,1,226,27.1%
742,0,226,27.1%
743,0,226,27.1%
744,0,226,27.1%
745,0,226,27.1%
746,0,226,27.1%
747,0,226,27.1%
748,0,226,27.1%
749,0,226,27.1%
750,0,226,27.1%
751,0,226,27.1%
752,0,226,27.1%
753,0,226,27.1%
754,0,226,27.1%
755,0,226,27.1%
756,0,226,27.1%
757,0,226,27.1%
758,0,226,27.1%
759,0,226,27.1%
760,0,226,27.1%
761,0,226,27.1%
762,0,226,27.1%
763,0,226,27.1%
764,0,226,27.1%
765,0,226,27.1%
766,1,227,27.22%
767,0,227,27.22%
768,0,227,27.22%
769,1,228,27.34%
770,0,228,27.34%
771,0,228,27.34%
772,0,228,27.34%
773,1,229,27.46%
774,1,230,27.58%
775,1,231,27.7%
776,0,231,27.7%
777,0,231,27.7%
778,1,232,27.82%
779,0,232,27.82%
780,2,234,28.06%
781,0,234,28.06%
782,1,235,28.18%
783,0,235,28.18%
784,0,235,28.18%
785,1,236,28.3%
786,0,236,28.3%
787,1,237,28.42%
788,0,237,28.42%
789,0,237,28.42%
790,0,237,28.42%
791,0,237,28.42%
792,0,237,28.42%
793,0,237,28.42%
794,1,238,28.54%
795,2,240,28.78%
796,0,240,28.78%
797,0,240,28.78%
798,0,240,28.78%
799,2,242,29.02%
800,1,243,29.14%
801,0,243,29.14%
802,0,243,29.14%
803,0,243,29.14%
804,0,243,29.14%
805,0,243,29.14%
806,0,243,29.14%
807,0,243,29.14%
808,0,243,29.14%
809,0,243,29.14%
810,0,243,29.14%
811,0,243,29.14%
812,0,243,29.14%
813,0,243,29.14%
814,0,243,29.14%
815,0,243,29.14%
816,1,244,29.26%
817,0,244,29.26%
818,0,244,29.26%
819,0,244,29.26%
820,1,245,29.38%
821,0,245,29.38%
822,0,245,29.38%
823,1,246,29.5%
824,0,246,29.5%
825,0,246,29.5%
826,0,246,29.5%
827,0,246,29.5%
828,1,247,29.62%
829,0,247,29.62%
830,0,247,29.62%
831,1,248,29.74%
832,2,250,29.98%
833,0,250,29.98%
834,0,250,29.98%
835,0,250,29.98%
836,0,250,29.98%
837,1,251,30.1%
838,0,251,30.1%
839,2,253,30.34%
840,0,253,30.34%
841,0,253,30.34%
842,0,253,30.34%
843,2,255,30.58%
844,0,255,30.58%
845,0,255,30.58%
846,0,255,30.58%
847,0,255,30.58%
848,0,255,30.58%
849,0,255,30.58%
850,2,257,30.82%
851,1,258,30.94%
852,1,259,31.06%
853,0,259,31.06%
854,0,259,31.06%
855,0,259,31.06%
856,0,259,31.06%
857,0,259,31.06%
858,0,259,31.06%
859,0,259,31.06%
860,0,259,31.06%
861,0,259,31.06%
862,0,259,31.06%
863,0,259,31.06%
864,0,259,31.06%
865,0,259,31.06%
866,1,260,31.18%
867,0,260,31.18%
868,0,260,31.18%
869,0,260,31.18%
870,0,260,31.18%
871,0,260,31.18%
872,0,260,31.18%
873,0,260,31.18%
874,0,260,31.18%
875,0,260,31.18%
876,0,260,31.18%
877,0,260,31.18%
878,0,260,31.18%
879,0,260,31.18%
880,0,260,31.18%
881,2,262,31.41%
882,0,262,31.41%
883,1,263,31.53%
884,1,264,31.65%
885,1,265,31.77%
886,0,265,31.77%
887,0,265,31.77%
888,0,265,31.77%
889,1,266,31.89%
890,0,266,31.89%
891,0,266,31.89%
892,0,266,31.89%
893,0,266,31.89%
894,0,266,31.89%
895,0,266,31.89%
896,0,266,31.89%
897,0,266,31.89%
898,0,266,31.89%
899,0,266,31.89%
900,1,267,32.01%
901,0,267,32.01%
902,0,267,32.01%
903,0,267,32.01%
904,0,267,32.01%
905,0,267,32.01%
906,0,267,32.01%
907,1,268,32.13%
908,0,268,32.13%
909,0,268,32.13%
910,0,268,32.13%
911,0,268,32.13%
912,1,269,32.25%
913,0,269,32.25%
914,1,270,32.37%
915,0,270,32.37%
916,1,271,32.49%
917,0,271,32.49%
918,1,272,32.61%
919,0,272,32.61%
920,0,272,32.61%
921,0,272,32.61%
922,0,272,32.61%
923,0,272,32.61%
924,0,272,32.61%
925,0,272,32.61%
926,0,272,32.61%
927,1,273,32.73%
928,0,273,32.73%
929,0,273,32.73%
930,0,273,32.73%
931,0,273,32.73%
932,0,273,32.73%
933,0,273,32.73%
934,0,273,32.73%
935,0,273,32.73%
936,0,273,32.73%
937,0,273,32.73%
938,0,273,32.73%
939,0,273,32.73%
940,0,273,32.73%
941,0,273,32.73%
942,0,273,32.73%
943,0,273,32.73%
944,0,273,32.73%
945,0,273,32.73%
946,0,273,32.73%
947,0,273,32.73%
948,0,273,32.73%
949,0,273,32.73%
950,0,273,32.73%
951,1,274,32.85%
952,1,275,32.97%
953,0,275,32.97%
954,0,275,32.97%
955,1,276,33.09%
956,0,276,33.09%
957,0,276,33.09%
958,0,276,33.09%
959,0,276,33.09%
960,0,276,33.09%
961,0,276,33.09%
962,0,276,33.09%
963,0,276,33.09%
964,1,277,33.21%
965,0,277,33.21%
966,1,278,33.33%
967,0,278,33.33%
968,1,279,33.45%
969,0,279,33.45%
970,1,280,33.57%
971,0,280,33.57%
972,0,280,33.57%
973,0,280,33.57%
974,1,281,33.69%
975,0,281,33.69%
976,0,281,33.69%
977,0,281,33.69%
978,0,281,33.69%
979,0,281,33.69%
980,0,281,33.69%
981,0,281,33.69%
982,0,281,33.69%
983,0,281,33.69%
984,0,281,33.69%
985,0,281,33.69%
986,0,281,33.69%
987,1,282,33.81%
988,0,282,33.81%
989,0,282,33.81%
990,0,282,33.81%
991,0,282,33.81%
992,0,282,33.81%
993,0,282,33.81%
994,0,282,33.81%
995,0,282,33.81%
996,1,283,33.93%
997,0,283,33.93%
998,0,283,33.93%
999,0,283,33.93%
1000,0,283,33.93%
1001,0,283,33.93%
1002,0,283,33.93%
1003,0,283,33.93%
1004,1,284,34.05%
1005,0,284,34.05%
1006,1,285,34.17%
1007,0,285,34.17%
1008,0,285,34.17%
1009,0,285,34.17%
1010,2,287,34.41%
1011,0,287,34.41%
1012,0,287,34.41%
1013,0,287,34.41%
1014,0,287,34.41%
1015,0,287,34.41%
1016,1,288,34.53%
1017,2,290,34.77%
1018,0,290,34.77%
1019,0,290,34.77%
1020,0,290,34.77%
1021,0,290,34.77%
1022,0,290,34.77%
1023,0,290,34.77%
1024,0,290,34.77%
1025,0,290,34.77%
1026,0,290,34.77%
1027,1,291,34.89%
1028,1,292,35.01%
1029,0,292,35.01%
1030,0,292,35.01%
1031,0,292,35.01%
1032,0,292,35.01%
1033,0,292,35.01%
1034,0,292,35.01%
1035,0,292,35.01%
1036,0,292,35.01%
1037,0,292,35.01%
1038,0,292,35.01%
1039,1,293,35.13%
1040,0,293,35.13%
1041,0,293,35.13%
1042,0,293,35.13%
1043,0,293,35.13%
1044,0,293,35.13%
1045,2,295,35.37%
1046,0,295,35.37%
1047,0,295,35.37%
1048,0,295,35.37%
1049,0,295,35.37%
1050,0,295,35.37%
1051,0,295,35.37%
1052,0,295,35.37%
1053,1,296,35.49%
1054,0,296,35.49%
1055,0,296,35.49%
1056,0,296,35.49%
1057,0,296,35.49%
1058,0,296,35.49%
1059,0,296,35.49%
1060,0,296,35.49%
1061,0,296,35.49%
1062,0,296,35.49%
1063,0,296,35.49%
1064,0,296,35.49%
1065,0,296,35.49%
1066,0,296,35.49%
1067,0,296,35.49%
1068,1,297,35.61%
1069,0,297,35.61%
1070,0,297,35.61%
1071,0,297,35.61%
1072,2,299,35.85%
1073,0,299,35.85%
1074,0,299,35.85%
1075,0,299,35.85%
1076,4,303,36.33%
1077,0,303,36.33%
1078,0,303,36.33%
1079,0,303,36.33%
1080,0,303,36.33%
1081,1,304,36.45%
1082,0,304,36.45%
1083,0,304,36.45%
1084,0,304,36.45%
1085,0,304,36.45%
1086,1,305,36.57%
1087,0,305,36.57%
1088,0,305,36.57%
1089,0,305,36.57%
1090,0,305,36.57%
1091,1,306,36.69%
1092,0,306,36.69%
1093,2,308,36.93%
1094,1,309,37.05%
1095,0,309,37.05%
1096,0,309,37.05%
1097,0,309,37.05%
1098,0,309,37.05%
1099,0,309,37.05%
1100,1,310,37.17%
1101,2,312,37.41%
1102,522,834,100.0%
