Length, Count, Sum (Counts <= Length), Percent of Nonzero Data, Nonzero Data Count = 810, Zero Data Count = 1034
1,0,0,0.0%
2,1,1,0.12%
3,0,1,0.12%
4,1,2,0.25%
5,0,2,0.25%
6,0,2,0.25%
7,0,2,0.25%
8,0,2,0.25%
9,1,3,0.37%
10,0,3,0.37%
11,0,3,0.37%
12,0,3,0.37%
13,0,3,0.37%
14,0,3,0.37%
15,0,3,0.37%
16,0,3,0.37%
17,0,3,0.37%
18,0,3,0.37%
19,1,4,0.49%
20,0,4,0.49%
21,0,4,0.49%
22,0,4,0.49%
23,0,4,0.49%
24,0,4,0.49%
25,0,4,0.49%
26,0,4,0.49%
27,0,4,0.49%
28,0,4,0.49%
29,0,4,0.49%
30,0,4,0.49%
31,0,4,0.49%
32,0,4,0.49%
33,1,5,0.62%
34,1,6,0.74%
35,0,6,0.74%
36,0,6,0.74%
37,1,7,0.86%
38,2,9,1.11%
39,1,10,1.23%
40,0,10,1.23%
41,0,10,1.23%
42,0,10,1.23%
43,0,10,1.23%
44,2,12,1.48%
45,0,12,1.48%
46,0,12,1.48%
47,0,12,1.48%
48,0,12,1.48%
49,0,12,1.48%
50,0,12,1.48%
51,0,12,1.48%
52,1,13,1.6%
53,0,13,1.6%
54,0,13,1.6%
55,0,13,1.6%
56,0,13,1.6%
57,0,13,1.6%
58,0,13,1.6%
59,0,13,1.6%
60,1,14,1.73%
61,0,14,1.73%
62,0,14,1.73%
63,0,14,1.73%
64,0,14,1.73%
65,0,14,1.73%
66,0,14,1.73%
67,0,14,1.73%
68,0,14,1.73%
69,0,14,1.73%
70,1,15,1.85%
71,0,15,1.85%
72,0,15,1.85%
73,0,15,1.85%
74,0,15,1.85%
75,0,15,1.85%
76,0,15,1.85%
77,0,15,1.85%
78,0,15,1.85%
79,0,15,1.85%
80,0,15,1.85%
81,0,15,1.85%
82,1,16,1.98%
83,1,17,2.1%
84,0,17,2.1%
85,0,17,2.1%
86,0,17,2.1%
87,0,17,2.1%
88,0,17,2.1%
89,0,17,2.1%
90,0,17,2.1%
91,0,17,2.1%
92,0,17,2.1%
93,0,17,2.1%
94,0,17,2.1%
95,0,17,2.1%
96,0,17,2.1%
97,0,17,2.1%
98,0,17,2.1%
99,1,18,2.22%
100,0,18,2.22%
101,0,18,2.22%
102,0,18,2.22%
103,0,18,2.22%
104,0,18,2.22%
105,0,18,2.22%
106,0,18,2.22%
107,1,19,2.35%
108,0,19,2.35%
109,0,19,2.35%
110,0,19,2.35%
111,0,19,2.35%
112,0,19,2.35%
113,0,19,2.35%
114,0,19,2.35%
115,0,19,2.35%
116,0,19,2.35%
117,0,19,2.35%
118,0,19,2.35%
119,0,19,2.35%
120,0,19,2.35%
121,0,19,2.35%
122,0,19,2.35%
123,0,19,2.35%
124,0,19,2.35%
125,0,19,2.35%
126,0,19,2.35%
127,0,19,2.35%
128,0,19,2.35%
129,0,19,2.35%
130,1,20,2.47%
131,0,20,2.47%
132,0,20,2.47%
133,0,20,2.47%
134,0,20,2.47%
135,0,20,2.47%
136,1,21,2.59%
137,0,21,2.59%
138,0,21,2.59%
139,0,21,2.59%
140,0,21,2.59%
141,0,21,2.59%
142,0,21,2.59%
143,0,21,2.59%
144,1,22,2.72%
145,1,23,2.84%
146,0,23,2.84%
147,0,23,2.84%
148,0,23,2.84%
149,0,23,2.84%
150,0,23,2.84%
151,0,23,2.84%
152,0,23,2.84%
153,0,23,2.84%
154,0,23,2.84%
155,1,24,2.96%
156,0,24,2.96%
157,0,24,2.96%
158,0,24,2.96%
159,0,24,2.96%
160,0,24,2.96%
161,0,24,2.96%
162,0,24,2.96%
163,0,24,2.96%
164,0,24,2.96%
165,1,25,3.09%
166,0,25,3.09%
167,0,25,3.09%
168,0,25,3.09%
169,0,25,3.09%
170,1,26,3.21%
171,2,28,3.46%
172,0,28,3.46%
173,0,28,3.46%
174,0,28,3.46%
175,0,28,3.46%
176,0,28,3.46%
177,0,28,3.46%
178,0,28,3.46%
179,0,28,3.46%
180,1,29,3.58%
181,1,30,3.7%
182,0,30,3.7%
183,0,30,3.7%
184,0,30,3.7%
185,0,30,3.7%
186,1,31,3.83%
187,0,31,3.83%
188,0,31,3.83%
189,0,31,3.83%
190,0,31,3.83%
191,0,31,3.83%
192,0,31,3.83%
193,1,32,3.95%
194,0,32,3.95%
195,0,32,3.95%
196,0,32,3.95%
197,0,32,3.95%
198,0,32,3.95%
199,0,32,3.95%
200,1,33,4.07%
201,1,34,4.2%
202,1,35,4.32%
203,1,36,4.44%
204,0,36,4.44%
205,0,36,4.44%
206,0,36,4.44%
207,1,37,4.57%
208,0,37,4.57%
209,0,37,4.57%
210,0,37,4.57%
211,1,38,4.69%
212,0,38,4.69%
213,0,38,4.69%
214,0,38,4.69%
215,1,39,4.81%
216,0,39,4.81%
217,0,39,4.81%
218,0,39,4.81%
219,0,39,4.81%
220,0,39,4.81%
221,2,41,5.06%
222,0,41,5.06%
223,1,42,5.19%
224,0,42,5.19%
225,4,46,5.68%
226,0,46,5.68%
227,0,46,5.68%
228,1,47,5.8%
229,5,52,6.42%
230,0,52,6.42%
231,1,53,6.54%
232,0,53,6.54%
233,0,53,6.54%
234,0,53,6.54%
235,0,53,6.54%
236,0,53,6.54%
237,1,54,6.67%
238,0,54,6.67%
239,0,54,6.67%
240,0,54,6.67%
241,0,54,6.67%
242,0,54,6.67%
243,0,54,6.67%
244,0,54,6.67%
245,0,54,6.67%
246,1,55,6.79%
247,1,56,6.91%
248,0,56,6.91%
249,0,56,6.91%
250,1,57,7.04%
251,0,57,7.04%
252,0,57,7.04%
253,4,61,7.53%
254,2,63,7.78%
255,1,64,7.9%
256,1,65,8.02%
257,0,65,8.02%
258,3,68,8.4%
259,2,70,8.64%
260,0,70,8.64%
261,0,70,8.64%
262,1,71,8.77%
263,5,76,9.38%
264,2,78,9.63%
265,1,79,9.75%
266,1,80,9.88%
267,2,82,10.12%
268,4,86,10.62%
269,5,91,11.23%
270,0,91,11.23%
271,1,92,11.36%
272,2,94,11.6%
273,1,95,11.73%
274,3,98,12.1%
275,0,98,12.1%
276,1,99,12.22%
277,0,99,12.22%
278,5,104,12.84%
279,3,107,13.21%
280,0,107,13.21%
281,1,108,13.33%
282,1,109,13.46%
283,1,110,13.58%
284,2,112,13.83%
285,0,112,13.83%
286,3,115,14.2%
287,3,118,14.57%
288,1,119,14.69%
289,0,119,14.69%
290,2,121,14.94%
291,2,123,15.19%
292,10,133,16.42%
293,1,134,16.54%
294,4,138,17.04%
295,0,138,17.04%
296,3,141,17.41%
297,2,143,17.65%
298,8,151,18.64%
299,2,153,18.89%
300,1,154,19.01%
301,3,157,19.38%
302,8,165,20.37%
303,1,166,20.49%
304,0,166,20.49%
305,0,166,20.49%
306,0,166,20.49%
307,1,167,20.62%
308,1,168,20.74%
309,0,168,20.74%
310,12,180,22.22%
311,8,188,23.21%
312,7,195,24.07%
313,3,198,24.44%
314,2,200,24.69%
315,3,203,25.06%
316,9,212,26.17%
317,1,213,26.3%
318,0,213,26.3%
319,1,214,26.42%
320,0,214,26.42%
321,5,219,27.04%
322,4,223,27.53%
323,1,224,27.65%
324,1,225,27.78%
325,0,225,27.78%
326,6,231,28.52%
327,3,234,28.89%
328,0,234,28.89%
329,1,235,29.01%
330,1,236,29.14%
331,2,238,29.38%
332,3,241,29.75%
333,1,242,29.88%
334,1,243,30.0%
335,2,245,30.25%
336,7,252,31.11%
337,10,262,32.35%
338,1,263,32.47%
339,2,265,32.72%
340,9,274,33.83%
341,0,274,33.83%
342,0,274,33.83%
343,0,274,33.83%
344,4,278,34.32%
345,3,281,34.69%
346,0,281,34.69%
347,3,284,35.06%
348,1,285,35.19%
349,3,288,35.56%
350,3,291,35.93%
351,519,810,100.0%
