Length, Count, Sum (Counts <= Length), Percent of Nonzero Data, Nonzero Data Count = 656, Zero Data Count = 1188
1,2,2,0.3%
2,4,6,0.91%
3,3,9,1.37%
4,1,10,1.52%
5,3,13,1.98%
6,1,14,2.13%
7,3,17,2.59%
8,3,20,3.05%
9,18,38,5.79%
10,2,40,6.1%
11,0,40,6.1%
12,1,41,6.25%
13,0,41,6.25%
14,4,45,6.86%
15,2,47,7.16%
16,0,47,7.16%
17,0,47,7.16%
18,4,51,7.77%
19,0,51,7.77%
20,3,54,8.23%
21,1,55,8.38%
22,1,56,8.54%
23,1,57,8.69%
24,0,57,8.69%
25,0,57,8.69%
26,1,58,8.84%
27,0,58,8.84%
28,3,61,9.3%
29,0,61,9.3%
30,2,63,9.6%
31,1,64,9.76%
32,1,65,9.91%
33,10,75,11.43%
34,1,76,11.59%
35,0,76,11.59%
36,1,77,11.74%
37,1,78,11.89%
38,0,78,11.89%
39,1,79,12.04%
40,0,79,12.04%
41,4,83,12.65%
42,3,86,13.11%
43,3,89,13.57%
44,2,91,13.87%
45,0,91,13.87%
46,3,94,14.33%
47,4,98,14.94%
48,3,101,15.4%
49,2,103,15.7%
50,0,103,15.7%
51,7,110,16.77%
52,9,119,18.14%
53,3,122,18.6%
54,9,131,19.97%
55,0,131,19.97%
56,0,131,19.97%
57,3,134,20.43%
58,1,135,20.58%
59,0,135,20.58%
60,3,138,21.04%
61,3,141,21.49%
62,1,142,21.65%
63,1,143,21.8%
64,0,143,21.8%
65,0,143,21.8%
66,0,143,21.8%
67,2,145,22.1%
68,4,149,22.71%
69,0,149,22.71%
70,0,149,22.71%
71,0,149,22.71%
72,0,149,22.71%
73,0,149,22.71%
74,0,149,22.71%
75,3,152,23.17%
76,2,154,23.48%
77,1,155,23.63%
78,3,158,24.09%
79,4,162,24.7%
80,2,164,25.0%
81,5,169,25.76%
82,1,170,25.91%
83,1,171,26.07%
84,5,176,26.83%
85,4,180,27.44%
86,11,191,29.12%
87,1,192,29.27%
88,0,192,29.27%
89,3,195,29.73%
90,6,201,30.64%
91,1,202,30.79%
92,0,202,30.79%
93,0,202,30.79%
94,1,203,30.95%
95,5,208,31.71%
96,2,210,32.01%
97,0,210,32.01%
98,3,213,32.47%
99,2,215,32.77%
100,3,218,33.23%
101,1,219,33.38%
102,1,220,33.54%
103,0,220,33.54%
104,3,223,33.99%
105,5,228,34.76%
106,1,229,34.91%
107,0,229,34.91%
108,4,233,35.52%
109,2,235,35.82%
110,3,238,36.28%
111,2,240,36.59%
112,4,244,37.2%
113,3,247,37.65%
114,3,250,38.11%
115,3,253,38.57%
116,2,255,38.87%
117,1,256,39.02%
118,3,259,39.48%
119,2,261,39.79%
120,1,262,39.94%
121,2,264,40.24%
122,0,264,40.24%
123,2,266,40.55%
124,3,269,41.01%
125,0,269,41.01%
126,0,269,41.01%
127,0,269,41.01%
128,2,271,41.31%
129,2,273,41.62%
130,0,273,41.62%
131,0,273,41.62%
132,1,274,41.77%
133,3,277,42.23%
134,3,280,42.68%
135,3,283,43.14%
136,4,287,43.75%
137,0,287,43.75%
138,3,290,44.21%
139,1,291,44.36%
140,7,298,45.43%
141,3,301,45.88%
142,0,301,45.88%
143,1,302,46.04%
144,0,302,46.04%
145,1,303,46.19%
146,3,306,46.65%
147,1,307,46.8%
148,0,307,46.8%
149,10,317,48.32%
150,0,317,48.32%
151,0,317,48.32%
152,0,317,48.32%
153,1,318,48.48%
154,1,319,48.63%
155,0,319,48.63%
156,1,320,48.78%
157,1,321,48.93%
158,2,323,49.24%
159,2,325,49.54%
160,0,325,49.54%
161,0,325,49.54%
162,0,325,49.54%
163,0,325,49.54%
164,1,326,49.7%
165,0,326,49.7%
166,1,327,49.85%
167,2,329,50.15%
168,2,331,50.46%
169,3,334,50.91%
170,1,335,51.07%
171,2,337,51.37%
172,7,344,52.44%
173,2,346,52.74%
174,0,346,52.74%
175,1,347,52.9%
176,1,348,53.05%
177,0,348,53.05%
178,4,352,53.66%
179,1,353,53.81%
180,1,354,53.96%
181,0,354,53.96%
182,3,357,54.42%
183,3,360,54.88%
184,2,362,55.18%
185,1,363,55.34%
186,0,363,55.34%
187,11,374,57.01%
188,2,376,57.32%
189,6,382,58.23%
190,1,383,58.38%
191,2,385,58.69%
192,1,386,58.84%
193,2,388,59.15%
194,2,390,59.45%
195,1,391,59.6%
196,2,393,59.91%
197,2,395,60.21%
198,0,395,60.21%
199,0,395,60.21%
200,0,395,60.21%
201,0,395,60.21%
202,0,395,60.21%
203,0,395,60.21%
204,0,395,60.21%
205,0,395,60.21%
206,0,395,60.21%
207,0,395,60.21%
208,0,395,60.21%
209,0,395,60.21%
210,0,395,60.21%
211,0,395,60.21%
212,0,395,60.21%
213,0,395,60.21%
214,0,395,60.21%
215,0,395,60.21%
216,0,395,60.21%
217,0,395,60.21%
218,0,395,60.21%
219,0,395,60.21%
220,0,395,60.21%
221,0,395,60.21%
222,1,396,60.37%
223,0,396,60.37%
224,0,396,60.37%
225,1,397,60.52%
226,0,397,60.52%
227,0,397,60.52%
228,0,397,60.52%
229,0,397,60.52%
230,0,397,60.52%
231,0,397,60.52%
232,0,397,60.52%
233,0,397,60.52%
234,0,397,60.52%
235,0,397,60.52%
236,0,397,60.52%
237,0,397,60.52%
238,0,397,60.52%
239,0,397,60.52%
240,0,397,60.52%
241,1,398,60.67%
242,1,399,60.82%
243,0,399,60.82%
244,0,399,60.82%
245,0,399,60.82%
246,0,399,60.82%
247,0,399,60.82%
248,1,400,60.98%
249,0,400,60.98%
250,0,400,60.98%
251,0,400,60.98%
252,0,400,60.98%
253,0,400,60.98%
254,0,400,60.98%
255,0,400,60.98%
256,1,401,61.13%
257,0,401,61.13%
258,0,401,61.13%
259,0,401,61.13%
260,1,402,61.28%
261,0,402,61.28%
262,0,402,61.28%
263,0,402,61.28%
264,0,402,61.28%
265,0,402,61.28%
266,0,402,61.28%
267,1,403,61.43%
268,0,403,61.43%
269,0,403,61.43%
270,0,403,61.43%
271,0,403,61.43%
272,0,403,61.43%
273,1,404,61.59%
274,0,404,61.59%
275,0,404,61.59%
276,0,404,61.59%
277,0,404,61.59%
278,1,405,61.74%
279,1,406,61.89%
280,0,406,61.89%
281,0,406,61.89%
282,0,406,61.89%
283,0,406,61.89%
284,1,407,62.04%
285,0,407,62.04%
286,0,407,62.04%
287,0,407,62.04%
288,0,407,62.04%
289,0,407,62.04%
290,0,407,62.04%
291,0,407,62.04%
292,0,407,62.04%
293,0,407,62.04%
294,1,408,62.2%
295,0,408,62.2%
296,0,408,62.2%
297,0,408,62.2%
298,0,408,62.2%
299,0,408,62.2%
300,0,408,62.2%
301,0,408,62.2%
302,0,408,62.2%
303,0,408,62.2%
304,0,408,62.2%
305,0,408,62.2%
306,0,408,62.2%
307,0,408,62.2%
308,0,408,62.2%
309,0,408,62.2%
310,0,408,62.2%
311,0,408,62.2%
312,0,408,62.2%
313,0,408,62.2%
314,0,408,62.2%
315,0,408,62.2%
316,0,408,62.2%
317,0,408,62.2%
318,0,408,62.2%
319,1,409,62.35%
320,0,409,62.35%
321,0,409,62.35%
322,0,409,62.35%
323,0,409,62.35%
324,0,409,62.35%
325,0,409,62.35%
326,1,410,62.5%
327,0,410,62.5%
328,0,410,62.5%
329,0,410,62.5%
330,0,410,62.5%
331,0,410,62.5%
332,0,410,62.5%
333,0,410,62.5%
334,0,410,62.5%
335,0,410,62.5%
336,0,410,62.5%
337,0,410,62.5%
338,0,410,62.5%
339,0,410,62.5%
340,0,410,62.5%
341,0,410,62.5%
342,0,410,62.5%
343,0,410,62.5%
344,0,410,62.5%
345,0,410,62.5%
346,0,410,62.5%
347,0,410,62.5%
348,0,410,62.5%
349,0,410,62.5%
350,0,410,62.5%
351,0,410,62.5%
352,1,411,62.65%
353,0,411,62.65%
354,0,411,62.65%
355,0,411,62.65%
356,0,411,62.65%
357,0,411,62.65%
358,0,411,62.65%
359,0,411,62.65%
360,0,411,62.65%
361,0,411,62.65%
362,0,411,62.65%
363,0,411,62.65%
364,0,411,62.65%
365,0,411,62.65%
366,1,412,62.8%
367,0,412,62.8%
368,0,412,62.8%
369,0,412,62.8%
370,0,412,62.8%
371,0,412,62.8%
372,0,412,62.8%
373,0,412,62.8%
374,1,413,62.96%
375,0,413,62.96%
376,0,413,62.96%
377,0,413,62.96%
378,0,413,62.96%
379,0,413,62.96%
380,0,413,62.96%
381,0,413,62.96%
382,0,413,62.96%
383,0,413,62.96%
384,0,413,62.96%
385,0,413,62.96%
386,0,413,62.96%
387,0,413,62.96%
388,0,413,62.96%
389,0,413,62.96%
390,0,413,62.96%
391,0,413,62.96%
392,0,413,62.96%
393,0,413,62.96%
394,0,413,62.96%
395,0,413,62.96%
396,0,413,62.96%
397,0,413,62.96%
398,0,413,62.96%
399,0,413,62.96%
400,1,414,63.11%
401,1,415,63.26%
402,0,415,63.26%
403,0,415,63.26%
404,0,415,63.26%
405,0,415,63.26%
406,0,415,63.26%
407,0,415,63.26%
408,0,415,63.26%
409,1,416,63.41%
410,1,417,63.57%
411,0,417,63.57%
412,0,417,63.57%
413,0,417,63.57%
414,0,417,63.57%
415,0,417,63.57%
416,1,418,63.72%
417,1,419,63.87%
418,0,419,63.87%
419,1,420,64.02%
420,0,420,64.02%
421,0,420,64.02%
422,0,420,64.02%
423,0,420,64.02%
424,0,420,64.02%
425,1,421,64.18%
426,1,422,64.33%
427,0,422,64.33%
428,0,422,64.33%
429,0,422,64.33%
430,0,422,64.33%
431,0,422,64.33%
432,0,422,64.33%
433,0,422,64.33%
434,0,422,64.33%
435,0,422,64.33%
436,0,422,64.33%
437,0,422,64.33%
438,0,422,64.33%
439,0,422,64.33%
440,0,422,64.33%
441,0,422,64.33%
442,0,422,64.33%
443,0,422,64.33%
444,0,422,64.33%
445,0,422,64.33%
446,0,422,64.33%
447,0,422,64.33%
448,0,422,64.33%
449,0,422,64.33%
450,0,422,64.33%
451,0,422,64.33%
452,1,423,64.48%
453,0,423,64.48%
454,0,423,64.48%
455,1,424,64.63%
456,0,424,64.63%
457,0,424,64.63%
458,0,424,64.63%
459,0,424,64.63%
460,0,424,64.63%
461,0,424,64.63%
462,0,424,64.63%
463,0,424,64.63%
464,0,424,64.63%
465,0,424,64.63%
466,0,424,64.63%
467,0,424,64.63%
468,0,424,64.63%
469,0,424,64.63%
470,0,424,64.63%
471,0,424,64.63%
472,0,424,64.63%
473,0,424,64.63%
474,0,424,64.63%
475,0,424,64.63%
476,0,424,64.63%
477,0,424,64.63%
478,0,424,64.63%
479,0,424,64.63%
480,0,424,64.63%
481,0,424,64.63%
482,0,424,64.63%
483,0,424,64.63%
484,0,424,64.63%
485,0,424,64.63%
486,0,424,64.63%
487,0,424,64.63%
488,1,425,64.79%
489,0,425,64.79%
490,0,425,64.79%
491,0,425,64.79%
492,0,425,64.79%
493,0,425,64.79%
494,0,425,64.79%
495,0,425,64.79%
496,0,425,64.79%
497,0,425,64.79%
498,0,425,64.79%
499,0,425,64.79%
500,1,426,64.94%
501,0,426,64.94%
502,0,426,64.94%
503,0,426,64.94%
504,0,426,64.94%
505,0,426,64.94%
506,0,426,64.94%
507,0,426,64.94%
508,1,427,65.09%
509,0,427,65.09%
510,0,427,65.09%
511,0,427,65.09%
512,0,427,65.09%
513,1,428,65.24%
514,1,429,65.4%
515,0,429,65.4%
516,0,429,65.4%
517,0,429,65.4%
518,0,429,65.4%
519,0,429,65.4%
520,0,429,65.4%
521,0,429,65.4%
522,1,430,65.55%
523,1,431,65.7%
524,0,431,65.7%
525,0,431,65.7%
526,0,431,65.7%
527,1,432,65.85%
528,0,432,65.85%
529,0,432,65.85%
530,0,432,65.85%
531,0,432,65.85%
532,0,432,65.85%
533,0,432,65.85%
534,0,432,65.85%
535,0,432,65.85%
536,0,432,65.85%
537,0,432,65.85%
538,0,432,65.85%
539,0,432,65.85%
540,0,432,65.85%
541,0,432,65.85%
542,0,432,65.85%
543,0,432,65.85%
544,0,432,65.85%
545,0,432,65.85%
546,0,432,65.85%
547,0,432,65.85%
548,1,433,66.01%
549,0,433,66.01%
550,0,433,66.01%
551,0,433,66.01%
552,0,433,66.01%
553,0,433,66.01%
554,0,433,66.01%
555,0,433,66.01%
556,0,433,66.01%
557,0,433,66.01%
558,0,433,66.01%
559,1,434,66.16%
560,0,434,66.16%
561,0,434,66.16%
562,0,434,66.16%
563,0,434,66.16%
564,0,434,66.16%
565,0,434,66.16%
566,0,434,66.16%
567,0,434,66.16%
568,0,434,66.16%
569,0,434,66.16%
570,0,434,66.16%
571,0,434,66.16%
572,0,434,66.16%
573,1,435,66.31%
574,0,435,66.31%
575,0,435,66.31%
576,0,435,66.31%
577,0,435,66.31%
578,0,435,66.31%
579,0,435,66.31%
580,0,435,66.31%
581,0,435,66.31%
582,0,435,66.31%
583,1,436,66.46%
584,0,436,66.46%
585,1,437,66.62%
586,0,437,66.62%
587,0,437,66.62%
588,0,437,66.62%
589,0,437,66.62%
590,0,437,66.62%
591,0,437,66.62%
592,0,437,66.62%
593,0,437,66.62%
594,0,437,66.62%
595,0,437,66.62%
596,0,437,66.62%
597,0,437,66.62%
598,0,437,66.62%
599,0,437,66.62%
600,0,437,66.62%
601,0,437,66.62%
602,0,437,66.62%
603,0,437,66.62%
604,0,437,66.62%
605,0,437,66.62%
606,0,437,66.62%
607,1,438,66.77%
608,0,438,66.77%
609,0,438,66.77%
610,0,438,66.77%
611,0,438,66.77%
612,0,438,66.77%
613,0,438,66.77%
614,1,439,66.92%
615,0,439,66.92%
616,0,439,66.92%
617,0,439,66.92%
618,0,439,66.92%
619,0,439,66.92%
620,0,439,66.92%
621,0,439,66.92%
622,0,439,66.92%
623,0,439,66.92%
624,0,439,66.92%
625,0,439,66.92%
626,0,439,66.92%
627,0,439,66.92%
628,0,439,66.92%
629,0,439,66.92%
630,0,439,66.92%
631,0,439,66.92%
632,1,440,67.07%
633,0,440,67.07%
634,0,440,67.07%
635,0,440,67.07%
636,0,440,67.07%
637,1,441,67.23%
638,0,441,67.23%
639,0,441,67.23%
640,0,441,67.23%
641,0,441,67.23%
642,0,441,67.23%
643,0,441,67.23%
644,0,441,67.23%
645,0,441,67.23%
646,1,442,67.38%
647,0,442,67.38%
648,0,442,67.38%
649,0,442,67.38%
650,0,442,67.38%
651,0,442,67.38%
652,0,442,67.38%
653,1,443,67.53%
654,0,443,67.53%
655,0,443,67.53%
656,0,443,67.53%
657,0,443,67.53%
658,0,443,67.53%
659,0,443,67.53%
660,0,443,67.53%
661,0,443,67.53%
662,0,443,67.53%
663,0,443,67.53%
664,0,443,67.53%
665,0,443,67.53%
666,0,443,67.53%
667,0,443,67.53%
668,0,443,67.53%
669,0,443,67.53%
670,0,443,67.53%
671,0,443,67.53%
672,0,443,67.53%
673,0,443,67.53%
674,0,443,67.53%
675,0,443,67.53%
676,0,443,67.53%
677,0,443,67.53%
678,0,443,67.53%
679,0,443,67.53%
680,0,443,67.53%
681,0,443,67.53%
682,0,443,67.53%
683,0,443,67.53%
684,1,444,67.68%
685,0,444,67.68%
686,0,444,67.68%
687,0,444,67.68%
688,0,444,67.68%
689,1,445,67.84%
690,0,445,67.84%
691,0,445,67.84%
692,0,445,67.84%
693,0,445,67.84%
694,1,446,67.99%
695,0,446,67.99%
696,0,446,67.99%
697,0,446,67.99%
698,0,446,67.99%
699,0,446,67.99%
700,0,446,67.99%
701,0,446,67.99%
702,1,447,68.14%
703,0,447,68.14%
704,0,447,68.14%
705,0,447,68.14%
706,0,447,68.14%
707,0,447,68.14%
708,0,447,68.14%
709,0,447,68.14%
710,0,447,68.14%
711,0,447,68.14%
712,0,447,68.14%
713,0,447,68.14%
714,0,447,68.14%
715,0,447,68.14%
716,0,447,68.14%
717,0,447,68.14%
718,1,448,68.29%
719,0,448,68.29%
720,0,448,68.29%
721,0,448,68.29%
722,0,448,68.29%
723,0,448,68.29%
724,0,448,68.29%
725,0,448,68.29%
726,0,448,68.29%
727,0,448,68.29%
728,1,449,68.45%
729,0,449,68.45%
730,0,449,68.45%
731,0,449,68.45%
732,1,450,68.6%
733,0,450,68.6%
734,0,450,68.6%
735,0,450,68.6%
736,1,451,68.75%
737,0,451,68.75%
738,0,451,68.75%
739,0,451,68.75%
740,0,451,68.75%
741,0,451,68.75%
742,1,452,68.9%
743,0,452,68.9%
744,0,452,68.9%
745,1,453,69.05%
746,0,453,69.05%
747,0,453,69.05%
748,0,453,69.05%
749,0,453,69.05%
750,0,453,69.05%
751,1,454,69.21%
752,0,454,69.21%
753,0,454,69.21%
754,0,454,69.21%
755,0,454,69.21%
756,0,454,69.21%
757,0,454,69.21%
758,0,454,69.21%
759,0,454,69.21%
760,0,454,69.21%
761,0,454,69.21%
762,0,454,69.21%
763,0,454,69.21%
764,0,454,69.21%
765,0,454,69.21%
766,0,454,69.21%
767,0,454,69.21%
768,0,454,69.21%
769,0,454,69.21%
770,0,454,69.21%
771,0,454,69.21%
772,0,454,69.21%
773,0,454,69.21%
774,0,454,69.21%
775,1,455,69.36%
776,0,455,69.36%
777,0,455,69.36%
778,0,455,69.36%
779,0,455,69.36%
780,0,455,69.36%
781,0,455,69.36%
782,0,455,69.36%
783,0,455,69.36%
784,0,455,69.36%
785,0,455,69.36%
786,0,455,69.36%
787,0,455,69.36%
788,0,455,69.36%
789,0,455,69.36%
790,0,455,69.36%
791,0,455,69.36%
792,0,455,69.36%
793,0,455,69.36%
794,0,455,69.36%
795,0,455,69.36%
796,1,456,69.51%
797,0,456,69.51%
798,0,456,69.51%
799,0,456,69.51%
800,0,456,69.51%
801,0,456,69.51%
802,0,456,69.51%
803,0,456,69.51%
804,2,458,69.82%
805,0,458,69.82%
806,0,458,69.82%
807,0,458,69.82%
808,0,458,69.82%
809,1,459,69.97%
810,0,459,69.97%
811,0,459,69.97%
812,0,459,69.97%
813,0,459,69.97%
814,0,459,69.97%
815,0,459,69.97%
816,0,459,69.97%
817,0,459,69.97%
818,0,459,69.97%
819,1,460,70.12%
820,0,460,70.12%
821,0,460,70.12%
822,0,460,70.12%
823,0,460,70.12%
824,0,460,70.12%
825,0,460,70.12%
826,196,656,100.0%
