Length, Count, Sum (Counts <= Length), Percent of Nonzero Data, Nonzero Data Count = 857, Zero Data Count = 987
1,2,2,0.23%
2,0,2,0.23%
3,1,3,0.35%
4,0,3,0.35%
5,1,4,0.47%
6,0,4,0.47%
7,0,4,0.47%
8,0,4,0.47%
9,1,5,0.58%
10,0,5,0.58%
11,0,5,0.58%
12,0,5,0.58%
13,0,5,0.58%
14,0,5,0.58%
15,0,5,0.58%
16,0,5,0.58%
17,0,5,0.58%
18,1,6,0.7%
19,1,7,0.82%
20,0,7,0.82%
21,0,7,0.82%
22,0,7,0.82%
23,0,7,0.82%
24,0,7,0.82%
25,0,7,0.82%
26,0,7,0.82%
27,0,7,0.82%
28,1,8,0.93%
29,0,8,0.93%
30,0,8,0.93%
31,0,8,0.93%
32,0,8,0.93%
33,0,8,0.93%
34,0,8,0.93%
35,0,8,0.93%
36,0,8,0.93%
37,0,8,0.93%
38,0,8,0.93%
39,1,9,1.05%
40,0,9,1.05%
41,0,9,1.05%
42,0,9,1.05%
43,0,9,1.05%
44,0,9,1.05%
45,0,9,1.05%
46,0,9,1.05%
47,0,9,1.05%
48,1,10,1.17%
49,0,10,1.17%
50,0,10,1.17%
51,0,10,1.17%
52,2,12,1.4%
53,0,12,1.4%
54,0,12,1.4%
55,0,12,1.4%
56,0,12,1.4%
57,0,12,1.4%
58,0,12,1.4%
59,0,12,1.4%
60,0,12,1.4%
61,0,12,1.4%
62,0,12,1.4%
63,1,13,1.52%
64,0,13,1.52%
65,0,13,1.52%
66,0,13,1.52%
67,0,13,1.52%
68,0,13,1.52%
69,1,14,1.63%
70,0,14,1.63%
71,0,14,1.63%
72,0,14,1.63%
73,0,14,1.63%
74,0,14,1.63%
75,0,14,1.63%
76,0,14,1.63%
77,1,15,1.75%
78,0,15,1.75%
79,0,15,1.75%
80,0,15,1.75%
81,0,15,1.75%
82,1,16,1.87%
83,0,16,1.87%
84,0,16,1.87%
85,1,17,1.98%
86,0,17,1.98%
87,0,17,1.98%
88,0,17,1.98%
89,0,17,1.98%
90,0,17,1.98%
91,0,17,1.98%
92,2,19,2.22%
93,0,19,2.22%
94,1,20,2.33%
95,0,20,2.33%
96,1,21,2.45%
97,0,21,2.45%
98,0,21,2.45%
99,1,22,2.57%
100,0,22,2.57%
101,0,22,2.57%
102,0,22,2.57%
103,0,22,2.57%
104,0,22,2.57%
105,0,22,2.57%
106,1,23,2.68%
107,0,23,2.68%
108,0,23,2.68%
109,0,23,2.68%
110,0,23,2.68%
111,0,23,2.68%
112,0,23,2.68%
113,0,23,2.68%
114,0,23,2.68%
115,0,23,2.68%
116,0,23,2.68%
117,0,23,2.68%
118,0,23,2.68%
119,0,23,2.68%
120,0,23,2.68%
121,0,23,2.68%
122,0,23,2.68%
123,1,24,2.8%
124,0,24,2.8%
125,1,25,2.92%
126,0,25,2.92%
127,0,25,2.92%
128,3,28,3.27%
129,0,28,3.27%
130,0,28,3.27%
131,0,28,3.27%
132,0,28,3.27%
133,0,28,3.27%
134,2,30,3.5%
135,0,30,3.5%
136,0,30,3.5%
137,0,30,3.5%
138,0,30,3.5%
139,0,30,3.5%
140,0,30,3.5%
141,0,30,3.5%
142,1,31,3.62%
143,0,31,3.62%
144,0,31,3.62%
145,2,33,3.85%
146,0,33,3.85%
147,0,33,3.85%
148,0,33,3.85%
149,0,33,3.85%
150,1,34,3.97%
151,1,35,4.08%
152,0,35,4.08%
153,0,35,4.08%
154,0,35,4.08%
155,1,36,4.2%
156,0,36,4.2%
157,0,36,4.2%
158,0,36,4.2%
159,0,36,4.2%
160,1,37,4.32%
161,0,37,4.32%
162,0,37,4.32%
163,0,37,4.32%
164,0,37,4.32%
165,0,37,4.32%
166,0,37,4.32%
167,0,37,4.32%
168,0,37,4.32%
169,0,37,4.32%
170,1,38,4.43%
171,0,38,4.43%
172,1,39,4.55%
173,1,40,4.67%
174,0,40,4.67%
175,0,40,4.67%
176,0,40,4.67%
177,0,40,4.67%
178,0,40,4.67%
179,0,40,4.67%
180,0,40,4.67%
181,1,41,4.78%
182,0,41,4.78%
183,0,41,4.78%
184,1,42,4.9%
185,0,42,4.9%
186,0,42,4.9%
187,0,42,4.9%
188,0,42,4.9%
189,1,43,5.02%
190,0,43,5.02%
191,0,43,5.02%
192,0,43,5.02%
193,0,43,5.02%
194,0,43,5.02%
195,0,43,5.02%
196,0,43,5.02%
197,1,44,5.13%
198,0,44,5.13%
199,0,44,5.13%
200,1,45,5.25%
201,1,46,5.37%
202,1,47,5.48%
203,0,47,5.48%
204,0,47,5.48%
205,0,47,5.48%
206,0,47,5.48%
207,0,47,5.48%
208,0,47,5.48%
209,0,47,5.48%
210,0,47,5.48%
211,0,47,5.48%
212,1,48,5.6%
213,1,49,5.72%
214,0,49,5.72%
215,1,50,5.83%
216,0,50,5.83%
217,0,50,5.83%
218,0,50,5.83%
219,0,50,5.83%
220,1,51,5.95%
221,0,51,5.95%
222,0,51,5.95%
223,0,51,5.95%
224,0,51,5.95%
225,0,51,5.95%
226,0,51,5.95%
227,0,51,5.95%
228,0,51,5.95%
229,0,51,5.95%
230,0,51,5.95%
231,1,52,6.07%
232,0,52,6.07%
233,0,52,6.07%
234,0,52,6.07%
235,0,52,6.07%
236,1,53,6.18%
237,0,53,6.18%
238,0,53,6.18%
239,0,53,6.18%
240,0,53,6.18%
241,0,53,6.18%
242,0,53,6.18%
243,1,54,6.3%
244,1,55,6.42%
245,0,55,6.42%
246,0,55,6.42%
247,0,55,6.42%
248,0,55,6.42%
249,0,55,6.42%
250,0,55,6.42%
251,0,55,6.42%
252,1,56,6.53%
253,0,56,6.53%
254,0,56,6.53%
255,2,58,6.77%
256,0,58,6.77%
257,0,58,6.77%
258,0,58,6.77%
259,1,59,6.88%
260,0,59,6.88%
261,2,61,7.12%
262,0,61,7.12%
263,1,62,7.23%
264,0,62,7.23%
265,1,63,7.35%
266,0,63,7.35%
267,0,63,7.35%
268,0,63,7.35%
269,0,63,7.35%
270,3,66,7.7%
271,0,66,7.7%
272,0,66,7.7%
273,0,66,7.7%
274,1,67,7.82%
275,0,67,7.82%
276,1,68,7.93%
277,0,68,7.93%
278,0,68,7.93%
279,0,68,7.93%
280,0,68,7.93%
281,0,68,7.93%
282,0,68,7.93%
283,1,69,8.05%
284,0,69,8.05%
285,0,69,8.05%
286,0,69,8.05%
287,0,69,8.05%
288,0,69,8.05%
289,0,69,8.05%
290,0,69,8.05%
291,0,69,8.05%
292,0,69,8.05%
293,1,70,8.17%
294,0,70,8.17%
295,0,70,8.17%
296,0,70,8.17%
297,0,70,8.17%
298,0,70,8.17%
299,0,70,8.17%
300,0,70,8.17%
301,1,71,8.28%
302,0,71,8.28%
303,2,73,8.52%
304,0,73,8.52%
305,0,73,8.52%
306,0,73,8.52%
307,0,73,8.52%
308,0,73,8.52%
309,0,73,8.52%
310,0,73,8.52%
311,2,75,8.75%
312,0,75,8.75%
313,1,76,8.87%
314,0,76,8.87%
315,0,76,8.87%
316,0,76,8.87%
317,0,76,8.87%
318,0,76,8.87%
319,0,76,8.87%
320,0,76,8.87%
321,0,76,8.87%
322,0,76,8.87%
323,0,76,8.87%
324,0,76,8.87%
325,2,78,9.1%
326,0,78,9.1%
327,0,78,9.1%
328,0,78,9.1%
329,0,78,9.1%
330,0,78,9.1%
331,0,78,9.1%
332,0,78,9.1%
333,0,78,9.1%
334,0,78,9.1%
335,0,78,9.1%
336,0,78,9.1%
337,0,78,9.1%
338,0,78,9.1%
339,0,78,9.1%
340,0,78,9.1%
341,0,78,9.1%
342,0,78,9.1%
343,1,79,9.22%
344,0,79,9.22%
345,0,79,9.22%
346,0,79,9.22%
347,0,79,9.22%
348,0,79,9.22%
349,1,80,9.33%
350,1,81,9.45%
351,15,96,11.2%
352,10,106,12.37%
353,0,106,12.37%
354,0,106,12.37%
355,0,106,12.37%
356,0,106,12.37%
357,1,107,12.49%
358,5,112,13.07%
359,0,112,13.07%
360,3,115,13.42%
361,1,116,13.54%
362,0,116,13.54%
363,1,117,13.65%
364,0,117,13.65%
365,0,117,13.65%
366,2,119,13.89%
367,0,119,13.89%
368,0,119,13.89%
369,0,119,13.89%
370,0,119,13.89%
371,0,119,13.89%
372,2,121,14.12%
373,0,121,14.12%
374,0,121,14.12%
375,0,121,14.12%
376,1,122,14.24%
377,0,122,14.24%
378,0,122,14.24%
379,0,122,14.24%
380,0,122,14.24%
381,0,122,14.24%
382,1,123,14.35%
383,0,123,14.35%
384,0,123,14.35%
385,0,123,14.35%
386,0,123,14.35%
387,0,123,14.35%
388,0,123,14.35%
389,1,124,14.47%
390,0,124,14.47%
391,1,125,14.59%
392,0,125,14.59%
393,1,126,14.7%
394,0,126,14.7%
395,0,126,14.7%
396,0,126,14.7%
397,1,127,14.82%
398,0,127,14.82%
399,0,127,14.82%
400,0,127,14.82%
401,0,127,14.82%
402,0,127,14.82%
403,0,127,14.82%
404,1,128,14.94%
405,0,128,14.94%
406,2,130,15.17%
407,1,131,15.29%
408,0,131,15.29%
409,0,131,15.29%
410,0,131,15.29%
411,0,131,15.29%
412,1,132,15.4%
413,0,132,15.4%
414,0,132,15.4%
415,0,132,15.4%
416,0,132,15.4%
417,0,132,15.4%
418,0,132,15.4%
419,0,132,15.4%
420,1,133,15.52%
421,0,133,15.52%
422,2,135,15.75%
423,0,135,15.75%
424,1,136,15.87%
425,0,136,15.87%
426,1,137,15.99%
427,0,137,15.99%
428,0,137,15.99%
429,0,137,15.99%
430,0,137,15.99%
431,0,137,15.99%
432,0,137,15.99%
433,0,137,15.99%
434,0,137,15.99%
435,2,139,16.22%
436,0,139,16.22%
437,0,139,16.22%
438,0,139,16.22%
439,0,139,16.22%
440,0,139,16.22%
441,1,140,16.34%
442,0,140,16.34%
443,0,140,16.34%
444,0,140,16.34%
445,0,140,16.34%
446,1,141,16.45%
447,1,142,16.57%
448,1,143,16.69%
449,0,143,16.69%
450,0,143,16.69%
451,0,143,16.69%
452,0,143,16.69%
453,1,144,16.8%
454,1,145,16.92%
455,0,145,16.92%
456,0,145,16.92%
457,0,145,16.92%
458,0,145,16.92%
459,0,145,16.92%
460,0,145,16.92%
461,1,146,17.04%
462,0,146,17.04%
463,0,146,17.04%
464,0,146,17.04%
465,1,147,17.15%
466,0,147,17.15%
467,0,147,17.15%
468,0,147,17.15%
469,0,147,17.15%
470,0,147,17.15%
471,0,147,17.15%
472,1,148,17.27%
473,0,148,17.27%
474,0,148,17.27%
475,0,148,17.27%
476,0,148,17.27%
477,0,148,17.27%
478,0,148,17.27%
479,1,149,17.39%
480,0,149,17.39%
481,0,149,17.39%
482,1,150,17.5%
483,0,150,17.5%
484,0,150,17.5%
485,0,150,17.5%
486,0,150,17.5%
487,1,151,17.62%
488,0,151,17.62%
489,0,151,17.62%
490,1,152,17.74%
491,0,152,17.74%
492,1,153,17.85%
493,0,153,17.85%
494,0,153,17.85%
495,1,154,17.97%
496,1,155,18.09%
497,0,155,18.09%
498,0,155,18.09%
499,1,156,18.2%
500,0,156,18.2%
501,0,156,18.2%
502,0,156,18.2%
503,1,157,18.32%
504,0,157,18.32%
505,0,157,18.32%
506,0,157,18.32%
507,0,157,18.32%
508,0,157,18.32%
509,0,157,18.32%
510,0,157,18.32%
511,0,157,18.32%
512,0,157,18.32%
513,1,158,18.44%
514,2,160,18.67%
515,0,160,18.67%
516,0,160,18.67%
517,0,160,18.67%
518,0,160,18.67%
519,1,161,18.79%
520,0,161,18.79%
521,0,161,18.79%
522,0,161,18.79%
523,0,161,18.79%
524,0,161,18.79%
525,0,161,18.79%
526,0,161,18.79%
527,0,161,18.79%
528,1,162,18.9%
529,2,164,19.14%
530,0,164,19.14%
531,0,164,19.14%
532,0,164,19.14%
533,0,164,19.14%
534,1,165,19.25%
535,0,165,19.25%
536,0,165,19.25%
537,0,165,19.25%
538,0,165,19.25%
539,0,165,19.25%
540,0,165,19.25%
541,0,165,19.25%
542,0,165,19.25%
543,0,165,19.25%
544,0,165,19.25%
545,0,165,19.25%
546,1,166,19.37%
547,0,166,19.37%
548,0,166,19.37%
549,0,166,19.37%
550,0,166,19.37%
551,0,166,19.37%
552,1,167,19.49%
553,0,167,19.49%
554,0,167,19.49%
555,0,167,19.49%
556,0,167,19.49%
557,0,167,19.49%
558,0,167,19.49%
559,0,167,19.49%
560,0,167,19.49%
561,0,167,19.49%
562,0,167,19.49%
563,0,167,19.49%
564,1,168,19.6%
565,1,169,19.72%
566,0,169,19.72%
567,1,170,19.84%
568,0,170,19.84%
569,0,170,19.84%
570,0,170,19.84%
571,1,171,19.95%
572,0,171,19.95%
573,2,173,20.19%
574,0,173,20.19%
575,0,173,20.19%
576,8,181,21.12%
577,0,181,21.12%
578,0,181,21.12%
579,1,182,21.24%
580,0,182,21.24%
581,0,182,21.24%
582,0,182,21.24%
583,0,182,21.24%
584,0,182,21.24%
585,1,183,21.35%
586,0,183,21.35%
587,0,183,21.35%
588,2,185,21.59%
589,0,185,21.59%
590,0,185,21.59%
591,0,185,21.59%
592,1,186,21.7%
593,0,186,21.7%
594,0,186,21.7%
595,0,186,21.7%
596,1,187,21.82%
597,0,187,21.82%
598,0,187,21.82%
599,1,188,21.94%
600,0,188,21.94%
601,0,188,21.94%
602,0,188,21.94%
603,1,189,22.05%
604,2,191,22.29%
605,0,191,22.29%
606,0,191,22.29%
607,0,191,22.29%
608,0,191,22.29%
609,0,191,22.29%
610,0,191,22.29%
611,1,192,22.4%
612,0,192,22.4%
613,0,192,22.4%
614,0,192,22.4%
615,0,192,22.4%
616,0,192,22.4%
617,0,192,22.4%
618,0,192,22.4%
619,0,192,22.4%
620,0,192,22.4%
621,0,192,22.4%
622,1,193,22.52%
623,1,194,22.64%
624,0,194,22.64%
625,0,194,22.64%
626,1,195,22.75%
627,0,195,22.75%
628,0,195,22.75%
629,0,195,22.75%
630,0,195,22.75%
631,0,195,22.75%
632,1,196,22.87%
633,0,196,22.87%
634,0,196,22.87%
635,1,197,22.99%
636,0,197,22.99%
637,0,197,22.99%
638,0,197,22.99%
639,0,197,22.99%
640,0,197,22.99%
641,0,197,22.99%
642,0,197,22.99%
643,1,198,23.1%
644,0,198,23.1%
645,0,198,23.1%
646,0,198,23.1%
647,1,199,23.22%
648,0,199,23.22%
649,1,200,23.34%
650,0,200,23.34%
651,0,200,23.34%
652,0,200,23.34%
653,1,201,23.45%
654,0,201,23.45%
655,0,201,23.45%
656,0,201,23.45%
657,1,202,23.57%
658,0,202,23.57%
659,0,202,23.57%
660,0,202,23.57%
661,0,202,23.57%
662,0,202,23.57%
663,0,202,23.57%
664,0,202,23.57%
665,0,202,23.57%
666,0,202,23.57%
667,0,202,23.57%
668,0,202,23.57%
669,0,202,23.57%
670,0,202,23.57%
671,0,202,23.57%
672,0,202,23.57%
673,0,202,23.57%
674,0,202,23.57%
675,0,202,23.57%
676,0,202,23.57%
677,0,202,23.57%
678,0,202,23.57%
679,0,202,23.57%
680,0,202,23.57%
681,0,202,23.57%
682,0,202,23.57%
683,1,203,23.69%
684,0,203,23.69%
685,0,203,23.69%
686,0,203,23.69%
687,0,203,23.69%
688,0,203,23.69%
689,0,203,23.69%
690,0,203,23.69%
691,0,203,23.69%
692,0,203,23.69%
693,5,208,24.27%
694,0,208,24.27%
695,0,208,24.27%
696,0,208,24.27%
697,0,208,24.27%
698,0,208,24.27%
699,0,208,24.27%
700,0,208,24.27%
701,0,208,24.27%
702,0,208,24.27%
703,0,208,24.27%
704,1,209,24.39%
705,1,210,24.5%
706,0,210,24.5%
707,1,211,24.62%
708,1,212,24.74%
709,0,212,24.74%
710,0,212,24.74%
711,0,212,24.74%
712,0,212,24.74%
713,0,212,24.74%
714,0,212,24.74%
715,0,212,24.74%
716,0,212,24.74%
717,1,213,24.85%
718,0,213,24.85%
719,1,214,24.97%
720,0,214,24.97%
721,1,215,25.09%
722,0,215,25.09%
723,0,215,25.09%
724,0,215,25.09%
725,1,216,25.2%
726,0,216,25.2%
727,0,216,25.2%
728,0,216,25.2%
729,0,216,25.2%
730,0,216,25.2%
731,0,216,25.2%
732,0,216,25.2%
733,0,216,25.2%
734,0,216,25.2%
735,1,217,25.32%
736,0,217,25.32%
737,0,217,25.32%
738,0,217,25.32%
739,1,218,25.44%
740,0,218,25.44%
741,0,218,25.44%
742,2,220,25.67%
743,0,220,25.67%
744,1,221,25.79%
745,0,221,25.79%
746,1,222,25.9%
747,0,222,25.9%
748,0,222,25.9%
749,0,222,25.9%
750,0,222,25.9%
751,0,222,25.9%
752,0,222,25.9%
753,1,223,26.02%
754,1,224,26.14%
755,1,225,26.25%
756,0,225,26.25%
757,0,225,26.25%
758,0,225,26.25%
759,0,225,26.25%
760,0,225,26.25%
761,0,225,26.25%
762,0,225,26.25%
763,0,225,26.25%
764,0,225,26.25%
765,0,225,26.25%
766,0,225,26.25%
767,0,225,26.25%
768,0,225,26.25%
769,1,226,26.37%
770,0,226,26.37%
771,0,226,26.37%
772,0,226,26.37%
773,0,226,26.37%
774,1,227,26.49%
775,1,228,26.6%
776,0,228,26.6%
777,0,228,26.6%
778,1,229,26.72%
779,0,229,26.72%
780,0,229,26.72%
781,0,229,26.72%
782,0,229,26.72%
783,0,229,26.72%
784,0,229,26.72%
785,1,230,26.84%
786,0,230,26.84%
787,0,230,26.84%
788,0,230,26.84%
789,0,230,26.84%
790,0,230,26.84%
791,0,230,26.84%
792,1,231,26.95%
793,0,231,26.95%
794,0,231,26.95%
795,2,233,27.19%
796,0,233,27.19%
797,0,233,27.19%
798,0,233,27.19%
799,0,233,27.19%
800,0,233,27.19%
801,0,233,27.19%
802,0,233,27.19%
803,0,233,27.19%
804,1,234,27.3%
805,0,234,27.3%
806,0,234,27.3%
807,0,234,27.3%
808,1,235,27.42%
809,0,235,27.42%
810,0,235,27.42%
811,0,235,27.42%
812,0,235,27.42%
813,0,235,27.42%
814,0,235,27.42%
815,0,235,27.42%
816,2,237,27.65%
817,0,237,27.65%
818,0,237,27.65%
819,0,237,27.65%
820,1,238,27.77%
821,0,238,27.77%
822,0,238,27.77%
823,0,238,27.77%
824,0,238,27.77%
825,0,238,27.77%
826,0,238,27.77%
827,0,238,27.77%
828,0,238,27.77%
829,0,238,27.77%
830,0,238,27.77%
831,1,239,27.89%
832,0,239,27.89%
833,0,239,27.89%
834,0,239,27.89%
835,0,239,27.89%
836,0,239,27.89%
837,1,240,28.0%
838,0,240,28.0%
839,0,240,28.0%
840,1,241,28.12%
841,0,241,28.12%
842,9,250,29.17%
843,0,250,29.17%
844,1,251,29.29%
845,0,251,29.29%
846,0,251,29.29%
847,0,251,29.29%
848,0,251,29.29%
849,0,251,29.29%
850,0,251,29.29%
851,0,251,29.29%
852,0,251,29.29%
853,0,251,29.29%
854,0,251,29.29%
855,0,251,29.29%
856,1,252,29.4%
857,0,252,29.4%
858,0,252,29.4%
859,1,253,29.52%
860,0,253,29.52%
861,0,253,29.52%
862,0,253,29.52%
863,0,253,29.52%
864,0,253,29.52%
865,0,253,29.52%
866,0,253,29.52%
867,0,253,29.52%
868,0,253,29.52%
869,0,253,29.52%
870,0,253,29.52%
871,1,254,29.64%
872,0,254,29.64%
873,0,254,29.64%
874,1,255,29.75%
875,0,255,29.75%
876,1,256,29.87%
877,0,256,29.87%
878,0,256,29.87%
879,0,256,29.87%
880,0,256,29.87%
881,1,257,29.99%
882,0,257,29.99%
883,0,257,29.99%
884,1,258,30.11%
885,0,258,30.11%
886,0,258,30.11%
887,0,258,30.11%
888,0,258,30.11%
889,0,258,30.11%
890,0,258,30.11%
891,0,258,30.11%
892,0,258,30.11%
893,0,258,30.11%
894,0,258,30.11%
895,0,258,30.11%
896,1,259,30.22%
897,0,259,30.22%
898,0,259,30.22%
899,0,259,30.22%
900,0,259,30.22%
901,1,260,30.34%
902,0,260,30.34%
903,0,260,30.34%
904,1,261,30.46%
905,0,261,30.46%
906,1,262,30.57%
907,1,263,30.69%
908,0,263,30.69%
909,0,263,30.69%
910,0,263,30.69%
911,0,263,30.69%
912,0,263,30.69%
913,1,264,30.81%
914,0,264,30.81%
915,0,264,30.81%
916,0,264,30.81%
917,0,264,30.81%
918,0,264,30.81%
919,0,264,30.81%
920,0,264,30.81%
921,1,265,30.92%
922,1,266,31.04%
923,0,266,31.04%
924,0,266,31.04%
925,0,266,31.04%
926,0,266,31.04%
927,2,268,31.27%
928,1,269,31.39%
929,0,269,31.39%
930,0,269,31.39%
931,1,270,31.51%
932,0,270,31.51%
933,0,270,31.51%
934,0,270,31.51%
935,1,271,31.62%
936,0,271,31.62%
937,0,271,31.62%
938,0,271,31.62%
939,0,271,31.62%
940,0,271,31.62%
941,0,271,31.62%
942,1,272,31.74%
943,0,272,31.74%
944,0,272,31.74%
945,0,272,31.74%
946,1,273,31.86%
947,0,273,31.86%
948,0,273,31.86%
949,0,273,31.86%
950,0,273,31.86%
951,0,273,31.86%
952,0,273,31.86%
953,0,273,31.86%
954,0,273,31.86%
955,0,273,31.86%
956,1,274,31.97%
957,0,274,31.97%
958,0,274,31.97%
959,0,274,31.97%
960,1,275,32.09%
961,0,275,32.09%
962,0,275,32.09%
963,0,275,32.09%
964,1,276,32.21%
965,0,276,32.21%
966,0,276,32.21%
967,0,276,32.21%
968,0,276,32.21%
969,0,276,32.21%
970,0,276,32.21%
971,1,277,32.32%
972,0,277,32.32%
973,1,278,32.44%
974,0,278,32.44%
975,0,278,32.44%
976,0,278,32.44%
977,0,278,32.44%
978,0,278,32.44%
979,1,279,32.56%
980,1,280,32.67%
981,0,280,32.67%
982,0,280,32.67%
983,0,280,32.67%
984,0,280,32.67%
985,1,281,32.79%
986,1,282,32.91%
987,1,283,33.02%
988,0,283,33.02%
989,1,284,33.14%
990,0,284,33.14%
991,1,285,33.26%
992,0,285,33.26%
993,0,285,33.26%
994,1,286,33.37%
995,0,286,33.37%
996,0,286,33.37%
997,0,286,33.37%
998,1,287,33.49%
999,0,287,33.49%
1000,0,287,33.49%
1001,0,287,33.49%
1002,0,287,33.49%
1003,0,287,33.49%
1004,0,287,33.49%
1005,0,287,33.49%
1006,0,287,33.49%
1007,0,287,33.49%
1008,0,287,33.49%
1009,0,287,33.49%
1010,0,287,33.49%
1011,0,287,33.49%
1012,0,287,33.49%
1013,0,287,33.49%
1014,0,287,33.49%
1015,0,287,33.49%
1016,1,288,33.61%
1017,1,289,33.72%
1018,1,290,33.84%
1019,0,290,33.84%
1020,0,290,33.84%
1021,0,290,33.84%
1022,0,290,33.84%
1023,0,290,33.84%
1024,0,290,33.84%
1025,1,291,33.96%
1026,0,291,33.96%
1027,0,291,33.96%
1028,0,291,33.96%
1029,1,292,34.07%
1030,0,292,34.07%
1031,0,292,34.07%
1032,0,292,34.07%
1033,1,293,34.19%
1034,0,293,34.19%
1035,0,293,34.19%
1036,1,294,34.31%
1037,1,295,34.42%
1038,0,295,34.42%
1039,0,295,34.42%
1040,0,295,34.42%
1041,0,295,34.42%
1042,0,295,34.42%
1043,0,295,34.42%
1044,0,295,34.42%
1045,0,295,34.42%
1046,0,295,34.42%
1047,0,295,34.42%
1048,0,295,34.42%
1049,0,295,34.42%
1050,0,295,34.42%
1051,0,295,34.42%
1052,1,296,34.54%
1053,0,296,34.54%
1054,0,296,34.54%
1055,0,296,34.54%
1056,0,296,34.54%
1057,0,296,34.54%
1058,0,296,34.54%
1059,0,296,34.54%
1060,0,296,34.54%
1061,0,296,34.54%
1062,0,296,34.54%
1063,0,296,34.54%
1064,0,296,34.54%
1065,0,296,34.54%
1066,0,296,34.54%
1067,0,296,34.54%
1068,1,297,34.66%
1069,0,297,34.66%
1070,0,297,34.66%
1071,1,298,34.77%
1072,1,299,34.89%
1073,0,299,34.89%
1074,0,299,34.89%
1075,1,300,35.01%
1076,4,304,35.47%
1077,0,304,35.47%
1078,0,304,35.47%
1079,0,304,35.47%
1080,0,304,35.47%
1081,0,304,35.47%
1082,0,304,35.47%
1083,1,305,35.59%
1084,0,305,35.59%
1085,0,305,35.59%
1086,0,305,35.59%
1087,0,305,35.59%
1088,0,305,35.59%
1089,0,305,35.59%
1090,0,305,35.59%
1091,0,305,35.59%
1092,0,305,35.59%
1093,0,305,35.59%
1094,1,306,35.71%
1095,0,306,35.71%
1096,1,307,35.82%
1097,0,307,35.82%
1098,0,307,35.82%
1099,0,307,35.82%
1100,2,309,36.06%
1101,1,310,36.17%
1102,1,311,36.29%
1103,1,312,36.41%
1104,1,313,36.52%
1105,2,315,36.76%
1106,1,316,36.87%
1107,0,316,36.87%
1108,0,316,36.87%
1109,2,318,37.11%
1110,2,320,37.34%
1111,0,320,37.34%
1112,0,320,37.34%
1113,1,321,37.46%
1114,1,322,37.57%
1115,3,325,37.92%
1116,5,330,38.51%
1117,0,330,38.51%
1118,1,331,38.62%
1119,2,333,38.86%
1120,1,334,38.97%
1121,1,335,39.09%
1122,0,335,39.09%
1123,0,335,39.09%
1124,1,336,39.21%
1125,4,340,39.67%
1126,2,342,39.91%
1127,0,342,39.91%
1128,1,343,40.02%
1129,1,344,40.14%
1130,0,344,40.14%
1131,2,346,40.37%
1132,0,346,40.37%
1133,2,348,40.61%
1134,2,350,40.84%
1135,0,350,40.84%
1136,0,350,40.84%
1137,2,352,41.07%
1138,1,353,41.19%
1139,1,354,41.31%
1140,1,355,41.42%
1141,5,360,42.01%
1142,1,361,42.12%
1143,4,365,42.59%
1144,2,367,42.82%
1145,3,370,43.17%
1146,1,371,43.29%
1147,1,372,43.41%
1148,3,375,43.76%
1149,6,381,44.46%
1150,0,381,44.46%
1151,1,382,44.57%
1152,0,382,44.57%
1153,0,382,44.57%
1154,1,383,44.69%
1155,1,384,44.81%
1156,1,385,44.92%
1157,2,387,45.16%
1158,4,391,45.62%
1159,2,393,45.86%
1160,4,397,46.32%
1161,0,397,46.32%
1162,3,400,46.67%
1163,2,402,46.91%
1164,0,402,46.91%
1165,0,402,46.91%
1166,0,402,46.91%
1167,0,402,46.91%
1168,4,406,47.37%
1169,3,409,47.72%
1170,1,410,47.84%
1171,0,410,47.84%
1172,0,410,47.84%
1173,7,417,48.66%
1174,3,420,49.01%
1175,0,420,49.01%
1176,1,421,49.12%
1177,0,421,49.12%
1178,1,422,49.24%
1179,1,423,49.36%
1180,1,424,49.47%
1181,0,424,49.47%
1182,2,426,49.71%
1183,6,432,50.41%
1184,10,442,51.58%
1185,1,443,51.69%
1186,2,445,51.93%
1187,6,451,52.63%
1188,0,451,52.63%
1189,0,451,52.63%
1190,0,451,52.63%
1191,4,455,53.09%
1192,2,457,53.33%
1193,0,457,53.33%
1194,2,459,53.56%
1195,0,459,53.56%
1196,4,463,54.03%
1197,3,466,54.38%
1198,2,468,54.61%
1199,3,471,54.96%
1200,0,471,54.96%
1201,1,472,55.08%
1202,0,472,55.08%
1203,4,476,55.54%
1204,2,478,55.78%
1205,0,478,55.78%
1206,0,478,55.78%
1207,2,480,56.01%
1208,0,480,56.01%
1209,0,480,56.01%
1210,0,480,56.01%
1211,1,481,56.13%
1212,1,482,56.24%
1213,0,482,56.24%
1214,0,482,56.24%
1215,0,482,56.24%
1216,0,482,56.24%
1217,2,484,56.48%
1218,0,484,56.48%
1219,0,484,56.48%
1220,0,484,56.48%
1221,1,485,56.59%
1222,4,489,57.06%
1223,0,489,57.06%
1224,0,489,57.06%
1225,1,490,57.18%
1226,1,491,57.29%
1227,0,491,57.29%
1228,0,491,57.29%
1229,0,491,57.29%
1230,2,493,57.53%
1231,5,498,58.11%
1232,3,501,58.46%
1233,1,502,58.58%
1234,0,502,58.58%
1235,1,503,58.69%
1236,2,505,58.93%
1237,2,507,59.16%
1238,1,508,59.28%
1239,0,508,59.28%
1240,4,512,59.74%
1241,7,519,60.56%
1242,4,523,61.03%
1243,1,524,61.14%
1244,0,524,61.14%
1245,0,524,61.14%
1246,3,527,61.49%
1247,1,528,61.61%
1248,0,528,61.61%
1249,1,529,61.73%
1250,3,532,62.08%
1251,0,532,62.08%
1252,0,532,62.08%
1253,0,532,62.08%
1254,0,532,62.08%
1255,0,532,62.08%
1256,2,534,62.31%
1257,3,537,62.66%
1258,0,537,62.66%
1259,0,537,62.66%
1260,0,537,62.66%
1261,0,537,62.66%
1262,0,537,62.66%
1263,0,537,62.66%
1264,2,539,62.89%
1265,1,540,63.01%
1266,1,541,63.13%
1267,2,543,63.36%
1268,1,544,63.48%
1269,2,546,63.71%
1270,5,551,64.29%
1271,0,551,64.29%
1272,0,551,64.29%
1273,2,553,64.53%
1274,4,557,64.99%
1275,8,565,65.93%
1276,1,566,66.04%
1277,0,566,66.04%
1278,2,568,66.28%
1279,5,573,66.86%
1280,1,574,66.98%
1281,0,574,66.98%
1282,0,574,66.98%
1283,1,575,67.09%
1284,4,579,67.56%
1285,2,581,67.79%
1286,0,581,67.79%
1287,0,581,67.79%
1288,276,857,100.0%
