Length, Count, Sum (Counts <= Length), Percent of Nonzero Data, Nonzero Data Count = 861, Zero Data Count = 983
1,1,1,0.12%
2,0,1,0.12%
3,1,2,0.23%
4,0,2,0.23%
5,0,2,0.23%
6,0,2,0.23%
7,0,2,0.23%
8,0,2,0.23%
9,0,2,0.23%
10,0,2,0.23%
11,0,2,0.23%
12,0,2,0.23%
13,0,2,0.23%
14,0,2,0.23%
15,0,2,0.23%
16,0,2,0.23%
17,0,2,0.23%
18,0,2,0.23%
19,0,2,0.23%
20,0,2,0.23%
21,0,2,0.23%
22,0,2,0.23%
23,0,2,0.23%
24,0,2,0.23%
25,0,2,0.23%
26,0,2,0.23%
27,0,2,0.23%
28,1,3,0.35%
29,0,3,0.35%
30,0,3,0.35%
31,1,4,0.46%
32,0,4,0.46%
33,0,4,0.46%
34,0,4,0.46%
35,0,4,0.46%
36,1,5,0.58%
37,0,5,0.58%
38,0,5,0.58%
39,1,6,0.7%
40,0,6,0.7%
41,1,7,0.81%
42,0,7,0.81%
43,0,7,0.81%
44,0,7,0.81%
45,0,7,0.81%
46,0,7,0.81%
47,0,7,0.81%
48,0,7,0.81%
49,0,7,0.81%
50,0,7,0.81%
51,0,7,0.81%
52,2,9,1.05%
53,0,9,1.05%
54,0,9,1.05%
55,0,9,1.05%
56,0,9,1.05%
57,0,9,1.05%
58,0,9,1.05%
59,0,9,1.05%
60,0,9,1.05%
61,0,9,1.05%
62,0,9,1.05%
63,1,10,1.16%
64,0,10,1.16%
65,1,11,1.28%
66,0,11,1.28%
67,0,11,1.28%
68,0,11,1.28%
69,0,11,1.28%
70,0,11,1.28%
71,0,11,1.28%
72,0,11,1.28%
73,0,11,1.28%
74,0,11,1.28%
75,1,12,1.39%
76,0,12,1.39%
77,0,12,1.39%
78,0,12,1.39%
79,1,13,1.51%
80,0,13,1.51%
81,0,13,1.51%
82,0,13,1.51%
83,1,14,1.63%
84,0,14,1.63%
85,1,15,1.74%
86,0,15,1.74%
87,0,15,1.74%
88,0,15,1.74%
89,0,15,1.74%
90,0,15,1.74%
91,0,15,1.74%
92,2,17,1.97%
93,1,18,2.09%
94,0,18,2.09%
95,0,18,2.09%
96,1,19,2.21%
97,0,19,2.21%
98,0,19,2.21%
99,0,19,2.21%
100,0,19,2.21%
101,0,19,2.21%
102,0,19,2.21%
103,0,19,2.21%
104,0,19,2.21%
105,0,19,2.21%
106,1,20,2.32%
107,0,20,2.32%
108,0,20,2.32%
109,0,20,2.32%
110,0,20,2.32%
111,0,20,2.32%
112,0,20,2.32%
113,0,20,2.32%
114,0,20,2.32%
115,0,20,2.32%
116,0,20,2.32%
117,0,20,2.32%
118,0,20,2.32%
119,0,20,2.32%
120,0,20,2.32%
121,0,20,2.32%
122,1,21,2.44%
123,0,21,2.44%
124,0,21,2.44%
125,1,22,2.56%
126,0,22,2.56%
127,0,22,2.56%
128,1,23,2.67%
129,0,23,2.67%
130,0,23,2.67%
131,0,23,2.67%
132,0,23,2.67%
133,0,23,2.67%
134,0,23,2.67%
135,0,23,2.67%
136,0,23,2.67%
137,0,23,2.67%
138,0,23,2.67%
139,0,23,2.67%
140,1,24,2.79%
141,0,24,2.79%
142,0,24,2.79%
143,1,25,2.9%
144,0,25,2.9%
145,2,27,3.14%
146,0,27,3.14%
147,0,27,3.14%
148,0,27,3.14%
149,0,27,3.14%
150,1,28,3.25%
151,2,30,3.48%
152,0,30,3.48%
153,0,30,3.48%
154,0,30,3.48%
155,1,31,3.6%
156,1,32,3.72%
157,0,32,3.72%
158,0,32,3.72%
159,0,32,3.72%
160,0,32,3.72%
161,0,32,3.72%
162,0,32,3.72%
163,0,32,3.72%
164,0,32,3.72%
165,0,32,3.72%
166,1,33,3.83%
167,0,33,3.83%
168,0,33,3.83%
169,0,33,3.83%
170,1,34,3.95%
171,0,34,3.95%
172,0,34,3.95%
173,1,35,4.07%
174,0,35,4.07%
175,0,35,4.07%
176,0,35,4.07%
177,0,35,4.07%
178,0,35,4.07%
179,0,35,4.07%
180,0,35,4.07%
181,1,36,4.18%
182,0,36,4.18%
183,0,36,4.18%
184,1,37,4.3%
185,0,37,4.3%
186,0,37,4.3%
187,0,37,4.3%
188,0,37,4.3%
189,0,37,4.3%
190,0,37,4.3%
191,0,37,4.3%
192,0,37,4.3%
193,0,37,4.3%
194,0,37,4.3%
195,0,37,4.3%
196,0,37,4.3%
197,1,38,4.41%
198,0,38,4.41%
199,0,38,4.41%
200,2,40,4.65%
201,1,41,4.76%
202,3,44,5.11%
203,0,44,5.11%
204,0,44,5.11%
205,0,44,5.11%
206,0,44,5.11%
207,0,44,5.11%
208,2,46,5.34%
209,0,46,5.34%
210,0,46,5.34%
211,0,46,5.34%
212,1,47,5.46%
213,1,48,5.57%
214,0,48,5.57%
215,1,49,5.69%
216,1,50,5.81%
217,0,50,5.81%
218,0,50,5.81%
219,0,50,5.81%
220,0,50,5.81%
221,0,50,5.81%
222,0,50,5.81%
223,0,50,5.81%
224,0,50,5.81%
225,0,50,5.81%
226,0,50,5.81%
227,0,50,5.81%
228,0,50,5.81%
229,0,50,5.81%
230,0,50,5.81%
231,1,51,5.92%
232,0,51,5.92%
233,0,51,5.92%
234,1,52,6.04%
235,0,52,6.04%
236,1,53,6.16%
237,0,53,6.16%
238,0,53,6.16%
239,0,53,6.16%
240,0,53,6.16%
241,0,53,6.16%
242,0,53,6.16%
243,2,55,6.39%
244,1,56,6.5%
245,0,56,6.5%
246,1,57,6.62%
247,0,57,6.62%
248,0,57,6.62%
249,0,57,6.62%
250,0,57,6.62%
251,0,57,6.62%
252,1,58,6.74%
253,0,58,6.74%
254,0,58,6.74%
255,1,59,6.85%
256,0,59,6.85%
257,0,59,6.85%
258,0,59,6.85%
259,1,60,6.97%
260,0,60,6.97%
261,0,60,6.97%
262,0,60,6.97%
263,1,61,7.08%
264,0,61,7.08%
265,1,62,7.2%
266,0,62,7.2%
267,0,62,7.2%
268,0,62,7.2%
269,0,62,7.2%
270,3,65,7.55%
271,1,66,7.67%
272,0,66,7.67%
273,0,66,7.67%
274,1,67,7.78%
275,0,67,7.78%
276,0,67,7.78%
277,0,67,7.78%
278,0,67,7.78%
279,0,67,7.78%
280,0,67,7.78%
281,0,67,7.78%
282,0,67,7.78%
283,0,67,7.78%
284,0,67,7.78%
285,0,67,7.78%
286,0,67,7.78%
287,0,67,7.78%
288,0,67,7.78%
289,0,67,7.78%
290,0,67,7.78%
291,0,67,7.78%
292,0,67,7.78%
293,0,67,7.78%
294,1,68,7.9%
295,0,68,7.9%
296,0,68,7.9%
297,0,68,7.9%
298,0,68,7.9%
299,0,68,7.9%
300,0,68,7.9%
301,0,68,7.9%
302,0,68,7.9%
303,2,70,8.13%
304,0,70,8.13%
305,1,71,8.25%
306,0,71,8.25%
307,0,71,8.25%
308,0,71,8.25%
309,0,71,8.25%
310,0,71,8.25%
311,2,73,8.48%
312,0,73,8.48%
313,0,73,8.48%
314,0,73,8.48%
315,0,73,8.48%
316,0,73,8.48%
317,0,73,8.48%
318,0,73,8.48%
319,0,73,8.48%
320,0,73,8.48%
321,0,73,8.48%
322,0,73,8.48%
323,0,73,8.48%
324,0,73,8.48%
325,2,75,8.71%
326,0,75,8.71%
327,0,75,8.71%
328,0,75,8.71%
329,1,76,8.83%
330,0,76,8.83%
331,0,76,8.83%
332,0,76,8.83%
333,0,76,8.83%
334,0,76,8.83%
335,2,78,9.06%
336,0,78,9.06%
337,0,78,9.06%
338,0,78,9.06%
339,0,78,9.06%
340,0,78,9.06%
341,0,78,9.06%
342,0,78,9.06%
343,1,79,9.18%
344,0,79,9.18%
345,0,79,9.18%
346,0,79,9.18%
347,0,79,9.18%
348,0,79,9.18%
349,1,80,9.29%
350,1,81,9.41%
351,15,96,11.15%
352,10,106,12.31%
353,0,106,12.31%
354,0,106,12.31%
355,0,106,12.31%
356,0,106,12.31%
357,1,107,12.43%
358,5,112,13.01%
359,0,112,13.01%
360,3,115,13.36%
361,1,116,13.47%
362,0,116,13.47%
363,1,117,13.59%
364,0,117,13.59%
365,0,117,13.59%
366,1,118,13.7%
367,1,119,13.82%
368,0,119,13.82%
369,0,119,13.82%
370,0,119,13.82%
371,0,119,13.82%
372,2,121,14.05%
373,0,121,14.05%
374,0,121,14.05%
375,1,122,14.17%
376,0,122,14.17%
377,0,122,14.17%
378,0,122,14.17%
379,0,122,14.17%
380,0,122,14.17%
381,0,122,14.17%
382,1,123,14.29%
383,0,123,14.29%
384,0,123,14.29%
385,0,123,14.29%
386,0,123,14.29%
387,1,124,14.4%
388,0,124,14.4%
389,0,124,14.4%
390,0,124,14.4%
391,0,124,14.4%
392,0,124,14.4%
393,1,125,14.52%
394,0,125,14.52%
395,0,125,14.52%
396,0,125,14.52%
397,1,126,14.63%
398,0,126,14.63%
399,0,126,14.63%
400,0,126,14.63%
401,0,126,14.63%
402,0,126,14.63%
403,0,126,14.63%
404,0,126,14.63%
405,0,126,14.63%
406,2,128,14.87%
407,0,128,14.87%
408,0,128,14.87%
409,0,128,14.87%
410,0,128,14.87%
411,0,128,14.87%
412,1,129,14.98%
413,0,129,14.98%
414,0,129,14.98%
415,0,129,14.98%
416,0,129,14.98%
417,0,129,14.98%
418,0,129,14.98%
419,0,129,14.98%
420,0,129,14.98%
421,0,129,14.98%
422,1,130,15.1%
423,0,130,15.1%
424,0,130,15.1%
425,0,130,15.1%
426,0,130,15.1%
427,0,130,15.1%
428,0,130,15.1%
429,0,130,15.1%
430,0,130,15.1%
431,1,131,15.21%
432,0,131,15.21%
433,0,131,15.21%
434,0,131,15.21%
435,1,132,15.33%
436,0,132,15.33%
437,0,132,15.33%
438,0,132,15.33%
439,0,132,15.33%
440,1,133,15.45%
441,1,134,15.56%
442,0,134,15.56%
443,0,134,15.56%
444,0,134,15.56%
445,0,134,15.56%
446,1,135,15.68%
447,0,135,15.68%
448,0,135,15.68%
449,0,135,15.68%
450,1,136,15.8%
451,0,136,15.8%
452,0,136,15.8%
453,1,137,15.91%
454,0,137,15.91%
455,0,137,15.91%
456,0,137,15.91%
457,0,137,15.91%
458,0,137,15.91%
459,0,137,15.91%
460,0,137,15.91%
461,0,137,15.91%
462,0,137,15.91%
463,1,138,16.03%
464,0,138,16.03%
465,2,140,16.26%
466,1,141,16.38%
467,0,141,16.38%
468,0,141,16.38%
469,0,141,16.38%
470,0,141,16.38%
471,0,141,16.38%
472,0,141,16.38%
473,0,141,16.38%
474,0,141,16.38%
475,0,141,16.38%
476,0,141,16.38%
477,0,141,16.38%
478,1,142,16.49%
479,1,143,16.61%
480,0,143,16.61%
481,1,144,16.72%
482,1,145,16.84%
483,1,146,16.96%
484,0,146,16.96%
485,0,146,16.96%
486,0,146,16.96%
487,1,147,17.07%
488,0,147,17.07%
489,0,147,17.07%
490,1,148,17.19%
491,1,149,17.31%
492,0,149,17.31%
493,0,149,17.31%
494,0,149,17.31%
495,1,150,17.42%
496,2,152,17.65%
497,0,152,17.65%
498,1,153,17.77%
499,0,153,17.77%
500,1,154,17.89%
501,0,154,17.89%
502,0,154,17.89%
503,1,155,18.0%
504,0,155,18.0%
505,0,155,18.0%
506,0,155,18.0%
507,0,155,18.0%
508,0,155,18.0%
509,1,156,18.12%
510,0,156,18.12%
511,0,156,18.12%
512,0,156,18.12%
513,0,156,18.12%
514,0,156,18.12%
515,0,156,18.12%
516,1,157,18.23%
517,0,157,18.23%
518,0,157,18.23%
519,1,158,18.35%
520,0,158,18.35%
521,1,159,18.47%
522,0,159,18.47%
523,0,159,18.47%
524,0,159,18.47%
525,0,159,18.47%
526,0,159,18.47%
527,0,159,18.47%
528,2,161,18.7%
529,1,162,18.82%
530,0,162,18.82%
531,0,162,18.82%
532,0,162,18.82%
533,0,162,18.82%
534,0,162,18.82%
535,1,163,18.93%
536,0,163,18.93%
537,0,163,18.93%
538,0,163,18.93%
539,0,163,18.93%
540,0,163,18.93%
541,0,163,18.93%
542,0,163,18.93%
543,0,163,18.93%
544,0,163,18.93%
545,0,163,18.93%
546,1,164,19.05%
547,0,164,19.05%
548,0,164,19.05%
549,0,164,19.05%
550,0,164,19.05%
551,0,164,19.05%
552,0,164,19.05%
553,0,164,19.05%
554,0,164,19.05%
555,0,164,19.05%
556,0,164,19.05%
557,0,164,19.05%
558,0,164,19.05%
559,0,164,19.05%
560,0,164,19.05%
561,0,164,19.05%
562,1,165,19.16%
563,0,165,19.16%
564,1,166,19.28%
565,0,166,19.28%
566,0,166,19.28%
567,1,167,19.4%
568,0,167,19.4%
569,0,167,19.4%
570,0,167,19.4%
571,1,168,19.51%
572,0,168,19.51%
573,3,171,19.86%
574,0,171,19.86%
575,0,171,19.86%
576,8,179,20.79%
577,0,179,20.79%
578,0,179,20.79%
579,1,180,20.91%
580,0,180,20.91%
581,0,180,20.91%
582,0,180,20.91%
583,0,180,20.91%
584,0,180,20.91%
585,0,180,20.91%
586,0,180,20.91%
587,1,181,21.02%
588,1,182,21.14%
589,0,182,21.14%
590,1,183,21.25%
591,0,183,21.25%
592,0,183,21.25%
593,0,183,21.25%
594,0,183,21.25%
595,0,183,21.25%
596,1,184,21.37%
597,0,184,21.37%
598,0,184,21.37%
599,1,185,21.49%
600,0,185,21.49%
601,0,185,21.49%
602,0,185,21.49%
603,2,187,21.72%
604,1,188,21.84%
605,0,188,21.84%
606,0,188,21.84%
607,0,188,21.84%
608,1,189,21.95%
609,0,189,21.95%
610,0,189,21.95%
611,0,189,21.95%
612,0,189,21.95%
613,0,189,21.95%
614,1,190,22.07%
615,0,190,22.07%
616,0,190,22.07%
617,0,190,22.07%
618,0,190,22.07%
619,0,190,22.07%
620,0,190,22.07%
621,0,190,22.07%
622,1,191,22.18%
623,0,191,22.18%
624,0,191,22.18%
625,0,191,22.18%
626,3,194,22.53%
627,0,194,22.53%
628,0,194,22.53%
629,0,194,22.53%
630,0,194,22.53%
631,0,194,22.53%
632,1,195,22.65%
633,0,195,22.65%
634,0,195,22.65%
635,1,196,22.76%
636,0,196,22.76%
637,0,196,22.76%
638,0,196,22.76%
639,1,197,22.88%
640,0,197,22.88%
641,0,197,22.88%
642,0,197,22.88%
643,0,197,22.88%
644,0,197,22.88%
645,0,197,22.88%
646,0,197,22.88%
647,1,198,23.0%
648,0,198,23.0%
649,1,199,23.11%
650,0,199,23.11%
651,0,199,23.11%
652,0,199,23.11%
653,1,200,23.23%
654,0,200,23.23%
655,0,200,23.23%
656,0,200,23.23%
657,0,200,23.23%
658,0,200,23.23%
659,0,200,23.23%
660,0,200,23.23%
661,1,201,23.34%
662,1,202,23.46%
663,0,202,23.46%
664,0,202,23.46%
665,0,202,23.46%
666,0,202,23.46%
667,0,202,23.46%
668,0,202,23.46%
669,0,202,23.46%
670,0,202,23.46%
671,1,203,23.58%
672,0,203,23.58%
673,0,203,23.58%
674,0,203,23.58%
675,0,203,23.58%
676,0,203,23.58%
677,0,203,23.58%
678,0,203,23.58%
679,1,204,23.69%
680,0,204,23.69%
681,0,204,23.69%
682,0,204,23.69%
683,1,205,23.81%
684,0,205,23.81%
685,0,205,23.81%
686,0,205,23.81%
687,0,205,23.81%
688,0,205,23.81%
689,0,205,23.81%
690,0,205,23.81%
691,0,205,23.81%
692,0,205,23.81%
693,5,210,24.39%
694,0,210,24.39%
695,0,210,24.39%
696,0,210,24.39%
697,1,211,24.51%
698,0,211,24.51%
699,0,211,24.51%
700,0,211,24.51%
701,0,211,24.51%
702,0,211,24.51%
703,0,211,24.51%
704,1,212,24.62%
705,1,213,24.74%
706,0,213,24.74%
707,0,213,24.74%
708,0,213,24.74%
709,0,213,24.74%
710,0,213,24.74%
711,0,213,24.74%
712,0,213,24.74%
713,0,213,24.74%
714,0,213,24.74%
715,0,213,24.74%
716,0,213,24.74%
717,1,214,24.85%
718,0,214,24.85%
719,1,215,24.97%
720,0,215,24.97%
721,0,215,24.97%
722,0,215,24.97%
723,0,215,24.97%
724,0,215,24.97%
725,1,216,25.09%
726,0,216,25.09%
727,0,216,25.09%
728,0,216,25.09%
729,0,216,25.09%
730,0,216,25.09%
731,0,216,25.09%
732,0,216,25.09%
733,0,216,25.09%
734,0,216,25.09%
735,1,217,25.2%
736,0,217,25.2%
737,0,217,25.2%
738,0,217,25.2%
739,1,218,25.32%
740,0,218,25.32%
741,0,218,25.32%
742,0,218,25.32%
743,0,218,25.32%
744,1,219,25.44%
745,0,219,25.44%
746,0,219,25.44%
747,1,220,25.55%
748,0,220,25.55%
749,0,220,25.55%
750,0,220,25.55%
751,0,220,25.55%
752,0,220,25.55%
753,1,221,25.67%
754,1,222,25.78%
755,0,222,25.78%
756,0,222,25.78%
757,0,222,25.78%
758,0,222,25.78%
759,0,222,25.78%
760,0,222,25.78%
761,0,222,25.78%
762,0,222,25.78%
763,0,222,25.78%
764,0,222,25.78%
765,0,222,25.78%
766,0,222,25.78%
767,0,222,25.78%
768,0,222,25.78%
769,1,223,25.9%
770,0,223,25.9%
771,0,223,25.9%
772,0,223,25.9%
773,0,223,25.9%
774,1,224,26.02%
775,0,224,26.02%
776,0,224,26.02%
777,0,224,26.02%
778,1,225,26.13%
779,0,225,26.13%
780,0,225,26.13%
781,1,226,26.25%
782,1,227,26.36%
783,0,227,26.36%
784,0,227,26.36%
785,1,228,26.48%
786,0,228,26.48%
787,0,228,26.48%
788,0,228,26.48%
789,0,228,26.48%
790,0,228,26.48%
791,0,228,26.48%
792,1,229,26.6%
793,0,229,26.6%
794,0,229,26.6%
795,3,232,26.95%
796,0,232,26.95%
797,0,232,26.95%
798,0,232,26.95%
799,0,232,26.95%
800,0,232,26.95%
801,0,232,26.95%
802,0,232,26.95%
803,0,232,26.95%
804,1,233,27.06%
805,0,233,27.06%
806,0,233,27.06%
807,0,233,27.06%
808,1,234,27.18%
809,0,234,27.18%
810,0,234,27.18%
811,0,234,27.18%
812,0,234,27.18%
813,0,234,27.18%
814,0,234,27.18%
815,0,234,27.18%
816,4,238,27.64%
817,0,238,27.64%
818,0,238,27.64%
819,0,238,27.64%
820,1,239,27.76%
821,0,239,27.76%
822,0,239,27.76%
823,0,239,27.76%
824,0,239,27.76%
825,0,239,27.76%
826,0,239,27.76%
827,0,239,27.76%
828,0,239,27.76%
829,1,240,27.87%
830,0,240,27.87%
831,0,240,27.87%
832,0,240,27.87%
833,0,240,27.87%
834,0,240,27.87%
835,0,240,27.87%
836,0,240,27.87%
837,1,241,27.99%
838,0,241,27.99%
839,0,241,27.99%
840,1,242,28.11%
841,0,242,28.11%
842,0,242,28.11%
843,0,242,28.11%
844,1,243,28.22%
845,0,243,28.22%
846,0,243,28.22%
847,0,243,28.22%
848,0,243,28.22%
849,1,244,28.34%
850,0,244,28.34%
851,0,244,28.34%
852,0,244,28.34%
853,0,244,28.34%
854,0,244,28.34%
855,0,244,28.34%
856,1,245,28.46%
857,0,245,28.46%
858,0,245,28.46%
859,0,245,28.46%
860,0,245,28.46%
861,0,245,28.46%
862,0,245,28.46%
863,0,245,28.46%
864,0,245,28.46%
865,0,245,28.46%
866,0,245,28.46%
867,0,245,28.46%
868,0,245,28.46%
869,0,245,28.46%
870,0,245,28.46%
871,1,246,28.57%
872,0,246,28.57%
873,0,246,28.57%
874,0,246,28.57%
875,0,246,28.57%
876,1,247,28.69%
877,0,247,28.69%
878,0,247,28.69%
879,0,247,28.69%
880,0,247,28.69%
881,1,248,28.8%
882,0,248,28.8%
883,0,248,28.8%
884,1,249,28.92%
885,0,249,28.92%
886,0,249,28.92%
887,0,249,28.92%
888,0,249,28.92%
889,0,249,28.92%
890,0,249,28.92%
891,0,249,28.92%
892,0,249,28.92%
893,1,250,29.04%
894,0,250,29.04%
895,0,250,29.04%
896,1,251,29.15%
897,0,251,29.15%
898,0,251,29.15%
899,0,251,29.15%
900,0,251,29.15%
901,1,252,29.27%
902,0,252,29.27%
903,0,252,29.27%
904,1,253,29.38%
905,0,253,29.38%
906,1,254,29.5%
907,1,255,29.62%
908,0,255,29.62%
909,0,255,29.62%
910,0,255,29.62%
911,0,255,29.62%
912,0,255,29.62%
913,0,255,29.62%
914,0,255,29.62%
915,0,255,29.62%
916,9,264,30.66%
917,0,264,30.66%
918,1,265,30.78%
919,0,265,30.78%
920,0,265,30.78%
921,0,265,30.78%
922,0,265,30.78%
923,0,265,30.78%
924,0,265,30.78%
925,0,265,30.78%
926,0,265,30.78%
927,1,266,30.89%
928,2,268,31.13%
929,0,268,31.13%
930,0,268,31.13%
931,1,269,31.24%
932,0,269,31.24%
933,1,270,31.36%
934,0,270,31.36%
935,1,271,31.48%
936,0,271,31.48%
937,1,272,31.59%
938,0,272,31.59%
939,0,272,31.59%
940,0,272,31.59%
941,0,272,31.59%
942,1,273,31.71%
943,0,273,31.71%
944,0,273,31.71%
945,0,273,31.71%
946,1,274,31.82%
947,0,274,31.82%
948,1,275,31.94%
949,0,275,31.94%
950,0,275,31.94%
951,0,275,31.94%
952,0,275,31.94%
953,0,275,31.94%
954,0,275,31.94%
955,0,275,31.94%
956,1,276,32.06%
957,0,276,32.06%
958,0,276,32.06%
959,0,276,32.06%
960,1,277,32.17%
961,0,277,32.17%
962,0,277,32.17%
963,0,277,32.17%
964,1,278,32.29%
965,0,278,32.29%
966,0,278,32.29%
967,0,278,32.29%
968,0,278,32.29%
969,0,278,32.29%
970,0,278,32.29%
971,0,278,32.29%
972,0,278,32.29%
973,0,278,32.29%
974,0,278,32.29%
975,0,278,32.29%
976,0,278,32.29%
977,0,278,32.29%
978,0,278,32.29%
979,1,279,32.4%
980,0,279,32.4%
981,0,279,32.4%
982,0,279,32.4%
983,0,279,32.4%
984,0,279,32.4%
985,1,280,32.52%
986,0,280,32.52%
987,1,281,32.64%
988,0,281,32.64%
989,1,282,32.75%
990,0,282,32.75%
991,1,283,32.87%
992,0,283,32.87%
993,0,283,32.87%
994,1,284,32.98%
995,1,285,33.1%
996,0,285,33.1%
997,0,285,33.1%
998,1,286,33.22%
999,1,287,33.33%
1000,0,287,33.33%
1001,1,288,33.45%
1002,0,288,33.45%
1003,0,288,33.45%
1004,0,288,33.45%
1005,0,288,33.45%
1006,0,288,33.45%
1007,0,288,33.45%
1008,0,288,33.45%
1009,0,288,33.45%
1010,0,288,33.45%
1011,0,288,33.45%
1012,0,288,33.45%
1013,1,289,33.57%
1014,0,289,33.57%
1015,0,289,33.57%
1016,1,290,33.68%
1017,0,290,33.68%
1018,0,290,33.68%
1019,0,290,33.68%
1020,0,290,33.68%
1021,0,290,33.68%
1022,0,290,33.68%
1023,0,290,33.68%
1024,0,290,33.68%
1025,1,291,33.8%
1026,0,291,33.8%
1027,0,291,33.8%
1028,0,291,33.8%
1029,1,292,33.91%
1030,0,292,33.91%
1031,1,293,34.03%
1032,0,293,34.03%
1033,1,294,34.15%
1034,0,294,34.15%
1035,0,294,34.15%
1036,0,294,34.15%
1037,0,294,34.15%
1038,0,294,34.15%
1039,0,294,34.15%
1040,0,294,34.15%
1041,0,294,34.15%
1042,0,294,34.15%
1043,0,294,34.15%
1044,0,294,34.15%
1045,0,294,34.15%
1046,0,294,34.15%
1047,1,295,34.26%
1048,0,295,34.26%
1049,0,295,34.26%
1050,0,295,34.26%
1051,0,295,34.26%
1052,0,295,34.26%
1053,0,295,34.26%
1054,1,296,34.38%
1055,0,296,34.38%
1056,0,296,34.38%
1057,0,296,34.38%
1058,1,297,34.49%
1059,0,297,34.49%
1060,0,297,34.49%
1061,0,297,34.49%
1062,0,297,34.49%
1063,0,297,34.49%
1064,0,297,34.49%
1065,0,297,34.49%
1066,0,297,34.49%
1067,0,297,34.49%
1068,1,298,34.61%
1069,0,298,34.61%
1070,0,298,34.61%
1071,0,298,34.61%
1072,1,299,34.73%
1073,0,299,34.73%
1074,0,299,34.73%
1075,0,299,34.73%
1076,4,303,35.19%
1077,0,303,35.19%
1078,0,303,35.19%
1079,0,303,35.19%
1080,0,303,35.19%
1081,0,303,35.19%
1082,0,303,35.19%
1083,1,304,35.31%
1084,0,304,35.31%
1085,0,304,35.31%
1086,0,304,35.31%
1087,0,304,35.31%
1088,0,304,35.31%
1089,0,304,35.31%
1090,0,304,35.31%
1091,0,304,35.31%
1092,1,305,35.42%
1093,0,305,35.42%
1094,1,306,35.54%
1095,0,306,35.54%
1096,1,307,35.66%
1097,0,307,35.66%
1098,0,307,35.66%
1099,0,307,35.66%
1100,1,308,35.77%
1101,1,309,35.89%
1102,1,310,36.0%
1103,1,311,36.12%
1104,0,311,36.12%
1105,2,313,36.35%
1106,1,314,36.47%
1107,0,314,36.47%
1108,0,314,36.47%
1109,2,316,36.7%
1110,3,319,37.05%
1111,1,320,37.17%
1112,0,320,37.17%
1113,1,321,37.28%
1114,1,322,37.4%
1115,3,325,37.75%
1116,5,330,38.33%
1117,0,330,38.33%
1118,1,331,38.44%
1119,2,333,38.68%
1120,1,334,38.79%
1121,1,335,38.91%
1122,0,335,38.91%
1123,0,335,38.91%
1124,1,336,39.02%
1125,4,340,39.49%
1126,2,342,39.72%
1127,0,342,39.72%
1128,1,343,39.84%
1129,1,344,39.95%
1130,0,344,39.95%
1131,2,346,40.19%
1132,0,346,40.19%
1133,2,348,40.42%
1134,2,350,40.65%
1135,0,350,40.65%
1136,0,350,40.65%
1137,1,351,40.77%
1138,0,351,40.77%
1139,1,352,40.88%
1140,1,353,41.0%
1141,5,358,41.58%
1142,1,359,41.7%
1143,4,363,42.16%
1144,2,365,42.39%
1145,4,369,42.86%
1146,1,370,42.97%
1147,1,371,43.09%
1148,3,374,43.44%
1149,7,381,44.25%
1150,0,381,44.25%
1151,1,382,44.37%
1152,0,382,44.37%
1153,0,382,44.37%
1154,1,383,44.48%
1155,1,384,44.6%
1156,0,384,44.6%
1157,2,386,44.83%
1158,4,390,45.3%
1159,2,392,45.53%
1160,3,395,45.88%
1161,0,395,45.88%
1162,3,398,46.23%
1163,2,400,46.46%
1164,0,400,46.46%
1165,0,400,46.46%
1166,0,400,46.46%
1167,0,400,46.46%
1168,4,404,46.92%
1169,3,407,47.27%
1170,1,408,47.39%
1171,0,408,47.39%
1172,0,408,47.39%
1173,7,415,48.2%
1174,4,419,48.66%
1175,0,419,48.66%
1176,1,420,48.78%
1177,0,420,48.78%
1178,2,422,49.01%
1179,1,423,49.13%
1180,1,424,49.25%
1181,0,424,49.25%
1182,1,425,49.36%
1183,6,431,50.06%
1184,10,441,51.22%
1185,2,443,51.45%
1186,2,445,51.68%
1187,6,451,52.38%
1188,0,451,52.38%
1189,0,451,52.38%
1190,0,451,52.38%
1191,4,455,52.85%
1192,2,457,53.08%
1193,0,457,53.08%
1194,2,459,53.31%
1195,0,459,53.31%
1196,2,461,53.54%
1197,3,464,53.89%
1198,2,466,54.12%
1199,3,469,54.47%
1200,0,469,54.47%
1201,1,470,54.59%
1202,0,470,54.59%
1203,4,474,55.05%
1204,2,476,55.28%
1205,0,476,55.28%
1206,0,476,55.28%
1207,2,478,55.52%
1208,0,478,55.52%
1209,0,478,55.52%
1210,0,478,55.52%
1211,2,480,55.75%
1212,2,482,55.98%
1213,0,482,55.98%
1214,0,482,55.98%
1215,0,482,55.98%
1216,0,482,55.98%
1217,2,484,56.21%
1218,0,484,56.21%
1219,0,484,56.21%
1220,0,484,56.21%
1221,1,485,56.33%
1222,4,489,56.79%
1223,0,489,56.79%
1224,0,489,56.79%
1225,1,490,56.91%
1226,1,491,57.03%
1227,0,491,57.03%
1228,0,491,57.03%
1229,0,491,57.03%
1230,3,494,57.38%
1231,3,497,57.72%
1232,3,500,58.07%
1233,1,501,58.19%
1234,1,502,58.3%
1235,1,503,58.42%
1236,2,505,58.65%
1237,2,507,58.89%
1238,1,508,59.0%
1239,0,508,59.0%
1240,4,512,59.47%
1241,7,519,60.28%
1242,4,523,60.74%
1243,1,524,60.86%
1244,0,524,60.86%
1245,0,524,60.86%
1246,3,527,61.21%
1247,1,528,61.32%
1248,0,528,61.32%
1249,1,529,61.44%
1250,3,532,61.79%
1251,0,532,61.79%
1252,0,532,61.79%
1253,0,532,61.79%
1254,0,532,61.79%
1255,0,532,61.79%
1256,2,534,62.02%
1257,3,537,62.37%
1258,0,537,62.37%
1259,0,537,62.37%
1260,0,537,62.37%
1261,0,537,62.37%
1262,0,537,62.37%
1263,0,537,62.37%
1264,2,539,62.6%
1265,1,540,62.72%
1266,1,541,62.83%
1267,2,543,63.07%
1268,1,544,63.18%
1269,2,546,63.41%
1270,7,553,64.23%
1271,0,553,64.23%
1272,0,553,64.23%
1273,2,555,64.46%
1274,4,559,64.92%
1275,8,567,65.85%
1276,1,568,65.97%
1277,0,568,65.97%
1278,2,570,66.2%
1279,4,574,66.67%
1280,1,575,66.78%
1281,0,575,66.78%
1282,0,575,66.78%
1283,1,576,66.9%
1284,4,580,67.36%
1285,2,582,67.6%
1286,0,582,67.6%
1287,0,582,67.6%
1288,2,584,67.83%
1289,2,586,68.06%
1290,0,586,68.06%
1291,0,586,68.06%
1292,0,586,68.06%
1293,2,588,68.29%
1294,3,591,68.64%
1295,0,591,68.64%
1296,0,591,68.64%
1297,4,595,69.11%
1298,2,597,69.34%
1299,1,598,69.45%
1300,2,600,69.69%
1301,2,602,69.92%
1302,2,604,70.15%
1303,2,606,70.38%
1304,3,609,70.73%
1305,4,613,71.2%
1306,1,614,71.31%
1307,2,616,71.54%
1308,2,618,71.78%
1309,1,619,71.89%
1310,0,619,71.89%
1311,0,619,71.89%
1312,1,620,72.01%
1313,3,623,72.36%
1314,1,624,72.47%
1315,0,624,72.47%
1316,0,624,72.47%
1317,1,625,72.59%
1318,1,626,72.71%
1319,0,626,72.71%
1320,0,626,72.71%
1321,1,627,72.82%
1322,3,630,73.17%
1323,0,630,73.17%
1324,3,633,73.52%
1325,4,637,73.98%
1326,0,637,73.98%
1327,2,639,74.22%
1328,1,640,74.33%
1329,7,647,75.15%
1330,1,648,75.26%
1331,0,648,75.26%
1332,1,649,75.38%
1333,0,649,75.38%
1334,0,649,75.38%
1335,3,652,75.73%
1336,1,653,75.84%
1337,0,653,75.84%
1338,9,662,76.89%
1339,0,662,76.89%
1340,0,662,76.89%
1341,0,662,76.89%
1342,1,663,77.0%
1343,1,664,77.12%
1344,0,664,77.12%
1345,1,665,77.24%
1346,1,666,77.35%
1347,1,667,77.47%
1348,2,669,77.7%
1349,0,669,77.7%
1350,0,669,77.7%
1351,0,669,77.7%
1352,0,669,77.7%
1353,1,670,77.82%
1354,0,670,77.82%
1355,0,670,77.82%
1356,2,672,78.05%
1357,2,674,78.28%
1358,1,675,78.4%
1359,1,676,78.51%
1360,1,677,78.63%
1361,5,682,79.21%
1362,179,861,100.0%
