Length, Count, Sum (Counts <= Length), Percent of Nonzero Data, Nonzero Data Count = 851, Zero Data Count = 993
1,1,1,0.12%
2,0,1,0.12%
3,1,2,0.24%
4,0,2,0.24%
5,0,2,0.24%
6,0,2,0.24%
7,0,2,0.24%
8,0,2,0.24%
9,0,2,0.24%
10,0,2,0.24%
11,0,2,0.24%
12,0,2,0.24%
13,0,2,0.24%
14,1,3,0.35%
15,1,4,0.47%
16,0,4,0.47%
17,0,4,0.47%
18,0,4,0.47%
19,0,4,0.47%
20,0,4,0.47%
21,0,4,0.47%
22,1,5,0.59%
23,0,5,0.59%
24,0,5,0.59%
25,0,5,0.59%
26,0,5,0.59%
27,1,6,0.71%
28,1,7,0.82%
29,0,7,0.82%
30,0,7,0.82%
31,0,7,0.82%
32,0,7,0.82%
33,0,7,0.82%
34,0,7,0.82%
35,0,7,0.82%
36,0,7,0.82%
37,1,8,0.94%
38,0,8,0.94%
39,2,10,1.18%
40,0,10,1.18%
41,0,10,1.18%
42,0,10,1.18%
43,0,10,1.18%
44,1,11,1.29%
45,0,11,1.29%
46,0,11,1.29%
47,0,11,1.29%
48,0,11,1.29%
49,0,11,1.29%
50,0,11,1.29%
51,0,11,1.29%
52,1,12,1.41%
53,0,12,1.41%
54,0,12,1.41%
55,0,12,1.41%
56,0,12,1.41%
57,0,12,1.41%
58,0,12,1.41%
59,0,12,1.41%
60,0,12,1.41%
61,0,12,1.41%
62,0,12,1.41%
63,1,13,1.53%
64,0,13,1.53%
65,0,13,1.53%
66,0,13,1.53%
67,0,13,1.53%
68,1,14,1.65%
69,0,14,1.65%
70,0,14,1.65%
71,0,14,1.65%
72,0,14,1.65%
73,2,16,1.88%
74,0,16,1.88%
75,0,16,1.88%
76,0,16,1.88%
77,0,16,1.88%
78,0,16,1.88%
79,2,18,2.12%
80,0,18,2.12%
81,0,18,2.12%
82,0,18,2.12%
83,0,18,2.12%
84,0,18,2.12%
85,1,19,2.23%
86,0,19,2.23%
87,1,20,2.35%
88,0,20,2.35%
89,0,20,2.35%
90,0,20,2.35%
91,0,20,2.35%
92,1,21,2.47%
93,0,21,2.47%
94,0,21,2.47%
95,0,21,2.47%
96,1,22,2.59%
97,0,22,2.59%
98,0,22,2.59%
99,0,22,2.59%
100,0,22,2.59%
101,0,22,2.59%
102,0,22,2.59%
103,0,22,2.59%
104,0,22,2.59%
105,1,23,2.7%
106,1,24,2.82%
107,0,24,2.82%
108,0,24,2.82%
109,0,24,2.82%
110,0,24,2.82%
111,0,24,2.82%
112,0,24,2.82%
113,0,24,2.82%
114,0,24,2.82%
115,0,24,2.82%
116,0,24,2.82%
117,1,25,2.94%
118,1,26,3.06%
119,0,26,3.06%
120,0,26,3.06%
121,0,26,3.06%
122,0,26,3.06%
123,0,26,3.06%
124,0,26,3.06%
125,1,27,3.17%
126,0,27,3.17%
127,0,27,3.17%
128,1,28,3.29%
129,0,28,3.29%
130,0,28,3.29%
131,0,28,3.29%
132,0,28,3.29%
133,0,28,3.29%
134,1,29,3.41%
135,0,29,3.41%
136,0,29,3.41%
137,0,29,3.41%
138,0,29,3.41%
139,0,29,3.41%
140,0,29,3.41%
141,0,29,3.41%
142,1,30,3.53%
143,0,30,3.53%
144,0,30,3.53%
145,2,32,3.76%
146,0,32,3.76%
147,0,32,3.76%
148,0,32,3.76%
149,0,32,3.76%
150,1,33,3.88%
151,1,34,4.0%
152,0,34,4.0%
153,0,34,4.0%
154,0,34,4.0%
155,1,35,4.11%
156,0,35,4.11%
157,0,35,4.11%
158,0,35,4.11%
159,0,35,4.11%
160,0,35,4.11%
161,0,35,4.11%
162,0,35,4.11%
163,0,35,4.11%
164,0,35,4.11%
165,1,36,4.23%
166,0,36,4.23%
167,0,36,4.23%
168,0,36,4.23%
169,0,36,4.23%
170,1,37,4.35%
171,1,38,4.47%
172,0,38,4.47%
173,0,38,4.47%
174,0,38,4.47%
175,0,38,4.47%
176,0,38,4.47%
177,0,38,4.47%
178,0,38,4.47%
179,0,38,4.47%
180,0,38,4.47%
181,1,39,4.58%
182,0,39,4.58%
183,0,39,4.58%
184,1,40,4.7%
185,0,40,4.7%
186,0,40,4.7%
187,0,40,4.7%
188,0,40,4.7%
189,0,40,4.7%
190,0,40,4.7%
191,0,40,4.7%
192,0,40,4.7%
193,0,40,4.7%
194,0,40,4.7%
195,0,40,4.7%
196,0,40,4.7%
197,0,40,4.7%
198,0,40,4.7%
199,0,40,4.7%
200,2,42,4.94%
201,1,43,5.05%
202,1,44,5.17%
203,0,44,5.17%
204,0,44,5.17%
205,0,44,5.17%
206,2,46,5.41%
207,0,46,5.41%
208,0,46,5.41%
209,0,46,5.41%
210,0,46,5.41%
211,0,46,5.41%
212,1,47,5.52%
213,0,47,5.52%
214,0,47,5.52%
215,1,48,5.64%
216,0,48,5.64%
217,0,48,5.64%
218,0,48,5.64%
219,0,48,5.64%
220,0,48,5.64%
221,1,49,5.76%
222,0,49,5.76%
223,0,49,5.76%
224,0,49,5.76%
225,0,49,5.76%
226,0,49,5.76%
227,0,49,5.76%
228,1,50,5.88%
229,0,50,5.88%
230,0,50,5.88%
231,1,51,5.99%
232,0,51,5.99%
233,0,51,5.99%
234,0,51,5.99%
235,0,51,5.99%
236,1,52,6.11%
237,0,52,6.11%
238,1,53,6.23%
239,0,53,6.23%
240,0,53,6.23%
241,0,53,6.23%
242,1,54,6.35%
243,1,55,6.46%
244,0,55,6.46%
245,0,55,6.46%
246,1,56,6.58%
247,0,56,6.58%
248,0,56,6.58%
249,0,56,6.58%
250,0,56,6.58%
251,0,56,6.58%
252,1,57,6.7%
253,0,57,6.7%
254,0,57,6.7%
255,1,58,6.82%
256,0,58,6.82%
257,0,58,6.82%
258,1,59,6.93%
259,1,60,7.05%
260,2,62,7.29%
261,0,62,7.29%
262,0,62,7.29%
263,1,63,7.4%
264,0,63,7.4%
265,1,64,7.52%
266,0,64,7.52%
267,0,64,7.52%
268,0,64,7.52%
269,0,64,7.52%
270,1,65,7.64%
271,0,65,7.64%
272,0,65,7.64%
273,0,65,7.64%
274,1,66,7.76%
275,0,66,7.76%
276,0,66,7.76%
277,0,66,7.76%
278,0,66,7.76%
279,0,66,7.76%
280,0,66,7.76%
281,0,66,7.76%
282,0,66,7.76%
283,0,66,7.76%
284,0,66,7.76%
285,1,67,7.87%
286,0,67,7.87%
287,0,67,7.87%
288,0,67,7.87%
289,0,67,7.87%
290,0,67,7.87%
291,0,67,7.87%
292,0,67,7.87%
293,1,68,7.99%
294,0,68,7.99%
295,0,68,7.99%
296,0,68,7.99%
297,0,68,7.99%
298,0,68,7.99%
299,0,68,7.99%
300,0,68,7.99%
301,0,68,7.99%
302,1,69,8.11%
303,0,69,8.11%
304,0,69,8.11%
305,0,69,8.11%
306,0,69,8.11%
307,0,69,8.11%
308,0,69,8.11%
309,0,69,8.11%
310,0,69,8.11%
311,3,72,8.46%
312,0,72,8.46%
313,0,72,8.46%
314,0,72,8.46%
315,0,72,8.46%
316,0,72,8.46%
317,0,72,8.46%
318,0,72,8.46%
319,0,72,8.46%
320,0,72,8.46%
321,1,73,8.58%
322,0,73,8.58%
323,0,73,8.58%
324,0,73,8.58%
325,3,76,8.93%
326,1,77,9.05%
327,0,77,9.05%
328,0,77,9.05%
329,0,77,9.05%
330,0,77,9.05%
331,0,77,9.05%
332,0,77,9.05%
333,0,77,9.05%
334,1,78,9.17%
335,0,78,9.17%
336,1,79,9.28%
337,0,79,9.28%
338,0,79,9.28%
339,0,79,9.28%
340,0,79,9.28%
341,0,79,9.28%
342,0,79,9.28%
343,1,80,9.4%
344,0,80,9.4%
345,0,80,9.4%
346,0,80,9.4%
347,0,80,9.4%
348,0,80,9.4%
349,1,81,9.52%
350,1,82,9.64%
351,15,97,11.4%
352,11,108,12.69%
353,0,108,12.69%
354,0,108,12.69%
355,0,108,12.69%
356,0,108,12.69%
357,0,108,12.69%
358,5,113,13.28%
359,0,113,13.28%
360,2,115,13.51%
361,1,116,13.63%
362,0,116,13.63%
363,1,117,13.75%
364,0,117,13.75%
365,1,118,13.87%
366,1,119,13.98%
367,1,120,14.1%
368,0,120,14.1%
369,1,121,14.22%
370,0,121,14.22%
371,1,122,14.34%
372,2,124,14.57%
373,0,124,14.57%
374,0,124,14.57%
375,0,124,14.57%
376,0,124,14.57%
377,0,124,14.57%
378,0,124,14.57%
379,0,124,14.57%
380,1,125,14.69%
381,0,125,14.69%
382,1,126,14.81%
383,0,126,14.81%
384,0,126,14.81%
385,0,126,14.81%
386,0,126,14.81%
387,0,126,14.81%
388,0,126,14.81%
389,0,126,14.81%
390,0,126,14.81%
391,0,126,14.81%
392,1,127,14.92%
393,2,129,15.16%
394,0,129,15.16%
395,0,129,15.16%
396,0,129,15.16%
397,1,130,15.28%
398,0,130,15.28%
399,1,131,15.39%
400,0,131,15.39%
401,0,131,15.39%
402,0,131,15.39%
403,0,131,15.39%
404,0,131,15.39%
405,0,131,15.39%
406,3,134,15.75%
407,0,134,15.75%
408,0,134,15.75%
409,0,134,15.75%
410,0,134,15.75%
411,0,134,15.75%
412,1,135,15.86%
413,0,135,15.86%
414,0,135,15.86%
415,0,135,15.86%
416,0,135,15.86%
417,1,136,15.98%
418,0,136,15.98%
419,0,136,15.98%
420,0,136,15.98%
421,0,136,15.98%
422,1,137,16.1%
423,0,137,16.1%
424,0,137,16.1%
425,1,138,16.22%
426,1,139,16.33%
427,0,139,16.33%
428,0,139,16.33%
429,0,139,16.33%
430,1,140,16.45%
431,0,140,16.45%
432,0,140,16.45%
433,0,140,16.45%
434,0,140,16.45%
435,1,141,16.57%
436,0,141,16.57%
437,1,142,16.69%
438,0,142,16.69%
439,0,142,16.69%
440,0,142,16.69%
441,1,143,16.8%
442,0,143,16.8%
443,0,143,16.8%
444,1,144,16.92%
445,0,144,16.92%
446,1,145,17.04%
447,0,145,17.04%
448,0,145,17.04%
449,0,145,17.04%
450,0,145,17.04%
451,0,145,17.04%
452,0,145,17.04%
453,0,145,17.04%
454,0,145,17.04%
455,0,145,17.04%
456,0,145,17.04%
457,0,145,17.04%
458,1,146,17.16%
459,2,148,17.39%
460,0,148,17.39%
461,0,148,17.39%
462,0,148,17.39%
463,0,148,17.39%
464,0,148,17.39%
465,0,148,17.39%
466,0,148,17.39%
467,0,148,17.39%
468,0,148,17.39%
469,0,148,17.39%
470,0,148,17.39%
471,0,148,17.39%
472,0,148,17.39%
473,0,148,17.39%
474,1,149,17.51%
475,0,149,17.51%
476,0,149,17.51%
477,1,150,17.63%
478,0,150,17.63%
479,1,151,17.74%
480,0,151,17.74%
481,0,151,17.74%
482,1,152,17.86%
483,0,152,17.86%
484,0,152,17.86%
485,0,152,17.86%
486,0,152,17.86%
487,0,152,17.86%
488,0,152,17.86%
489,0,152,17.86%
490,1,153,17.98%
491,0,153,17.98%
492,0,153,17.98%
493,0,153,17.98%
494,0,153,17.98%
495,1,154,18.1%
496,1,155,18.21%
497,1,156,18.33%
498,0,156,18.33%
499,0,156,18.33%
500,0,156,18.33%
501,0,156,18.33%
502,0,156,18.33%
503,1,157,18.45%
504,0,157,18.45%
505,0,157,18.45%
506,0,157,18.45%
507,0,157,18.45%
508,0,157,18.45%
509,0,157,18.45%
510,1,158,18.57%
511,0,158,18.57%
512,0,158,18.57%
513,0,158,18.57%
514,0,158,18.57%
515,0,158,18.57%
516,0,158,18.57%
517,0,158,18.57%
518,0,158,18.57%
519,1,159,18.68%
520,0,159,18.68%
521,1,160,18.8%
522,0,160,18.8%
523,0,160,18.8%
524,0,160,18.8%
525,1,161,18.92%
526,0,161,18.92%
527,0,161,18.92%
528,0,161,18.92%
529,1,162,19.04%
530,1,163,19.15%
531,0,163,19.15%
532,0,163,19.15%
533,2,165,19.39%
534,0,165,19.39%
535,0,165,19.39%
536,0,165,19.39%
537,1,166,19.51%
538,0,166,19.51%
539,0,166,19.51%
540,0,166,19.51%
541,0,166,19.51%
542,0,166,19.51%
543,0,166,19.51%
544,0,166,19.51%
545,1,167,19.62%
546,1,168,19.74%
547,0,168,19.74%
548,0,168,19.74%
549,1,169,19.86%
550,0,169,19.86%
551,0,169,19.86%
552,0,169,19.86%
553,0,169,19.86%
554,0,169,19.86%
555,0,169,19.86%
556,1,170,19.98%
557,0,170,19.98%
558,0,170,19.98%
559,0,170,19.98%
560,0,170,19.98%
561,0,170,19.98%
562,0,170,19.98%
563,0,170,19.98%
564,1,171,20.09%
565,0,171,20.09%
566,0,171,20.09%
567,1,172,20.21%
568,1,173,20.33%
569,0,173,20.33%
570,0,173,20.33%
571,0,173,20.33%
572,0,173,20.33%
573,2,175,20.56%
574,0,175,20.56%
575,0,175,20.56%
576,8,183,21.5%
577,0,183,21.5%
578,0,183,21.5%
579,1,184,21.62%
580,0,184,21.62%
581,0,184,21.62%
582,0,184,21.62%
583,0,184,21.62%
584,0,184,21.62%
585,0,184,21.62%
586,0,184,21.62%
587,0,184,21.62%
588,1,185,21.74%
589,0,185,21.74%
590,0,185,21.74%
591,0,185,21.74%
592,0,185,21.74%
593,0,185,21.74%
594,0,185,21.74%
595,0,185,21.74%
596,0,185,21.74%
597,0,185,21.74%
598,0,185,21.74%
599,1,186,21.86%
600,0,186,21.86%
601,0,186,21.86%
602,1,187,21.97%
603,1,188,22.09%
604,1,189,22.21%
605,0,189,22.21%
606,0,189,22.21%
607,0,189,22.21%
608,0,189,22.21%
609,0,189,22.21%
610,0,189,22.21%
611,0,189,22.21%
612,0,189,22.21%
613,0,189,22.21%
614,0,189,22.21%
615,0,189,22.21%
616,0,189,22.21%
617,0,189,22.21%
618,0,189,22.21%
619,0,189,22.21%
620,0,189,22.21%
621,0,189,22.21%
622,1,190,22.33%
623,0,190,22.33%
624,0,190,22.33%
625,0,190,22.33%
626,1,191,22.44%
627,0,191,22.44%
628,0,191,22.44%
629,0,191,22.44%
630,0,191,22.44%
631,0,191,22.44%
632,1,192,22.56%
633,0,192,22.56%
634,0,192,22.56%
635,1,193,22.68%
636,0,193,22.68%
637,0,193,22.68%
638,0,193,22.68%
639,0,193,22.68%
640,0,193,22.68%
641,0,193,22.68%
642,0,193,22.68%
643,0,193,22.68%
644,0,193,22.68%
645,0,193,22.68%
646,0,193,22.68%
647,1,194,22.8%
648,0,194,22.8%
649,1,195,22.91%
650,0,195,22.91%
651,0,195,22.91%
652,1,196,23.03%
653,2,198,23.27%
654,0,198,23.27%
655,0,198,23.27%
656,0,198,23.27%
657,0,198,23.27%
658,0,198,23.27%
659,0,198,23.27%
660,0,198,23.27%
661,0,198,23.27%
662,1,199,23.38%
663,0,199,23.38%
664,0,199,23.38%
665,0,199,23.38%
666,1,200,23.5%
667,0,200,23.5%
668,0,200,23.5%
669,0,200,23.5%
670,0,200,23.5%
671,0,200,23.5%
672,0,200,23.5%
673,0,200,23.5%
674,0,200,23.5%
675,0,200,23.5%
676,0,200,23.5%
677,0,200,23.5%
678,0,200,23.5%
679,0,200,23.5%
680,0,200,23.5%
681,0,200,23.5%
682,0,200,23.5%
683,1,201,23.62%
684,0,201,23.62%
685,0,201,23.62%
686,0,201,23.62%
687,2,203,23.85%
688,0,203,23.85%
689,0,203,23.85%
690,0,203,23.85%
691,1,204,23.97%
692,0,204,23.97%
693,5,209,24.56%
694,0,209,24.56%
695,0,209,24.56%
696,0,209,24.56%
697,0,209,24.56%
698,0,209,24.56%
699,0,209,24.56%
700,1,210,24.68%
701,0,210,24.68%
702,0,210,24.68%
703,0,210,24.68%
704,1,211,24.79%
705,1,212,24.91%
706,0,212,24.91%
707,0,212,24.91%
708,0,212,24.91%
709,0,212,24.91%
710,0,212,24.91%
711,0,212,24.91%
712,0,212,24.91%
713,0,212,24.91%
714,0,212,24.91%
715,0,212,24.91%
716,0,212,24.91%
717,0,212,24.91%
718,1,213,25.03%
719,1,214,25.15%
720,1,215,25.26%
721,0,215,25.26%
722,0,215,25.26%
723,0,215,25.26%
724,0,215,25.26%
725,0,215,25.26%
726,0,215,25.26%
727,0,215,25.26%
728,0,215,25.26%
729,1,216,25.38%
730,0,216,25.38%
731,0,216,25.38%
732,0,216,25.38%
733,0,216,25.38%
734,0,216,25.38%
735,1,217,25.5%
736,0,217,25.5%
737,0,217,25.5%
738,0,217,25.5%
739,0,217,25.5%
740,0,217,25.5%
741,0,217,25.5%
742,0,217,25.5%
743,0,217,25.5%
744,1,218,25.62%
745,0,218,25.62%
746,0,218,25.62%
747,0,218,25.62%
748,0,218,25.62%
749,0,218,25.62%
750,0,218,25.62%
751,0,218,25.62%
752,0,218,25.62%
753,1,219,25.73%
754,1,220,25.85%
755,0,220,25.85%
756,0,220,25.85%
757,0,220,25.85%
758,0,220,25.85%
759,0,220,25.85%
760,0,220,25.85%
761,0,220,25.85%
762,1,221,25.97%
763,0,221,25.97%
764,0,221,25.97%
765,1,222,26.09%
766,0,222,26.09%
767,0,222,26.09%
768,0,222,26.09%
769,1,223,26.2%
770,0,223,26.2%
771,0,223,26.2%
772,0,223,26.2%
773,0,223,26.2%
774,1,224,26.32%
775,0,224,26.32%
776,1,225,26.44%
777,0,225,26.44%
778,1,226,26.56%
779,0,226,26.56%
780,0,226,26.56%
781,0,226,26.56%
782,0,226,26.56%
783,0,226,26.56%
784,0,226,26.56%
785,2,228,26.79%
786,0,228,26.79%
787,9,237,27.85%
788,0,237,27.85%
789,1,238,27.97%
790,0,238,27.97%
791,0,238,27.97%
792,0,238,27.97%
793,0,238,27.97%
794,0,238,27.97%
795,2,240,28.2%
796,0,240,28.2%
797,0,240,28.2%
798,0,240,28.2%
799,0,240,28.2%
800,0,240,28.2%
801,1,241,28.32%
802,0,241,28.32%
803,0,241,28.32%
804,1,242,28.44%
805,0,242,28.44%
806,0,242,28.44%
807,0,242,28.44%
808,0,242,28.44%
809,0,242,28.44%
810,0,242,28.44%
811,0,242,28.44%
812,0,242,28.44%
813,0,242,28.44%
814,0,242,28.44%
815,0,242,28.44%
816,2,244,28.67%
817,0,244,28.67%
818,0,244,28.67%
819,1,245,28.79%
820,0,245,28.79%
821,0,245,28.79%
822,0,245,28.79%
823,0,245,28.79%
824,0,245,28.79%
825,0,245,28.79%
826,0,245,28.79%
827,0,245,28.79%
828,0,245,28.79%
829,0,245,28.79%
830,0,245,28.79%
831,0,245,28.79%
832,0,245,28.79%
833,0,245,28.79%
834,0,245,28.79%
835,0,245,28.79%
836,0,245,28.79%
837,1,246,28.91%
838,0,246,28.91%
839,0,246,28.91%
840,1,247,29.02%
841,0,247,29.02%
842,0,247,29.02%
843,0,247,29.02%
844,0,247,29.02%
845,0,247,29.02%
846,0,247,29.02%
847,0,247,29.02%
848,0,247,29.02%
849,0,247,29.02%
850,0,247,29.02%
851,0,247,29.02%
852,0,247,29.02%
853,0,247,29.02%
854,0,247,29.02%
855,0,247,29.02%
856,1,248,29.14%
857,0,248,29.14%
858,1,249,29.26%
859,0,249,29.26%
860,0,249,29.26%
861,1,250,29.38%
862,0,250,29.38%
863,0,250,29.38%
864,0,250,29.38%
865,0,250,29.38%
866,1,251,29.49%
867,1,252,29.61%
868,0,252,29.61%
869,0,252,29.61%
870,0,252,29.61%
871,1,253,29.73%
872,1,254,29.85%
873,0,254,29.85%
874,0,254,29.85%
875,0,254,29.85%
876,1,255,29.96%
877,0,255,29.96%
878,0,255,29.96%
879,0,255,29.96%
880,0,255,29.96%
881,1,256,30.08%
882,0,256,30.08%
883,0,256,30.08%
884,1,257,30.2%
885,0,257,30.2%
886,0,257,30.2%
887,0,257,30.2%
888,0,257,30.2%
889,0,257,30.2%
890,0,257,30.2%
891,0,257,30.2%
892,0,257,30.2%
893,0,257,30.2%
894,0,257,30.2%
895,0,257,30.2%
896,0,257,30.2%
897,1,258,30.32%
898,0,258,30.32%
899,0,258,30.32%
900,0,258,30.32%
901,1,259,30.43%
902,0,259,30.43%
903,0,259,30.43%
904,1,260,30.55%
905,0,260,30.55%
906,2,262,30.79%
907,1,263,30.9%
908,0,263,30.9%
909,0,263,30.9%
910,0,263,30.9%
911,1,264,31.02%
912,0,264,31.02%
913,0,264,31.02%
914,0,264,31.02%
915,0,264,31.02%
916,1,265,31.14%
917,0,265,31.14%
918,1,266,31.26%
919,0,266,31.26%
920,0,266,31.26%
921,0,266,31.26%
922,0,266,31.26%
923,0,266,31.26%
924,0,266,31.26%
925,1,267,31.37%
926,0,267,31.37%
927,1,268,31.49%
928,1,269,31.61%
929,0,269,31.61%
930,0,269,31.61%
931,2,271,31.84%
932,0,271,31.84%
933,0,271,31.84%
934,0,271,31.84%
935,0,271,31.84%
936,0,271,31.84%
937,0,271,31.84%
938,0,271,31.84%
939,0,271,31.84%
940,0,271,31.84%
941,0,271,31.84%
942,1,272,31.96%
943,0,272,31.96%
944,0,272,31.96%
945,0,272,31.96%
946,1,273,32.08%
947,0,273,32.08%
948,0,273,32.08%
949,0,273,32.08%
950,0,273,32.08%
951,0,273,32.08%
952,0,273,32.08%
953,0,273,32.08%
954,1,274,32.2%
955,0,274,32.2%
956,0,274,32.2%
957,0,274,32.2%
958,0,274,32.2%
959,0,274,32.2%
960,0,274,32.2%
961,0,274,32.2%
962,1,275,32.31%
963,2,277,32.55%
964,1,278,32.67%
965,0,278,32.67%
966,0,278,32.67%
967,0,278,32.67%
968,0,278,32.67%
969,0,278,32.67%
970,0,278,32.67%
971,0,278,32.67%
972,0,278,32.67%
973,0,278,32.67%
974,1,279,32.78%
975,0,279,32.78%
976,0,279,32.78%
977,0,279,32.78%
978,0,279,32.78%
979,0,279,32.78%
980,0,279,32.78%
981,2,281,33.02%
982,1,282,33.14%
983,0,282,33.14%
984,0,282,33.14%
985,1,283,33.25%
986,0,283,33.25%
987,1,284,33.37%
988,0,284,33.37%
989,0,284,33.37%
990,0,284,33.37%
991,0,284,33.37%
992,0,284,33.37%
993,0,284,33.37%
994,1,285,33.49%
995,0,285,33.49%
996,0,285,33.49%
997,1,286,33.61%
998,0,286,33.61%
999,0,286,33.61%
1000,0,286,33.61%
1001,0,286,33.61%
1002,0,286,33.61%
1003,0,286,33.61%
1004,0,286,33.61%
1005,0,286,33.61%
1006,0,286,33.61%
1007,0,286,33.61%
1008,0,286,33.61%
1009,0,286,33.61%
1010,0,286,33.61%
1011,0,286,33.61%
1012,0,286,33.61%
1013,0,286,33.61%
1014,0,286,33.61%
1015,0,286,33.61%
1016,2,288,33.84%
1017,0,288,33.84%
1018,0,288,33.84%
1019,0,288,33.84%
1020,1,289,33.96%
1021,0,289,33.96%
1022,0,289,33.96%
1023,0,289,33.96%
1024,0,289,33.96%
1025,1,290,34.08%
1026,0,290,34.08%
1027,0,290,34.08%
1028,0,290,34.08%
1029,1,291,34.2%
1030,0,291,34.2%
1031,0,291,34.2%
1032,0,291,34.2%
1033,1,292,34.31%
1034,0,292,34.31%
1035,0,292,34.31%
1036,0,292,34.31%
1037,0,292,34.31%
1038,0,292,34.31%
1039,0,292,34.31%
1040,0,292,34.31%
1041,0,292,34.31%
1042,0,292,34.31%
1043,1,293,34.43%
1044,0,293,34.43%
1045,1,294,34.55%
1046,0,294,34.55%
1047,0,294,34.55%
1048,0,294,34.55%
1049,1,295,34.67%
1050,0,295,34.67%
1051,0,295,34.67%
1052,0,295,34.67%
1053,0,295,34.67%
1054,0,295,34.67%
1055,0,295,34.67%
1056,0,295,34.67%
1057,0,295,34.67%
1058,0,295,34.67%
1059,0,295,34.67%
1060,0,295,34.67%
1061,0,295,34.67%
1062,0,295,34.67%
1063,0,295,34.67%
1064,0,295,34.67%
1065,0,295,34.67%
1066,0,295,34.67%
1067,0,295,34.67%
1068,1,296,34.78%
1069,0,296,34.78%
1070,0,296,34.78%
1071,0,296,34.78%
1072,1,297,34.9%
1073,0,297,34.9%
1074,0,297,34.9%
1075,0,297,34.9%
1076,4,301,35.37%
1077,0,301,35.37%
1078,0,301,35.37%
1079,0,301,35.37%
1080,0,301,35.37%
1081,0,301,35.37%
1082,1,302,35.49%
1083,1,303,35.61%
1084,0,303,35.61%
1085,0,303,35.61%
1086,1,304,35.72%
1087,0,304,35.72%
1088,0,304,35.72%
1089,0,304,35.72%
1090,0,304,35.72%
1091,0,304,35.72%
1092,0,304,35.72%
1093,0,304,35.72%
1094,1,305,35.84%
1095,0,305,35.84%
1096,1,306,35.96%
1097,0,306,35.96%
1098,0,306,35.96%
1099,1,307,36.08%
1100,1,308,36.19%
1101,2,310,36.43%
1102,1,311,36.55%
1103,1,312,36.66%
1104,0,312,36.66%
1105,3,315,37.02%
1106,1,316,37.13%
1107,0,316,37.13%
1108,0,316,37.13%
1109,2,318,37.37%
1110,2,320,37.6%
1111,0,320,37.6%
1112,0,320,37.6%
1113,1,321,37.72%
1114,1,322,37.84%
1115,3,325,38.19%
1116,5,330,38.78%
1117,0,330,38.78%
1118,1,331,38.9%
1119,2,333,39.13%
1120,1,334,39.25%
1121,1,335,39.37%
1122,0,335,39.37%
1123,0,335,39.37%
1124,1,336,39.48%
1125,4,340,39.95%
1126,2,342,40.19%
1127,1,343,40.31%
1128,1,344,40.42%
1129,1,345,40.54%
1130,0,345,40.54%
1131,2,347,40.78%
1132,0,347,40.78%
1133,2,349,41.01%
1134,2,351,41.25%
1135,1,352,41.36%
1136,0,352,41.36%
1137,1,353,41.48%
1138,0,353,41.48%
1139,1,354,41.6%
1140,0,354,41.6%
1141,6,360,42.3%
1142,1,361,42.42%
1143,4,365,42.89%
1144,2,367,43.13%
1145,3,370,43.48%
1146,1,371,43.6%
1147,1,372,43.71%
1148,3,375,44.07%
1149,6,381,44.77%
1150,0,381,44.77%
1151,0,381,44.77%
1152,0,381,44.77%
1153,0,381,44.77%
1154,1,382,44.89%
1155,1,383,45.01%
1156,0,383,45.01%
1157,2,385,45.24%
1158,5,390,45.83%
1159,3,393,46.18%
1160,2,395,46.42%
1161,0,395,46.42%
1162,3,398,46.77%
1163,2,400,47.0%
1164,0,400,47.0%
1165,0,400,47.0%
1166,0,400,47.0%
1167,0,400,47.0%
1168,4,404,47.47%
1169,3,407,47.83%
1170,2,409,48.06%
1171,0,409,48.06%
1172,0,409,48.06%
1173,6,415,48.77%
1174,3,418,49.12%
1175,0,418,49.12%
1176,3,421,49.47%
1177,0,421,49.47%
1178,1,422,49.59%
1179,1,423,49.71%
1180,1,424,49.82%
1181,0,424,49.82%
1182,1,425,49.94%
1183,6,431,50.65%
1184,10,441,51.82%
1185,1,442,51.94%
1186,2,444,52.17%
1187,6,450,52.88%
1188,0,450,52.88%
1189,0,450,52.88%
1190,0,450,52.88%
1191,4,454,53.35%
1192,2,456,53.58%
1193,0,456,53.58%
1194,2,458,53.82%
1195,0,458,53.82%
1196,2,460,54.05%
1197,3,463,54.41%
1198,2,465,54.64%
1199,2,467,54.88%
1200,0,467,54.88%
1201,1,468,54.99%
1202,0,468,54.99%
1203,4,472,55.46%
1204,2,474,55.7%
1205,0,474,55.7%
1206,0,474,55.7%
1207,2,476,55.93%
1208,0,476,55.93%
1209,0,476,55.93%
1210,0,476,55.93%
1211,1,477,56.05%
1212,1,478,56.17%
1213,0,478,56.17%
1214,0,478,56.17%
1215,0,478,56.17%
1216,0,478,56.17%
1217,2,480,56.4%
1218,0,480,56.4%
1219,0,480,56.4%
1220,0,480,56.4%
1221,1,481,56.52%
1222,4,485,56.99%
1223,0,485,56.99%
1224,2,487,57.23%
1225,1,488,57.34%
1226,1,489,57.46%
1227,0,489,57.46%
1228,0,489,57.46%
1229,0,489,57.46%
1230,2,491,57.7%
1231,3,494,58.05%
1232,4,498,58.52%
1233,353,851,100.0%
