Length, Count, Sum (Counts <= Length), Percent of Nonzero Data, Nonzero Data Count = 849, Zero Data Count = 995
1,2,2,0.24%
2,0,2,0.24%
3,1,3,0.35%
4,0,3,0.35%
5,0,3,0.35%
6,1,4,0.47%
7,1,5,0.59%
8,0,5,0.59%
9,0,5,0.59%
10,0,5,0.59%
11,0,5,0.59%
12,0,5,0.59%
13,0,5,0.59%
14,0,5,0.59%
15,0,5,0.59%
16,1,6,0.71%
17,0,6,0.71%
18,1,7,0.82%
19,0,7,0.82%
20,0,7,0.82%
21,0,7,0.82%
22,0,7,0.82%
23,1,8,0.94%
24,0,8,0.94%
25,0,8,0.94%
26,0,8,0.94%
27,0,8,0.94%
28,0,8,0.94%
29,0,8,0.94%
30,0,8,0.94%
31,0,8,0.94%
32,0,8,0.94%
33,0,8,0.94%
34,0,8,0.94%
35,0,8,0.94%
36,0,8,0.94%
37,0,8,0.94%
38,0,8,0.94%
39,1,9,1.06%
40,0,9,1.06%
41,0,9,1.06%
42,0,9,1.06%
43,0,9,1.06%
44,0,9,1.06%
45,0,9,1.06%
46,0,9,1.06%
47,1,10,1.18%
48,0,10,1.18%
49,0,10,1.18%
50,0,10,1.18%
51,0,10,1.18%
52,3,13,1.53%
53,0,13,1.53%
54,0,13,1.53%
55,0,13,1.53%
56,0,13,1.53%
57,0,13,1.53%
58,2,15,1.77%
59,0,15,1.77%
60,0,15,1.77%
61,0,15,1.77%
62,0,15,1.77%
63,1,16,1.88%
64,0,16,1.88%
65,0,16,1.88%
66,1,17,2.0%
67,0,17,2.0%
68,0,17,2.0%
69,0,17,2.0%
70,0,17,2.0%
71,0,17,2.0%
72,0,17,2.0%
73,0,17,2.0%
74,0,17,2.0%
75,0,17,2.0%
76,0,17,2.0%
77,0,17,2.0%
78,0,17,2.0%
79,0,17,2.0%
80,0,17,2.0%
81,0,17,2.0%
82,0,17,2.0%
83,0,17,2.0%
84,1,18,2.12%
85,1,19,2.24%
86,0,19,2.24%
87,0,19,2.24%
88,0,19,2.24%
89,0,19,2.24%
90,0,19,2.24%
91,0,19,2.24%
92,1,20,2.36%
93,0,20,2.36%
94,0,20,2.36%
95,0,20,2.36%
96,2,22,2.59%
97,1,23,2.71%
98,0,23,2.71%
99,0,23,2.71%
100,0,23,2.71%
101,0,23,2.71%
102,0,23,2.71%
103,0,23,2.71%
104,0,23,2.71%
105,0,23,2.71%
106,1,24,2.83%
107,0,24,2.83%
108,0,24,2.83%
109,0,24,2.83%
110,0,24,2.83%
111,0,24,2.83%
112,0,24,2.83%
113,1,25,2.94%
114,0,25,2.94%
115,0,25,2.94%
116,0,25,2.94%
117,0,25,2.94%
118,0,25,2.94%
119,0,25,2.94%
120,0,25,2.94%
121,1,26,3.06%
122,0,26,3.06%
123,0,26,3.06%
124,0,26,3.06%
125,1,27,3.18%
126,0,27,3.18%
127,0,27,3.18%
128,1,28,3.3%
129,0,28,3.3%
130,0,28,3.3%
131,0,28,3.3%
132,0,28,3.3%
133,0,28,3.3%
134,0,28,3.3%
135,0,28,3.3%
136,0,28,3.3%
137,0,28,3.3%
138,0,28,3.3%
139,0,28,3.3%
140,0,28,3.3%
141,0,28,3.3%
142,0,28,3.3%
143,0,28,3.3%
144,1,29,3.42%
145,2,31,3.65%
146,0,31,3.65%
147,0,31,3.65%
148,0,31,3.65%
149,0,31,3.65%
150,2,33,3.89%
151,1,34,4.0%
152,0,34,4.0%
153,0,34,4.0%
154,0,34,4.0%
155,1,35,4.12%
156,0,35,4.12%
157,0,35,4.12%
158,0,35,4.12%
159,0,35,4.12%
160,0,35,4.12%
161,0,35,4.12%
162,0,35,4.12%
163,0,35,4.12%
164,0,35,4.12%
165,0,35,4.12%
166,0,35,4.12%
167,0,35,4.12%
168,0,35,4.12%
169,0,35,4.12%
170,1,36,4.24%
171,0,36,4.24%
172,0,36,4.24%
173,0,36,4.24%
174,0,36,4.24%
175,0,36,4.24%
176,0,36,4.24%
177,0,36,4.24%
178,0,36,4.24%
179,1,37,4.36%
180,0,37,4.36%
181,1,38,4.48%
182,0,38,4.48%
183,0,38,4.48%
184,1,39,4.59%
185,2,41,4.83%
186,0,41,4.83%
187,0,41,4.83%
188,0,41,4.83%
189,0,41,4.83%
190,0,41,4.83%
191,0,41,4.83%
192,0,41,4.83%
193,0,41,4.83%
194,0,41,4.83%
195,0,41,4.83%
196,0,41,4.83%
197,0,41,4.83%
198,0,41,4.83%
199,0,41,4.83%
200,2,43,5.06%
201,1,44,5.18%
202,1,45,5.3%
203,0,45,5.3%
204,0,45,5.3%
205,0,45,5.3%
206,0,45,5.3%
207,1,46,5.42%
208,0,46,5.42%
209,0,46,5.42%
210,0,46,5.42%
211,0,46,5.42%
212,1,47,5.54%
213,0,47,5.54%
214,0,47,5.54%
215,1,48,5.65%
216,0,48,5.65%
217,1,49,5.77%
218,0,49,5.77%
219,0,49,5.77%
220,0,49,5.77%
221,1,50,5.89%
222,0,50,5.89%
223,0,50,5.89%
224,0,50,5.89%
225,1,51,6.01%
226,0,51,6.01%
227,0,51,6.01%
228,0,51,6.01%
229,0,51,6.01%
230,0,51,6.01%
231,1,52,6.12%
232,0,52,6.12%
233,0,52,6.12%
234,0,52,6.12%
235,0,52,6.12%
236,1,53,6.24%
237,1,54,6.36%
238,0,54,6.36%
239,2,56,6.6%
240,0,56,6.6%
241,0,56,6.6%
242,0,56,6.6%
243,1,57,6.71%
244,0,57,6.71%
245,0,57,6.71%
246,0,57,6.71%
247,0,57,6.71%
248,0,57,6.71%
249,0,57,6.71%
250,0,57,6.71%
251,0,57,6.71%
252,1,58,6.83%
253,0,58,6.83%
254,0,58,6.83%
255,1,59,6.95%
256,0,59,6.95%
257,0,59,6.95%
258,0,59,6.95%
259,1,60,7.07%
260,0,60,7.07%
261,0,60,7.07%
262,0,60,7.07%
263,1,61,7.18%
264,1,62,7.3%
265,1,63,7.42%
266,0,63,7.42%
267,0,63,7.42%
268,0,63,7.42%
269,0,63,7.42%
270,1,64,7.54%
271,0,64,7.54%
272,1,65,7.66%
273,0,65,7.66%
274,1,66,7.77%
275,0,66,7.77%
276,0,66,7.77%
277,0,66,7.77%
278,0,66,7.77%
279,0,66,7.77%
280,0,66,7.77%
281,1,67,7.89%
282,0,67,7.89%
283,0,67,7.89%
284,0,67,7.89%
285,0,67,7.89%
286,0,67,7.89%
287,0,67,7.89%
288,0,67,7.89%
289,0,67,7.89%
290,1,68,8.01%
291,0,68,8.01%
292,0,68,8.01%
293,0,68,8.01%
294,0,68,8.01%
295,0,68,8.01%
296,0,68,8.01%
297,0,68,8.01%
298,0,68,8.01%
299,0,68,8.01%
300,1,69,8.13%
301,0,69,8.13%
302,0,69,8.13%
303,0,69,8.13%
304,1,70,8.24%
305,1,71,8.36%
306,0,71,8.36%
307,0,71,8.36%
308,0,71,8.36%
309,0,71,8.36%
310,0,71,8.36%
311,2,73,8.6%
312,0,73,8.6%
313,1,74,8.72%
314,0,74,8.72%
315,1,75,8.83%
316,0,75,8.83%
317,0,75,8.83%
318,0,75,8.83%
319,0,75,8.83%
320,0,75,8.83%
321,0,75,8.83%
322,0,75,8.83%
323,0,75,8.83%
324,0,75,8.83%
325,2,77,9.07%
326,0,77,9.07%
327,0,77,9.07%
328,1,78,9.19%
329,0,78,9.19%
330,0,78,9.19%
331,1,79,9.31%
332,0,79,9.31%
333,0,79,9.31%
334,0,79,9.31%
335,0,79,9.31%
336,0,79,9.31%
337,0,79,9.31%
338,0,79,9.31%
339,0,79,9.31%
340,0,79,9.31%
341,0,79,9.31%
342,0,79,9.31%
343,1,80,9.42%
344,1,81,9.54%
345,0,81,9.54%
346,1,82,9.66%
347,0,82,9.66%
348,1,83,9.78%
349,0,83,9.78%
350,2,85,10.01%
351,15,100,11.78%
352,10,110,12.96%
353,0,110,12.96%
354,0,110,12.96%
355,0,110,12.96%
356,0,110,12.96%
357,0,110,12.96%
358,5,115,13.55%
359,1,116,13.66%
360,2,118,13.9%
361,1,119,14.02%
362,0,119,14.02%
363,1,120,14.13%
364,0,120,14.13%
365,0,120,14.13%
366,1,121,14.25%
367,0,121,14.25%
368,0,121,14.25%
369,0,121,14.25%
370,0,121,14.25%
371,1,122,14.37%
372,3,125,14.72%
373,0,125,14.72%
374,0,125,14.72%
375,1,126,14.84%
376,0,126,14.84%
377,0,126,14.84%
378,1,127,14.96%
379,0,127,14.96%
380,0,127,14.96%
381,0,127,14.96%
382,0,127,14.96%
383,0,127,14.96%
384,0,127,14.96%
385,1,128,15.08%
386,0,128,15.08%
387,0,128,15.08%
388,0,128,15.08%
389,0,128,15.08%
390,0,128,15.08%
391,0,128,15.08%
392,0,128,15.08%
393,1,129,15.19%
394,0,129,15.19%
395,0,129,15.19%
396,1,130,15.31%
397,1,131,15.43%
398,0,131,15.43%
399,0,131,15.43%
400,0,131,15.43%
401,0,131,15.43%
402,0,131,15.43%
403,0,131,15.43%
404,1,132,15.55%
405,1,133,15.67%
406,2,135,15.9%
407,0,135,15.9%
408,0,135,15.9%
409,1,136,16.02%
410,0,136,16.02%
411,0,136,16.02%
412,1,137,16.14%
413,0,137,16.14%
414,0,137,16.14%
415,0,137,16.14%
416,1,138,16.25%
417,0,138,16.25%
418,0,138,16.25%
419,0,138,16.25%
420,0,138,16.25%
421,0,138,16.25%
422,1,139,16.37%
423,1,140,16.49%
424,0,140,16.49%
425,0,140,16.49%
426,0,140,16.49%
427,0,140,16.49%
428,0,140,16.49%
429,0,140,16.49%
430,0,140,16.49%
431,0,140,16.49%
432,0,140,16.49%
433,0,140,16.49%
434,0,140,16.49%
435,1,141,16.61%
436,0,141,16.61%
437,1,142,16.73%
438,2,144,16.96%
439,0,144,16.96%
440,0,144,16.96%
441,1,145,17.08%
442,0,145,17.08%
443,0,145,17.08%
444,0,145,17.08%
445,0,145,17.08%
446,1,146,17.2%
447,0,146,17.2%
448,0,146,17.2%
449,0,146,17.2%
450,0,146,17.2%
451,0,146,17.2%
452,0,146,17.2%
453,1,147,17.31%
454,0,147,17.31%
455,0,147,17.31%
456,1,148,17.43%
457,0,148,17.43%
458,1,149,17.55%
459,0,149,17.55%
460,0,149,17.55%
461,0,149,17.55%
462,0,149,17.55%
463,0,149,17.55%
464,0,149,17.55%
465,0,149,17.55%
466,0,149,17.55%
467,0,149,17.55%
468,0,149,17.55%
469,0,149,17.55%
470,0,149,17.55%
471,0,149,17.55%
472,0,149,17.55%
473,0,149,17.55%
474,0,149,17.55%
475,0,149,17.55%
476,1,150,17.67%
477,0,150,17.67%
478,0,150,17.67%
479,0,150,17.67%
480,0,150,17.67%
481,0,150,17.67%
482,1,151,17.79%
483,0,151,17.79%
484,0,151,17.79%
485,0,151,17.79%
486,0,151,17.79%
487,0,151,17.79%
488,0,151,17.79%
489,1,152,17.9%
490,1,153,18.02%
491,0,153,18.02%
492,0,153,18.02%
493,0,153,18.02%
494,0,153,18.02%
495,1,154,18.14%
496,1,155,18.26%
497,0,155,18.26%
498,0,155,18.26%
499,0,155,18.26%
500,1,156,18.37%
501,0,156,18.37%
502,0,156,18.37%
503,1,157,18.49%
504,1,158,18.61%
505,0,158,18.61%
506,0,158,18.61%
507,0,158,18.61%
508,1,159,18.73%
509,1,160,18.85%
510,0,160,18.85%
511,0,160,18.85%
512,2,162,19.08%
513,0,162,19.08%
514,0,162,19.08%
515,0,162,19.08%
516,1,163,19.2%
517,0,163,19.2%
518,0,163,19.2%
519,1,164,19.32%
520,0,164,19.32%
521,0,164,19.32%
522,0,164,19.32%
523,0,164,19.32%
524,1,165,19.43%
525,0,165,19.43%
526,0,165,19.43%
527,0,165,19.43%
528,1,166,19.55%
529,0,166,19.55%
530,0,166,19.55%
531,0,166,19.55%
532,0,166,19.55%
533,0,166,19.55%
534,0,166,19.55%
535,1,167,19.67%
536,0,167,19.67%
537,0,167,19.67%
538,0,167,19.67%
539,0,167,19.67%
540,0,167,19.67%
541,0,167,19.67%
542,0,167,19.67%
543,0,167,19.67%
544,0,167,19.67%
545,0,167,19.67%
546,1,168,19.79%
547,1,169,19.91%
548,0,169,19.91%
549,0,169,19.91%
550,0,169,19.91%
551,0,169,19.91%
552,0,169,19.91%
553,0,169,19.91%
554,0,169,19.91%
555,0,169,19.91%
556,0,169,19.91%
557,0,169,19.91%
558,0,169,19.91%
559,0,169,19.91%
560,0,169,19.91%
561,0,169,19.91%
562,0,169,19.91%
563,0,169,19.91%
564,1,170,20.02%
565,0,170,20.02%
566,0,170,20.02%
567,2,172,20.26%
568,0,172,20.26%
569,0,172,20.26%
570,0,172,20.26%
571,0,172,20.26%
572,0,172,20.26%
573,2,174,20.49%
574,0,174,20.49%
575,0,174,20.49%
576,8,182,21.44%
577,0,182,21.44%
578,0,182,21.44%
579,1,183,21.55%
580,0,183,21.55%
581,1,184,21.67%
582,0,184,21.67%
583,0,184,21.67%
584,0,184,21.67%
585,0,184,21.67%
586,0,184,21.67%
587,0,184,21.67%
588,0,184,21.67%
589,0,184,21.67%
590,0,184,21.67%
591,0,184,21.67%
592,0,184,21.67%
593,0,184,21.67%
594,0,184,21.67%
595,0,184,21.67%
596,0,184,21.67%
597,0,184,21.67%
598,0,184,21.67%
599,1,185,21.79%
600,0,185,21.79%
601,0,185,21.79%
602,0,185,21.79%
603,1,186,21.91%
604,1,187,22.03%
605,0,187,22.03%
606,0,187,22.03%
607,0,187,22.03%
608,0,187,22.03%
609,0,187,22.03%
610,0,187,22.03%
611,0,187,22.03%
612,0,187,22.03%
613,0,187,22.03%
614,0,187,22.03%
615,0,187,22.03%
616,0,187,22.03%
617,0,187,22.03%
618,0,187,22.03%
619,0,187,22.03%
620,0,187,22.03%
621,0,187,22.03%
622,1,188,22.14%
623,0,188,22.14%
624,0,188,22.14%
625,0,188,22.14%
626,1,189,22.26%
627,0,189,22.26%
628,0,189,22.26%
629,0,189,22.26%
630,0,189,22.26%
631,1,190,22.38%
632,2,192,22.61%
633,0,192,22.61%
634,0,192,22.61%
635,1,193,22.73%
636,0,193,22.73%
637,0,193,22.73%
638,0,193,22.73%
639,0,193,22.73%
640,0,193,22.73%
641,1,194,22.85%
642,0,194,22.85%
643,0,194,22.85%
644,0,194,22.85%
645,1,195,22.97%
646,0,195,22.97%
647,1,196,23.09%
648,0,196,23.09%
649,1,197,23.2%
650,0,197,23.2%
651,0,197,23.2%
652,0,197,23.2%
653,1,198,23.32%
654,0,198,23.32%
655,0,198,23.32%
656,0,198,23.32%
657,0,198,23.32%
658,0,198,23.32%
659,0,198,23.32%
660,0,198,23.32%
661,0,198,23.32%
662,0,198,23.32%
663,0,198,23.32%
664,0,198,23.32%
665,0,198,23.32%
666,2,200,23.56%
667,0,200,23.56%
668,0,200,23.56%
669,0,200,23.56%
670,1,201,23.67%
671,0,201,23.67%
672,0,201,23.67%
673,0,201,23.67%
674,0,201,23.67%
675,0,201,23.67%
676,1,202,23.79%
677,0,202,23.79%
678,0,202,23.79%
679,1,203,23.91%
680,0,203,23.91%
681,0,203,23.91%
682,0,203,23.91%
683,5,208,24.5%
684,0,208,24.5%
685,0,208,24.5%
686,0,208,24.5%
687,0,208,24.5%
688,0,208,24.5%
689,0,208,24.5%
690,0,208,24.5%
691,0,208,24.5%
692,0,208,24.5%
693,0,208,24.5%
694,0,208,24.5%
695,0,208,24.5%
696,0,208,24.5%
697,1,209,24.62%
698,0,209,24.62%
699,1,210,24.73%
700,0,210,24.73%
701,0,210,24.73%
702,0,210,24.73%
703,0,210,24.73%
704,1,211,24.85%
705,1,212,24.97%
706,0,212,24.97%
707,0,212,24.97%
708,1,213,25.09%
709,0,213,25.09%
710,0,213,25.09%
711,0,213,25.09%
712,0,213,25.09%
713,0,213,25.09%
714,0,213,25.09%
715,0,213,25.09%
716,0,213,25.09%
717,0,213,25.09%
718,0,213,25.09%
719,1,214,25.21%
720,0,214,25.21%
721,0,214,25.21%
722,0,214,25.21%
723,0,214,25.21%
724,0,214,25.21%
725,0,214,25.21%
726,0,214,25.21%
727,0,214,25.21%
728,0,214,25.21%
729,0,214,25.21%
730,0,214,25.21%
731,0,214,25.21%
732,0,214,25.21%
733,0,214,25.21%
734,0,214,25.21%
735,1,215,25.32%
736,0,215,25.32%
737,0,215,25.32%
738,0,215,25.32%
739,0,215,25.32%
740,0,215,25.32%
741,1,216,25.44%
742,0,216,25.44%
743,0,216,25.44%
744,2,218,25.68%
745,0,218,25.68%
746,0,218,25.68%
747,0,218,25.68%
748,0,218,25.68%
749,0,218,25.68%
750,0,218,25.68%
751,0,218,25.68%
752,0,218,25.68%
753,1,219,25.8%
754,1,220,25.91%
755,1,221,26.03%
756,0,221,26.03%
757,0,221,26.03%
758,0,221,26.03%
759,0,221,26.03%
760,0,221,26.03%
761,0,221,26.03%
762,0,221,26.03%
763,0,221,26.03%
764,1,222,26.15%
765,0,222,26.15%
766,9,231,27.21%
767,0,231,27.21%
768,1,232,27.33%
769,1,233,27.44%
770,0,233,27.44%
771,0,233,27.44%
772,0,233,27.44%
773,0,233,27.44%
774,1,234,27.56%
775,0,234,27.56%
776,0,234,27.56%
777,0,234,27.56%
778,1,235,27.68%
779,0,235,27.68%
780,1,236,27.8%
781,0,236,27.8%
782,0,236,27.8%
783,1,237,27.92%
784,0,237,27.92%
785,1,238,28.03%
786,0,238,28.03%
787,0,238,28.03%
788,0,238,28.03%
789,0,238,28.03%
790,0,238,28.03%
791,0,238,28.03%
792,0,238,28.03%
793,0,238,28.03%
794,0,238,28.03%
795,2,240,28.27%
796,0,240,28.27%
797,0,240,28.27%
798,1,241,28.39%
799,0,241,28.39%
800,0,241,28.39%
801,0,241,28.39%
802,0,241,28.39%
803,0,241,28.39%
804,0,241,28.39%
805,0,241,28.39%
806,0,241,28.39%
807,0,241,28.39%
808,0,241,28.39%
809,0,241,28.39%
810,0,241,28.39%
811,0,241,28.39%
812,0,241,28.39%
813,0,241,28.39%
814,0,241,28.39%
815,0,241,28.39%
816,2,243,28.62%
817,0,243,28.62%
818,0,243,28.62%
819,0,243,28.62%
820,0,243,28.62%
821,0,243,28.62%
822,0,243,28.62%
823,0,243,28.62%
824,0,243,28.62%
825,0,243,28.62%
826,0,243,28.62%
827,0,243,28.62%
828,0,243,28.62%
829,0,243,28.62%
830,0,243,28.62%
831,0,243,28.62%
832,0,243,28.62%
833,0,243,28.62%
834,0,243,28.62%
835,0,243,28.62%
836,0,243,28.62%
837,2,245,28.86%
838,0,245,28.86%
839,0,245,28.86%
840,2,247,29.09%
841,0,247,29.09%
842,0,247,29.09%
843,0,247,29.09%
844,0,247,29.09%
845,1,248,29.21%
846,1,249,29.33%
847,0,249,29.33%
848,0,249,29.33%
849,0,249,29.33%
850,0,249,29.33%
851,1,250,29.45%
852,0,250,29.45%
853,0,250,29.45%
854,0,250,29.45%
855,0,250,29.45%
856,1,251,29.56%
857,0,251,29.56%
858,0,251,29.56%
859,0,251,29.56%
860,0,251,29.56%
861,0,251,29.56%
862,0,251,29.56%
863,0,251,29.56%
864,0,251,29.56%
865,0,251,29.56%
866,0,251,29.56%
867,0,251,29.56%
868,0,251,29.56%
869,0,251,29.56%
870,0,251,29.56%
871,1,252,29.68%
872,0,252,29.68%
873,0,252,29.68%
874,0,252,29.68%
875,0,252,29.68%
876,2,254,29.92%
877,0,254,29.92%
878,0,254,29.92%
879,0,254,29.92%
880,0,254,29.92%
881,1,255,30.04%
882,0,255,30.04%
883,1,256,30.15%
884,1,257,30.27%
885,1,258,30.39%
886,0,258,30.39%
887,0,258,30.39%
888,0,258,30.39%
889,0,258,30.39%
890,1,259,30.51%
891,0,259,30.51%
892,0,259,30.51%
893,0,259,30.51%
894,0,259,30.51%
895,1,260,30.62%
896,0,260,30.62%
897,1,261,30.74%
898,0,261,30.74%
899,0,261,30.74%
900,0,261,30.74%
901,0,261,30.74%
902,0,261,30.74%
903,0,261,30.74%
904,2,263,30.98%
905,0,263,30.98%
906,1,264,31.1%
907,1,265,31.21%
908,0,265,31.21%
909,0,265,31.21%
910,1,266,31.33%
911,0,266,31.33%
912,0,266,31.33%
913,0,266,31.33%
914,0,266,31.33%
915,0,266,31.33%
916,0,266,31.33%
917,0,266,31.33%
918,0,266,31.33%
919,0,266,31.33%
920,0,266,31.33%
921,0,266,31.33%
922,0,266,31.33%
923,0,266,31.33%
924,0,266,31.33%
925,0,266,31.33%
926,0,266,31.33%
927,1,267,31.45%
928,1,268,31.57%
929,0,268,31.57%
930,0,268,31.57%
931,1,269,31.68%
932,0,269,31.68%
933,1,270,31.8%
934,0,270,31.8%
935,0,270,31.8%
936,0,270,31.8%
937,0,270,31.8%
938,0,270,31.8%
939,0,270,31.8%
940,0,270,31.8%
941,1,271,31.92%
942,3,274,32.27%
943,0,274,32.27%
944,0,274,32.27%
945,0,274,32.27%
946,1,275,32.39%
947,0,275,32.39%
948,0,275,32.39%
949,0,275,32.39%
950,0,275,32.39%
951,0,275,32.39%
952,0,275,32.39%
953,2,277,32.63%
954,0,277,32.63%
955,0,277,32.63%
956,0,277,32.63%
957,0,277,32.63%
958,0,277,32.63%
959,0,277,32.63%
960,2,279,32.86%
961,1,280,32.98%
962,0,280,32.98%
963,0,280,32.98%
964,0,280,32.98%
965,0,280,32.98%
966,0,280,32.98%
967,0,280,32.98%
968,0,280,32.98%
969,0,280,32.98%
970,0,280,32.98%
971,0,280,32.98%
972,0,280,32.98%
973,0,280,32.98%
974,0,280,32.98%
975,0,280,32.98%
976,1,281,33.1%
977,0,281,33.1%
978,0,281,33.1%
979,0,281,33.1%
980,0,281,33.1%
981,0,281,33.1%
982,0,281,33.1%
983,0,281,33.1%
984,0,281,33.1%
985,1,282,33.22%
986,0,282,33.22%
987,1,283,33.33%
988,0,283,33.33%
989,0,283,33.33%
990,0,283,33.33%
991,0,283,33.33%
992,0,283,33.33%
993,0,283,33.33%
994,1,284,33.45%
995,1,285,33.57%
996,0,285,33.57%
997,0,285,33.57%
998,0,285,33.57%
999,1,286,33.69%
1000,0,286,33.69%
1001,0,286,33.69%
1002,0,286,33.69%
1003,0,286,33.69%
1004,0,286,33.69%
1005,0,286,33.69%
1006,0,286,33.69%
1007,0,286,33.69%
1008,0,286,33.69%
1009,0,286,33.69%
1010,0,286,33.69%
1011,0,286,33.69%
1012,0,286,33.69%
1013,0,286,33.69%
1014,0,286,33.69%
1015,0,286,33.69%
1016,1,287,33.8%
1017,0,287,33.8%
1018,0,287,33.8%
1019,0,287,33.8%
1020,0,287,33.8%
1021,0,287,33.8%
1022,1,288,33.92%
1023,0,288,33.92%
1024,1,289,34.04%
1025,1,290,34.16%
1026,1,291,34.28%
1027,0,291,34.28%
1028,1,292,34.39%
1029,0,292,34.39%
1030,0,292,34.39%
1031,0,292,34.39%
1032,0,292,34.39%
1033,1,293,34.51%
1034,0,293,34.51%
1035,0,293,34.51%
1036,0,293,34.51%
1037,0,293,34.51%
1038,0,293,34.51%
1039,0,293,34.51%
1040,0,293,34.51%
1041,0,293,34.51%
1042,0,293,34.51%
1043,0,293,34.51%
1044,0,293,34.51%
1045,0,293,34.51%
1046,0,293,34.51%
1047,0,293,34.51%
1048,0,293,34.51%
1049,0,293,34.51%
1050,0,293,34.51%
1051,0,293,34.51%
1052,0,293,34.51%
1053,0,293,34.51%
1054,0,293,34.51%
1055,0,293,34.51%
1056,0,293,34.51%
1057,0,293,34.51%
1058,0,293,34.51%
1059,0,293,34.51%
1060,0,293,34.51%
1061,1,294,34.63%
1062,1,295,34.75%
1063,0,295,34.75%
1064,0,295,34.75%
1065,1,296,34.86%
1066,0,296,34.86%
1067,0,296,34.86%
1068,1,297,34.98%
1069,0,297,34.98%
1070,0,297,34.98%
1071,0,297,34.98%
1072,1,298,35.1%
1073,0,298,35.1%
1074,0,298,35.1%
1075,0,298,35.1%
1076,4,302,35.57%
1077,0,302,35.57%
1078,1,303,35.69%
1079,0,303,35.69%
1080,1,304,35.81%
1081,0,304,35.81%
1082,0,304,35.81%
1083,0,304,35.81%
1084,1,305,35.92%
1085,0,305,35.92%
1086,0,305,35.92%
1087,0,305,35.92%
1088,0,305,35.92%
1089,0,305,35.92%
1090,0,305,35.92%
1091,0,305,35.92%
1092,0,305,35.92%
1093,0,305,35.92%
1094,1,306,36.04%
1095,0,306,36.04%
1096,1,307,36.16%
1097,0,307,36.16%
1098,0,307,36.16%
1099,0,307,36.16%
1100,1,308,36.28%
1101,1,309,36.4%
1102,1,310,36.51%
1103,1,311,36.63%
1104,0,311,36.63%
1105,2,313,36.87%
1106,2,315,37.1%
1107,0,315,37.1%
1108,0,315,37.1%
1109,2,317,37.34%
1110,2,319,37.57%
1111,0,319,37.57%
1112,0,319,37.57%
1113,1,320,37.69%
1114,2,322,37.93%
1115,3,325,38.28%
1116,5,330,38.87%
1117,0,330,38.87%
1118,1,331,38.99%
1119,2,333,39.22%
1120,3,336,39.58%
1121,1,337,39.69%
1122,0,337,39.69%
1123,0,337,39.69%
1124,1,338,39.81%
1125,4,342,40.28%
1126,2,344,40.52%
1127,2,346,40.75%
1128,1,347,40.87%
1129,1,348,40.99%
1130,0,348,40.99%
1131,2,350,41.22%
1132,0,350,41.22%
1133,2,352,41.46%
1134,2,354,41.7%
1135,0,354,41.7%
1136,0,354,41.7%
1137,2,356,41.93%
1138,1,357,42.05%
1139,1,358,42.17%
1140,0,358,42.17%
1141,4,362,42.64%
1142,1,363,42.76%
1143,3,366,43.11%
1144,2,368,43.35%
1145,3,371,43.7%
1146,1,372,43.82%
1147,1,373,43.93%
1148,2,375,44.17%
1149,7,382,44.99%
1150,0,382,44.99%
1151,0,382,44.99%
1152,0,382,44.99%
1153,0,382,44.99%
1154,1,383,45.11%
1155,3,386,45.47%
1156,0,386,45.47%
1157,2,388,45.7%
1158,4,392,46.17%
1159,2,394,46.41%
1160,2,396,46.64%
1161,0,396,46.64%
1162,3,399,47.0%
1163,2,401,47.23%
1164,0,401,47.23%
1165,0,401,47.23%
1166,0,401,47.23%
1167,0,401,47.23%
1168,4,405,47.7%
1169,3,408,48.06%
1170,1,409,48.17%
1171,0,409,48.17%
1172,0,409,48.17%
1173,6,415,48.88%
1174,3,418,49.23%
1175,0,418,49.23%
1176,1,419,49.35%
1177,0,419,49.35%
1178,1,420,49.47%
1179,1,421,49.59%
1180,1,422,49.71%
1181,0,422,49.71%
1182,1,423,49.82%
1183,6,429,50.53%
1184,10,439,51.71%
1185,1,440,51.83%
1186,2,442,52.06%
1187,6,448,52.77%
1188,0,448,52.77%
1189,0,448,52.77%
1190,0,448,52.77%
1191,4,452,53.24%
1192,2,454,53.47%
1193,0,454,53.47%
1194,2,456,53.71%
1195,0,456,53.71%
1196,2,458,53.95%
1197,3,461,54.3%
1198,2,463,54.53%
1199,2,465,54.77%
1200,0,465,54.77%
1201,1,466,54.89%
1202,0,466,54.89%
1203,6,472,55.59%
1204,2,474,55.83%
1205,0,474,55.83%
1206,0,474,55.83%
1207,2,476,56.07%
1208,0,476,56.07%
1209,0,476,56.07%
1210,0,476,56.07%
1211,2,478,56.3%
1212,371,849,100.0%
