Length, Count, Sum (Counts <= Length), Percent of Nonzero Data, Nonzero Data Count = 670, Zero Data Count = 1174
1,1,1,0.15%
2,1,2,0.3%
3,0,2,0.3%
4,0,2,0.3%
5,0,2,0.3%
6,0,2,0.3%
7,0,2,0.3%
8,0,2,0.3%
9,0,2,0.3%
10,0,2,0.3%
11,0,2,0.3%
12,1,3,0.45%
13,0,3,0.45%
14,0,3,0.45%
15,0,3,0.45%
16,0,3,0.45%
17,0,3,0.45%
18,0,3,0.45%
19,1,4,0.6%
20,0,4,0.6%
21,0,4,0.6%
22,1,5,0.75%
23,0,5,0.75%
24,0,5,0.75%
25,0,5,0.75%
26,0,5,0.75%
27,0,5,0.75%
28,0,5,0.75%
29,0,5,0.75%
30,0,5,0.75%
31,0,5,0.75%
32,0,5,0.75%
33,1,6,0.9%
34,0,6,0.9%
35,0,6,0.9%
36,0,6,0.9%
37,0,6,0.9%
38,0,6,0.9%
39,0,6,0.9%
40,0,6,0.9%
41,0,6,0.9%
42,1,7,1.04%
43,0,7,1.04%
44,9,16,2.39%
45,0,16,2.39%
46,1,17,2.54%
47,0,17,2.54%
48,0,17,2.54%
49,0,17,2.54%
50,0,17,2.54%
51,0,17,2.54%
52,1,18,2.69%
53,0,18,2.69%
54,0,18,2.69%
55,0,18,2.69%
56,1,19,2.84%
57,0,19,2.84%
58,1,20,2.99%
59,0,20,2.99%
60,0,20,2.99%
61,1,21,3.13%
62,0,21,3.13%
63,1,22,3.28%
64,1,23,3.43%
65,0,23,3.43%
66,0,23,3.43%
67,0,23,3.43%
68,0,23,3.43%
69,1,24,3.58%
70,0,24,3.58%
71,0,24,3.58%
72,0,24,3.58%
73,0,24,3.58%
74,0,24,3.58%
75,0,24,3.58%
76,1,25,3.73%
77,0,25,3.73%
78,0,25,3.73%
79,0,25,3.73%
80,0,25,3.73%
81,0,25,3.73%
82,0,25,3.73%
83,0,25,3.73%
84,0,25,3.73%
85,1,26,3.88%
86,0,26,3.88%
87,0,26,3.88%
88,0,26,3.88%
89,0,26,3.88%
90,0,26,3.88%
91,0,26,3.88%
92,1,27,4.03%
93,0,27,4.03%
94,0,27,4.03%
95,0,27,4.03%
96,1,28,4.18%
97,0,28,4.18%
98,0,28,4.18%
99,0,28,4.18%
100,0,28,4.18%
101,0,28,4.18%
102,0,28,4.18%
103,0,28,4.18%
104,0,28,4.18%
105,0,28,4.18%
106,1,29,4.33%
107,0,29,4.33%
108,0,29,4.33%
109,0,29,4.33%
110,1,30,4.48%
111,0,30,4.48%
112,0,30,4.48%
113,0,30,4.48%
114,0,30,4.48%
115,1,31,4.63%
116,0,31,4.63%
117,0,31,4.63%
118,1,32,4.78%
119,0,32,4.78%
120,0,32,4.78%
121,0,32,4.78%
122,0,32,4.78%
123,2,34,5.07%
124,1,35,5.22%
125,1,36,5.37%
126,1,37,5.52%
127,0,37,5.52%
128,1,38,5.67%
129,1,39,5.82%
130,0,39,5.82%
131,0,39,5.82%
132,0,39,5.82%
133,0,39,5.82%
134,0,39,5.82%
135,0,39,5.82%
136,0,39,5.82%
137,0,39,5.82%
138,0,39,5.82%
139,0,39,5.82%
140,0,39,5.82%
141,0,39,5.82%
142,0,39,5.82%
143,0,39,5.82%
144,0,39,5.82%
145,0,39,5.82%
146,0,39,5.82%
147,0,39,5.82%
148,0,39,5.82%
149,0,39,5.82%
150,1,40,5.97%
151,1,41,6.12%
152,0,41,6.12%
153,0,41,6.12%
154,1,42,6.27%
155,0,42,6.27%
156,0,42,6.27%
157,0,42,6.27%
158,0,42,6.27%
159,0,42,6.27%
160,0,42,6.27%
161,1,43,6.42%
162,0,43,6.42%
163,1,44,6.57%
164,0,44,6.57%
165,0,44,6.57%
166,0,44,6.57%
167,0,44,6.57%
168,2,46,6.87%
169,0,46,6.87%
170,1,47,7.01%
171,0,47,7.01%
172,0,47,7.01%
173,1,48,7.16%
174,0,48,7.16%
175,1,49,7.31%
176,0,49,7.31%
177,0,49,7.31%
178,0,49,7.31%
179,0,49,7.31%
180,0,49,7.31%
181,1,50,7.46%
182,1,51,7.61%
183,0,51,7.61%
184,1,52,7.76%
185,2,54,8.06%
186,0,54,8.06%
187,2,56,8.36%
188,1,57,8.51%
189,0,57,8.51%
190,0,57,8.51%
191,0,57,8.51%
192,0,57,8.51%
193,0,57,8.51%
194,0,57,8.51%
195,0,57,8.51%
196,0,57,8.51%
197,0,57,8.51%
198,0,57,8.51%
199,0,57,8.51%
200,0,57,8.51%
201,0,57,8.51%
202,0,57,8.51%
203,0,57,8.51%
204,0,57,8.51%
205,0,57,8.51%
206,0,57,8.51%
207,0,57,8.51%
208,1,58,8.66%
209,0,58,8.66%
210,0,58,8.66%
211,1,59,8.81%
212,1,60,8.96%
213,0,60,8.96%
214,0,60,8.96%
215,0,60,8.96%
216,1,61,9.1%
217,0,61,9.1%
218,0,61,9.1%
219,1,62,9.25%
220,2,64,9.55%
221,0,64,9.55%
222,0,64,9.55%
223,0,64,9.55%
224,0,64,9.55%
225,0,64,9.55%
226,0,64,9.55%
227,2,66,9.85%
228,0,66,9.85%
229,0,66,9.85%
230,0,66,9.85%
231,3,69,10.3%
232,0,69,10.3%
233,0,69,10.3%
234,0,69,10.3%
235,0,69,10.3%
236,0,69,10.3%
237,0,69,10.3%
238,2,71,10.6%
239,1,72,10.75%
240,1,73,10.9%
241,0,73,10.9%
242,0,73,10.9%
243,1,74,11.04%
244,0,74,11.04%
245,0,74,11.04%
246,0,74,11.04%
247,0,74,11.04%
248,0,74,11.04%
249,0,74,11.04%
250,0,74,11.04%
251,0,74,11.04%
252,1,75,11.19%
253,0,75,11.19%
254,1,76,11.34%
255,1,77,11.49%
256,0,77,11.49%
257,0,77,11.49%
258,0,77,11.49%
259,1,78,11.64%
260,0,78,11.64%
261,0,78,11.64%
262,0,78,11.64%
263,0,78,11.64%
264,0,78,11.64%
265,1,79,11.79%
266,0,79,11.79%
267,0,79,11.79%
268,0,79,11.79%
269,1,80,11.94%
270,1,81,12.09%
271,1,82,12.24%
272,0,82,12.24%
273,1,83,12.39%
274,1,84,12.54%
275,0,84,12.54%
276,0,84,12.54%
277,1,85,12.69%
278,0,85,12.69%
279,0,85,12.69%
280,0,85,12.69%
281,0,85,12.69%
282,0,85,12.69%
283,0,85,12.69%
284,0,85,12.69%
285,0,85,12.69%
286,0,85,12.69%
287,0,85,12.69%
288,1,86,12.84%
289,0,86,12.84%
290,0,86,12.84%
291,0,86,12.84%
292,0,86,12.84%
293,0,86,12.84%
294,0,86,12.84%
295,0,86,12.84%
296,0,86,12.84%
297,0,86,12.84%
298,0,86,12.84%
299,0,86,12.84%
300,1,87,12.99%
301,0,87,12.99%
302,1,88,13.13%
303,0,88,13.13%
304,1,89,13.28%
305,0,89,13.28%
306,1,90,13.43%
307,0,90,13.43%
308,0,90,13.43%
309,0,90,13.43%
310,0,90,13.43%
311,0,90,13.43%
312,0,90,13.43%
313,0,90,13.43%
314,0,90,13.43%
315,0,90,13.43%
316,0,90,13.43%
317,0,90,13.43%
318,0,90,13.43%
319,0,90,13.43%
320,0,90,13.43%
321,0,90,13.43%
322,0,90,13.43%
323,0,90,13.43%
324,0,90,13.43%
325,0,90,13.43%
326,0,90,13.43%
327,0,90,13.43%
328,0,90,13.43%
329,0,90,13.43%
330,0,90,13.43%
331,0,90,13.43%
332,0,90,13.43%
333,0,90,13.43%
334,0,90,13.43%
335,0,90,13.43%
336,0,90,13.43%
337,0,90,13.43%
338,0,90,13.43%
339,1,91,13.58%
340,1,92,13.73%
341,0,92,13.73%
342,0,92,13.73%
343,1,93,13.88%
344,0,93,13.88%
345,0,93,13.88%
346,0,93,13.88%
347,0,93,13.88%
348,0,93,13.88%
349,0,93,13.88%
350,0,93,13.88%
351,0,93,13.88%
352,1,94,14.03%
353,0,94,14.03%
354,1,95,14.18%
355,0,95,14.18%
356,1,96,14.33%
357,0,96,14.33%
358,1,97,14.48%
359,0,97,14.48%
360,0,97,14.48%
361,1,98,14.63%
362,1,99,14.78%
363,0,99,14.78%
364,0,99,14.78%
365,0,99,14.78%
366,0,99,14.78%
367,0,99,14.78%
368,0,99,14.78%
369,0,99,14.78%
370,0,99,14.78%
371,0,99,14.78%
372,1,100,14.93%
373,0,100,14.93%
374,0,100,14.93%
375,0,100,14.93%
376,0,100,14.93%
377,0,100,14.93%
378,0,100,14.93%
379,0,100,14.93%
380,0,100,14.93%
381,0,100,14.93%
382,0,100,14.93%
383,0,100,14.93%
384,1,101,15.07%
385,0,101,15.07%
386,0,101,15.07%
387,0,101,15.07%
388,0,101,15.07%
389,0,101,15.07%
390,1,102,15.22%
391,0,102,15.22%
392,1,103,15.37%
393,1,104,15.52%
394,1,105,15.67%
395,0,105,15.67%
396,0,105,15.67%
397,0,105,15.67%
398,2,107,15.97%
399,0,107,15.97%
400,0,107,15.97%
401,0,107,15.97%
402,0,107,15.97%
403,0,107,15.97%
404,0,107,15.97%
405,2,109,16.27%
406,1,110,16.42%
407,0,110,16.42%
408,0,110,16.42%
409,0,110,16.42%
410,0,110,16.42%
411,0,110,16.42%
412,0,110,16.42%
413,0,110,16.42%
414,0,110,16.42%
415,1,111,16.57%
416,1,112,16.72%
417,0,112,16.72%
418,0,112,16.72%
419,0,112,16.72%
420,0,112,16.72%
421,0,112,16.72%
422,0,112,16.72%
423,0,112,16.72%
424,0,112,16.72%
425,0,112,16.72%
426,0,112,16.72%
427,1,113,16.87%
428,0,113,16.87%
429,0,113,16.87%
430,0,113,16.87%
431,0,113,16.87%
432,0,113,16.87%
433,3,116,17.31%
434,0,116,17.31%
435,0,116,17.31%
436,0,116,17.31%
437,0,116,17.31%
438,0,116,17.31%
439,0,116,17.31%
440,0,116,17.31%
441,1,117,17.46%
442,0,117,17.46%
443,0,117,17.46%
444,0,117,17.46%
445,0,117,17.46%
446,0,117,17.46%
447,0,117,17.46%
448,0,117,17.46%
449,0,117,17.46%
450,0,117,17.46%
451,0,117,17.46%
452,0,117,17.46%
453,0,117,17.46%
454,0,117,17.46%
455,0,117,17.46%
456,0,117,17.46%
457,0,117,17.46%
458,0,117,17.46%
459,0,117,17.46%
460,1,118,17.61%
461,0,118,17.61%
462,0,118,17.61%
463,0,118,17.61%
464,0,118,17.61%
465,0,118,17.61%
466,0,118,17.61%
467,0,118,17.61%
468,0,118,17.61%
469,1,119,17.76%
470,0,119,17.76%
471,0,119,17.76%
472,0,119,17.76%
473,0,119,17.76%
474,1,120,17.91%
475,0,120,17.91%
476,0,120,17.91%
477,0,120,17.91%
478,0,120,17.91%
479,1,121,18.06%
480,0,121,18.06%
481,2,123,18.36%
482,0,123,18.36%
483,0,123,18.36%
484,0,123,18.36%
485,0,123,18.36%
486,0,123,18.36%
487,0,123,18.36%
488,0,123,18.36%
489,1,124,18.51%
490,546,670,100.0%
