Length, Count, Sum (Counts <= Length), Percent of Nonzero Data, Nonzero Data Count = 837, Zero Data Count = 1007
1,1,1,0.12%
2,1,2,0.24%
3,1,3,0.36%
4,0,3,0.36%
5,0,3,0.36%
6,0,3,0.36%
7,0,3,0.36%
8,0,3,0.36%
9,0,3,0.36%
10,0,3,0.36%
11,0,3,0.36%
12,0,3,0.36%
13,0,3,0.36%
14,0,3,0.36%
15,1,4,0.48%
16,0,4,0.48%
17,0,4,0.48%
18,0,4,0.48%
19,0,4,0.48%
20,0,4,0.48%
21,0,4,0.48%
22,0,4,0.48%
23,0,4,0.48%
24,0,4,0.48%
25,0,4,0.48%
26,0,4,0.48%
27,1,5,0.6%
28,1,6,0.72%
29,0,6,0.72%
30,0,6,0.72%
31,0,6,0.72%
32,0,6,0.72%
33,0,6,0.72%
34,0,6,0.72%
35,0,6,0.72%
36,0,6,0.72%
37,0,6,0.72%
38,0,6,0.72%
39,0,6,0.72%
40,0,6,0.72%
41,0,6,0.72%
42,0,6,0.72%
43,0,6,0.72%
44,1,7,0.84%
45,0,7,0.84%
46,0,7,0.84%
47,0,7,0.84%
48,0,7,0.84%
49,0,7,0.84%
50,0,7,0.84%
51,0,7,0.84%
52,2,9,1.08%
53,0,9,1.08%
54,0,9,1.08%
55,0,9,1.08%
56,0,9,1.08%
57,0,9,1.08%
58,0,9,1.08%
59,0,9,1.08%
60,0,9,1.08%
61,0,9,1.08%
62,0,9,1.08%
63,1,10,1.19%
64,0,10,1.19%
65,0,10,1.19%
66,0,10,1.19%
67,0,10,1.19%
68,0,10,1.19%
69,0,10,1.19%
70,0,10,1.19%
71,0,10,1.19%
72,0,10,1.19%
73,0,10,1.19%
74,0,10,1.19%
75,1,11,1.31%
76,0,11,1.31%
77,0,11,1.31%
78,0,11,1.31%
79,0,11,1.31%
80,0,11,1.31%
81,1,12,1.43%
82,0,12,1.43%
83,0,12,1.43%
84,0,12,1.43%
85,1,13,1.55%
86,0,13,1.55%
87,0,13,1.55%
88,0,13,1.55%
89,0,13,1.55%
90,0,13,1.55%
91,0,13,1.55%
92,1,14,1.67%
93,0,14,1.67%
94,0,14,1.67%
95,0,14,1.67%
96,1,15,1.79%
97,0,15,1.79%
98,0,15,1.79%
99,0,15,1.79%
100,0,15,1.79%
101,0,15,1.79%
102,0,15,1.79%
103,0,15,1.79%
104,0,15,1.79%
105,0,15,1.79%
106,1,16,1.91%
107,0,16,1.91%
108,0,16,1.91%
109,0,16,1.91%
110,1,17,2.03%
111,0,17,2.03%
112,0,17,2.03%
113,0,17,2.03%
114,0,17,2.03%
115,1,18,2.15%
116,2,20,2.39%
117,0,20,2.39%
118,0,20,2.39%
119,0,20,2.39%
120,0,20,2.39%
121,0,20,2.39%
122,0,20,2.39%
123,0,20,2.39%
124,0,20,2.39%
125,1,21,2.51%
126,0,21,2.51%
127,0,21,2.51%
128,1,22,2.63%
129,0,22,2.63%
130,0,22,2.63%
131,1,23,2.75%
132,0,23,2.75%
133,0,23,2.75%
134,2,25,2.99%
135,0,25,2.99%
136,0,25,2.99%
137,0,25,2.99%
138,1,26,3.11%
139,0,26,3.11%
140,0,26,3.11%
141,0,26,3.11%
142,0,26,3.11%
143,0,26,3.11%
144,0,26,3.11%
145,1,27,3.23%
146,0,27,3.23%
147,0,27,3.23%
148,1,28,3.35%
149,0,28,3.35%
150,1,29,3.46%
151,1,30,3.58%
152,1,31,3.7%
153,0,31,3.7%
154,0,31,3.7%
155,0,31,3.7%
156,1,32,3.82%
157,0,32,3.82%
158,0,32,3.82%
159,0,32,3.82%
160,0,32,3.82%
161,0,32,3.82%
162,0,32,3.82%
163,0,32,3.82%
164,0,32,3.82%
165,0,32,3.82%
166,0,32,3.82%
167,0,32,3.82%
168,1,33,3.94%
169,0,33,3.94%
170,8,41,4.9%
171,0,41,4.9%
172,0,41,4.9%
173,0,41,4.9%
174,0,41,4.9%
175,0,41,4.9%
176,0,41,4.9%
177,0,41,4.9%
178,0,41,4.9%
179,0,41,4.9%
180,0,41,4.9%
181,0,41,4.9%
182,0,41,4.9%
183,0,41,4.9%
184,1,42,5.02%
185,0,42,5.02%
186,0,42,5.02%
187,0,42,5.02%
188,0,42,5.02%
189,0,42,5.02%
190,0,42,5.02%
191,0,42,5.02%
192,0,42,5.02%
193,0,42,5.02%
194,0,42,5.02%
195,1,43,5.14%
196,0,43,5.14%
197,0,43,5.14%
198,0,43,5.14%
199,0,43,5.14%
200,0,43,5.14%
201,0,43,5.14%
202,0,43,5.14%
203,1,44,5.26%
204,0,44,5.26%
205,0,44,5.26%
206,0,44,5.26%
207,0,44,5.26%
208,0,44,5.26%
209,0,44,5.26%
210,0,44,5.26%
211,0,44,5.26%
212,2,46,5.5%
213,0,46,5.5%
214,0,46,5.5%
215,0,46,5.5%
216,0,46,5.5%
217,0,46,5.5%
218,0,46,5.5%
219,0,46,5.5%
220,0,46,5.5%
221,1,47,5.62%
222,0,47,5.62%
223,1,48,5.73%
224,0,48,5.73%
225,0,48,5.73%
226,0,48,5.73%
227,0,48,5.73%
228,0,48,5.73%
229,0,48,5.73%
230,0,48,5.73%
231,2,50,5.97%
232,0,50,5.97%
233,0,50,5.97%
234,0,50,5.97%
235,1,51,6.09%
236,1,52,6.21%
237,0,52,6.21%
238,0,52,6.21%
239,0,52,6.21%
240,0,52,6.21%
241,0,52,6.21%
242,0,52,6.21%
243,1,53,6.33%
244,1,54,6.45%
245,0,54,6.45%
246,1,55,6.57%
247,0,55,6.57%
248,0,55,6.57%
249,0,55,6.57%
250,0,55,6.57%
251,0,55,6.57%
252,1,56,6.69%
253,0,56,6.69%
254,0,56,6.69%
255,1,57,6.81%
256,0,57,6.81%
257,0,57,6.81%
258,0,57,6.81%
259,2,59,7.05%
260,0,59,7.05%
261,0,59,7.05%
262,1,60,7.17%
263,0,60,7.17%
264,0,60,7.17%
265,1,61,7.29%
266,0,61,7.29%
267,0,61,7.29%
268,0,61,7.29%
269,0,61,7.29%
270,1,62,7.41%
271,0,62,7.41%
272,0,62,7.41%
273,0,62,7.41%
274,1,63,7.53%
275,1,64,7.65%
276,0,64,7.65%
277,1,65,7.77%
278,0,65,7.77%
279,1,66,7.89%
280,0,66,7.89%
281,1,67,8.0%
282,0,67,8.0%
283,0,67,8.0%
284,0,67,8.0%
285,0,67,8.0%
286,0,67,8.0%
287,0,67,8.0%
288,0,67,8.0%
289,0,67,8.0%
290,1,68,8.12%
291,0,68,8.12%
292,0,68,8.12%
293,0,68,8.12%
294,0,68,8.12%
295,0,68,8.12%
296,15,83,9.92%
297,0,83,9.92%
298,0,83,9.92%
299,1,84,10.04%
300,0,84,10.04%
301,0,84,10.04%
302,1,85,10.16%
303,1,86,10.27%
304,0,86,10.27%
305,0,86,10.27%
306,1,87,10.39%
307,0,87,10.39%
308,1,88,10.51%
309,5,93,11.11%
310,0,93,11.11%
311,0,93,11.11%
312,0,93,11.11%
313,0,93,11.11%
314,0,93,11.11%
315,0,93,11.11%
316,1,94,11.23%
317,0,94,11.23%
318,0,94,11.23%
319,0,94,11.23%
320,0,94,11.23%
321,0,94,11.23%
322,0,94,11.23%
323,0,94,11.23%
324,0,94,11.23%
325,0,94,11.23%
326,0,94,11.23%
327,1,95,11.35%
328,0,95,11.35%
329,0,95,11.35%
330,1,96,11.47%
331,0,96,11.47%
332,0,96,11.47%
333,0,96,11.47%
334,0,96,11.47%
335,1,97,11.59%
336,1,98,11.71%
337,0,98,11.71%
338,15,113,13.5%
339,0,113,13.5%
340,2,115,13.74%
341,0,115,13.74%
342,0,115,13.74%
343,1,116,13.86%
344,0,116,13.86%
345,0,116,13.86%
346,0,116,13.86%
347,1,117,13.98%
348,0,117,13.98%
349,0,117,13.98%
350,0,117,13.98%
351,0,117,13.98%
352,0,117,13.98%
353,0,117,13.98%
354,1,118,14.1%
355,0,118,14.1%
356,0,118,14.1%
357,0,118,14.1%
358,0,118,14.1%
359,0,118,14.1%
360,1,119,14.22%
361,1,120,14.34%
362,0,120,14.34%
363,1,121,14.46%
364,0,121,14.46%
365,0,121,14.46%
366,0,121,14.46%
367,0,121,14.46%
368,1,122,14.58%
369,2,124,14.81%
370,0,124,14.81%
371,0,124,14.81%
372,1,125,14.93%
373,0,125,14.93%
374,0,125,14.93%
375,0,125,14.93%
376,0,125,14.93%
377,0,125,14.93%
378,0,125,14.93%
379,0,125,14.93%
380,0,125,14.93%
381,0,125,14.93%
382,0,125,14.93%
383,0,125,14.93%
384,1,126,15.05%
385,0,126,15.05%
386,0,126,15.05%
387,1,127,15.17%
388,0,127,15.17%
389,1,128,15.29%
390,0,128,15.29%
391,0,128,15.29%
392,0,128,15.29%
393,1,129,15.41%
394,0,129,15.41%
395,0,129,15.41%
396,0,129,15.41%
397,1,130,15.53%
398,0,130,15.53%
399,0,130,15.53%
400,0,130,15.53%
401,0,130,15.53%
402,0,130,15.53%
403,0,130,15.53%
404,0,130,15.53%
405,0,130,15.53%
406,2,132,15.77%
407,1,133,15.89%
408,1,134,16.01%
409,0,134,16.01%
410,1,135,16.13%
411,0,135,16.13%
412,0,135,16.13%
413,0,135,16.13%
414,0,135,16.13%
415,0,135,16.13%
416,0,135,16.13%
417,0,135,16.13%
418,0,135,16.13%
419,0,135,16.13%
420,1,136,16.25%
421,0,136,16.25%
422,0,136,16.25%
423,0,136,16.25%
424,0,136,16.25%
425,0,136,16.25%
426,1,137,16.37%
427,0,137,16.37%
428,0,137,16.37%
429,0,137,16.37%
430,0,137,16.37%
431,1,138,16.49%
432,0,138,16.49%
433,0,138,16.49%
434,0,138,16.49%
435,2,140,16.73%
436,0,140,16.73%
437,0,140,16.73%
438,1,141,16.85%
439,2,143,17.08%
440,1,144,17.2%
441,0,144,17.2%
442,0,144,17.2%
443,2,146,17.44%
444,0,146,17.44%
445,0,146,17.44%
446,0,146,17.44%
447,1,147,17.56%
448,0,147,17.56%
449,0,147,17.56%
450,0,147,17.56%
451,0,147,17.56%
452,0,147,17.56%
453,0,147,17.56%
454,0,147,17.56%
455,1,148,17.68%
456,0,148,17.68%
457,0,148,17.68%
458,0,148,17.68%
459,1,149,17.8%
460,0,149,17.8%
461,0,149,17.8%
462,0,149,17.8%
463,0,149,17.8%
464,0,149,17.8%
465,0,149,17.8%
466,1,150,17.92%
467,0,150,17.92%
468,0,150,17.92%
469,0,150,17.92%
470,0,150,17.92%
471,0,150,17.92%
472,0,150,17.92%
473,0,150,17.92%
474,0,150,17.92%
475,0,150,17.92%
476,0,150,17.92%
477,0,150,17.92%
478,1,151,18.04%
479,0,151,18.04%
480,0,151,18.04%
481,0,151,18.04%
482,0,151,18.04%
483,0,151,18.04%
484,0,151,18.04%
485,0,151,18.04%
486,0,151,18.04%
487,0,151,18.04%
488,0,151,18.04%
489,0,151,18.04%
490,2,153,18.28%
491,0,153,18.28%
492,0,153,18.28%
493,0,153,18.28%
494,0,153,18.28%
495,1,154,18.4%
496,0,154,18.4%
497,0,154,18.4%
498,1,155,18.52%
499,0,155,18.52%
500,0,155,18.52%
501,0,155,18.52%
502,0,155,18.52%
503,1,156,18.64%
504,0,156,18.64%
505,0,156,18.64%
506,0,156,18.64%
507,0,156,18.64%
508,0,156,18.64%
509,0,156,18.64%
510,0,156,18.64%
511,0,156,18.64%
512,1,157,18.76%
513,0,157,18.76%
514,0,157,18.76%
515,0,157,18.76%
516,0,157,18.76%
517,0,157,18.76%
518,0,157,18.76%
519,1,158,18.88%
520,0,158,18.88%
521,1,159,19.0%
522,0,159,19.0%
523,1,160,19.12%
524,0,160,19.12%
525,0,160,19.12%
526,0,160,19.12%
527,0,160,19.12%
528,0,160,19.12%
529,0,160,19.12%
530,0,160,19.12%
531,0,160,19.12%
532,0,160,19.12%
533,0,160,19.12%
534,0,160,19.12%
535,0,160,19.12%
536,0,160,19.12%
537,0,160,19.12%
538,1,161,19.24%
539,0,161,19.24%
540,0,161,19.24%
541,0,161,19.24%
542,0,161,19.24%
543,0,161,19.24%
544,0,161,19.24%
545,0,161,19.24%
546,0,161,19.24%
547,0,161,19.24%
548,0,161,19.24%
549,0,161,19.24%
550,0,161,19.24%
551,0,161,19.24%
552,0,161,19.24%
553,0,161,19.24%
554,0,161,19.24%
555,0,161,19.24%
556,0,161,19.24%
557,0,161,19.24%
558,0,161,19.24%
559,0,161,19.24%
560,0,161,19.24%
561,0,161,19.24%
562,1,162,19.35%
563,1,163,19.47%
564,1,164,19.59%
565,0,164,19.59%
566,0,164,19.59%
567,1,165,19.71%
568,0,165,19.71%
569,0,165,19.71%
570,0,165,19.71%
571,0,165,19.71%
572,1,166,19.83%
573,1,167,19.95%
574,0,167,19.95%
575,0,167,19.95%
576,9,176,21.03%
577,0,176,21.03%
578,0,176,21.03%
579,0,176,21.03%
580,0,176,21.03%
581,0,176,21.03%
582,0,176,21.03%
583,1,177,21.15%
584,0,177,21.15%
585,0,177,21.15%
586,0,177,21.15%
587,0,177,21.15%
588,1,178,21.27%
589,0,178,21.27%
590,0,178,21.27%
591,0,178,21.27%
592,0,178,21.27%
593,0,178,21.27%
594,0,178,21.27%
595,0,178,21.27%
596,0,178,21.27%
597,2,180,21.51%
598,0,180,21.51%
599,0,180,21.51%
600,0,180,21.51%
601,1,181,21.62%
602,0,181,21.62%
603,1,182,21.74%
604,1,183,21.86%
605,0,183,21.86%
606,0,183,21.86%
607,1,184,21.98%
608,0,184,21.98%
609,0,184,21.98%
610,2,186,22.22%
611,0,186,22.22%
612,0,186,22.22%
613,0,186,22.22%
614,5,191,22.82%
615,0,191,22.82%
616,0,191,22.82%
617,0,191,22.82%
618,0,191,22.82%
619,0,191,22.82%
620,0,191,22.82%
621,0,191,22.82%
622,1,192,22.94%
623,0,192,22.94%
624,1,193,23.06%
625,0,193,23.06%
626,0,193,23.06%
627,0,193,23.06%
628,1,194,23.18%
629,0,194,23.18%
630,1,195,23.3%
631,0,195,23.3%
632,0,195,23.3%
633,0,195,23.3%
634,0,195,23.3%
635,1,196,23.42%
636,0,196,23.42%
637,0,196,23.42%
638,0,196,23.42%
639,1,197,23.54%
640,0,197,23.54%
641,0,197,23.54%
642,0,197,23.54%
643,0,197,23.54%
644,0,197,23.54%
645,0,197,23.54%
646,0,197,23.54%
647,1,198,23.66%
648,0,198,23.66%
649,0,198,23.66%
650,0,198,23.66%
651,0,198,23.66%
652,0,198,23.66%
653,1,199,23.78%
654,0,199,23.78%
655,0,199,23.78%
656,0,199,23.78%
657,0,199,23.78%
658,0,199,23.78%
659,0,199,23.78%
660,0,199,23.78%
661,0,199,23.78%
662,0,199,23.78%
663,0,199,23.78%
664,0,199,23.78%
665,1,200,23.89%
666,0,200,23.89%
667,0,200,23.89%
668,0,200,23.89%
669,0,200,23.89%
670,0,200,23.89%
671,0,200,23.89%
672,1,201,24.01%
673,0,201,24.01%
674,0,201,24.01%
675,1,202,24.13%
676,0,202,24.13%
677,0,202,24.13%
678,0,202,24.13%
679,0,202,24.13%
680,0,202,24.13%
681,0,202,24.13%
682,0,202,24.13%
683,0,202,24.13%
684,0,202,24.13%
685,0,202,24.13%
686,1,203,24.25%
687,0,203,24.25%
688,0,203,24.25%
689,0,203,24.25%
690,0,203,24.25%
691,0,203,24.25%
692,0,203,24.25%
693,0,203,24.25%
694,0,203,24.25%
695,1,204,24.37%
696,0,204,24.37%
697,9,213,25.45%
698,0,213,25.45%
699,1,214,25.57%
700,0,214,25.57%
701,0,214,25.57%
702,0,214,25.57%
703,0,214,25.57%
704,0,214,25.57%
705,1,215,25.69%
706,0,215,25.69%
707,0,215,25.69%
708,0,215,25.69%
709,0,215,25.69%
710,0,215,25.69%
711,1,216,25.81%
712,0,216,25.81%
713,0,216,25.81%
714,1,217,25.93%
715,0,217,25.93%
716,0,217,25.93%
717,1,218,26.05%
718,0,218,26.05%
719,1,219,26.16%
720,0,219,26.16%
721,0,219,26.16%
722,0,219,26.16%
723,0,219,26.16%
724,0,219,26.16%
725,0,219,26.16%
726,0,219,26.16%
727,0,219,26.16%
728,0,219,26.16%
729,1,220,26.28%
730,0,220,26.28%
731,0,220,26.28%
732,0,220,26.28%
733,0,220,26.28%
734,0,220,26.28%
735,1,221,26.4%
736,0,221,26.4%
737,0,221,26.4%
738,0,221,26.4%
739,0,221,26.4%
740,0,221,26.4%
741,0,221,26.4%
742,0,221,26.4%
743,0,221,26.4%
744,1,222,26.52%
745,0,222,26.52%
746,0,222,26.52%
747,0,222,26.52%
748,0,222,26.52%
749,0,222,26.52%
750,0,222,26.52%
751,0,222,26.52%
752,0,222,26.52%
753,0,222,26.52%
754,1,223,26.64%
755,0,223,26.64%
756,0,223,26.64%
757,0,223,26.64%
758,0,223,26.64%
759,0,223,26.64%
760,0,223,26.64%
761,0,223,26.64%
762,0,223,26.64%
763,0,223,26.64%
764,0,223,26.64%
765,0,223,26.64%
766,0,223,26.64%
767,0,223,26.64%
768,1,224,26.76%
769,1,225,26.88%
770,0,225,26.88%
771,1,226,27.0%
772,0,226,27.0%
773,0,226,27.0%
774,1,227,27.12%
775,0,227,27.12%
776,1,228,27.24%
777,1,229,27.36%
778,1,230,27.48%
779,1,231,27.6%
780,0,231,27.6%
781,0,231,27.6%
782,1,232,27.72%
783,0,232,27.72%
784,0,232,27.72%
785,0,232,27.72%
786,0,232,27.72%
787,0,232,27.72%
788,0,232,27.72%
789,0,232,27.72%
790,0,232,27.72%
791,0,232,27.72%
792,0,232,27.72%
793,0,232,27.72%
794,0,232,27.72%
795,2,234,27.96%
796,0,234,27.96%
797,0,234,27.96%
798,0,234,27.96%
799,0,234,27.96%
800,0,234,27.96%
801,0,234,27.96%
802,0,234,27.96%
803,0,234,27.96%
804,0,234,27.96%
805,0,234,27.96%
806,0,234,27.96%
807,1,235,28.08%
808,0,235,28.08%
809,0,235,28.08%
810,0,235,28.08%
811,0,235,28.08%
812,0,235,28.08%
813,0,235,28.08%
814,1,236,28.2%
815,0,236,28.2%
816,3,239,28.55%
817,0,239,28.55%
818,0,239,28.55%
819,0,239,28.55%
820,0,239,28.55%
821,1,240,28.67%
822,0,240,28.67%
823,1,241,28.79%
824,0,241,28.79%
825,0,241,28.79%
826,1,242,28.91%
827,0,242,28.91%
828,1,243,29.03%
829,0,243,29.03%
830,0,243,29.03%
831,0,243,29.03%
832,0,243,29.03%
833,0,243,29.03%
834,0,243,29.03%
835,1,244,29.15%
836,0,244,29.15%
837,1,245,29.27%
838,0,245,29.27%
839,0,245,29.27%
840,2,247,29.51%
841,1,248,29.63%
842,0,248,29.63%
843,0,248,29.63%
844,0,248,29.63%
845,0,248,29.63%
846,0,248,29.63%
847,0,248,29.63%
848,0,248,29.63%
849,0,248,29.63%
850,0,248,29.63%
851,0,248,29.63%
852,0,248,29.63%
853,0,248,29.63%
854,0,248,29.63%
855,0,248,29.63%
856,0,248,29.63%
857,0,248,29.63%
858,0,248,29.63%
859,0,248,29.63%
860,0,248,29.63%
861,1,249,29.75%
862,0,249,29.75%
863,0,249,29.75%
864,1,250,29.87%
865,0,250,29.87%
866,0,250,29.87%
867,0,250,29.87%
868,0,250,29.87%
869,1,251,29.99%
870,0,251,29.99%
871,0,251,29.99%
872,1,252,30.11%
873,2,254,30.35%
874,0,254,30.35%
875,0,254,30.35%
876,0,254,30.35%
877,0,254,30.35%
878,0,254,30.35%
879,0,254,30.35%
880,2,256,30.59%
881,1,257,30.7%
882,0,257,30.7%
883,0,257,30.7%
884,3,260,31.06%
885,0,260,31.06%
886,0,260,31.06%
887,0,260,31.06%
888,0,260,31.06%
889,0,260,31.06%
890,0,260,31.06%
891,2,262,31.3%
892,1,263,31.42%
893,1,264,31.54%
894,0,264,31.54%
895,0,264,31.54%
896,0,264,31.54%
897,0,264,31.54%
898,0,264,31.54%
899,0,264,31.54%
900,0,264,31.54%
901,0,264,31.54%
902,0,264,31.54%
903,0,264,31.54%
904,1,265,31.66%
905,0,265,31.66%
906,0,265,31.66%
907,2,267,31.9%
908,0,267,31.9%
909,0,267,31.9%
910,0,267,31.9%
911,0,267,31.9%
912,0,267,31.9%
913,0,267,31.9%
914,0,267,31.9%
915,0,267,31.9%
916,0,267,31.9%
917,0,267,31.9%
918,0,267,31.9%
919,0,267,31.9%
920,0,267,31.9%
921,0,267,31.9%
922,0,267,31.9%
923,0,267,31.9%
924,1,268,32.02%
925,0,268,32.02%
926,1,269,32.14%
927,1,270,32.26%
928,0,270,32.26%
929,0,270,32.26%
930,1,271,32.38%
931,0,271,32.38%
932,0,271,32.38%
933,0,271,32.38%
934,0,271,32.38%
935,0,271,32.38%
936,0,271,32.38%
937,0,271,32.38%
938,0,271,32.38%
939,0,271,32.38%
940,0,271,32.38%
941,1,272,32.5%
942,0,272,32.5%
943,0,272,32.5%
944,0,272,32.5%
945,0,272,32.5%
946,0,272,32.5%
947,0,272,32.5%
948,0,272,32.5%
949,0,272,32.5%
950,0,272,32.5%
951,0,272,32.5%
952,0,272,32.5%
953,1,273,32.62%
954,0,273,32.62%
955,1,274,32.74%
956,0,274,32.74%
957,1,275,32.86%
958,0,275,32.86%
959,1,276,32.97%
960,0,276,32.97%
961,0,276,32.97%
962,0,276,32.97%
963,0,276,32.97%
964,0,276,32.97%
965,0,276,32.97%
966,0,276,32.97%
967,0,276,32.97%
968,0,276,32.97%
969,0,276,32.97%
970,0,276,32.97%
971,0,276,32.97%
972,0,276,32.97%
973,0,276,32.97%
974,0,276,32.97%
975,0,276,32.97%
976,0,276,32.97%
977,0,276,32.97%
978,0,276,32.97%
979,0,276,32.97%
980,0,276,32.97%
981,0,276,32.97%
982,0,276,32.97%
983,0,276,32.97%
984,0,276,32.97%
985,1,277,33.09%
986,0,277,33.09%
987,1,278,33.21%
988,0,278,33.21%
989,0,278,33.21%
990,0,278,33.21%
991,0,278,33.21%
992,1,279,33.33%
993,1,280,33.45%
994,0,280,33.45%
995,0,280,33.45%
996,1,281,33.57%
997,0,281,33.57%
998,0,281,33.57%
999,0,281,33.57%
1000,0,281,33.57%
1001,0,281,33.57%
1002,0,281,33.57%
1003,0,281,33.57%
1004,0,281,33.57%
1005,1,282,33.69%
1006,0,282,33.69%
1007,0,282,33.69%
1008,0,282,33.69%
1009,1,283,33.81%
1010,0,283,33.81%
1011,1,284,33.93%
1012,0,284,33.93%
1013,0,284,33.93%
1014,0,284,33.93%
1015,1,285,34.05%
1016,1,286,34.17%
1017,0,286,34.17%
1018,0,286,34.17%
1019,0,286,34.17%
1020,0,286,34.17%
1021,0,286,34.17%
1022,0,286,34.17%
1023,0,286,34.17%
1024,0,286,34.17%
1025,1,287,34.29%
1026,0,287,34.29%
1027,0,287,34.29%
1028,0,287,34.29%
1029,0,287,34.29%
1030,0,287,34.29%
1031,0,287,34.29%
1032,0,287,34.29%
1033,0,287,34.29%
1034,0,287,34.29%
1035,0,287,34.29%
1036,0,287,34.29%
1037,1,288,34.41%
1038,0,288,34.41%
1039,0,288,34.41%
1040,0,288,34.41%
1041,0,288,34.41%
1042,0,288,34.41%
1043,0,288,34.41%
1044,0,288,34.41%
1045,1,289,34.53%
1046,0,289,34.53%
1047,0,289,34.53%
1048,0,289,34.53%
1049,0,289,34.53%
1050,0,289,34.53%
1051,2,291,34.77%
1052,0,291,34.77%
1053,0,291,34.77%
1054,0,291,34.77%
1055,0,291,34.77%
1056,0,291,34.77%
1057,0,291,34.77%
1058,2,293,35.01%
1059,0,293,35.01%
1060,0,293,35.01%
1061,0,293,35.01%
1062,0,293,35.01%
1063,0,293,35.01%
1064,0,293,35.01%
1065,0,293,35.01%
1066,0,293,35.01%
1067,0,293,35.01%
1068,2,295,35.24%
1069,1,296,35.36%
1070,0,296,35.36%
1071,0,296,35.36%
1072,1,297,35.48%
1073,0,297,35.48%
1074,0,297,35.48%
1075,0,297,35.48%
1076,4,301,35.96%
1077,0,301,35.96%
1078,0,301,35.96%
1079,0,301,35.96%
1080,1,302,36.08%
1081,0,302,36.08%
1082,0,302,36.08%
1083,0,302,36.08%
1084,0,302,36.08%
1085,0,302,36.08%
1086,2,304,36.32%
1087,0,304,36.32%
1088,0,304,36.32%
1089,0,304,36.32%
1090,0,304,36.32%
1091,0,304,36.32%
1092,0,304,36.32%
1093,0,304,36.32%
1094,2,306,36.56%
1095,0,306,36.56%
1096,0,306,36.56%
1097,0,306,36.56%
1098,0,306,36.56%
1099,0,306,36.56%
1100,1,307,36.68%
1101,1,308,36.8%
1102,1,309,36.92%
1103,1,310,37.04%
1104,0,310,37.04%
1105,2,312,37.28%
1106,1,313,37.4%
1107,0,313,37.4%
1108,1,314,37.51%
1109,1,315,37.63%
1110,2,317,37.87%
1111,0,317,37.87%
1112,0,317,37.87%
1113,2,319,38.11%
1114,1,320,38.23%
1115,3,323,38.59%
1116,5,328,39.19%
1117,0,328,39.19%
1118,1,329,39.31%
1119,2,331,39.55%
1120,1,332,39.67%
1121,1,333,39.78%
1122,0,333,39.78%
1123,0,333,39.78%
1124,1,334,39.9%
1125,4,338,40.38%
1126,2,340,40.62%
1127,1,341,40.74%
1128,1,342,40.86%
1129,1,343,40.98%
1130,0,343,40.98%
1131,2,345,41.22%
1132,0,345,41.22%
1133,2,347,41.46%
1134,4,351,41.94%
1135,0,351,41.94%
1136,0,351,41.94%
1137,1,352,42.05%
1138,0,352,42.05%
1139,1,353,42.17%
1140,0,353,42.17%
1141,4,357,42.65%
1142,1,358,42.77%
1143,479,837,100.0%
