Length, Count, Sum (Counts <= Length), Percent of Nonzero Data, Nonzero Data Count = 847, Zero Data Count = 997
1,0,0,0.0%
2,1,1,0.12%
3,1,2,0.24%
4,2,4,0.47%
5,0,4,0.47%
6,0,4,0.47%
7,0,4,0.47%
8,1,5,0.59%
9,0,5,0.59%
10,0,5,0.59%
11,0,5,0.59%
12,0,5,0.59%
13,0,5,0.59%
14,0,5,0.59%
15,0,5,0.59%
16,0,5,0.59%
17,1,6,0.71%
18,1,7,0.83%
19,0,7,0.83%
20,0,7,0.83%
21,0,7,0.83%
22,0,7,0.83%
23,0,7,0.83%
24,0,7,0.83%
25,0,7,0.83%
26,0,7,0.83%
27,0,7,0.83%
28,1,8,0.94%
29,0,8,0.94%
30,0,8,0.94%
31,0,8,0.94%
32,0,8,0.94%
33,0,8,0.94%
34,0,8,0.94%
35,0,8,0.94%
36,0,8,0.94%
37,1,9,1.06%
38,0,9,1.06%
39,1,10,1.18%
40,0,10,1.18%
41,0,10,1.18%
42,0,10,1.18%
43,0,10,1.18%
44,0,10,1.18%
45,0,10,1.18%
46,0,10,1.18%
47,1,11,1.3%
48,0,11,1.3%
49,0,11,1.3%
50,0,11,1.3%
51,0,11,1.3%
52,1,12,1.42%
53,0,12,1.42%
54,0,12,1.42%
55,0,12,1.42%
56,0,12,1.42%
57,0,12,1.42%
58,0,12,1.42%
59,0,12,1.42%
60,0,12,1.42%
61,0,12,1.42%
62,0,12,1.42%
63,0,12,1.42%
64,0,12,1.42%
65,1,13,1.53%
66,0,13,1.53%
67,0,13,1.53%
68,1,14,1.65%
69,0,14,1.65%
70,0,14,1.65%
71,0,14,1.65%
72,0,14,1.65%
73,0,14,1.65%
74,0,14,1.65%
75,0,14,1.65%
76,1,15,1.77%
77,0,15,1.77%
78,0,15,1.77%
79,0,15,1.77%
80,0,15,1.77%
81,1,16,1.89%
82,0,16,1.89%
83,0,16,1.89%
84,1,17,2.01%
85,0,17,2.01%
86,0,17,2.01%
87,0,17,2.01%
88,0,17,2.01%
89,0,17,2.01%
90,0,17,2.01%
91,1,18,2.13%
92,0,18,2.13%
93,1,19,2.24%
94,0,19,2.24%
95,0,19,2.24%
96,1,20,2.36%
97,0,20,2.36%
98,1,21,2.48%
99,0,21,2.48%
100,0,21,2.48%
101,0,21,2.48%
102,0,21,2.48%
103,0,21,2.48%
104,0,21,2.48%
105,1,22,2.6%
106,0,22,2.6%
107,0,22,2.6%
108,1,23,2.72%
109,0,23,2.72%
110,0,23,2.72%
111,0,23,2.72%
112,0,23,2.72%
113,0,23,2.72%
114,0,23,2.72%
115,0,23,2.72%
116,0,23,2.72%
117,0,23,2.72%
118,1,24,2.83%
119,0,24,2.83%
120,0,24,2.83%
121,0,24,2.83%
122,1,25,2.95%
123,1,26,3.07%
124,0,26,3.07%
125,0,26,3.07%
126,0,26,3.07%
127,3,29,3.42%
128,0,29,3.42%
129,0,29,3.42%
130,0,29,3.42%
131,0,29,3.42%
132,0,29,3.42%
133,2,31,3.66%
134,0,31,3.66%
135,0,31,3.66%
136,0,31,3.66%
137,0,31,3.66%
138,0,31,3.66%
139,0,31,3.66%
140,0,31,3.66%
141,1,32,3.78%
142,0,32,3.78%
143,0,32,3.78%
144,0,32,3.78%
145,2,34,4.01%
146,0,34,4.01%
147,0,34,4.01%
148,0,34,4.01%
149,0,34,4.01%
150,0,34,4.01%
151,0,34,4.01%
152,0,34,4.01%
153,0,34,4.01%
154,0,34,4.01%
155,1,35,4.13%
156,0,35,4.13%
157,0,35,4.13%
158,0,35,4.13%
159,1,36,4.25%
160,0,36,4.25%
161,0,36,4.25%
162,0,36,4.25%
163,0,36,4.25%
164,0,36,4.25%
165,0,36,4.25%
166,0,36,4.25%
167,0,36,4.25%
168,0,36,4.25%
169,0,36,4.25%
170,1,37,4.37%
171,1,38,4.49%
172,1,39,4.6%
173,0,39,4.6%
174,0,39,4.6%
175,0,39,4.6%
176,0,39,4.6%
177,0,39,4.6%
178,0,39,4.6%
179,0,39,4.6%
180,0,39,4.6%
181,1,40,4.72%
182,0,40,4.72%
183,0,40,4.72%
184,0,40,4.72%
185,0,40,4.72%
186,0,40,4.72%
187,0,40,4.72%
188,1,41,4.84%
189,0,41,4.84%
190,0,41,4.84%
191,0,41,4.84%
192,0,41,4.84%
193,0,41,4.84%
194,0,41,4.84%
195,0,41,4.84%
196,1,42,4.96%
197,0,42,4.96%
198,0,42,4.96%
199,0,42,4.96%
200,1,43,5.08%
201,1,44,5.19%
202,1,45,5.31%
203,0,45,5.31%
204,0,45,5.31%
205,0,45,5.31%
206,0,45,5.31%
207,0,45,5.31%
208,0,45,5.31%
209,0,45,5.31%
210,0,45,5.31%
211,0,45,5.31%
212,0,45,5.31%
213,1,46,5.43%
214,1,47,5.55%
215,1,48,5.67%
216,0,48,5.67%
217,0,48,5.67%
218,0,48,5.67%
219,1,49,5.79%
220,0,49,5.79%
221,0,49,5.79%
222,0,49,5.79%
223,0,49,5.79%
224,0,49,5.79%
225,1,50,5.9%
226,0,50,5.9%
227,0,50,5.9%
228,0,50,5.9%
229,0,50,5.9%
230,0,50,5.9%
231,0,50,5.9%
232,0,50,5.9%
233,0,50,5.9%
234,0,50,5.9%
235,0,50,5.9%
236,1,51,6.02%
237,0,51,6.02%
238,0,51,6.02%
239,0,51,6.02%
240,0,51,6.02%
241,0,51,6.02%
242,0,51,6.02%
243,0,51,6.02%
244,1,52,6.14%
245,0,52,6.14%
246,0,52,6.14%
247,0,52,6.14%
248,0,52,6.14%
249,0,52,6.14%
250,0,52,6.14%
251,0,52,6.14%
252,0,52,6.14%
253,0,52,6.14%
254,1,53,6.26%
255,0,53,6.26%
256,0,53,6.26%
257,0,53,6.26%
258,0,53,6.26%
259,1,54,6.38%
260,2,56,6.61%
261,0,56,6.61%
262,0,56,6.61%
263,1,57,6.73%
264,0,57,6.73%
265,0,57,6.73%
266,0,57,6.73%
267,0,57,6.73%
268,0,57,6.73%
269,0,57,6.73%
270,2,59,6.97%
271,0,59,6.97%
272,0,59,6.97%
273,0,59,6.97%
274,0,59,6.97%
275,1,60,7.08%
276,0,60,7.08%
277,0,60,7.08%
278,0,60,7.08%
279,0,60,7.08%
280,0,60,7.08%
281,0,60,7.08%
282,1,61,7.2%
283,0,61,7.2%
284,0,61,7.2%
285,0,61,7.2%
286,0,61,7.2%
287,0,61,7.2%
288,0,61,7.2%
289,0,61,7.2%
290,0,61,7.2%
291,0,61,7.2%
292,1,62,7.32%
293,0,62,7.32%
294,0,62,7.32%
295,0,62,7.32%
296,0,62,7.32%
297,0,62,7.32%
298,0,62,7.32%
299,0,62,7.32%
300,1,63,7.44%
301,0,63,7.44%
302,0,63,7.44%
303,2,65,7.67%
304,0,65,7.67%
305,0,65,7.67%
306,0,65,7.67%
307,0,65,7.67%
308,0,65,7.67%
309,0,65,7.67%
310,0,65,7.67%
311,2,67,7.91%
312,1,68,8.03%
313,0,68,8.03%
314,0,68,8.03%
315,0,68,8.03%
316,0,68,8.03%
317,0,68,8.03%
318,0,68,8.03%
319,0,68,8.03%
320,0,68,8.03%
321,0,68,8.03%
322,0,68,8.03%
323,0,68,8.03%
324,0,68,8.03%
325,2,70,8.26%
326,0,70,8.26%
327,0,70,8.26%
328,0,70,8.26%
329,0,70,8.26%
330,0,70,8.26%
331,0,70,8.26%
332,0,70,8.26%
333,0,70,8.26%
334,0,70,8.26%
335,0,70,8.26%
336,0,70,8.26%
337,0,70,8.26%
338,0,70,8.26%
339,0,70,8.26%
340,0,70,8.26%
341,0,70,8.26%
342,0,70,8.26%
343,2,72,8.5%
344,0,72,8.5%
345,0,72,8.5%
346,0,72,8.5%
347,0,72,8.5%
348,0,72,8.5%
349,1,73,8.62%
350,1,74,8.74%
351,15,89,10.51%
352,10,99,11.69%
353,0,99,11.69%
354,0,99,11.69%
355,0,99,11.69%
356,1,100,11.81%
357,0,100,11.81%
358,5,105,12.4%
359,0,105,12.4%
360,3,108,12.75%
361,0,108,12.75%
362,0,108,12.75%
363,1,109,12.87%
364,0,109,12.87%
365,1,110,12.99%
366,1,111,13.11%
367,0,111,13.11%
368,0,111,13.11%
369,0,111,13.11%
370,0,111,13.11%
371,0,111,13.11%
372,2,113,13.34%
373,0,113,13.34%
374,0,113,13.34%
375,1,114,13.46%
376,0,114,13.46%
377,0,114,13.46%
378,0,114,13.46%
379,0,114,13.46%
380,0,114,13.46%
381,0,114,13.46%
382,1,115,13.58%
383,0,115,13.58%
384,0,115,13.58%
385,0,115,13.58%
386,0,115,13.58%
387,0,115,13.58%
388,1,116,13.7%
389,0,116,13.7%
390,1,117,13.81%
391,0,117,13.81%
392,0,117,13.81%
393,1,118,13.93%
394,0,118,13.93%
395,0,118,13.93%
396,0,118,13.93%
397,1,119,14.05%
398,0,119,14.05%
399,0,119,14.05%
400,0,119,14.05%
401,0,119,14.05%
402,0,119,14.05%
403,1,120,14.17%
404,0,120,14.17%
405,0,120,14.17%
406,3,123,14.52%
407,0,123,14.52%
408,0,123,14.52%
409,0,123,14.52%
410,0,123,14.52%
411,0,123,14.52%
412,1,124,14.64%
413,0,124,14.64%
414,0,124,14.64%
415,0,124,14.64%
416,0,124,14.64%
417,0,124,14.64%
418,0,124,14.64%
419,1,125,14.76%
420,1,126,14.88%
421,1,127,14.99%
422,1,128,15.11%
423,1,129,15.23%
424,0,129,15.23%
425,1,130,15.35%
426,0,130,15.35%
427,0,130,15.35%
428,0,130,15.35%
429,0,130,15.35%
430,0,130,15.35%
431,0,130,15.35%
432,0,130,15.35%
433,0,130,15.35%
434,1,131,15.47%
435,1,132,15.58%
436,0,132,15.58%
437,0,132,15.58%
438,0,132,15.58%
439,0,132,15.58%
440,0,132,15.58%
441,1,133,15.7%
442,0,133,15.7%
443,0,133,15.7%
444,0,133,15.7%
445,0,133,15.7%
446,2,135,15.94%
447,1,136,16.06%
448,0,136,16.06%
449,0,136,16.06%
450,0,136,16.06%
451,0,136,16.06%
452,0,136,16.06%
453,2,138,16.29%
454,0,138,16.29%
455,0,138,16.29%
456,1,139,16.41%
457,1,140,16.53%
458,0,140,16.53%
459,0,140,16.53%
460,1,141,16.65%
461,0,141,16.65%
462,0,141,16.65%
463,0,141,16.65%
464,0,141,16.65%
465,1,142,16.77%
466,0,142,16.77%
467,0,142,16.77%
468,0,142,16.77%
469,0,142,16.77%
470,0,142,16.77%
471,1,143,16.88%
472,0,143,16.88%
473,0,143,16.88%
474,0,143,16.88%
475,1,144,17.0%
476,0,144,17.0%
477,0,144,17.0%
478,0,144,17.0%
479,1,145,17.12%
480,0,145,17.12%
481,0,145,17.12%
482,1,146,17.24%
483,0,146,17.24%
484,0,146,17.24%
485,0,146,17.24%
486,0,146,17.24%
487,1,147,17.36%
488,0,147,17.36%
489,0,147,17.36%
490,0,147,17.36%
491,1,148,17.47%
492,0,148,17.47%
493,0,148,17.47%
494,0,148,17.47%
495,1,149,17.59%
496,1,150,17.71%
497,0,150,17.71%
498,1,151,17.83%
499,0,151,17.83%
500,0,151,17.83%
501,0,151,17.83%
502,0,151,17.83%
503,1,152,17.95%
504,0,152,17.95%
505,0,152,17.95%
506,1,153,18.06%
507,0,153,18.06%
508,0,153,18.06%
509,0,153,18.06%
510,0,153,18.06%
511,0,153,18.06%
512,1,154,18.18%
513,2,156,18.42%
514,0,156,18.42%
515,0,156,18.42%
516,0,156,18.42%
517,0,156,18.42%
518,0,156,18.42%
519,0,156,18.42%
520,0,156,18.42%
521,0,156,18.42%
522,0,156,18.42%
523,0,156,18.42%
524,0,156,18.42%
525,0,156,18.42%
526,0,156,18.42%
527,0,156,18.42%
528,2,158,18.65%
529,1,159,18.77%
530,0,159,18.77%
531,0,159,18.77%
532,0,159,18.77%
533,1,160,18.89%
534,0,160,18.89%
535,0,160,18.89%
536,0,160,18.89%
537,0,160,18.89%
538,0,160,18.89%
539,0,160,18.89%
540,0,160,18.89%
541,0,160,18.89%
542,0,160,18.89%
543,0,160,18.89%
544,0,160,18.89%
545,0,160,18.89%
546,1,161,19.01%
547,0,161,19.01%
548,0,161,19.01%
549,0,161,19.01%
550,0,161,19.01%
551,1,162,19.13%
552,0,162,19.13%
553,0,162,19.13%
554,0,162,19.13%
555,0,162,19.13%
556,0,162,19.13%
557,0,162,19.13%
558,0,162,19.13%
559,0,162,19.13%
560,0,162,19.13%
561,0,162,19.13%
562,0,162,19.13%
563,0,162,19.13%
564,2,164,19.36%
565,0,164,19.36%
566,0,164,19.36%
567,0,164,19.36%
568,0,164,19.36%
569,0,164,19.36%
570,0,164,19.36%
571,1,165,19.48%
572,1,166,19.6%
573,2,168,19.83%
574,0,168,19.83%
575,0,168,19.83%
576,8,176,20.78%
577,0,176,20.78%
578,0,176,20.78%
579,1,177,20.9%
580,0,177,20.9%
581,0,177,20.9%
582,0,177,20.9%
583,0,177,20.9%
584,1,178,21.02%
585,0,178,21.02%
586,0,178,21.02%
587,2,180,21.25%
588,1,181,21.37%
589,0,181,21.37%
590,0,181,21.37%
591,1,182,21.49%
592,0,182,21.49%
593,0,182,21.49%
594,0,182,21.49%
595,0,182,21.49%
596,1,183,21.61%
597,0,183,21.61%
598,0,183,21.61%
599,1,184,21.72%
600,0,184,21.72%
601,0,184,21.72%
602,0,184,21.72%
603,1,185,21.84%
604,0,185,21.84%
605,0,185,21.84%
606,0,185,21.84%
607,0,185,21.84%
608,0,185,21.84%
609,0,185,21.84%
610,1,186,21.96%
611,0,186,21.96%
612,0,186,21.96%
613,0,186,21.96%
614,0,186,21.96%
615,0,186,21.96%
616,0,186,21.96%
617,0,186,21.96%
618,0,186,21.96%
619,0,186,21.96%
620,0,186,21.96%
621,0,186,21.96%
622,1,187,22.08%
623,0,187,22.08%
624,0,187,22.08%
625,0,187,22.08%
626,1,188,22.2%
627,1,189,22.31%
628,0,189,22.31%
629,0,189,22.31%
630,0,189,22.31%
631,0,189,22.31%
632,1,190,22.43%
633,0,190,22.43%
634,0,190,22.43%
635,1,191,22.55%
636,0,191,22.55%
637,0,191,22.55%
638,0,191,22.55%
639,0,191,22.55%
640,0,191,22.55%
641,0,191,22.55%
642,1,192,22.67%
643,0,192,22.67%
644,0,192,22.67%
645,0,192,22.67%
646,0,192,22.67%
647,1,193,22.79%
648,0,193,22.79%
649,1,194,22.9%
650,0,194,22.9%
651,0,194,22.9%
652,0,194,22.9%
653,0,194,22.9%
654,0,194,22.9%
655,0,194,22.9%
656,1,195,23.02%
657,0,195,23.02%
658,0,195,23.02%
659,0,195,23.02%
660,0,195,23.02%
661,0,195,23.02%
662,0,195,23.02%
663,0,195,23.02%
664,0,195,23.02%
665,0,195,23.02%
666,0,195,23.02%
667,0,195,23.02%
668,0,195,23.02%
669,1,196,23.14%
670,0,196,23.14%
671,0,196,23.14%
672,0,196,23.14%
673,0,196,23.14%
674,0,196,23.14%
675,0,196,23.14%
676,0,196,23.14%
677,0,196,23.14%
678,0,196,23.14%
679,0,196,23.14%
680,0,196,23.14%
681,0,196,23.14%
682,0,196,23.14%
683,1,197,23.26%
684,0,197,23.26%
685,0,197,23.26%
686,0,197,23.26%
687,0,197,23.26%
688,1,198,23.38%
689,0,198,23.38%
690,1,199,23.49%
691,0,199,23.49%
692,0,199,23.49%
693,5,204,24.09%
694,0,204,24.09%
695,0,204,24.09%
696,0,204,24.09%
697,0,204,24.09%
698,0,204,24.09%
699,0,204,24.09%
700,0,204,24.09%
701,0,204,24.09%
702,0,204,24.09%
703,0,204,24.09%
704,1,205,24.2%
705,1,206,24.32%
706,1,207,24.44%
707,1,208,24.56%
708,0,208,24.56%
709,0,208,24.56%
710,0,208,24.56%
711,0,208,24.56%
712,0,208,24.56%
713,0,208,24.56%
714,0,208,24.56%
715,0,208,24.56%
716,1,209,24.68%
717,0,209,24.68%
718,0,209,24.68%
719,0,209,24.68%
720,1,210,24.79%
721,0,210,24.79%
722,0,210,24.79%
723,0,210,24.79%
724,0,210,24.79%
725,1,211,24.91%
726,0,211,24.91%
727,0,211,24.91%
728,0,211,24.91%
729,0,211,24.91%
730,0,211,24.91%
731,0,211,24.91%
732,0,211,24.91%
733,0,211,24.91%
734,1,212,25.03%
735,0,212,25.03%
736,0,212,25.03%
737,1,213,25.15%
738,0,213,25.15%
739,1,214,25.27%
740,0,214,25.27%
741,2,216,25.5%
742,0,216,25.5%
743,0,216,25.5%
744,1,217,25.62%
745,1,218,25.74%
746,0,218,25.74%
747,0,218,25.74%
748,0,218,25.74%
749,0,218,25.74%
750,0,218,25.74%
751,0,218,25.74%
752,0,218,25.74%
753,1,219,25.86%
754,2,221,26.09%
755,0,221,26.09%
756,0,221,26.09%
757,0,221,26.09%
758,0,221,26.09%
759,0,221,26.09%
760,1,222,26.21%
761,0,222,26.21%
762,0,222,26.21%
763,0,222,26.21%
764,0,222,26.21%
765,0,222,26.21%
766,0,222,26.21%
767,0,222,26.21%
768,0,222,26.21%
769,1,223,26.33%
770,0,223,26.33%
771,0,223,26.33%
772,0,223,26.33%
773,0,223,26.33%
774,1,224,26.45%
775,0,224,26.45%
776,0,224,26.45%
777,0,224,26.45%
778,0,224,26.45%
779,0,224,26.45%
780,0,224,26.45%
781,0,224,26.45%
782,0,224,26.45%
783,0,224,26.45%
784,0,224,26.45%
785,1,225,26.56%
786,0,225,26.56%
787,0,225,26.56%
788,0,225,26.56%
789,0,225,26.56%
790,0,225,26.56%
791,0,225,26.56%
792,1,226,26.68%
793,0,226,26.68%
794,0,226,26.68%
795,2,228,26.92%
796,0,228,26.92%
797,0,228,26.92%
798,0,228,26.92%
799,0,228,26.92%
800,0,228,26.92%
801,0,228,26.92%
802,0,228,26.92%
803,0,228,26.92%
804,1,229,27.04%
805,0,229,27.04%
806,0,229,27.04%
807,0,229,27.04%
808,1,230,27.15%
809,0,230,27.15%
810,0,230,27.15%
811,0,230,27.15%
812,0,230,27.15%
813,0,230,27.15%
814,0,230,27.15%
815,0,230,27.15%
816,1,231,27.27%
817,0,231,27.27%
818,0,231,27.27%
819,1,232,27.39%
820,0,232,27.39%
821,0,232,27.39%
822,0,232,27.39%
823,0,232,27.39%
824,0,232,27.39%
825,0,232,27.39%
826,0,232,27.39%
827,0,232,27.39%
828,0,232,27.39%
829,0,232,27.39%
830,1,233,27.51%
831,0,233,27.51%
832,0,233,27.51%
833,0,233,27.51%
834,0,233,27.51%
835,0,233,27.51%
836,0,233,27.51%
837,0,233,27.51%
838,0,233,27.51%
839,0,233,27.51%
840,1,234,27.63%
841,9,243,28.69%
842,0,243,28.69%
843,1,244,28.81%
844,0,244,28.81%
845,0,244,28.81%
846,0,244,28.81%
847,0,244,28.81%
848,0,244,28.81%
849,0,244,28.81%
850,0,244,28.81%
851,0,244,28.81%
852,0,244,28.81%
853,0,244,28.81%
854,0,244,28.81%
855,0,244,28.81%
856,1,245,28.93%
857,0,245,28.93%
858,1,246,29.04%
859,0,246,29.04%
860,0,246,29.04%
861,0,246,29.04%
862,0,246,29.04%
863,0,246,29.04%
864,0,246,29.04%
865,0,246,29.04%
866,0,246,29.04%
867,0,246,29.04%
868,0,246,29.04%
869,0,246,29.04%
870,0,246,29.04%
871,1,247,29.16%
872,0,247,29.16%
873,1,248,29.28%
874,0,248,29.28%
875,0,248,29.28%
876,1,249,29.4%
877,0,249,29.4%
878,0,249,29.4%
879,0,249,29.4%
880,1,250,29.52%
881,0,250,29.52%
882,0,250,29.52%
883,0,250,29.52%
884,0,250,29.52%
885,0,250,29.52%
886,0,250,29.52%
887,0,250,29.52%
888,0,250,29.52%
889,0,250,29.52%
890,0,250,29.52%
891,0,250,29.52%
892,0,250,29.52%
893,0,250,29.52%
894,0,250,29.52%
895,0,250,29.52%
896,1,251,29.63%
897,0,251,29.63%
898,0,251,29.63%
899,0,251,29.63%
900,0,251,29.63%
901,1,252,29.75%
902,0,252,29.75%
903,0,252,29.75%
904,1,253,29.87%
905,0,253,29.87%
906,1,254,29.99%
907,0,254,29.99%
908,0,254,29.99%
909,0,254,29.99%
910,0,254,29.99%
911,0,254,29.99%
912,1,255,30.11%
913,0,255,30.11%
914,0,255,30.11%
915,0,255,30.11%
916,0,255,30.11%
917,0,255,30.11%
918,0,255,30.11%
919,0,255,30.11%
920,1,256,30.22%
921,2,258,30.46%
922,0,258,30.46%
923,0,258,30.46%
924,0,258,30.46%
925,1,259,30.58%
926,1,260,30.7%
927,0,260,30.7%
928,1,261,30.81%
929,4,265,31.29%
930,0,265,31.29%
931,1,266,31.4%
932,0,266,31.4%
933,0,266,31.4%
934,0,266,31.4%
935,1,267,31.52%
936,0,267,31.52%
937,1,268,31.64%
938,0,268,31.64%
939,0,268,31.64%
940,0,268,31.64%
941,0,268,31.64%
942,1,269,31.76%
943,0,269,31.76%
944,0,269,31.76%
945,0,269,31.76%
946,1,270,31.88%
947,1,271,32.0%
948,0,271,32.0%
949,0,271,32.0%
950,0,271,32.0%
951,0,271,32.0%
952,0,271,32.0%
953,2,273,32.23%
954,1,274,32.35%
955,1,275,32.47%
956,2,277,32.7%
957,0,277,32.7%
958,2,279,32.94%
959,1,280,33.06%
960,1,281,33.18%
961,0,281,33.18%
962,1,282,33.29%
963,2,284,33.53%
964,1,285,33.65%
965,0,285,33.65%
966,1,286,33.77%
967,1,287,33.88%
968,3,290,34.24%
969,5,295,34.83%
970,1,296,34.95%
971,1,297,35.06%
972,3,300,35.42%
973,1,301,35.54%
974,3,304,35.89%
975,0,304,35.89%
976,0,304,35.89%
977,0,304,35.89%
978,4,308,36.36%
979,4,312,36.84%
980,0,312,36.84%
981,1,313,36.95%
982,1,314,37.07%
983,1,315,37.19%
984,2,317,37.43%
985,1,318,37.54%
986,2,320,37.78%
987,2,322,38.02%
988,1,323,38.13%
989,1,324,38.25%
990,1,325,38.37%
991,1,326,38.49%
992,1,327,38.61%
993,0,327,38.61%
994,5,332,39.2%
995,0,332,39.2%
996,3,335,39.55%
997,2,337,39.79%
998,5,342,40.38%
999,1,343,40.5%
1000,1,344,40.61%
1001,2,346,40.85%
1002,6,352,41.56%
1003,0,352,41.56%
1004,0,352,41.56%
1005,0,352,41.56%
1006,0,352,41.56%
1007,1,353,41.68%
1008,1,354,41.79%
1009,0,354,41.79%
1010,1,355,41.91%
1011,5,360,42.5%
1012,2,362,42.74%
1013,2,364,42.98%
1014,0,364,42.98%
1015,3,367,43.33%
1016,3,370,43.68%
1017,1,371,43.8%
1018,0,371,43.8%
1019,0,371,43.8%
1020,0,371,43.8%
1021,4,375,44.27%
1022,3,378,44.63%
1023,1,379,44.75%
1024,1,380,44.86%
1025,0,380,44.86%
1026,6,386,45.57%
1027,3,389,45.93%
1028,0,389,45.93%
1029,2,391,46.16%
1030,0,391,46.16%
1031,1,392,46.28%
1032,1,393,46.4%
1033,1,394,46.52%
1034,0,394,46.52%
1035,2,396,46.75%
1036,7,403,47.58%
1037,10,413,48.76%
1038,1,414,48.88%
1039,2,416,49.11%
1040,7,423,49.94%
1041,0,423,49.94%
1042,0,423,49.94%
1043,0,423,49.94%
1044,4,427,50.41%
1045,2,429,50.65%
1046,0,429,50.65%
1047,2,431,50.89%
1048,0,431,50.89%
1049,2,433,51.12%
1050,3,436,51.48%
1051,3,439,51.83%
1052,2,441,52.07%
1053,0,441,52.07%
1054,1,442,52.18%
1055,0,442,52.18%
1056,4,446,52.66%
1057,2,448,52.89%
1058,0,448,52.89%
1059,0,448,52.89%
1060,2,450,53.13%
1061,0,450,53.13%
1062,0,450,53.13%
1063,0,450,53.13%
1064,1,451,53.25%
1065,1,452,53.36%
1066,0,452,53.36%
1067,0,452,53.36%
1068,0,452,53.36%
1069,0,452,53.36%
1070,3,455,53.72%
1071,0,455,53.72%
1072,0,455,53.72%
1073,0,455,53.72%
1074,2,457,53.96%
1075,4,461,54.43%
1076,0,461,54.43%
1077,0,461,54.43%
1078,1,462,54.55%
1079,1,463,54.66%
1080,0,463,54.66%
1081,1,464,54.78%
1082,0,464,54.78%
1083,3,467,55.14%
1084,3,470,55.49%
1085,3,473,55.84%
1086,2,475,56.08%
1087,0,475,56.08%
1088,2,477,56.32%
1089,3,480,56.67%
1090,2,482,56.91%
1091,1,483,57.02%
1092,0,483,57.02%
1093,4,487,57.5%
1094,7,494,58.32%
1095,3,497,58.68%
1096,2,499,58.91%
1097,0,499,58.91%
1098,0,499,58.91%
1099,4,503,59.39%
1100,1,504,59.5%
1101,0,504,59.5%
1102,2,506,59.74%
1103,4,510,60.21%
1104,0,510,60.21%
1105,0,510,60.21%
1106,0,510,60.21%
1107,0,510,60.21%
1108,0,510,60.21%
1109,1,511,60.33%
1110,3,514,60.68%
1111,0,514,60.68%
1112,0,514,60.68%
1113,0,514,60.68%
1114,0,514,60.68%
1115,0,514,60.68%
1116,0,514,60.68%
1117,2,516,60.92%
1118,2,518,61.16%
1119,1,519,61.28%
1120,2,521,61.51%
1121,1,522,61.63%
1122,2,524,61.87%
1123,5,529,62.46%
1124,0,529,62.46%
1125,0,529,62.46%
1126,3,532,62.81%
1127,4,536,63.28%
1128,9,545,64.34%
1129,1,546,64.46%
1130,0,546,64.46%
1131,2,548,64.7%
1132,4,552,65.17%
1133,1,553,65.29%
1134,0,553,65.29%
1135,0,553,65.29%
1136,2,555,65.53%
1137,5,560,66.12%
1138,2,562,66.35%
1139,0,562,66.35%
1140,285,847,100.0%
