Length, Count, Sum (Counts <= Length), Percent of Nonzero Data, Nonzero Data Count = 834, Zero Data Count = 1010
1,1,1,0.12%
2,1,2,0.24%
3,1,3,0.36%
4,0,3,0.36%
5,0,3,0.36%
6,0,3,0.36%
7,1,4,0.48%
8,0,4,0.48%
9,0,4,0.48%
10,0,4,0.48%
11,0,4,0.48%
12,0,4,0.48%
13,0,4,0.48%
14,0,4,0.48%
15,1,5,0.6%
16,0,5,0.6%
17,0,5,0.6%
18,0,5,0.6%
19,0,5,0.6%
20,0,5,0.6%
21,0,5,0.6%
22,0,5,0.6%
23,0,5,0.6%
24,0,5,0.6%
25,0,5,0.6%
26,0,5,0.6%
27,0,5,0.6%
28,0,5,0.6%
29,0,5,0.6%
30,0,5,0.6%
31,0,5,0.6%
32,0,5,0.6%
33,0,5,0.6%
34,0,5,0.6%
35,0,5,0.6%
36,0,5,0.6%
37,0,5,0.6%
38,1,6,0.72%
39,0,6,0.72%
40,0,6,0.72%
41,0,6,0.72%
42,0,6,0.72%
43,0,6,0.72%
44,1,7,0.84%
45,0,7,0.84%
46,0,7,0.84%
47,0,7,0.84%
48,0,7,0.84%
49,0,7,0.84%
50,0,7,0.84%
51,0,7,0.84%
52,1,8,0.96%
53,0,8,0.96%
54,0,8,0.96%
55,0,8,0.96%
56,0,8,0.96%
57,0,8,0.96%
58,0,8,0.96%
59,0,8,0.96%
60,0,8,0.96%
61,0,8,0.96%
62,0,8,0.96%
63,1,9,1.08%
64,0,9,1.08%
65,0,9,1.08%
66,0,9,1.08%
67,0,9,1.08%
68,0,9,1.08%
69,0,9,1.08%
70,0,9,1.08%
71,0,9,1.08%
72,0,9,1.08%
73,1,10,1.2%
74,0,10,1.2%
75,0,10,1.2%
76,0,10,1.2%
77,0,10,1.2%
78,1,11,1.32%
79,2,13,1.56%
80,0,13,1.56%
81,0,13,1.56%
82,0,13,1.56%
83,0,13,1.56%
84,0,13,1.56%
85,1,14,1.68%
86,0,14,1.68%
87,0,14,1.68%
88,0,14,1.68%
89,0,14,1.68%
90,0,14,1.68%
91,0,14,1.68%
92,1,15,1.8%
93,0,15,1.8%
94,1,16,1.92%
95,0,16,1.92%
96,1,17,2.04%
97,2,19,2.28%
98,0,19,2.28%
99,0,19,2.28%
100,0,19,2.28%
101,1,20,2.4%
102,0,20,2.4%
103,0,20,2.4%
104,0,20,2.4%
105,0,20,2.4%
106,1,21,2.52%
107,0,21,2.52%
108,0,21,2.52%
109,0,21,2.52%
110,0,21,2.52%
111,1,22,2.64%
112,0,22,2.64%
113,0,22,2.64%
114,0,22,2.64%
115,1,23,2.76%
116,0,23,2.76%
117,0,23,2.76%
118,0,23,2.76%
119,1,24,2.88%
120,0,24,2.88%
121,0,24,2.88%
122,0,24,2.88%
123,0,24,2.88%
124,0,24,2.88%
125,1,25,3.0%
126,0,25,3.0%
127,0,25,3.0%
128,1,26,3.12%
129,0,26,3.12%
130,0,26,3.12%
131,1,27,3.24%
132,0,27,3.24%
133,8,35,4.2%
134,0,35,4.2%
135,0,35,4.2%
136,0,35,4.2%
137,0,35,4.2%
138,0,35,4.2%
139,0,35,4.2%
140,0,35,4.2%
141,0,35,4.2%
142,0,35,4.2%
143,0,35,4.2%
144,0,35,4.2%
145,1,36,4.32%
146,0,36,4.32%
147,0,36,4.32%
148,0,36,4.32%
149,0,36,4.32%
150,1,37,4.44%
151,1,38,4.56%
152,0,38,4.56%
153,0,38,4.56%
154,0,38,4.56%
155,0,38,4.56%
156,0,38,4.56%
157,0,38,4.56%
158,1,39,4.68%
159,0,39,4.68%
160,0,39,4.68%
161,0,39,4.68%
162,0,39,4.68%
163,0,39,4.68%
164,0,39,4.68%
165,0,39,4.68%
166,1,40,4.8%
167,0,40,4.8%
168,0,40,4.8%
169,0,40,4.8%
170,0,40,4.8%
171,0,40,4.8%
172,0,40,4.8%
173,0,40,4.8%
174,0,40,4.8%
175,1,41,4.92%
176,0,41,4.92%
177,0,41,4.92%
178,0,41,4.92%
179,0,41,4.92%
180,0,41,4.92%
181,0,41,4.92%
182,0,41,4.92%
183,0,41,4.92%
184,2,43,5.16%
185,0,43,5.16%
186,1,44,5.28%
187,0,44,5.28%
188,0,44,5.28%
189,0,44,5.28%
190,0,44,5.28%
191,0,44,5.28%
192,0,44,5.28%
193,0,44,5.28%
194,1,45,5.4%
195,0,45,5.4%
196,0,45,5.4%
197,0,45,5.4%
198,1,46,5.52%
199,1,47,5.64%
200,0,47,5.64%
201,0,47,5.64%
202,0,47,5.64%
203,0,47,5.64%
204,0,47,5.64%
205,0,47,5.64%
206,0,47,5.64%
207,1,48,5.76%
208,0,48,5.76%
209,1,49,5.88%
210,0,49,5.88%
211,0,49,5.88%
212,1,50,6.0%
213,0,50,6.0%
214,0,50,6.0%
215,0,50,6.0%
216,0,50,6.0%
217,0,50,6.0%
218,0,50,6.0%
219,0,50,6.0%
220,0,50,6.0%
221,0,50,6.0%
222,1,51,6.12%
223,0,51,6.12%
224,0,51,6.12%
225,1,52,6.24%
226,0,52,6.24%
227,0,52,6.24%
228,0,52,6.24%
229,0,52,6.24%
230,0,52,6.24%
231,1,53,6.35%
232,0,53,6.35%
233,0,53,6.35%
234,0,53,6.35%
235,0,53,6.35%
236,0,53,6.35%
237,0,53,6.35%
238,1,54,6.47%
239,0,54,6.47%
240,1,55,6.59%
241,0,55,6.59%
242,1,56,6.71%
243,1,57,6.83%
244,1,58,6.95%
245,0,58,6.95%
246,0,58,6.95%
247,0,58,6.95%
248,0,58,6.95%
249,0,58,6.95%
250,0,58,6.95%
251,0,58,6.95%
252,1,59,7.07%
253,1,60,7.19%
254,0,60,7.19%
255,1,61,7.31%
256,0,61,7.31%
257,0,61,7.31%
258,0,61,7.31%
259,16,77,9.23%
260,0,77,9.23%
261,0,77,9.23%
262,1,78,9.35%
263,0,78,9.35%
264,0,78,9.35%
265,2,80,9.59%
266,1,81,9.71%
267,0,81,9.71%
268,0,81,9.71%
269,1,82,9.83%
270,1,83,9.95%
271,1,84,10.07%
272,5,89,10.67%
273,0,89,10.67%
274,1,90,10.79%
275,0,90,10.79%
276,0,90,10.79%
277,0,90,10.79%
278,0,90,10.79%
279,1,91,10.91%
280,0,91,10.91%
281,0,91,10.91%
282,0,91,10.91%
283,0,91,10.91%
284,0,91,10.91%
285,0,91,10.91%
286,0,91,10.91%
287,0,91,10.91%
288,0,91,10.91%
289,0,91,10.91%
290,1,92,11.03%
291,0,92,11.03%
292,0,92,11.03%
293,1,93,11.15%
294,0,93,11.15%
295,0,93,11.15%
296,0,93,11.15%
297,0,93,11.15%
298,1,94,11.27%
299,1,95,11.39%
300,0,95,11.39%
301,15,110,13.19%
302,0,110,13.19%
303,2,112,13.43%
304,0,112,13.43%
305,0,112,13.43%
306,0,112,13.43%
307,0,112,13.43%
308,0,112,13.43%
309,0,112,13.43%
310,1,113,13.55%
311,0,113,13.55%
312,0,113,13.55%
313,0,113,13.55%
314,0,113,13.55%
315,0,113,13.55%
316,0,113,13.55%
317,1,114,13.67%
318,0,114,13.67%
319,0,114,13.67%
320,0,114,13.67%
321,0,114,13.67%
322,0,114,13.67%
323,0,114,13.67%
324,0,114,13.67%
325,0,114,13.67%
326,0,114,13.67%
327,0,114,13.67%
328,0,114,13.67%
329,0,114,13.67%
330,0,114,13.67%
331,1,115,13.79%
332,2,117,14.03%
333,0,117,14.03%
334,0,117,14.03%
335,0,117,14.03%
336,0,117,14.03%
337,0,117,14.03%
338,0,117,14.03%
339,0,117,14.03%
340,0,117,14.03%
341,0,117,14.03%
342,0,117,14.03%
343,2,119,14.27%
344,0,119,14.27%
345,0,119,14.27%
346,0,119,14.27%
347,1,120,14.39%
348,0,120,14.39%
349,0,120,14.39%
350,1,121,14.51%
351,1,122,14.63%
352,1,123,14.75%
353,0,123,14.75%
354,0,123,14.75%
355,0,123,14.75%
356,0,123,14.75%
357,0,123,14.75%
358,0,123,14.75%
359,0,123,14.75%
360,0,123,14.75%
361,1,124,14.87%
362,0,124,14.87%
363,0,124,14.87%
364,0,124,14.87%
365,0,124,14.87%
366,0,124,14.87%
367,0,124,14.87%
368,0,124,14.87%
369,0,124,14.87%
370,1,125,14.99%
371,1,126,15.11%
372,1,127,15.23%
373,1,128,15.35%
374,0,128,15.35%
375,0,128,15.35%
376,0,128,15.35%
377,0,128,15.35%
378,0,128,15.35%
379,0,128,15.35%
380,0,128,15.35%
381,0,128,15.35%
382,0,128,15.35%
383,1,129,15.47%
384,0,129,15.47%
385,0,129,15.47%
386,0,129,15.47%
387,1,130,15.59%
388,0,130,15.59%
389,1,131,15.71%
390,0,131,15.71%
391,0,131,15.71%
392,0,131,15.71%
393,0,131,15.71%
394,1,132,15.83%
395,0,132,15.83%
396,0,132,15.83%
397,1,133,15.95%
398,1,134,16.07%
399,0,134,16.07%
400,0,134,16.07%
401,1,135,16.19%
402,4,139,16.67%
403,1,140,16.79%
404,0,140,16.79%
405,0,140,16.79%
406,2,142,17.03%
407,0,142,17.03%
408,0,142,17.03%
409,0,142,17.03%
410,1,143,17.15%
411,0,143,17.15%
412,0,143,17.15%
413,0,143,17.15%
414,0,143,17.15%
415,0,143,17.15%
416,0,143,17.15%
417,0,143,17.15%
418,1,144,17.27%
419,0,144,17.27%
420,0,144,17.27%
421,0,144,17.27%
422,1,145,17.39%
423,0,145,17.39%
424,0,145,17.39%
425,0,145,17.39%
426,0,145,17.39%
427,0,145,17.39%
428,0,145,17.39%
429,1,146,17.51%
430,0,146,17.51%
431,0,146,17.51%
432,0,146,17.51%
433,0,146,17.51%
434,0,146,17.51%
435,1,147,17.63%
436,0,147,17.63%
437,0,147,17.63%
438,0,147,17.63%
439,0,147,17.63%
440,0,147,17.63%
441,1,148,17.75%
442,0,148,17.75%
443,0,148,17.75%
444,0,148,17.75%
445,0,148,17.75%
446,0,148,17.75%
447,0,148,17.75%
448,0,148,17.75%
449,0,148,17.75%
450,0,148,17.75%
451,0,148,17.75%
452,0,148,17.75%
453,1,149,17.87%
454,0,149,17.87%
455,0,149,17.87%
456,0,149,17.87%
457,0,149,17.87%
458,0,149,17.87%
459,0,149,17.87%
460,0,149,17.87%
461,1,150,17.99%
462,0,150,17.99%
463,0,150,17.99%
464,0,150,17.99%
465,0,150,17.99%
466,0,150,17.99%
467,0,150,17.99%
468,0,150,17.99%
469,0,150,17.99%
470,0,150,17.99%
471,0,150,17.99%
472,0,150,17.99%
473,0,150,17.99%
474,0,150,17.99%
475,1,151,18.11%
476,0,151,18.11%
477,0,151,18.11%
478,0,151,18.11%
479,0,151,18.11%
480,0,151,18.11%
481,0,151,18.11%
482,0,151,18.11%
483,0,151,18.11%
484,1,152,18.23%
485,0,152,18.23%
486,1,153,18.35%
487,0,153,18.35%
488,0,153,18.35%
489,0,153,18.35%
490,2,155,18.59%
491,0,155,18.59%
492,0,155,18.59%
493,0,155,18.59%
494,0,155,18.59%
495,0,155,18.59%
496,0,155,18.59%
497,0,155,18.59%
498,0,155,18.59%
499,0,155,18.59%
500,0,155,18.59%
501,1,156,18.71%
502,0,156,18.71%
503,1,157,18.82%
504,0,157,18.82%
505,0,157,18.82%
506,0,157,18.82%
507,0,157,18.82%
508,0,157,18.82%
509,0,157,18.82%
510,0,157,18.82%
511,0,157,18.82%
512,0,157,18.82%
513,0,157,18.82%
514,0,157,18.82%
515,0,157,18.82%
516,0,157,18.82%
517,0,157,18.82%
518,0,157,18.82%
519,1,158,18.94%
520,0,158,18.94%
521,0,158,18.94%
522,0,158,18.94%
523,0,158,18.94%
524,0,158,18.94%
525,1,159,19.06%
526,1,160,19.18%
527,1,161,19.3%
528,0,161,19.3%
529,0,161,19.3%
530,0,161,19.3%
531,0,161,19.3%
532,0,161,19.3%
533,0,161,19.3%
534,0,161,19.3%
535,1,162,19.42%
536,0,162,19.42%
537,0,162,19.42%
538,0,162,19.42%
539,2,164,19.66%
540,0,164,19.66%
541,0,164,19.66%
542,0,164,19.66%
543,8,172,20.62%
544,0,172,20.62%
545,0,172,20.62%
546,1,173,20.74%
547,0,173,20.74%
548,0,173,20.74%
549,0,173,20.74%
550,0,173,20.74%
551,1,174,20.86%
552,0,174,20.86%
553,0,174,20.86%
554,0,174,20.86%
555,0,174,20.86%
556,0,174,20.86%
557,0,174,20.86%
558,0,174,20.86%
559,0,174,20.86%
560,2,176,21.1%
561,0,176,21.1%
562,0,176,21.1%
563,0,176,21.1%
564,1,177,21.22%
565,0,177,21.22%
566,0,177,21.22%
567,1,178,21.34%
568,0,178,21.34%
569,0,178,21.34%
570,1,179,21.46%
571,0,179,21.46%
572,0,179,21.46%
573,2,181,21.7%
574,0,181,21.7%
575,0,181,21.7%
576,0,181,21.7%
577,5,186,22.3%
578,0,186,22.3%
579,0,186,22.3%
580,0,186,22.3%
581,0,186,22.3%
582,0,186,22.3%
583,0,186,22.3%
584,0,186,22.3%
585,0,186,22.3%
586,0,186,22.3%
587,1,187,22.42%
588,0,187,22.42%
589,0,187,22.42%
590,0,187,22.42%
591,1,188,22.54%
592,0,188,22.54%
593,1,189,22.66%
594,0,189,22.66%
595,0,189,22.66%
596,0,189,22.66%
597,0,189,22.66%
598,0,189,22.66%
599,0,189,22.66%
600,0,189,22.66%
601,0,189,22.66%
602,1,190,22.78%
603,1,191,22.9%
604,1,192,23.02%
605,0,192,23.02%
606,0,192,23.02%
607,0,192,23.02%
608,0,192,23.02%
609,0,192,23.02%
610,0,192,23.02%
611,0,192,23.02%
612,0,192,23.02%
613,0,192,23.02%
614,0,192,23.02%
615,0,192,23.02%
616,0,192,23.02%
617,0,192,23.02%
618,0,192,23.02%
619,0,192,23.02%
620,0,192,23.02%
621,0,192,23.02%
622,1,193,23.14%
623,0,193,23.14%
624,0,193,23.14%
625,0,193,23.14%
626,0,193,23.14%
627,0,193,23.14%
628,1,194,23.26%
629,0,194,23.26%
630,0,194,23.26%
631,0,194,23.26%
632,0,194,23.26%
633,0,194,23.26%
634,0,194,23.26%
635,2,196,23.5%
636,0,196,23.5%
637,0,196,23.5%
638,1,197,23.62%
639,0,197,23.62%
640,0,197,23.62%
641,0,197,23.62%
642,0,197,23.62%
643,0,197,23.62%
644,0,197,23.62%
645,0,197,23.62%
646,0,197,23.62%
647,1,198,23.74%
648,0,198,23.74%
649,1,199,23.86%
650,0,199,23.86%
651,0,199,23.86%
652,0,199,23.86%
653,1,200,23.98%
654,0,200,23.98%
655,0,200,23.98%
656,0,200,23.98%
657,0,200,23.98%
658,1,201,24.1%
659,0,201,24.1%
660,9,210,25.18%
661,0,210,25.18%
662,1,211,25.3%
663,0,211,25.3%
664,0,211,25.3%
665,0,211,25.3%
666,0,211,25.3%
667,0,211,25.3%
668,0,211,25.3%
669,0,211,25.3%
670,0,211,25.3%
671,0,211,25.3%
672,1,212,25.42%
673,0,212,25.42%
674,1,213,25.54%
675,0,213,25.54%
676,0,213,25.54%
677,1,214,25.66%
678,0,214,25.66%
679,0,214,25.66%
680,1,215,25.78%
681,0,215,25.78%
682,0,215,25.78%
683,0,215,25.78%
684,0,215,25.78%
685,0,215,25.78%
686,0,215,25.78%
687,0,215,25.78%
688,0,215,25.78%
689,0,215,25.78%
690,0,215,25.78%
691,0,215,25.78%
692,1,216,25.9%
693,0,216,25.9%
694,0,216,25.9%
695,0,216,25.9%
696,0,216,25.9%
697,0,216,25.9%
698,0,216,25.9%
699,0,216,25.9%
700,0,216,25.9%
701,0,216,25.9%
702,0,216,25.9%
703,0,216,25.9%
704,0,216,25.9%
705,0,216,25.9%
706,0,216,25.9%
707,0,216,25.9%
708,0,216,25.9%
709,0,216,25.9%
710,0,216,25.9%
711,0,216,25.9%
712,0,216,25.9%
713,0,216,25.9%
714,0,216,25.9%
715,0,216,25.9%
716,0,216,25.9%
717,0,216,25.9%
718,0,216,25.9%
719,1,217,26.02%
720,0,217,26.02%
721,0,217,26.02%
722,0,217,26.02%
723,0,217,26.02%
724,0,217,26.02%
725,0,217,26.02%
726,1,218,26.14%
727,0,218,26.14%
728,0,218,26.14%
729,0,218,26.14%
730,0,218,26.14%
731,1,219,26.26%
732,0,219,26.26%
733,0,219,26.26%
734,1,220,26.38%
735,1,221,26.5%
736,0,221,26.5%
737,0,221,26.5%
738,0,221,26.5%
739,2,223,26.74%
740,1,224,26.86%
741,0,224,26.86%
742,1,225,26.98%
743,0,225,26.98%
744,0,225,26.98%
745,1,226,27.1%
746,0,226,27.1%
747,0,226,27.1%
748,0,226,27.1%
749,0,226,27.1%
750,0,226,27.1%
751,0,226,27.1%
752,0,226,27.1%
753,0,226,27.1%
754,0,226,27.1%
755,0,226,27.1%
756,0,226,27.1%
757,0,226,27.1%
758,0,226,27.1%
759,0,226,27.1%
760,0,226,27.1%
761,0,226,27.1%
762,0,226,27.1%
763,0,226,27.1%
764,0,226,27.1%
765,0,226,27.1%
766,0,226,27.1%
767,0,226,27.1%
768,0,226,27.1%
769,1,227,27.22%
770,1,228,27.34%
771,0,228,27.34%
772,0,228,27.34%
773,0,228,27.34%
774,1,229,27.46%
775,0,229,27.46%
776,0,229,27.46%
777,1,230,27.58%
778,1,231,27.7%
779,1,232,27.82%
780,0,232,27.82%
781,0,232,27.82%
782,0,232,27.82%
783,0,232,27.82%
784,2,234,28.06%
785,0,234,28.06%
786,1,235,28.18%
787,0,235,28.18%
788,0,235,28.18%
789,1,236,28.3%
790,0,236,28.3%
791,1,237,28.42%
792,0,237,28.42%
793,0,237,28.42%
794,0,237,28.42%
795,2,239,28.66%
796,0,239,28.66%
797,0,239,28.66%
798,1,240,28.78%
799,0,240,28.78%
800,0,240,28.78%
801,0,240,28.78%
802,0,240,28.78%
803,2,242,29.02%
804,1,243,29.14%
805,0,243,29.14%
806,0,243,29.14%
807,0,243,29.14%
808,0,243,29.14%
809,0,243,29.14%
810,0,243,29.14%
811,0,243,29.14%
812,0,243,29.14%
813,0,243,29.14%
814,0,243,29.14%
815,0,243,29.14%
816,1,244,29.26%
817,0,244,29.26%
818,0,244,29.26%
819,0,244,29.26%
820,0,244,29.26%
821,0,244,29.26%
822,0,244,29.26%
823,0,244,29.26%
824,1,245,29.38%
825,0,245,29.38%
826,0,245,29.38%
827,1,246,29.5%
828,0,246,29.5%
829,0,246,29.5%
830,0,246,29.5%
831,0,246,29.5%
832,1,247,29.62%
833,0,247,29.62%
834,0,247,29.62%
835,1,248,29.74%
836,2,250,29.98%
837,1,251,30.1%
838,0,251,30.1%
839,0,251,30.1%
840,0,251,30.1%
841,0,251,30.1%
842,0,251,30.1%
843,2,253,30.34%
844,0,253,30.34%
845,0,253,30.34%
846,0,253,30.34%
847,2,255,30.58%
848,0,255,30.58%
849,0,255,30.58%
850,0,255,30.58%
851,0,255,30.58%
852,0,255,30.58%
853,0,255,30.58%
854,2,257,30.82%
855,1,258,30.94%
856,1,259,31.06%
857,0,259,31.06%
858,0,259,31.06%
859,0,259,31.06%
860,0,259,31.06%
861,0,259,31.06%
862,0,259,31.06%
863,0,259,31.06%
864,0,259,31.06%
865,0,259,31.06%
866,0,259,31.06%
867,0,259,31.06%
868,0,259,31.06%
869,0,259,31.06%
870,1,260,31.18%
871,0,260,31.18%
872,0,260,31.18%
873,0,260,31.18%
874,0,260,31.18%
875,0,260,31.18%
876,0,260,31.18%
877,0,260,31.18%
878,0,260,31.18%
879,0,260,31.18%
880,0,260,31.18%
881,1,261,31.29%
882,0,261,31.29%
883,0,261,31.29%
884,1,262,31.41%
885,1,263,31.53%
886,0,263,31.53%
887,1,264,31.65%
888,0,264,31.65%
889,1,265,31.77%
890,0,265,31.77%
891,0,265,31.77%
892,0,265,31.77%
893,1,266,31.89%
894,0,266,31.89%
895,0,266,31.89%
896,0,266,31.89%
897,0,266,31.89%
898,0,266,31.89%
899,0,266,31.89%
900,0,266,31.89%
901,0,266,31.89%
902,0,266,31.89%
903,0,266,31.89%
904,1,267,32.01%
905,0,267,32.01%
906,0,267,32.01%
907,1,268,32.13%
908,0,268,32.13%
909,0,268,32.13%
910,0,268,32.13%
911,0,268,32.13%
912,0,268,32.13%
913,0,268,32.13%
914,0,268,32.13%
915,0,268,32.13%
916,1,269,32.25%
917,0,269,32.25%
918,1,270,32.37%
919,0,270,32.37%
920,1,271,32.49%
921,0,271,32.49%
922,1,272,32.61%
923,0,272,32.61%
924,0,272,32.61%
925,0,272,32.61%
926,0,272,32.61%
927,1,273,32.73%
928,0,273,32.73%
929,0,273,32.73%
930,0,273,32.73%
931,0,273,32.73%
932,0,273,32.73%
933,0,273,32.73%
934,0,273,32.73%
935,0,273,32.73%
936,0,273,32.73%
937,0,273,32.73%
938,0,273,32.73%
939,0,273,32.73%
940,0,273,32.73%
941,0,273,32.73%
942,0,273,32.73%
943,0,273,32.73%
944,0,273,32.73%
945,0,273,32.73%
946,0,273,32.73%
947,0,273,32.73%
948,0,273,32.73%
949,0,273,32.73%
950,0,273,32.73%
951,0,273,32.73%
952,0,273,32.73%
953,0,273,32.73%
954,0,273,32.73%
955,1,274,32.85%
956,1,275,32.97%
957,0,275,32.97%
958,0,275,32.97%
959,1,276,33.09%
960,0,276,33.09%
961,0,276,33.09%
962,0,276,33.09%
963,0,276,33.09%
964,0,276,33.09%
965,0,276,33.09%
966,0,276,33.09%
967,0,276,33.09%
968,1,277,33.21%
969,0,277,33.21%
970,1,278,33.33%
971,0,278,33.33%
972,1,279,33.45%
973,0,279,33.45%
974,1,280,33.57%
975,0,280,33.57%
976,0,280,33.57%
977,0,280,33.57%
978,1,281,33.69%
979,0,281,33.69%
980,0,281,33.69%
981,0,281,33.69%
982,0,281,33.69%
983,0,281,33.69%
984,0,281,33.69%
985,0,281,33.69%
986,0,281,33.69%
987,1,282,33.81%
988,0,282,33.81%
989,0,282,33.81%
990,0,282,33.81%
991,0,282,33.81%
992,0,282,33.81%
993,0,282,33.81%
994,0,282,33.81%
995,0,282,33.81%
996,0,282,33.81%
997,0,282,33.81%
998,0,282,33.81%
999,0,282,33.81%
1000,1,283,33.93%
1001,0,283,33.93%
1002,0,283,33.93%
1003,0,283,33.93%
1004,0,283,33.93%
1005,0,283,33.93%
1006,0,283,33.93%
1007,0,283,33.93%
1008,1,284,34.05%
1009,0,284,34.05%
1010,1,285,34.17%
1011,0,285,34.17%
1012,0,285,34.17%
1013,0,285,34.17%
1014,2,287,34.41%
1015,0,287,34.41%
1016,1,288,34.53%
1017,0,288,34.53%
1018,0,288,34.53%
1019,0,288,34.53%
1020,0,288,34.53%
1021,2,290,34.77%
1022,0,290,34.77%
1023,0,290,34.77%
1024,0,290,34.77%
1025,0,290,34.77%
1026,0,290,34.77%
1027,0,290,34.77%
1028,0,290,34.77%
1029,0,290,34.77%
1030,0,290,34.77%
1031,1,291,34.89%
1032,1,292,35.01%
1033,0,292,35.01%
1034,0,292,35.01%
1035,0,292,35.01%
1036,0,292,35.01%
1037,0,292,35.01%
1038,0,292,35.01%
1039,0,292,35.01%
1040,0,292,35.01%
1041,0,292,35.01%
1042,0,292,35.01%
1043,1,293,35.13%
1044,0,293,35.13%
1045,0,293,35.13%
1046,0,293,35.13%
1047,0,293,35.13%
1048,0,293,35.13%
1049,2,295,35.37%
1050,0,295,35.37%
1051,0,295,35.37%
1052,0,295,35.37%
1053,0,295,35.37%
1054,0,295,35.37%
1055,0,295,35.37%
1056,0,295,35.37%
1057,1,296,35.49%
1058,0,296,35.49%
1059,0,296,35.49%
1060,0,296,35.49%
1061,0,296,35.49%
1062,0,296,35.49%
1063,0,296,35.49%
1064,0,296,35.49%
1065,0,296,35.49%
1066,0,296,35.49%
1067,0,296,35.49%
1068,1,297,35.61%
1069,0,297,35.61%
1070,0,297,35.61%
1071,0,297,35.61%
1072,1,298,35.73%
1073,0,298,35.73%
1074,0,298,35.73%
1075,0,298,35.73%
1076,5,303,36.33%
1077,0,303,36.33%
1078,0,303,36.33%
1079,0,303,36.33%
1080,0,303,36.33%
1081,0,303,36.33%
1082,0,303,36.33%
1083,0,303,36.33%
1084,0,303,36.33%
1085,1,304,36.45%
1086,0,304,36.45%
1087,0,304,36.45%
1088,0,304,36.45%
1089,0,304,36.45%
1090,1,305,36.57%
1091,0,305,36.57%
1092,0,305,36.57%
1093,0,305,36.57%
1094,1,306,36.69%
1095,1,307,36.81%
1096,0,307,36.81%
1097,2,309,37.05%
1098,0,309,37.05%
1099,0,309,37.05%
1100,1,310,37.17%
1101,1,311,37.29%
1102,1,312,37.41%
1103,1,313,37.53%
1104,0,313,37.53%
1105,3,316,37.89%
1106,518,834,100.0%
