Length, Count, Sum (Counts <= Length), Percent of Nonzero Data, Nonzero Data Count = 851, Zero Data Count = 993
1,1,1,0.12%
2,0,1,0.12%
3,1,2,0.24%
4,0,2,0.24%
5,0,2,0.24%
6,0,2,0.24%
7,0,2,0.24%
8,0,2,0.24%
9,0,2,0.24%
10,0,2,0.24%
11,0,2,0.24%
12,0,2,0.24%
13,0,2,0.24%
14,0,2,0.24%
15,0,2,0.24%
16,0,2,0.24%
17,0,2,0.24%
18,0,2,0.24%
19,0,2,0.24%
20,0,2,0.24%
21,1,3,0.35%
22,1,4,0.47%
23,0,4,0.47%
24,0,4,0.47%
25,0,4,0.47%
26,0,4,0.47%
27,0,4,0.47%
28,1,5,0.59%
29,1,6,0.71%
30,0,6,0.71%
31,0,6,0.71%
32,0,6,0.71%
33,0,6,0.71%
34,1,7,0.82%
35,0,7,0.82%
36,0,7,0.82%
37,0,7,0.82%
38,0,7,0.82%
39,1,8,0.94%
40,0,8,0.94%
41,0,8,0.94%
42,0,8,0.94%
43,0,8,0.94%
44,1,9,1.06%
45,0,9,1.06%
46,1,10,1.18%
47,0,10,1.18%
48,0,10,1.18%
49,0,10,1.18%
50,0,10,1.18%
51,1,11,1.29%
52,1,12,1.41%
53,0,12,1.41%
54,0,12,1.41%
55,0,12,1.41%
56,0,12,1.41%
57,0,12,1.41%
58,0,12,1.41%
59,0,12,1.41%
60,0,12,1.41%
61,0,12,1.41%
62,0,12,1.41%
63,1,13,1.53%
64,0,13,1.53%
65,0,13,1.53%
66,0,13,1.53%
67,0,13,1.53%
68,0,13,1.53%
69,0,13,1.53%
70,0,13,1.53%
71,0,13,1.53%
72,0,13,1.53%
73,0,13,1.53%
74,0,13,1.53%
75,1,14,1.65%
76,0,14,1.65%
77,0,14,1.65%
78,0,14,1.65%
79,0,14,1.65%
80,2,16,1.88%
81,0,16,1.88%
82,0,16,1.88%
83,0,16,1.88%
84,0,16,1.88%
85,1,17,2.0%
86,2,19,2.23%
87,0,19,2.23%
88,0,19,2.23%
89,0,19,2.23%
90,0,19,2.23%
91,0,19,2.23%
92,1,20,2.35%
93,0,20,2.35%
94,1,21,2.47%
95,0,21,2.47%
96,1,22,2.59%
97,0,22,2.59%
98,0,22,2.59%
99,0,22,2.59%
100,0,22,2.59%
101,0,22,2.59%
102,0,22,2.59%
103,0,22,2.59%
104,0,22,2.59%
105,0,22,2.59%
106,1,23,2.7%
107,0,23,2.7%
108,0,23,2.7%
109,0,23,2.7%
110,0,23,2.7%
111,0,23,2.7%
112,1,24,2.82%
113,0,24,2.82%
114,0,24,2.82%
115,0,24,2.82%
116,0,24,2.82%
117,0,24,2.82%
118,0,24,2.82%
119,0,24,2.82%
120,0,24,2.82%
121,0,24,2.82%
122,0,24,2.82%
123,0,24,2.82%
124,1,25,2.94%
125,2,27,3.17%
126,0,27,3.17%
127,0,27,3.17%
128,1,28,3.29%
129,0,28,3.29%
130,0,28,3.29%
131,0,28,3.29%
132,0,28,3.29%
133,0,28,3.29%
134,0,28,3.29%
135,0,28,3.29%
136,0,28,3.29%
137,0,28,3.29%
138,0,28,3.29%
139,0,28,3.29%
140,0,28,3.29%
141,1,29,3.41%
142,0,29,3.41%
143,0,29,3.41%
144,0,29,3.41%
145,2,31,3.64%
146,0,31,3.64%
147,0,31,3.64%
148,0,31,3.64%
149,1,32,3.76%
150,1,33,3.88%
151,1,34,4.0%
152,0,34,4.0%
153,0,34,4.0%
154,0,34,4.0%
155,1,35,4.11%
156,0,35,4.11%
157,0,35,4.11%
158,0,35,4.11%
159,0,35,4.11%
160,0,35,4.11%
161,0,35,4.11%
162,0,35,4.11%
163,0,35,4.11%
164,0,35,4.11%
165,0,35,4.11%
166,0,35,4.11%
167,0,35,4.11%
168,0,35,4.11%
169,0,35,4.11%
170,1,36,4.23%
171,0,36,4.23%
172,1,37,4.35%
173,0,37,4.35%
174,0,37,4.35%
175,0,37,4.35%
176,0,37,4.35%
177,0,37,4.35%
178,1,38,4.47%
179,0,38,4.47%
180,0,38,4.47%
181,1,39,4.58%
182,0,39,4.58%
183,0,39,4.58%
184,1,40,4.7%
185,0,40,4.7%
186,0,40,4.7%
187,0,40,4.7%
188,0,40,4.7%
189,0,40,4.7%
190,0,40,4.7%
191,0,40,4.7%
192,0,40,4.7%
193,0,40,4.7%
194,0,40,4.7%
195,0,40,4.7%
196,0,40,4.7%
197,0,40,4.7%
198,0,40,4.7%
199,0,40,4.7%
200,1,41,4.82%
201,1,42,4.94%
202,1,43,5.05%
203,0,43,5.05%
204,0,43,5.05%
205,0,43,5.05%
206,0,43,5.05%
207,1,44,5.17%
208,0,44,5.17%
209,0,44,5.17%
210,0,44,5.17%
211,0,44,5.17%
212,1,45,5.29%
213,2,47,5.52%
214,0,47,5.52%
215,1,48,5.64%
216,0,48,5.64%
217,0,48,5.64%
218,0,48,5.64%
219,0,48,5.64%
220,0,48,5.64%
221,0,48,5.64%
222,0,48,5.64%
223,0,48,5.64%
224,0,48,5.64%
225,0,48,5.64%
226,0,48,5.64%
227,0,48,5.64%
228,1,49,5.76%
229,0,49,5.76%
230,0,49,5.76%
231,1,50,5.88%
232,0,50,5.88%
233,0,50,5.88%
234,0,50,5.88%
235,1,51,5.99%
236,1,52,6.11%
237,0,52,6.11%
238,0,52,6.11%
239,0,52,6.11%
240,0,52,6.11%
241,0,52,6.11%
242,0,52,6.11%
243,1,53,6.23%
244,1,54,6.35%
245,1,55,6.46%
246,0,55,6.46%
247,0,55,6.46%
248,0,55,6.46%
249,0,55,6.46%
250,0,55,6.46%
251,0,55,6.46%
252,1,56,6.58%
253,1,57,6.7%
254,0,57,6.7%
255,1,58,6.82%
256,0,58,6.82%
257,0,58,6.82%
258,0,58,6.82%
259,1,59,6.93%
260,0,59,6.93%
261,0,59,6.93%
262,0,59,6.93%
263,1,60,7.05%
264,0,60,7.05%
265,2,62,7.29%
266,0,62,7.29%
267,2,64,7.52%
268,0,64,7.52%
269,0,64,7.52%
270,1,65,7.64%
271,0,65,7.64%
272,0,65,7.64%
273,0,65,7.64%
274,1,66,7.76%
275,0,66,7.76%
276,0,66,7.76%
277,0,66,7.76%
278,0,66,7.76%
279,0,66,7.76%
280,0,66,7.76%
281,0,66,7.76%
282,0,66,7.76%
283,0,66,7.76%
284,0,66,7.76%
285,0,66,7.76%
286,0,66,7.76%
287,0,66,7.76%
288,0,66,7.76%
289,0,66,7.76%
290,0,66,7.76%
291,0,66,7.76%
292,1,67,7.87%
293,0,67,7.87%
294,0,67,7.87%
295,0,67,7.87%
296,0,67,7.87%
297,0,67,7.87%
298,0,67,7.87%
299,0,67,7.87%
300,1,68,7.99%
301,0,68,7.99%
302,0,68,7.99%
303,0,68,7.99%
304,0,68,7.99%
305,0,68,7.99%
306,0,68,7.99%
307,0,68,7.99%
308,0,68,7.99%
309,1,69,8.11%
310,0,69,8.11%
311,2,71,8.34%
312,0,71,8.34%
313,0,71,8.34%
314,0,71,8.34%
315,0,71,8.34%
316,0,71,8.34%
317,0,71,8.34%
318,1,72,8.46%
319,0,72,8.46%
320,0,72,8.46%
321,0,72,8.46%
322,0,72,8.46%
323,0,72,8.46%
324,0,72,8.46%
325,2,74,8.7%
326,0,74,8.7%
327,0,74,8.7%
328,1,75,8.81%
329,0,75,8.81%
330,0,75,8.81%
331,0,75,8.81%
332,1,76,8.93%
333,1,77,9.05%
334,0,77,9.05%
335,0,77,9.05%
336,0,77,9.05%
337,0,77,9.05%
338,0,77,9.05%
339,0,77,9.05%
340,0,77,9.05%
341,1,78,9.17%
342,0,78,9.17%
343,2,80,9.4%
344,0,80,9.4%
345,0,80,9.4%
346,0,80,9.4%
347,0,80,9.4%
348,0,80,9.4%
349,0,80,9.4%
350,1,81,9.52%
351,15,96,11.28%
352,10,106,12.46%
353,0,106,12.46%
354,0,106,12.46%
355,0,106,12.46%
356,1,107,12.57%
357,0,107,12.57%
358,5,112,13.16%
359,1,113,13.28%
360,2,115,13.51%
361,1,116,13.63%
362,0,116,13.63%
363,1,117,13.75%
364,0,117,13.75%
365,0,117,13.75%
366,1,118,13.87%
367,0,118,13.87%
368,0,118,13.87%
369,0,118,13.87%
370,0,118,13.87%
371,0,118,13.87%
372,3,121,14.22%
373,0,121,14.22%
374,1,122,14.34%
375,0,122,14.34%
376,1,123,14.45%
377,0,123,14.45%
378,1,124,14.57%
379,0,124,14.57%
380,0,124,14.57%
381,0,124,14.57%
382,1,125,14.69%
383,0,125,14.69%
384,0,125,14.69%
385,0,125,14.69%
386,0,125,14.69%
387,1,126,14.81%
388,0,126,14.81%
389,0,126,14.81%
390,0,126,14.81%
391,0,126,14.81%
392,0,126,14.81%
393,1,127,14.92%
394,0,127,14.92%
395,0,127,14.92%
396,0,127,14.92%
397,1,128,15.04%
398,0,128,15.04%
399,1,129,15.16%
400,1,130,15.28%
401,0,130,15.28%
402,0,130,15.28%
403,0,130,15.28%
404,0,130,15.28%
405,0,130,15.28%
406,3,133,15.63%
407,0,133,15.63%
408,0,133,15.63%
409,0,133,15.63%
410,0,133,15.63%
411,0,133,15.63%
412,1,134,15.75%
413,1,135,15.86%
414,0,135,15.86%
415,0,135,15.86%
416,0,135,15.86%
417,0,135,15.86%
418,0,135,15.86%
419,0,135,15.86%
420,0,135,15.86%
421,0,135,15.86%
422,1,136,15.98%
423,0,136,15.98%
424,1,137,16.1%
425,0,137,16.1%
426,0,137,16.1%
427,0,137,16.1%
428,0,137,16.1%
429,0,137,16.1%
430,0,137,16.1%
431,0,137,16.1%
432,1,138,16.22%
433,1,139,16.33%
434,0,139,16.33%
435,1,140,16.45%
436,0,140,16.45%
437,1,141,16.57%
438,0,141,16.57%
439,0,141,16.57%
440,0,141,16.57%
441,1,142,16.69%
442,0,142,16.69%
443,0,142,16.69%
444,1,143,16.8%
445,0,143,16.8%
446,1,144,16.92%
447,0,144,16.92%
448,0,144,16.92%
449,0,144,16.92%
450,0,144,16.92%
451,1,145,17.04%
452,0,145,17.04%
453,0,145,17.04%
454,0,145,17.04%
455,0,145,17.04%
456,0,145,17.04%
457,0,145,17.04%
458,0,145,17.04%
459,0,145,17.04%
460,0,145,17.04%
461,0,145,17.04%
462,0,145,17.04%
463,0,145,17.04%
464,0,145,17.04%
465,1,146,17.16%
466,2,148,17.39%
467,0,148,17.39%
468,0,148,17.39%
469,0,148,17.39%
470,0,148,17.39%
471,0,148,17.39%
472,0,148,17.39%
473,0,148,17.39%
474,0,148,17.39%
475,0,148,17.39%
476,0,148,17.39%
477,0,148,17.39%
478,0,148,17.39%
479,0,148,17.39%
480,0,148,17.39%
481,1,149,17.51%
482,1,150,17.63%
483,0,150,17.63%
484,1,151,17.74%
485,0,151,17.74%
486,1,152,17.86%
487,0,152,17.86%
488,0,152,17.86%
489,0,152,17.86%
490,1,153,17.98%
491,0,153,17.98%
492,0,153,17.98%
493,0,153,17.98%
494,0,153,17.98%
495,1,154,18.1%
496,1,155,18.21%
497,0,155,18.21%
498,0,155,18.21%
499,0,155,18.21%
500,0,155,18.21%
501,0,155,18.21%
502,0,155,18.21%
503,1,156,18.33%
504,1,157,18.45%
505,0,157,18.45%
506,0,157,18.45%
507,0,157,18.45%
508,0,157,18.45%
509,0,157,18.45%
510,0,157,18.45%
511,0,157,18.45%
512,0,157,18.45%
513,0,157,18.45%
514,0,157,18.45%
515,0,157,18.45%
516,0,157,18.45%
517,1,158,18.57%
518,0,158,18.57%
519,1,159,18.68%
520,0,159,18.68%
521,0,159,18.68%
522,0,159,18.68%
523,0,159,18.68%
524,0,159,18.68%
525,0,159,18.68%
526,0,159,18.68%
527,0,159,18.68%
528,1,160,18.8%
529,1,161,18.92%
530,0,161,18.92%
531,0,161,18.92%
532,0,161,18.92%
533,0,161,18.92%
534,0,161,18.92%
535,0,161,18.92%
536,1,162,19.04%
537,1,163,19.15%
538,0,163,19.15%
539,0,163,19.15%
540,2,165,19.39%
541,0,165,19.39%
542,0,165,19.39%
543,0,165,19.39%
544,1,166,19.51%
545,0,166,19.51%
546,1,167,19.62%
547,0,167,19.62%
548,0,167,19.62%
549,0,167,19.62%
550,0,167,19.62%
551,0,167,19.62%
552,1,168,19.74%
553,0,168,19.74%
554,0,168,19.74%
555,0,168,19.74%
556,1,169,19.86%
557,0,169,19.86%
558,0,169,19.86%
559,0,169,19.86%
560,0,169,19.86%
561,0,169,19.86%
562,0,169,19.86%
563,1,170,19.98%
564,1,171,20.09%
565,0,171,20.09%
566,0,171,20.09%
567,1,172,20.21%
568,0,172,20.21%
569,0,172,20.21%
570,0,172,20.21%
571,0,172,20.21%
572,0,172,20.21%
573,2,174,20.45%
574,0,174,20.45%
575,1,175,20.56%
576,8,183,21.5%
577,0,183,21.5%
578,0,183,21.5%
579,1,184,21.62%
580,0,184,21.62%
581,0,184,21.62%
582,0,184,21.62%
583,0,184,21.62%
584,0,184,21.62%
585,0,184,21.62%
586,0,184,21.62%
587,0,184,21.62%
588,0,184,21.62%
589,0,184,21.62%
590,0,184,21.62%
591,0,184,21.62%
592,0,184,21.62%
593,0,184,21.62%
594,0,184,21.62%
595,1,185,21.74%
596,0,185,21.74%
597,0,185,21.74%
598,0,185,21.74%
599,1,186,21.86%
600,0,186,21.86%
601,0,186,21.86%
602,0,186,21.86%
603,1,187,21.97%
604,1,188,22.09%
605,0,188,22.09%
606,0,188,22.09%
607,0,188,22.09%
608,0,188,22.09%
609,1,189,22.21%
610,0,189,22.21%
611,0,189,22.21%
612,0,189,22.21%
613,0,189,22.21%
614,0,189,22.21%
615,0,189,22.21%
616,0,189,22.21%
617,0,189,22.21%
618,0,189,22.21%
619,0,189,22.21%
620,0,189,22.21%
621,0,189,22.21%
622,1,190,22.33%
623,0,190,22.33%
624,0,190,22.33%
625,0,190,22.33%
626,1,191,22.44%
627,0,191,22.44%
628,0,191,22.44%
629,0,191,22.44%
630,0,191,22.44%
631,0,191,22.44%
632,1,192,22.56%
633,0,192,22.56%
634,0,192,22.56%
635,1,193,22.68%
636,0,193,22.68%
637,0,193,22.68%
638,0,193,22.68%
639,0,193,22.68%
640,0,193,22.68%
641,0,193,22.68%
642,0,193,22.68%
643,0,193,22.68%
644,0,193,22.68%
645,0,193,22.68%
646,0,193,22.68%
647,1,194,22.8%
648,0,194,22.8%
649,1,195,22.91%
650,0,195,22.91%
651,0,195,22.91%
652,0,195,22.91%
653,1,196,23.03%
654,0,196,23.03%
655,0,196,23.03%
656,0,196,23.03%
657,0,196,23.03%
658,0,196,23.03%
659,1,197,23.15%
660,1,198,23.27%
661,0,198,23.27%
662,0,198,23.27%
663,0,198,23.27%
664,0,198,23.27%
665,0,198,23.27%
666,0,198,23.27%
667,0,198,23.27%
668,0,198,23.27%
669,1,199,23.38%
670,0,199,23.38%
671,0,199,23.38%
672,0,199,23.38%
673,1,200,23.5%
674,0,200,23.5%
675,0,200,23.5%
676,0,200,23.5%
677,0,200,23.5%
678,0,200,23.5%
679,0,200,23.5%
680,0,200,23.5%
681,0,200,23.5%
682,0,200,23.5%
683,1,201,23.62%
684,0,201,23.62%
685,0,201,23.62%
686,0,201,23.62%
687,0,201,23.62%
688,0,201,23.62%
689,0,201,23.62%
690,0,201,23.62%
691,0,201,23.62%
692,0,201,23.62%
693,5,206,24.21%
694,2,208,24.44%
695,0,208,24.44%
696,0,208,24.44%
697,0,208,24.44%
698,1,209,24.56%
699,0,209,24.56%
700,0,209,24.56%
701,0,209,24.56%
702,0,209,24.56%
703,0,209,24.56%
704,1,210,24.68%
705,1,211,24.79%
706,0,211,24.79%
707,1,212,24.91%
708,0,212,24.91%
709,0,212,24.91%
710,0,212,24.91%
711,0,212,24.91%
712,0,212,24.91%
713,0,212,24.91%
714,0,212,24.91%
715,0,212,24.91%
716,0,212,24.91%
717,0,212,24.91%
718,0,212,24.91%
719,1,213,25.03%
720,0,213,25.03%
721,0,213,25.03%
722,0,213,25.03%
723,0,213,25.03%
724,0,213,25.03%
725,1,214,25.15%
726,0,214,25.15%
727,1,215,25.26%
728,0,215,25.26%
729,0,215,25.26%
730,0,215,25.26%
731,0,215,25.26%
732,0,215,25.26%
733,0,215,25.26%
734,0,215,25.26%
735,1,216,25.38%
736,1,217,25.5%
737,0,217,25.5%
738,0,217,25.5%
739,0,217,25.5%
740,0,217,25.5%
741,0,217,25.5%
742,0,217,25.5%
743,0,217,25.5%
744,1,218,25.62%
745,0,218,25.62%
746,0,218,25.62%
747,0,218,25.62%
748,0,218,25.62%
749,0,218,25.62%
750,0,218,25.62%
751,0,218,25.62%
752,0,218,25.62%
753,1,219,25.73%
754,1,220,25.85%
755,0,220,25.85%
756,0,220,25.85%
757,0,220,25.85%
758,0,220,25.85%
759,0,220,25.85%
760,0,220,25.85%
761,0,220,25.85%
762,0,220,25.85%
763,0,220,25.85%
764,0,220,25.85%
765,0,220,25.85%
766,0,220,25.85%
767,0,220,25.85%
768,0,220,25.85%
769,2,222,26.09%
770,0,222,26.09%
771,0,222,26.09%
772,1,223,26.2%
773,0,223,26.2%
774,1,224,26.32%
775,0,224,26.32%
776,0,224,26.32%
777,0,224,26.32%
778,1,225,26.44%
779,0,225,26.44%
780,0,225,26.44%
781,0,225,26.44%
782,0,225,26.44%
783,1,226,26.56%
784,0,226,26.56%
785,1,227,26.67%
786,0,227,26.67%
787,0,227,26.67%
788,0,227,26.67%
789,0,227,26.67%
790,0,227,26.67%
791,0,227,26.67%
792,1,228,26.79%
793,0,228,26.79%
794,9,237,27.85%
795,2,239,28.08%
796,1,240,28.2%
797,0,240,28.2%
798,0,240,28.2%
799,0,240,28.2%
800,0,240,28.2%
801,0,240,28.2%
802,0,240,28.2%
803,0,240,28.2%
804,1,241,28.32%
805,0,241,28.32%
806,0,241,28.32%
807,0,241,28.32%
808,0,241,28.32%
809,0,241,28.32%
810,0,241,28.32%
811,1,242,28.44%
812,0,242,28.44%
813,0,242,28.44%
814,0,242,28.44%
815,0,242,28.44%
816,2,244,28.67%
817,0,244,28.67%
818,0,244,28.67%
819,0,244,28.67%
820,0,244,28.67%
821,0,244,28.67%
822,0,244,28.67%
823,0,244,28.67%
824,0,244,28.67%
825,0,244,28.67%
826,1,245,28.79%
827,0,245,28.79%
828,0,245,28.79%
829,0,245,28.79%
830,0,245,28.79%
831,0,245,28.79%
832,0,245,28.79%
833,0,245,28.79%
834,0,245,28.79%
835,0,245,28.79%
836,0,245,28.79%
837,1,246,28.91%
838,0,246,28.91%
839,0,246,28.91%
840,1,247,29.02%
841,0,247,29.02%
842,0,247,29.02%
843,0,247,29.02%
844,0,247,29.02%
845,0,247,29.02%
846,0,247,29.02%
847,0,247,29.02%
848,0,247,29.02%
849,0,247,29.02%
850,0,247,29.02%
851,0,247,29.02%
852,0,247,29.02%
853,0,247,29.02%
854,0,247,29.02%
855,0,247,29.02%
856,1,248,29.14%
857,0,248,29.14%
858,0,248,29.14%
859,0,248,29.14%
860,0,248,29.14%
861,0,248,29.14%
862,0,248,29.14%
863,0,248,29.14%
864,0,248,29.14%
865,1,249,29.26%
866,0,249,29.26%
867,0,249,29.26%
868,1,250,29.38%
869,0,250,29.38%
870,0,250,29.38%
871,1,251,29.49%
872,0,251,29.49%
873,1,252,29.61%
874,1,253,29.73%
875,0,253,29.73%
876,1,254,29.85%
877,0,254,29.85%
878,0,254,29.85%
879,1,255,29.96%
880,0,255,29.96%
881,1,256,30.08%
882,0,256,30.08%
883,0,256,30.08%
884,1,257,30.2%
885,0,257,30.2%
886,0,257,30.2%
887,0,257,30.2%
888,0,257,30.2%
889,0,257,30.2%
890,0,257,30.2%
891,0,257,30.2%
892,0,257,30.2%
893,0,257,30.2%
894,0,257,30.2%
895,0,257,30.2%
896,0,257,30.2%
897,0,257,30.2%
898,0,257,30.2%
899,0,257,30.2%
900,0,257,30.2%
901,1,258,30.32%
902,0,258,30.32%
903,0,258,30.32%
904,2,260,30.55%
905,0,260,30.55%
906,1,261,30.67%
907,1,262,30.79%
908,0,262,30.79%
909,0,262,30.79%
910,0,262,30.79%
911,0,262,30.79%
912,0,262,30.79%
913,1,263,30.9%
914,0,263,30.9%
915,0,263,30.9%
916,0,263,30.9%
917,0,263,30.9%
918,1,264,31.02%
919,0,264,31.02%
920,0,264,31.02%
921,0,264,31.02%
922,0,264,31.02%
923,1,265,31.14%
924,0,265,31.14%
925,1,266,31.26%
926,0,266,31.26%
927,1,267,31.37%
928,1,268,31.49%
929,0,268,31.49%
930,0,268,31.49%
931,1,269,31.61%
932,1,270,31.73%
933,0,270,31.73%
934,0,270,31.73%
935,0,270,31.73%
936,0,270,31.73%
937,0,270,31.73%
938,1,271,31.84%
939,0,271,31.84%
940,0,271,31.84%
941,0,271,31.84%
942,1,272,31.96%
943,0,272,31.96%
944,0,272,31.96%
945,0,272,31.96%
946,1,273,32.08%
947,0,273,32.08%
948,0,273,32.08%
949,0,273,32.08%
950,0,273,32.08%
951,0,273,32.08%
952,0,273,32.08%
953,0,273,32.08%
954,0,273,32.08%
955,0,273,32.08%
956,0,273,32.08%
957,0,273,32.08%
958,0,273,32.08%
959,0,273,32.08%
960,0,273,32.08%
961,1,274,32.2%
962,0,274,32.2%
963,0,274,32.2%
964,1,275,32.31%
965,0,275,32.31%
966,0,275,32.31%
967,0,275,32.31%
968,0,275,32.31%
969,1,276,32.43%
970,2,278,32.67%
971,0,278,32.67%
972,0,278,32.67%
973,0,278,32.67%
974,0,278,32.67%
975,0,278,32.67%
976,0,278,32.67%
977,0,278,32.67%
978,0,278,32.67%
979,1,279,32.78%
980,0,279,32.78%
981,0,279,32.78%
982,0,279,32.78%
983,0,279,32.78%
984,0,279,32.78%
985,1,280,32.9%
986,0,280,32.9%
987,1,281,33.02%
988,2,283,33.25%
989,1,284,33.37%
990,0,284,33.37%
991,0,284,33.37%
992,0,284,33.37%
993,0,284,33.37%
994,1,285,33.49%
995,0,285,33.49%
996,0,285,33.49%
997,0,285,33.49%
998,0,285,33.49%
999,0,285,33.49%
1000,0,285,33.49%
1001,0,285,33.49%
1002,0,285,33.49%
1003,0,285,33.49%
1004,1,286,33.61%
1005,0,286,33.61%
1006,0,286,33.61%
1007,0,286,33.61%
1008,0,286,33.61%
1009,0,286,33.61%
1010,0,286,33.61%
1011,0,286,33.61%
1012,0,286,33.61%
1013,0,286,33.61%
1014,0,286,33.61%
1015,0,286,33.61%
1016,1,287,33.73%
1017,0,287,33.73%
1018,0,287,33.73%
1019,0,287,33.73%
1020,0,287,33.73%
1021,0,287,33.73%
1022,0,287,33.73%
1023,1,288,33.84%
1024,0,288,33.84%
1025,1,289,33.96%
1026,0,289,33.96%
1027,1,290,34.08%
1028,0,290,34.08%
1029,1,291,34.2%
1030,0,291,34.2%
1031,0,291,34.2%
1032,0,291,34.2%
1033,1,292,34.31%
1034,0,292,34.31%
1035,0,292,34.31%
1036,0,292,34.31%
1037,0,292,34.31%
1038,0,292,34.31%
1039,0,292,34.31%
1040,0,292,34.31%
1041,0,292,34.31%
1042,0,292,34.31%
1043,0,292,34.31%
1044,0,292,34.31%
1045,0,292,34.31%
1046,0,292,34.31%
1047,0,292,34.31%
1048,0,292,34.31%
1049,0,292,34.31%
1050,1,293,34.43%
1051,0,293,34.43%
1052,1,294,34.55%
1053,0,294,34.55%
1054,0,294,34.55%
1055,0,294,34.55%
1056,1,295,34.67%
1057,0,295,34.67%
1058,0,295,34.67%
1059,0,295,34.67%
1060,0,295,34.67%
1061,0,295,34.67%
1062,0,295,34.67%
1063,0,295,34.67%
1064,0,295,34.67%
1065,0,295,34.67%
1066,0,295,34.67%
1067,0,295,34.67%
1068,1,296,34.78%
1069,0,296,34.78%
1070,0,296,34.78%
1071,0,296,34.78%
1072,1,297,34.9%
1073,0,297,34.9%
1074,0,297,34.9%
1075,0,297,34.9%
1076,4,301,35.37%
1077,0,301,35.37%
1078,0,301,35.37%
1079,0,301,35.37%
1080,0,301,35.37%
1081,0,301,35.37%
1082,0,301,35.37%
1083,0,301,35.37%
1084,0,301,35.37%
1085,0,301,35.37%
1086,0,301,35.37%
1087,0,301,35.37%
1088,0,301,35.37%
1089,1,302,35.49%
1090,1,303,35.61%
1091,0,303,35.61%
1092,0,303,35.61%
1093,1,304,35.72%
1094,1,305,35.84%
1095,0,305,35.84%
1096,1,306,35.96%
1097,0,306,35.96%
1098,0,306,35.96%
1099,0,306,35.96%
1100,1,307,36.08%
1101,1,308,36.19%
1102,1,309,36.31%
1103,1,310,36.43%
1104,0,310,36.43%
1105,2,312,36.66%
1106,2,314,36.9%
1107,0,314,36.9%
1108,1,315,37.02%
1109,2,317,37.25%
1110,2,319,37.49%
1111,0,319,37.49%
1112,1,320,37.6%
1113,1,321,37.72%
1114,1,322,37.84%
1115,3,325,38.19%
1116,5,330,38.78%
1117,0,330,38.78%
1118,1,331,38.9%
1119,2,333,39.13%
1120,1,334,39.25%
1121,1,335,39.37%
1122,0,335,39.37%
1123,0,335,39.37%
1124,1,336,39.48%
1125,4,340,39.95%
1126,2,342,40.19%
1127,0,342,40.19%
1128,1,343,40.31%
1129,1,344,40.42%
1130,0,344,40.42%
1131,2,346,40.66%
1132,0,346,40.66%
1133,2,348,40.89%
1134,3,351,41.25%
1135,0,351,41.25%
1136,0,351,41.25%
1137,1,352,41.36%
1138,0,352,41.36%
1139,1,353,41.48%
1140,0,353,41.48%
1141,4,357,41.95%
1142,2,359,42.19%
1143,4,363,42.66%
1144,2,365,42.89%
1145,3,368,43.24%
1146,1,369,43.36%
1147,1,370,43.48%
1148,5,375,44.07%
1149,6,381,44.77%
1150,0,381,44.77%
1151,0,381,44.77%
1152,0,381,44.77%
1153,0,381,44.77%
1154,1,382,44.89%
1155,1,383,45.01%
1156,0,383,45.01%
1157,2,385,45.24%
1158,4,389,45.71%
1159,2,391,45.95%
1160,3,394,46.3%
1161,0,394,46.3%
1162,3,397,46.65%
1163,2,399,46.89%
1164,0,399,46.89%
1165,0,399,46.89%
1166,1,400,47.0%
1167,0,400,47.0%
1168,4,404,47.47%
1169,3,407,47.83%
1170,1,408,47.94%
1171,0,408,47.94%
1172,0,408,47.94%
1173,7,415,48.77%
1174,3,418,49.12%
1175,0,418,49.12%
1176,1,419,49.24%
1177,0,419,49.24%
1178,1,420,49.35%
1179,1,421,49.47%
1180,1,422,49.59%
1181,0,422,49.59%
1182,1,423,49.71%
1183,8,431,50.65%
1184,10,441,51.82%
1185,1,442,51.94%
1186,2,444,52.17%
1187,6,450,52.88%
1188,0,450,52.88%
1189,0,450,52.88%
1190,0,450,52.88%
1191,4,454,53.35%
1192,2,456,53.58%
1193,0,456,53.58%
1194,2,458,53.82%
1195,0,458,53.82%
1196,2,460,54.05%
1197,3,463,54.41%
1198,2,465,54.64%
1199,2,467,54.88%
1200,0,467,54.88%
1201,1,468,54.99%
1202,0,468,54.99%
1203,4,472,55.46%
1204,2,474,55.7%
1205,0,474,55.7%
1206,0,474,55.7%
1207,2,476,55.93%
1208,0,476,55.93%
1209,0,476,55.93%
1210,0,476,55.93%
1211,1,477,56.05%
1212,1,478,56.17%
1213,0,478,56.17%
1214,0,478,56.17%
1215,0,478,56.17%
1216,0,478,56.17%
1217,2,480,56.4%
1218,0,480,56.4%
1219,0,480,56.4%
1220,0,480,56.4%
1221,1,481,56.52%
1222,4,485,56.99%
1223,0,485,56.99%
1224,0,485,56.99%
1225,1,486,57.11%
1226,1,487,57.23%
1227,0,487,57.23%
1228,0,487,57.23%
1229,0,487,57.23%
1230,2,489,57.46%
1231,5,494,58.05%
1232,3,497,58.4%
1233,1,498,58.52%
1234,0,498,58.52%
1235,1,499,58.64%
1236,2,501,58.87%
1237,2,503,59.11%
1238,1,504,59.22%
1239,1,505,59.34%
1240,346,851,100.0%
