Length, Count, Sum (Counts <= Length), Percent of Nonzero Data, Nonzero Data Count = 921, Zero Data Count = 923
1,2,2,0.22%
2,0,2,0.22%
3,2,4,0.43%
4,1,5,0.54%
5,0,5,0.54%
6,0,5,0.54%
7,0,5,0.54%
8,0,5,0.54%
9,0,5,0.54%
10,0,5,0.54%
11,0,5,0.54%
12,0,5,0.54%
13,0,5,0.54%
14,0,5,0.54%
15,0,5,0.54%
16,0,5,0.54%
17,0,5,0.54%
18,1,6,0.65%
19,0,6,0.65%
20,0,6,0.65%
21,0,6,0.65%
22,0,6,0.65%
23,0,6,0.65%
24,0,6,0.65%
25,0,6,0.65%
26,0,6,0.65%
27,0,6,0.65%
28,1,7,0.76%
29,0,7,0.76%
30,0,7,0.76%
31,1,8,0.87%
32,0,8,0.87%
33,1,9,0.98%
34,0,9,0.98%
35,0,9,0.98%
36,0,9,0.98%
37,0,9,0.98%
38,0,9,0.98%
39,1,10,1.09%
40,0,10,1.09%
41,1,11,1.19%
42,0,11,1.19%
43,0,11,1.19%
44,0,11,1.19%
45,0,11,1.19%
46,0,11,1.19%
47,0,11,1.19%
48,0,11,1.19%
49,0,11,1.19%
50,0,11,1.19%
51,0,11,1.19%
52,3,14,1.52%
53,0,14,1.52%
54,1,15,1.63%
55,0,15,1.63%
56,0,15,1.63%
57,0,15,1.63%
58,0,15,1.63%
59,0,15,1.63%
60,1,16,1.74%
61,0,16,1.74%
62,0,16,1.74%
63,2,18,1.95%
64,0,18,1.95%
65,0,18,1.95%
66,0,18,1.95%
67,0,18,1.95%
68,0,18,1.95%
69,0,18,1.95%
70,0,18,1.95%
71,0,18,1.95%
72,0,18,1.95%
73,0,18,1.95%
74,0,18,1.95%
75,1,19,2.06%
76,0,19,2.06%
77,0,19,2.06%
78,0,19,2.06%
79,0,19,2.06%
80,0,19,2.06%
81,0,19,2.06%
82,0,19,2.06%
83,0,19,2.06%
84,1,20,2.17%
85,1,21,2.28%
86,0,21,2.28%
87,0,21,2.28%
88,0,21,2.28%
89,0,21,2.28%
90,1,22,2.39%
91,0,22,2.39%
92,1,23,2.5%
93,0,23,2.5%
94,0,23,2.5%
95,0,23,2.5%
96,1,24,2.61%
97,0,24,2.61%
98,0,24,2.61%
99,0,24,2.61%
100,1,25,2.71%
101,0,25,2.71%
102,0,25,2.71%
103,0,25,2.71%
104,0,25,2.71%
105,0,25,2.71%
106,2,27,2.93%
107,0,27,2.93%
108,0,27,2.93%
109,0,27,2.93%
110,1,28,3.04%
111,0,28,3.04%
112,0,28,3.04%
113,0,28,3.04%
114,0,28,3.04%
115,0,28,3.04%
116,0,28,3.04%
117,0,28,3.04%
118,0,28,3.04%
119,0,28,3.04%
120,0,28,3.04%
121,0,28,3.04%
122,0,28,3.04%
123,0,28,3.04%
124,0,28,3.04%
125,1,29,3.15%
126,0,29,3.15%
127,0,29,3.15%
128,1,30,3.26%
129,0,30,3.26%
130,0,30,3.26%
131,0,30,3.26%
132,0,30,3.26%
133,0,30,3.26%
134,1,31,3.37%
135,0,31,3.37%
136,0,31,3.37%
137,0,31,3.37%
138,0,31,3.37%
139,0,31,3.37%
140,1,32,3.47%
141,1,33,3.58%
142,0,33,3.58%
143,0,33,3.58%
144,0,33,3.58%
145,2,35,3.8%
146,0,35,3.8%
147,0,35,3.8%
148,0,35,3.8%
149,1,36,3.91%
150,1,37,4.02%
151,1,38,4.13%
152,0,38,4.13%
153,0,38,4.13%
154,0,38,4.13%
155,1,39,4.23%
156,0,39,4.23%
157,0,39,4.23%
158,1,40,4.34%
159,0,40,4.34%
160,0,40,4.34%
161,0,40,4.34%
162,0,40,4.34%
163,0,40,4.34%
164,0,40,4.34%
165,0,40,4.34%
166,0,40,4.34%
167,0,40,4.34%
168,0,40,4.34%
169,0,40,4.34%
170,1,41,4.45%
171,1,42,4.56%
172,0,42,4.56%
173,0,42,4.56%
174,0,42,4.56%
175,0,42,4.56%
176,0,42,4.56%
177,0,42,4.56%
178,0,42,4.56%
179,0,42,4.56%
180,0,42,4.56%
181,1,43,4.67%
182,0,43,4.67%
183,0,43,4.67%
184,1,44,4.78%
185,0,44,4.78%
186,0,44,4.78%
187,0,44,4.78%
188,0,44,4.78%
189,1,45,4.89%
190,0,45,4.89%
191,2,47,5.1%
192,0,47,5.1%
193,0,47,5.1%
194,0,47,5.1%
195,0,47,5.1%
196,0,47,5.1%
197,0,47,5.1%
198,0,47,5.1%
199,0,47,5.1%
200,2,49,5.32%
201,1,50,5.43%
202,1,51,5.54%
203,0,51,5.54%
204,0,51,5.54%
205,0,51,5.54%
206,0,51,5.54%
207,0,51,5.54%
208,0,51,5.54%
209,0,51,5.54%
210,0,51,5.54%
211,0,51,5.54%
212,1,52,5.65%
213,1,53,5.75%
214,0,53,5.75%
215,1,54,5.86%
216,0,54,5.86%
217,0,54,5.86%
218,2,56,6.08%
219,0,56,6.08%
220,0,56,6.08%
221,0,56,6.08%
222,1,57,6.19%
223,0,57,6.19%
224,0,57,6.19%
225,1,58,6.3%
226,0,58,6.3%
227,0,58,6.3%
228,0,58,6.3%
229,0,58,6.3%
230,0,58,6.3%
231,1,59,6.41%
232,0,59,6.41%
233,0,59,6.41%
234,0,59,6.41%
235,0,59,6.41%
236,1,60,6.51%
237,0,60,6.51%
238,0,60,6.51%
239,0,60,6.51%
240,0,60,6.51%
241,1,61,6.62%
242,1,62,6.73%
243,2,64,6.95%
244,1,65,7.06%
245,0,65,7.06%
246,0,65,7.06%
247,0,65,7.06%
248,1,66,7.17%
249,0,66,7.17%
250,0,66,7.17%
251,0,66,7.17%
252,1,67,7.27%
253,0,67,7.27%
254,0,67,7.27%
255,1,68,7.38%
256,1,69,7.49%
257,0,69,7.49%
258,0,69,7.49%
259,1,70,7.6%
260,1,71,7.71%
261,0,71,7.71%
262,0,71,7.71%
263,1,72,7.82%
264,0,72,7.82%
265,1,73,7.93%
266,0,73,7.93%
267,0,73,7.93%
268,0,73,7.93%
269,0,73,7.93%
270,3,76,8.25%
271,0,76,8.25%
272,0,76,8.25%
273,1,77,8.36%
274,1,78,8.47%
275,0,78,8.47%
276,0,78,8.47%
277,0,78,8.47%
278,1,79,8.58%
279,1,80,8.69%
280,0,80,8.69%
281,0,80,8.69%
282,0,80,8.69%
283,0,80,8.69%
284,0,80,8.69%
285,0,80,8.69%
286,0,80,8.69%
287,0,80,8.69%
288,0,80,8.69%
289,0,80,8.69%
290,0,80,8.69%
291,0,80,8.69%
292,0,80,8.69%
293,0,80,8.69%
294,1,81,8.79%
295,0,81,8.79%
296,0,81,8.79%
297,0,81,8.79%
298,0,81,8.79%
299,0,81,8.79%
300,0,81,8.79%
301,0,81,8.79%
302,0,81,8.79%
303,2,83,9.01%
304,0,83,9.01%
305,1,84,9.12%
306,0,84,9.12%
307,0,84,9.12%
308,0,84,9.12%
309,0,84,9.12%
310,0,84,9.12%
311,2,86,9.34%
312,0,86,9.34%
313,0,86,9.34%
314,0,86,9.34%
315,0,86,9.34%
316,0,86,9.34%
317,0,86,9.34%
318,0,86,9.34%
319,1,87,9.45%
320,0,87,9.45%
321,0,87,9.45%
322,0,87,9.45%
323,0,87,9.45%
324,0,87,9.45%
325,2,89,9.66%
326,1,90,9.77%
327,0,90,9.77%
328,0,90,9.77%
329,0,90,9.77%
330,0,90,9.77%
331,0,90,9.77%
332,0,90,9.77%
333,0,90,9.77%
334,0,90,9.77%
335,0,90,9.77%
336,0,90,9.77%
337,0,90,9.77%
338,0,90,9.77%
339,0,90,9.77%
340,0,90,9.77%
341,0,90,9.77%
342,0,90,9.77%
343,1,91,9.88%
344,0,91,9.88%
345,0,91,9.88%
346,1,92,9.99%
347,0,92,9.99%
348,0,92,9.99%
349,1,93,10.1%
350,1,94,10.21%
351,15,109,11.83%
352,11,120,13.03%
353,0,120,13.03%
354,1,121,13.14%
355,0,121,13.14%
356,0,121,13.14%
357,0,121,13.14%
358,5,126,13.68%
359,0,126,13.68%
360,3,129,14.01%
361,1,130,14.12%
362,0,130,14.12%
363,1,131,14.22%
364,0,131,14.22%
365,0,131,14.22%
366,2,133,14.44%
367,0,133,14.44%
368,0,133,14.44%
369,0,133,14.44%
370,0,133,14.44%
371,0,133,14.44%
372,2,135,14.66%
373,0,135,14.66%
374,0,135,14.66%
375,0,135,14.66%
376,0,135,14.66%
377,0,135,14.66%
378,0,135,14.66%
379,0,135,14.66%
380,0,135,14.66%
381,0,135,14.66%
382,1,136,14.77%
383,0,136,14.77%
384,0,136,14.77%
385,0,136,14.77%
386,0,136,14.77%
387,0,136,14.77%
388,0,136,14.77%
389,0,136,14.77%
390,0,136,14.77%
391,0,136,14.77%
392,0,136,14.77%
393,1,137,14.88%
394,0,137,14.88%
395,0,137,14.88%
396,0,137,14.88%
397,1,138,14.98%
398,0,138,14.98%
399,0,138,14.98%
400,1,139,15.09%
401,1,140,15.2%
402,0,140,15.2%
403,0,140,15.2%
404,0,140,15.2%
405,0,140,15.2%
406,2,142,15.42%
407,0,142,15.42%
408,0,142,15.42%
409,1,143,15.53%
410,1,144,15.64%
411,0,144,15.64%
412,1,145,15.74%
413,0,145,15.74%
414,0,145,15.74%
415,0,145,15.74%
416,0,145,15.74%
417,0,145,15.74%
418,0,145,15.74%
419,1,146,15.85%
420,0,146,15.85%
421,0,146,15.85%
422,1,147,15.96%
423,0,147,15.96%
424,0,147,15.96%
425,0,147,15.96%
426,0,147,15.96%
427,0,147,15.96%
428,0,147,15.96%
429,0,147,15.96%
430,0,147,15.96%
431,0,147,15.96%
432,0,147,15.96%
433,0,147,15.96%
434,0,147,15.96%
435,1,148,16.07%
436,0,148,16.07%
437,0,148,16.07%
438,0,148,16.07%
439,0,148,16.07%
440,0,148,16.07%
441,1,149,16.18%
442,0,149,16.18%
443,0,149,16.18%
444,0,149,16.18%
445,0,149,16.18%
446,1,150,16.29%
447,0,150,16.29%
448,0,150,16.29%
449,0,150,16.29%
450,0,150,16.29%
451,0,150,16.29%
452,1,151,16.4%
453,1,152,16.5%
454,0,152,16.5%
455,1,153,16.61%
456,0,153,16.61%
457,0,153,16.61%
458,0,153,16.61%
459,0,153,16.61%
460,0,153,16.61%
461,0,153,16.61%
462,0,153,16.61%
463,0,153,16.61%
464,0,153,16.61%
465,1,154,16.72%
466,1,155,16.83%
467,0,155,16.83%
468,0,155,16.83%
469,0,155,16.83%
470,0,155,16.83%
471,0,155,16.83%
472,0,155,16.83%
473,0,155,16.83%
474,0,155,16.83%
475,0,155,16.83%
476,0,155,16.83%
477,0,155,16.83%
478,0,155,16.83%
479,1,156,16.94%
480,0,156,16.94%
481,0,156,16.94%
482,1,157,17.05%
483,1,158,17.16%
484,0,158,17.16%
485,0,158,17.16%
486,0,158,17.16%
487,1,159,17.26%
488,0,159,17.26%
489,0,159,17.26%
490,1,160,17.37%
491,1,161,17.48%
492,0,161,17.48%
493,0,161,17.48%
494,0,161,17.48%
495,1,162,17.59%
496,1,163,17.7%
497,0,163,17.7%
498,1,164,17.81%
499,0,164,17.81%
500,0,164,17.81%
501,1,165,17.92%
502,0,165,17.92%
503,1,166,18.02%
504,0,166,18.02%
505,0,166,18.02%
506,0,166,18.02%
507,0,166,18.02%
508,1,167,18.13%
509,0,167,18.13%
510,0,167,18.13%
511,0,167,18.13%
512,0,167,18.13%
513,1,168,18.24%
514,1,169,18.35%
515,0,169,18.35%
516,1,170,18.46%
517,0,170,18.46%
518,0,170,18.46%
519,1,171,18.57%
520,0,171,18.57%
521,0,171,18.57%
522,1,172,18.68%
523,1,173,18.78%
524,0,173,18.78%
525,0,173,18.78%
526,0,173,18.78%
527,1,174,18.89%
528,1,175,19.0%
529,1,176,19.11%
530,0,176,19.11%
531,0,176,19.11%
532,0,176,19.11%
533,0,176,19.11%
534,0,176,19.11%
535,0,176,19.11%
536,0,176,19.11%
537,0,176,19.11%
538,0,176,19.11%
539,0,176,19.11%
540,0,176,19.11%
541,0,176,19.11%
542,0,176,19.11%
543,0,176,19.11%
544,1,177,19.22%
545,0,177,19.22%
546,1,178,19.33%
547,0,178,19.33%
548,1,179,19.44%
549,0,179,19.44%
550,0,179,19.44%
551,0,179,19.44%
552,0,179,19.44%
553,0,179,19.44%
554,0,179,19.44%
555,0,179,19.44%
556,0,179,19.44%
557,0,179,19.44%
558,0,179,19.44%
559,1,180,19.54%
560,0,180,19.54%
561,0,180,19.54%
562,1,181,19.65%
563,0,181,19.65%
564,1,182,19.76%
565,0,182,19.76%
566,0,182,19.76%
567,1,183,19.87%
568,0,183,19.87%
569,0,183,19.87%
570,0,183,19.87%
571,1,184,19.98%
572,0,184,19.98%
573,3,187,20.3%
574,0,187,20.3%
575,0,187,20.3%
576,8,195,21.17%
577,0,195,21.17%
578,0,195,21.17%
579,1,196,21.28%
580,0,196,21.28%
581,0,196,21.28%
582,0,196,21.28%
583,1,197,21.39%
584,0,197,21.39%
585,0,197,21.39%
586,0,197,21.39%
587,0,197,21.39%
588,0,197,21.39%
589,0,197,21.39%
590,1,198,21.5%
591,0,198,21.5%
592,0,198,21.5%
593,0,198,21.5%
594,0,198,21.5%
595,0,198,21.5%
596,1,199,21.61%
597,0,199,21.61%
598,0,199,21.61%
599,1,200,21.72%
600,0,200,21.72%
601,0,200,21.72%
602,0,200,21.72%
603,1,201,21.82%
604,1,202,21.93%
605,0,202,21.93%
606,0,202,21.93%
607,1,203,22.04%
608,0,203,22.04%
609,0,203,22.04%
610,0,203,22.04%
611,0,203,22.04%
612,0,203,22.04%
613,0,203,22.04%
614,2,205,22.26%
615,0,205,22.26%
616,0,205,22.26%
617,0,205,22.26%
618,1,206,22.37%
619,0,206,22.37%
620,0,206,22.37%
621,0,206,22.37%
622,1,207,22.48%
623,0,207,22.48%
624,0,207,22.48%
625,0,207,22.48%
626,2,209,22.69%
627,0,209,22.69%
628,0,209,22.69%
629,0,209,22.69%
630,0,209,22.69%
631,0,209,22.69%
632,1,210,22.8%
633,0,210,22.8%
634,0,210,22.8%
635,1,211,22.91%
636,0,211,22.91%
637,0,211,22.91%
638,0,211,22.91%
639,0,211,22.91%
640,0,211,22.91%
641,0,211,22.91%
642,0,211,22.91%
643,0,211,22.91%
644,0,211,22.91%
645,0,211,22.91%
646,1,212,23.02%
647,1,213,23.13%
648,0,213,23.13%
649,2,215,23.34%
650,0,215,23.34%
651,0,215,23.34%
652,0,215,23.34%
653,2,217,23.56%
654,0,217,23.56%
655,0,217,23.56%
656,0,217,23.56%
657,0,217,23.56%
658,0,217,23.56%
659,0,217,23.56%
660,0,217,23.56%
661,1,218,23.67%
662,0,218,23.67%
663,0,218,23.67%
664,0,218,23.67%
665,0,218,23.67%
666,0,218,23.67%
667,0,218,23.67%
668,0,218,23.67%
669,0,218,23.67%
670,0,218,23.67%
671,1,219,23.78%
672,0,219,23.78%
673,0,219,23.78%
674,0,219,23.78%
675,0,219,23.78%
676,0,219,23.78%
677,0,219,23.78%
678,0,219,23.78%
679,1,220,23.89%
680,0,220,23.89%
681,0,220,23.89%
682,0,220,23.89%
683,1,221,24.0%
684,1,222,24.1%
685,0,222,24.1%
686,0,222,24.1%
687,0,222,24.1%
688,0,222,24.1%
689,1,223,24.21%
690,0,223,24.21%
691,0,223,24.21%
692,0,223,24.21%
693,5,228,24.76%
694,1,229,24.86%
695,0,229,24.86%
696,0,229,24.86%
697,0,229,24.86%
698,0,229,24.86%
699,0,229,24.86%
700,0,229,24.86%
701,0,229,24.86%
702,0,229,24.86%
703,0,229,24.86%
704,1,230,24.97%
705,1,231,25.08%
706,0,231,25.08%
707,0,231,25.08%
708,0,231,25.08%
709,0,231,25.08%
710,0,231,25.08%
711,0,231,25.08%
712,0,231,25.08%
713,0,231,25.08%
714,0,231,25.08%
715,0,231,25.08%
716,0,231,25.08%
717,0,231,25.08%
718,1,232,25.19%
719,1,233,25.3%
720,0,233,25.3%
721,0,233,25.3%
722,0,233,25.3%
723,0,233,25.3%
724,0,233,25.3%
725,1,234,25.41%
726,0,234,25.41%
727,0,234,25.41%
728,1,235,25.52%
729,0,235,25.52%
730,0,235,25.52%
731,0,235,25.52%
732,1,236,25.62%
733,0,236,25.62%
734,0,236,25.62%
735,1,237,25.73%
736,1,238,25.84%
737,0,238,25.84%
738,0,238,25.84%
739,1,239,25.95%
740,0,239,25.95%
741,0,239,25.95%
742,0,239,25.95%
743,0,239,25.95%
744,1,240,26.06%
745,1,241,26.17%
746,0,241,26.17%
747,1,242,26.28%
748,0,242,26.28%
749,0,242,26.28%
750,0,242,26.28%
751,0,242,26.28%
752,0,242,26.28%
753,1,243,26.38%
754,1,244,26.49%
755,0,244,26.49%
756,1,245,26.6%
757,0,245,26.6%
758,0,245,26.6%
759,0,245,26.6%
760,0,245,26.6%
761,0,245,26.6%
762,0,245,26.6%
763,0,245,26.6%
764,0,245,26.6%
765,0,245,26.6%
766,0,245,26.6%
767,0,245,26.6%
768,0,245,26.6%
769,1,246,26.71%
770,0,246,26.71%
771,0,246,26.71%
772,0,246,26.71%
773,0,246,26.71%
774,1,247,26.82%
775,1,248,26.93%
776,0,248,26.93%
777,0,248,26.93%
778,1,249,27.04%
779,0,249,27.04%
780,0,249,27.04%
781,0,249,27.04%
782,0,249,27.04%
783,0,249,27.04%
784,1,250,27.14%
785,1,251,27.25%
786,0,251,27.25%
787,0,251,27.25%
788,0,251,27.25%
789,0,251,27.25%
790,0,251,27.25%
791,0,251,27.25%
792,1,252,27.36%
793,0,252,27.36%
794,0,252,27.36%
795,2,254,27.58%
796,2,256,27.8%
797,0,256,27.8%
798,0,256,27.8%
799,0,256,27.8%
800,0,256,27.8%
801,0,256,27.8%
802,0,256,27.8%
803,0,256,27.8%
804,2,258,28.01%
805,0,258,28.01%
806,0,258,28.01%
807,0,258,28.01%
808,1,259,28.12%
809,1,260,28.23%
810,0,260,28.23%
811,0,260,28.23%
812,0,260,28.23%
813,0,260,28.23%
814,0,260,28.23%
815,0,260,28.23%
816,2,262,28.45%
817,0,262,28.45%
818,1,263,28.56%
819,1,264,28.66%
820,0,264,28.66%
821,0,264,28.66%
822,0,264,28.66%
823,0,264,28.66%
824,0,264,28.66%
825,0,264,28.66%
826,1,265,28.77%
827,0,265,28.77%
828,0,265,28.77%
829,0,265,28.77%
830,0,265,28.77%
831,0,265,28.77%
832,0,265,28.77%
833,0,265,28.77%
834,0,265,28.77%
835,0,265,28.77%
836,0,265,28.77%
837,1,266,28.88%
838,0,266,28.88%
839,0,266,28.88%
840,1,267,28.99%
841,0,267,28.99%
842,0,267,28.99%
843,0,267,28.99%
844,1,268,29.1%
845,0,268,29.1%
846,0,268,29.1%
847,0,268,29.1%
848,0,268,29.1%
849,0,268,29.1%
850,1,269,29.21%
851,0,269,29.21%
852,0,269,29.21%
853,0,269,29.21%
854,0,269,29.21%
855,0,269,29.21%
856,1,270,29.32%
857,0,270,29.32%
858,0,270,29.32%
859,0,270,29.32%
860,0,270,29.32%
861,2,272,29.53%
862,0,272,29.53%
863,0,272,29.53%
864,0,272,29.53%
865,0,272,29.53%
866,0,272,29.53%
867,0,272,29.53%
868,0,272,29.53%
869,1,273,29.64%
870,0,273,29.64%
871,1,274,29.75%
872,0,274,29.75%
873,0,274,29.75%
874,0,274,29.75%
875,0,274,29.75%
876,1,275,29.86%
877,0,275,29.86%
878,0,275,29.86%
879,0,275,29.86%
880,0,275,29.86%
881,1,276,29.97%
882,0,276,29.97%
883,0,276,29.97%
884,1,277,30.08%
885,0,277,30.08%
886,0,277,30.08%
887,1,278,30.18%
888,0,278,30.18%
889,0,278,30.18%
890,0,278,30.18%
891,0,278,30.18%
892,0,278,30.18%
893,1,279,30.29%
894,0,279,30.29%
895,0,279,30.29%
896,1,280,30.4%
897,0,280,30.4%
898,0,280,30.4%
899,1,281,30.51%
900,0,281,30.51%
901,1,282,30.62%
902,0,282,30.62%
903,0,282,30.62%
904,1,283,30.73%
905,0,283,30.73%
906,1,284,30.84%
907,1,285,30.94%
908,0,285,30.94%
909,0,285,30.94%
910,0,285,30.94%
911,0,285,30.94%
912,0,285,30.94%
913,0,285,30.94%
914,0,285,30.94%
915,0,285,30.94%
916,0,285,30.94%
917,0,285,30.94%
918,0,285,30.94%
919,0,285,30.94%
920,0,285,30.94%
921,0,285,30.94%
922,0,285,30.94%
923,0,285,30.94%
924,1,286,31.05%
925,0,286,31.05%
926,0,286,31.05%
927,1,287,31.16%
928,2,289,31.38%
929,1,290,31.49%
930,9,299,32.46%
931,1,300,32.57%
932,0,300,32.57%
933,0,300,32.57%
934,0,300,32.57%
935,1,301,32.68%
936,0,301,32.68%
937,1,302,32.79%
938,0,302,32.79%
939,0,302,32.79%
940,0,302,32.79%
941,0,302,32.79%
942,1,303,32.9%
943,0,303,32.9%
944,0,303,32.9%
945,0,303,32.9%
946,1,304,33.01%
947,1,305,33.12%
948,0,305,33.12%
949,0,305,33.12%
950,0,305,33.12%
951,0,305,33.12%
952,0,305,33.12%
953,0,305,33.12%
954,0,305,33.12%
955,0,305,33.12%
956,1,306,33.22%
957,0,306,33.22%
958,0,306,33.22%
959,0,306,33.22%
960,1,307,33.33%
961,0,307,33.33%
962,0,307,33.33%
963,0,307,33.33%
964,1,308,33.44%
965,0,308,33.44%
966,0,308,33.44%
967,0,308,33.44%
968,0,308,33.44%
969,0,308,33.44%
970,0,308,33.44%
971,0,308,33.44%
972,0,308,33.44%
973,0,308,33.44%
974,0,308,33.44%
975,0,308,33.44%
976,0,308,33.44%
977,0,308,33.44%
978,0,308,33.44%
979,1,309,33.55%
980,0,309,33.55%
981,0,309,33.55%
982,0,309,33.55%
983,0,309,33.55%
984,0,309,33.55%
985,1,310,33.66%
986,0,310,33.66%
987,1,311,33.77%
988,1,312,33.88%
989,1,313,33.98%
990,0,313,33.98%
991,1,314,34.09%
992,0,314,34.09%
993,0,314,34.09%
994,1,315,34.2%
995,0,315,34.2%
996,0,315,34.2%
997,0,315,34.2%
998,1,316,34.31%
999,1,317,34.42%
1000,0,317,34.42%
1001,0,317,34.42%
1002,0,317,34.42%
1003,0,317,34.42%
1004,0,317,34.42%
1005,0,317,34.42%
1006,0,317,34.42%
1007,0,317,34.42%
1008,0,317,34.42%
1009,0,317,34.42%
1010,1,318,34.53%
1011,0,318,34.53%
1012,0,318,34.53%
1013,2,320,34.74%
1014,0,320,34.74%
1015,0,320,34.74%
1016,1,321,34.85%
1017,0,321,34.85%
1018,0,321,34.85%
1019,1,322,34.96%
1020,1,323,35.07%
1021,0,323,35.07%
1022,0,323,35.07%
1023,0,323,35.07%
1024,0,323,35.07%
1025,1,324,35.18%
1026,0,324,35.18%
1027,0,324,35.18%
1028,1,325,35.29%
1029,1,326,35.4%
1030,0,326,35.4%
1031,1,327,35.5%
1032,0,327,35.5%
1033,1,328,35.61%
1034,0,328,35.61%
1035,0,328,35.61%
1036,0,328,35.61%
1037,0,328,35.61%
1038,0,328,35.61%
1039,0,328,35.61%
1040,1,329,35.72%
1041,0,329,35.72%
1042,0,329,35.72%
1043,0,329,35.72%
1044,0,329,35.72%
1045,0,329,35.72%
1046,0,329,35.72%
1047,0,329,35.72%
1048,0,329,35.72%
1049,0,329,35.72%
1050,0,329,35.72%
1051,0,329,35.72%
1052,0,329,35.72%
1053,0,329,35.72%
1054,0,329,35.72%
1055,0,329,35.72%
1056,0,329,35.72%
1057,0,329,35.72%
1058,1,330,35.83%
1059,0,330,35.83%
1060,0,330,35.83%
1061,0,330,35.83%
1062,0,330,35.83%
1063,0,330,35.83%
1064,0,330,35.83%
1065,0,330,35.83%
1066,0,330,35.83%
1067,0,330,35.83%
1068,1,331,35.94%
1069,0,331,35.94%
1070,0,331,35.94%
1071,0,331,35.94%
1072,1,332,36.05%
1073,0,332,36.05%
1074,0,332,36.05%
1075,0,332,36.05%
1076,4,336,36.48%
1077,0,336,36.48%
1078,0,336,36.48%
1079,0,336,36.48%
1080,0,336,36.48%
1081,0,336,36.48%
1082,0,336,36.48%
1083,1,337,36.59%
1084,1,338,36.7%
1085,0,338,36.7%
1086,0,338,36.7%
1087,0,338,36.7%
1088,0,338,36.7%
1089,0,338,36.7%
1090,0,338,36.7%
1091,0,338,36.7%
1092,0,338,36.7%
1093,1,339,36.81%
1094,1,340,36.92%
1095,0,340,36.92%
1096,1,341,37.02%
1097,0,341,37.02%
1098,0,341,37.02%
1099,0,341,37.02%
1100,1,342,37.13%
1101,1,343,37.24%
1102,1,344,37.35%
1103,2,346,37.57%
1104,1,347,37.68%
1105,2,349,37.89%
1106,1,350,38.0%
1107,0,350,38.0%
1108,0,350,38.0%
1109,1,351,38.11%
1110,3,354,38.44%
1111,0,354,38.44%
1112,0,354,38.44%
1113,1,355,38.55%
1114,1,356,38.65%
1115,3,359,38.98%
1116,6,365,39.63%
1117,0,365,39.63%
1118,2,367,39.85%
1119,2,369,40.07%
1120,1,370,40.17%
1121,1,371,40.28%
1122,0,371,40.28%
1123,0,371,40.28%
1124,1,372,40.39%
1125,4,376,40.83%
1126,3,379,41.15%
1127,0,379,41.15%
1128,1,380,41.26%
1129,1,381,41.37%
1130,0,381,41.37%
1131,3,384,41.69%
1132,0,384,41.69%
1133,2,386,41.91%
1134,2,388,42.13%
1135,0,388,42.13%
1136,0,388,42.13%
1137,1,389,42.24%
1138,0,389,42.24%
1139,1,390,42.35%
1140,1,391,42.45%
1141,5,396,43.0%
1142,1,397,43.11%
1143,4,401,43.54%
1144,2,403,43.76%
1145,3,406,44.08%
1146,1,407,44.19%
1147,1,408,44.3%
1148,3,411,44.63%
1149,6,417,45.28%
1150,0,417,45.28%
1151,1,418,45.39%
1152,0,418,45.39%
1153,1,419,45.49%
1154,1,420,45.6%
1155,1,421,45.71%
1156,0,421,45.71%
1157,2,423,45.93%
1158,4,427,46.36%
1159,2,429,46.58%
1160,3,432,46.91%
1161,0,432,46.91%
1162,4,436,47.34%
1163,2,438,47.56%
1164,0,438,47.56%
1165,0,438,47.56%
1166,1,439,47.67%
1167,0,439,47.67%
1168,4,443,48.1%
1169,3,446,48.43%
1170,1,447,48.53%
1171,0,447,48.53%
1172,0,447,48.53%
1173,7,454,49.29%
1174,4,458,49.73%
1175,0,458,49.73%
1176,1,459,49.84%
1177,0,459,49.84%
1178,1,460,49.95%
1179,1,461,50.05%
1180,1,462,50.16%
1181,0,462,50.16%
1182,1,463,50.27%
1183,6,469,50.92%
1184,10,479,52.01%
1185,2,481,52.23%
1186,2,483,52.44%
1187,6,489,53.09%
1188,0,489,53.09%
1189,0,489,53.09%
1190,0,489,53.09%
1191,4,493,53.53%
1192,2,495,53.75%
1193,0,495,53.75%
1194,2,497,53.96%
1195,0,497,53.96%
1196,2,499,54.18%
1197,3,502,54.51%
1198,2,504,54.72%
1199,3,507,55.05%
1200,0,507,55.05%
1201,1,508,55.16%
1202,0,508,55.16%
1203,4,512,55.59%
1204,2,514,55.81%
1205,0,514,55.81%
1206,0,514,55.81%
1207,2,516,56.03%
1208,0,516,56.03%
1209,0,516,56.03%
1210,0,516,56.03%
1211,1,517,56.13%
1212,1,518,56.24%
1213,0,518,56.24%
1214,0,518,56.24%
1215,0,518,56.24%
1216,0,518,56.24%
1217,2,520,56.46%
1218,0,520,56.46%
1219,0,520,56.46%
1220,0,520,56.46%
1221,1,521,56.57%
1222,4,525,57.0%
1223,0,525,57.0%
1224,0,525,57.0%
1225,1,526,57.11%
1226,2,528,57.33%
1227,0,528,57.33%
1228,0,528,57.33%
1229,0,528,57.33%
1230,2,530,57.55%
1231,3,533,57.87%
1232,3,536,58.2%
1233,1,537,58.31%
1234,0,537,58.31%
1235,2,539,58.52%
1236,2,541,58.74%
1237,3,544,59.07%
1238,1,545,59.17%
1239,0,545,59.17%
1240,5,550,59.72%
1241,8,558,60.59%
1242,4,562,61.02%
1243,1,563,61.13%
1244,0,563,61.13%
1245,0,563,61.13%
1246,3,566,61.45%
1247,1,567,61.56%
1248,0,567,61.56%
1249,1,568,61.67%
1250,3,571,62.0%
1251,0,571,62.0%
1252,0,571,62.0%
1253,0,571,62.0%
1254,0,571,62.0%
1255,0,571,62.0%
1256,3,574,62.32%
1257,3,577,62.65%
1258,0,577,62.65%
1259,0,577,62.65%
1260,0,577,62.65%
1261,0,577,62.65%
1262,0,577,62.65%
1263,0,577,62.65%
1264,2,579,62.87%
1265,1,580,62.98%
1266,1,581,63.08%
1267,2,583,63.3%
1268,1,584,63.41%
1269,2,586,63.63%
1270,5,591,64.17%
1271,0,591,64.17%
1272,0,591,64.17%
1273,2,593,64.39%
1274,4,597,64.82%
1275,8,605,65.69%
1276,1,606,65.8%
1277,0,606,65.8%
1278,2,608,66.02%
1279,4,612,66.45%
1280,1,613,66.56%
1281,0,613,66.56%
1282,0,613,66.56%
1283,1,614,66.67%
1284,4,618,67.1%
1285,2,620,67.32%
1286,0,620,67.32%
1287,0,620,67.32%
1288,2,622,67.54%
1289,2,624,67.75%
1290,0,624,67.75%
1291,0,624,67.75%
1292,1,625,67.86%
1293,2,627,68.08%
1294,3,630,68.4%
1295,0,630,68.4%
1296,0,630,68.4%
1297,4,634,68.84%
1298,2,636,69.06%
1299,1,637,69.16%
1300,2,639,69.38%
1301,2,641,69.6%
1302,2,643,69.82%
1303,2,645,70.03%
1304,3,648,70.36%
1305,2,650,70.58%
1306,1,651,70.68%
1307,2,653,70.9%
1308,2,655,71.12%
1309,1,656,71.23%
1310,1,657,71.34%
1311,0,657,71.34%
1312,1,658,71.44%
1313,3,661,71.77%
1314,1,662,71.88%
1315,0,662,71.88%
1316,0,662,71.88%
1317,1,663,71.99%
1318,1,664,72.1%
1319,0,664,72.1%
1320,0,664,72.1%
1321,1,665,72.2%
1322,3,668,72.53%
1323,0,668,72.53%
1324,3,671,72.86%
1325,4,675,73.29%
1326,0,675,73.29%
1327,2,677,73.51%
1328,1,678,73.62%
1329,7,685,74.38%
1330,1,686,74.48%
1331,0,686,74.48%
1332,1,687,74.59%
1333,0,687,74.59%
1334,0,687,74.59%
1335,3,690,74.92%
1336,1,691,75.03%
1337,0,691,75.03%
1338,9,700,76.0%
1339,0,700,76.0%
1340,0,700,76.0%
1341,0,700,76.0%
1342,1,701,76.11%
1343,1,702,76.22%
1344,0,702,76.22%
1345,1,703,76.33%
1346,1,704,76.44%
1347,1,705,76.55%
1348,2,707,76.76%
1349,0,707,76.76%
1350,1,708,76.87%
1351,0,708,76.87%
1352,0,708,76.87%
1353,1,709,76.98%
1354,0,709,76.98%
1355,0,709,76.98%
1356,2,711,77.2%
1357,2,713,77.42%
1358,1,714,77.52%
1359,1,715,77.63%
1360,1,716,77.74%
1361,5,721,78.28%
1362,1,722,78.39%
1363,0,722,78.39%
1364,0,722,78.39%
1365,0,722,78.39%
1366,0,722,78.39%
1367,1,723,78.5%
1368,1,724,78.61%
1369,1,725,78.72%
1370,1,726,78.83%
1371,3,729,79.15%
1372,2,731,79.37%
1373,1,732,79.48%
1374,0,732,79.48%
1375,0,732,79.48%
1376,2,734,79.7%
1377,2,736,79.91%
1378,1,737,80.02%
1379,0,737,80.02%
1380,0,737,80.02%
1381,0,737,80.02%
1382,2,739,80.24%
1383,1,740,80.35%
1384,1,741,80.46%
1385,0,741,80.46%
1386,1,742,80.56%
1387,0,742,80.56%
1388,0,742,80.56%
1389,0,742,80.56%
1390,0,742,80.56%
1391,0,742,80.56%
1392,0,742,80.56%
1393,0,742,80.56%
1394,0,742,80.56%
1395,0,742,80.56%
1396,0,742,80.56%
1397,0,742,80.56%
1398,0,742,80.56%
1399,0,742,80.56%
1400,0,742,80.56%
1401,0,742,80.56%
1402,0,742,80.56%
1403,0,742,80.56%
1404,0,742,80.56%
1405,0,742,80.56%
1406,0,742,80.56%
1407,0,742,80.56%
1408,0,742,80.56%
1409,0,742,80.56%
1410,0,742,80.56%
1411,0,742,80.56%
1412,0,742,80.56%
1413,0,742,80.56%
1414,0,742,80.56%
1415,0,742,80.56%
1416,0,742,80.56%
1417,0,742,80.56%
1418,0,742,80.56%
1419,0,742,80.56%
1420,0,742,80.56%
1421,0,742,80.56%
1422,0,742,80.56%
1423,0,742,80.56%
1424,0,742,80.56%
1425,0,742,80.56%
1426,0,742,80.56%
1427,0,742,80.56%
1428,0,742,80.56%
1429,0,742,80.56%
1430,0,742,80.56%
1431,0,742,80.56%
1432,0,742,80.56%
1433,0,742,80.56%
1434,1,743,80.67%
1435,0,743,80.67%
1436,0,743,80.67%
1437,0,743,80.67%
1438,0,743,80.67%
1439,0,743,80.67%
1440,0,743,80.67%
1441,0,743,80.67%
1442,0,743,80.67%
1443,0,743,80.67%
1444,0,743,80.67%
1445,0,743,80.67%
1446,0,743,80.67%
1447,0,743,80.67%
1448,0,743,80.67%
1449,0,743,80.67%
1450,0,743,80.67%
1451,0,743,80.67%
1452,0,743,80.67%
1453,0,743,80.67%
1454,0,743,80.67%
1455,0,743,80.67%
1456,0,743,80.67%
1457,0,743,80.67%
1458,0,743,80.67%
1459,0,743,80.67%
1460,0,743,80.67%
1461,0,743,80.67%
1462,0,743,80.67%
1463,0,743,80.67%
1464,0,743,80.67%
1465,0,743,80.67%
1466,0,743,80.67%
1467,0,743,80.67%
1468,0,743,80.67%
1469,2,745,80.89%
1470,0,745,80.89%
1471,0,745,80.89%
1472,0,745,80.89%
1473,2,747,81.11%
1474,0,747,81.11%
1475,0,747,81.11%
1476,0,747,81.11%
1477,0,747,81.11%
1478,0,747,81.11%
1479,0,747,81.11%
1480,0,747,81.11%
1481,0,747,81.11%
1482,1,748,81.22%
1483,0,748,81.22%
1484,0,748,81.22%
1485,0,748,81.22%
1486,0,748,81.22%
1487,0,748,81.22%
1488,0,748,81.22%
1489,0,748,81.22%
1490,0,748,81.22%
1491,0,748,81.22%
1492,0,748,81.22%
1493,0,748,81.22%
1494,0,748,81.22%
1495,0,748,81.22%
1496,0,748,81.22%
1497,0,748,81.22%
1498,0,748,81.22%
1499,0,748,81.22%
1500,0,748,81.22%
1501,0,748,81.22%
1502,1,749,81.32%
1503,0,749,81.32%
1504,0,749,81.32%
1505,0,749,81.32%
1506,0,749,81.32%
1507,0,749,81.32%
1508,0,749,81.32%
1509,0,749,81.32%
1510,0,749,81.32%
1511,0,749,81.32%
1512,0,749,81.32%
1513,0,749,81.32%
1514,0,749,81.32%
1515,0,749,81.32%
1516,0,749,81.32%
1517,0,749,81.32%
1518,0,749,81.32%
1519,0,749,81.32%
1520,0,749,81.32%
1521,0,749,81.32%
1522,0,749,81.32%
1523,0,749,81.32%
1524,0,749,81.32%
1525,0,749,81.32%
1526,0,749,81.32%
1527,0,749,81.32%
1528,0,749,81.32%
1529,0,749,81.32%
1530,0,749,81.32%
1531,0,749,81.32%
1532,0,749,81.32%
1533,0,749,81.32%
1534,0,749,81.32%
1535,0,749,81.32%
1536,0,749,81.32%
1537,0,749,81.32%
1538,0,749,81.32%
1539,0,749,81.32%
1540,0,749,81.32%
1541,0,749,81.32%
1542,0,749,81.32%
1543,0,749,81.32%
1544,0,749,81.32%
1545,0,749,81.32%
1546,0,749,81.32%
1547,0,749,81.32%
1548,0,749,81.32%
1549,0,749,81.32%
1550,0,749,81.32%
1551,0,749,81.32%
1552,0,749,81.32%
1553,0,749,81.32%
1554,0,749,81.32%
1555,0,749,81.32%
1556,0,749,81.32%
1557,0,749,81.32%
1558,0,749,81.32%
1559,0,749,81.32%
1560,0,749,81.32%
1561,0,749,81.32%
1562,0,749,81.32%
1563,1,750,81.43%
1564,0,750,81.43%
1565,0,750,81.43%
1566,0,750,81.43%
1567,0,750,81.43%
1568,0,750,81.43%
1569,0,750,81.43%
1570,0,750,81.43%
1571,0,750,81.43%
1572,0,750,81.43%
1573,0,750,81.43%
1574,0,750,81.43%
1575,0,750,81.43%
1576,0,750,81.43%
1577,0,750,81.43%
1578,0,750,81.43%
1579,0,750,81.43%
1580,0,750,81.43%
1581,0,750,81.43%
1582,0,750,81.43%
1583,0,750,81.43%
1584,0,750,81.43%
1585,0,750,81.43%
1586,1,751,81.54%
1587,0,751,81.54%
1588,0,751,81.54%
1589,0,751,81.54%
1590,0,751,81.54%
1591,0,751,81.54%
1592,0,751,81.54%
1593,0,751,81.54%
1594,0,751,81.54%
1595,0,751,81.54%
1596,0,751,81.54%
1597,0,751,81.54%
1598,0,751,81.54%
1599,0,751,81.54%
1600,0,751,81.54%
1601,1,752,81.65%
1602,0,752,81.65%
1603,0,752,81.65%
1604,0,752,81.65%
1605,1,753,81.76%
1606,1,754,81.87%
1607,0,754,81.87%
1608,0,754,81.87%
1609,0,754,81.87%
1610,0,754,81.87%
1611,0,754,81.87%
1612,0,754,81.87%
1613,0,754,81.87%
1614,1,755,81.98%
1615,1,756,82.08%
1616,0,756,82.08%
1617,0,756,82.08%
1618,0,756,82.08%
1619,0,756,82.08%
1620,0,756,82.08%
1621,0,756,82.08%
1622,0,756,82.08%
1623,0,756,82.08%
1624,0,756,82.08%
1625,0,756,82.08%
1626,0,756,82.08%
1627,0,756,82.08%
1628,0,756,82.08%
1629,0,756,82.08%
1630,0,756,82.08%
1631,0,756,82.08%
1632,0,756,82.08%
1633,0,756,82.08%
1634,0,756,82.08%
1635,0,756,82.08%
1636,0,756,82.08%
1637,0,756,82.08%
1638,0,756,82.08%
1639,0,756,82.08%
1640,0,756,82.08%
1641,0,756,82.08%
1642,0,756,82.08%
1643,0,756,82.08%
1644,0,756,82.08%
1645,0,756,82.08%
1646,0,756,82.08%
1647,0,756,82.08%
1648,0,756,82.08%
1649,0,756,82.08%
1650,0,756,82.08%
1651,0,756,82.08%
1652,0,756,82.08%
1653,0,756,82.08%
1654,0,756,82.08%
1655,0,756,82.08%
1656,0,756,82.08%
1657,0,756,82.08%
1658,0,756,82.08%
1659,0,756,82.08%
1660,0,756,82.08%
1661,0,756,82.08%
1662,0,756,82.08%
1663,0,756,82.08%
1664,0,756,82.08%
1665,0,756,82.08%
1666,0,756,82.08%
1667,0,756,82.08%
1668,0,756,82.08%
1669,0,756,82.08%
1670,0,756,82.08%
1671,0,756,82.08%
1672,0,756,82.08%
1673,0,756,82.08%
1674,0,756,82.08%
1675,0,756,82.08%
1676,0,756,82.08%
1677,0,756,82.08%
1678,0,756,82.08%
1679,0,756,82.08%
1680,0,756,82.08%
1681,0,756,82.08%
1682,0,756,82.08%
1683,0,756,82.08%
1684,0,756,82.08%
1685,0,756,82.08%
1686,0,756,82.08%
1687,0,756,82.08%
1688,0,756,82.08%
1689,1,757,82.19%
1690,0,757,82.19%
1691,0,757,82.19%
1692,0,757,82.19%
1693,0,757,82.19%
1694,0,757,82.19%
1695,0,757,82.19%
1696,0,757,82.19%
1697,0,757,82.19%
1698,0,757,82.19%
1699,0,757,82.19%
1700,1,758,82.3%
1701,0,758,82.3%
1702,0,758,82.3%
1703,0,758,82.3%
1704,0,758,82.3%
1705,0,758,82.3%
1706,0,758,82.3%
1707,1,759,82.41%
1708,0,759,82.41%
1709,0,759,82.41%
1710,0,759,82.41%
1711,0,759,82.41%
1712,0,759,82.41%
1713,0,759,82.41%
1714,0,759,82.41%
1715,0,759,82.41%
1716,0,759,82.41%
1717,0,759,82.41%
1718,0,759,82.41%
1719,0,759,82.41%
1720,0,759,82.41%
1721,0,759,82.41%
1722,0,759,82.41%
1723,0,759,82.41%
1724,0,759,82.41%
1725,0,759,82.41%
1726,0,759,82.41%
1727,0,759,82.41%
1728,0,759,82.41%
1729,0,759,82.41%
1730,0,759,82.41%
1731,0,759,82.41%
1732,0,759,82.41%
1733,0,759,82.41%
1734,0,759,82.41%
1735,0,759,82.41%
1736,0,759,82.41%
1737,0,759,82.41%
1738,0,759,82.41%
1739,0,759,82.41%
1740,0,759,82.41%
1741,0,759,82.41%
1742,0,759,82.41%
1743,0,759,82.41%
1744,0,759,82.41%
1745,1,760,82.52%
1746,0,760,82.52%
1747,0,760,82.52%
1748,0,760,82.52%
1749,0,760,82.52%
1750,0,760,82.52%
1751,0,760,82.52%
1752,0,760,82.52%
1753,0,760,82.52%
1754,0,760,82.52%
1755,0,760,82.52%
1756,0,760,82.52%
1757,0,760,82.52%
1758,0,760,82.52%
1759,0,760,82.52%
1760,0,760,82.52%
1761,0,760,82.52%
1762,0,760,82.52%
1763,0,760,82.52%
1764,1,761,82.63%
1765,0,761,82.63%
1766,0,761,82.63%
1767,0,761,82.63%
1768,0,761,82.63%
1769,0,761,82.63%
1770,0,761,82.63%
1771,0,761,82.63%
1772,0,761,82.63%
1773,0,761,82.63%
1774,1,762,82.74%
1775,0,762,82.74%
1776,0,762,82.74%
1777,0,762,82.74%
1778,0,762,82.74%
1779,0,762,82.74%
1780,0,762,82.74%
1781,0,762,82.74%
1782,0,762,82.74%
1783,0,762,82.74%
1784,0,762,82.74%
1785,0,762,82.74%
1786,0,762,82.74%
1787,0,762,82.74%
1788,0,762,82.74%
1789,0,762,82.74%
1790,0,762,82.74%
1791,0,762,82.74%
1792,0,762,82.74%
1793,0,762,82.74%
1794,0,762,82.74%
1795,0,762,82.74%
1796,0,762,82.74%
1797,0,762,82.74%
1798,0,762,82.74%
1799,0,762,82.74%
1800,0,762,82.74%
1801,0,762,82.74%
1802,1,763,82.84%
1803,0,763,82.84%
1804,0,763,82.84%
1805,0,763,82.84%
1806,0,763,82.84%
1807,0,763,82.84%
1808,0,763,82.84%
1809,0,763,82.84%
1810,0,763,82.84%
1811,0,763,82.84%
1812,0,763,82.84%
1813,0,763,82.84%
1814,0,763,82.84%
1815,0,763,82.84%
1816,0,763,82.84%
1817,0,763,82.84%
1818,0,763,82.84%
1819,0,763,82.84%
1820,0,763,82.84%
1821,1,764,82.95%
1822,0,764,82.95%
1823,0,764,82.95%
1824,0,764,82.95%
1825,0,764,82.95%
1826,1,765,83.06%
1827,1,766,83.17%
1828,0,766,83.17%
1829,0,766,83.17%
1830,0,766,83.17%
1831,1,767,83.28%
1832,0,767,83.28%
1833,0,767,83.28%
1834,0,767,83.28%
1835,0,767,83.28%
1836,0,767,83.28%
1837,0,767,83.28%
1838,0,767,83.28%
1839,0,767,83.28%
1840,0,767,83.28%
1841,0,767,83.28%
1842,0,767,83.28%
1843,0,767,83.28%
1844,0,767,83.28%
1845,0,767,83.28%
1846,0,767,83.28%
1847,0,767,83.28%
1848,0,767,83.28%
1849,0,767,83.28%
1850,0,767,83.28%
1851,0,767,83.28%
1852,0,767,83.28%
1853,0,767,83.28%
1854,0,767,83.28%
1855,0,767,83.28%
1856,0,767,83.28%
1857,0,767,83.28%
1858,0,767,83.28%
1859,0,767,83.28%
1860,0,767,83.28%
1861,0,767,83.28%
1862,0,767,83.28%
1863,0,767,83.28%
1864,1,768,83.39%
1865,1,769,83.5%
1866,0,769,83.5%
1867,0,769,83.5%
1868,0,769,83.5%
1869,0,769,83.5%
1870,0,769,83.5%
1871,0,769,83.5%
1872,0,769,83.5%
1873,0,769,83.5%
1874,0,769,83.5%
1875,0,769,83.5%
1876,0,769,83.5%
1877,0,769,83.5%
1878,0,769,83.5%
1879,0,769,83.5%
1880,0,769,83.5%
1881,0,769,83.5%
1882,0,769,83.5%
1883,1,770,83.6%
1884,0,770,83.6%
1885,0,770,83.6%
1886,0,770,83.6%
1887,0,770,83.6%
1888,0,770,83.6%
1889,0,770,83.6%
1890,0,770,83.6%
1891,1,771,83.71%
1892,0,771,83.71%
1893,0,771,83.71%
1894,0,771,83.71%
1895,0,771,83.71%
1896,0,771,83.71%
1897,0,771,83.71%
1898,0,771,83.71%
1899,0,771,83.71%
1900,0,771,83.71%
1901,0,771,83.71%
1902,0,771,83.71%
1903,0,771,83.71%
1904,0,771,83.71%
1905,0,771,83.71%
1906,0,771,83.71%
1907,0,771,83.71%
1908,0,771,83.71%
1909,0,771,83.71%
1910,0,771,83.71%
1911,0,771,83.71%
1912,0,771,83.71%
1913,0,771,83.71%
1914,0,771,83.71%
1915,0,771,83.71%
1916,0,771,83.71%
1917,0,771,83.71%
1918,0,771,83.71%
1919,0,771,83.71%
1920,0,771,83.71%
1921,0,771,83.71%
1922,0,771,83.71%
1923,2,773,83.93%
1924,0,773,83.93%
1925,0,773,83.93%
1926,0,773,83.93%
1927,0,773,83.93%
1928,0,773,83.93%
1929,0,773,83.93%
1930,0,773,83.93%
1931,0,773,83.93%
1932,0,773,83.93%
1933,0,773,83.93%
1934,0,773,83.93%
1935,0,773,83.93%
1936,0,773,83.93%
1937,0,773,83.93%
1938,0,773,83.93%
1939,0,773,83.93%
1940,0,773,83.93%
1941,0,773,83.93%
1942,0,773,83.93%
1943,0,773,83.93%
1944,0,773,83.93%
1945,0,773,83.93%
1946,0,773,83.93%
1947,0,773,83.93%
1948,0,773,83.93%
1949,0,773,83.93%
1950,0,773,83.93%
1951,0,773,83.93%
1952,0,773,83.93%
1953,0,773,83.93%
1954,0,773,83.93%
1955,0,773,83.93%
1956,0,773,83.93%
1957,0,773,83.93%
1958,0,773,83.93%
1959,0,773,83.93%
1960,0,773,83.93%
1961,0,773,83.93%
1962,0,773,83.93%
1963,0,773,83.93%
1964,0,773,83.93%
1965,0,773,83.93%
1966,0,773,83.93%
1967,0,773,83.93%
1968,0,773,83.93%
1969,0,773,83.93%
1970,0,773,83.93%
1971,0,773,83.93%
1972,0,773,83.93%
1973,0,773,83.93%
1974,0,773,83.93%
1975,0,773,83.93%
1976,0,773,83.93%
1977,0,773,83.93%
1978,0,773,83.93%
1979,0,773,83.93%
1980,0,773,83.93%
1981,0,773,83.93%
1982,0,773,83.93%
1983,0,773,83.93%
1984,0,773,83.93%
1985,0,773,83.93%
1986,0,773,83.93%
1987,0,773,83.93%
1988,0,773,83.93%
1989,0,773,83.93%
1990,0,773,83.93%
1991,0,773,83.93%
1992,0,773,83.93%
1993,1,774,84.04%
1994,0,774,84.04%
1995,0,774,84.04%
1996,0,774,84.04%
1997,0,774,84.04%
1998,0,774,84.04%
1999,0,774,84.04%
2000,0,774,84.04%
2001,0,774,84.04%
2002,0,774,84.04%
2003,0,774,84.04%
2004,0,774,84.04%
2005,0,774,84.04%
2006,0,774,84.04%
2007,0,774,84.04%
2008,0,774,84.04%
2009,0,774,84.04%
2010,0,774,84.04%
2011,0,774,84.04%
2012,0,774,84.04%
2013,0,774,84.04%
2014,0,774,84.04%
2015,147,921,100.0%
