Length, Count, Sum (Counts <= Length), Percent of Nonzero Data, Nonzero Data Count = 286, Zero Data Count = 1558
1,2,2,0.7%
2,0,2,0.7%
3,1,3,1.05%
4,0,3,1.05%
5,0,3,1.05%
6,0,3,1.05%
7,0,3,1.05%
8,0,3,1.05%
9,0,3,1.05%
10,0,3,1.05%
11,0,3,1.05%
12,0,3,1.05%
13,0,3,1.05%
14,0,3,1.05%
15,0,3,1.05%
16,0,3,1.05%
17,0,3,1.05%
18,1,4,1.4%
19,0,4,1.4%
20,0,4,1.4%
21,0,4,1.4%
22,0,4,1.4%
23,0,4,1.4%
24,0,4,1.4%
25,0,4,1.4%
26,0,4,1.4%
27,0,4,1.4%
28,0,4,1.4%
29,0,4,1.4%
30,0,4,1.4%
31,1,5,1.75%
32,0,5,1.75%
33,1,6,2.1%
34,0,6,2.1%
35,0,6,2.1%
36,0,6,2.1%
37,0,6,2.1%
38,0,6,2.1%
39,0,6,2.1%
40,0,6,2.1%
41,1,7,2.45%
42,0,7,2.45%
43,0,7,2.45%
44,0,7,2.45%
45,0,7,2.45%
46,0,7,2.45%
47,0,7,2.45%
48,1,8,2.8%
49,0,8,2.8%
50,0,8,2.8%
51,0,8,2.8%
52,1,9,3.15%
53,0,9,3.15%
54,1,10,3.5%
55,0,10,3.5%
56,0,10,3.5%
57,0,10,3.5%
58,0,10,3.5%
59,0,10,3.5%
60,1,11,3.85%
61,0,11,3.85%
62,0,11,3.85%
63,1,12,4.2%
64,0,12,4.2%
65,1,13,4.55%
66,0,13,4.55%
67,0,13,4.55%
68,0,13,4.55%
69,0,13,4.55%
70,0,13,4.55%
71,0,13,4.55%
72,0,13,4.55%
73,0,13,4.55%
74,0,13,4.55%
75,1,14,4.9%
76,0,14,4.9%
77,0,14,4.9%
78,0,14,4.9%
79,0,14,4.9%
80,0,14,4.9%
81,0,14,4.9%
82,0,14,4.9%
83,0,14,4.9%
84,1,15,5.24%
85,0,15,5.24%
86,0,15,5.24%
87,0,15,5.24%
88,0,15,5.24%
89,0,15,5.24%
90,1,16,5.59%
91,0,16,5.59%
92,0,16,5.59%
93,0,16,5.59%
94,0,16,5.59%
95,0,16,5.59%
96,0,16,5.59%
97,0,16,5.59%
98,0,16,5.59%
99,0,16,5.59%
100,1,17,5.94%
101,0,17,5.94%
102,0,17,5.94%
103,0,17,5.94%
104,0,17,5.94%
105,0,17,5.94%
106,1,18,6.29%
107,0,18,6.29%
108,0,18,6.29%
109,0,18,6.29%
110,1,19,6.64%
111,0,19,6.64%
112,0,19,6.64%
113,0,19,6.64%
114,0,19,6.64%
115,0,19,6.64%
116,0,19,6.64%
117,0,19,6.64%
118,0,19,6.64%
119,0,19,6.64%
120,0,19,6.64%
121,0,19,6.64%
122,0,19,6.64%
123,0,19,6.64%
124,0,19,6.64%
125,0,19,6.64%
126,0,19,6.64%
127,0,19,6.64%
128,0,19,6.64%
129,0,19,6.64%
130,0,19,6.64%
131,0,19,6.64%
132,0,19,6.64%
133,0,19,6.64%
134,1,20,6.99%
135,0,20,6.99%
136,0,20,6.99%
137,0,20,6.99%
138,0,20,6.99%
139,0,20,6.99%
140,0,20,6.99%
141,1,21,7.34%
142,0,21,7.34%
143,0,21,7.34%
144,0,21,7.34%
145,0,21,7.34%
146,0,21,7.34%
147,0,21,7.34%
148,0,21,7.34%
149,1,22,7.69%
150,0,22,7.69%
151,0,22,7.69%
152,0,22,7.69%
153,0,22,7.69%
154,0,22,7.69%
155,1,23,8.04%
156,0,23,8.04%
157,0,23,8.04%
158,1,24,8.39%
159,0,24,8.39%
160,0,24,8.39%
161,0,24,8.39%
162,0,24,8.39%
163,0,24,8.39%
164,0,24,8.39%
165,0,24,8.39%
166,0,24,8.39%
167,0,24,8.39%
168,0,24,8.39%
169,0,24,8.39%
170,0,24,8.39%
171,1,25,8.74%
172,0,25,8.74%
173,0,25,8.74%
174,0,25,8.74%
175,0,25,8.74%
176,0,25,8.74%
177,0,25,8.74%
178,0,25,8.74%
179,0,25,8.74%
180,0,25,8.74%
181,0,25,8.74%
182,0,25,8.74%
183,0,25,8.74%
184,0,25,8.74%
185,0,25,8.74%
186,0,25,8.74%
187,0,25,8.74%
188,0,25,8.74%
189,1,26,9.09%
190,0,26,9.09%
191,2,28,9.79%
192,0,28,9.79%
193,0,28,9.79%
194,0,28,9.79%
195,0,28,9.79%
196,0,28,9.79%
197,1,29,10.14%
198,1,30,10.49%
199,0,30,10.49%
200,0,30,10.49%
201,0,30,10.49%
202,0,30,10.49%
203,0,30,10.49%
204,0,30,10.49%
205,0,30,10.49%
206,1,31,10.84%
207,1,32,11.19%
208,0,32,11.19%
209,0,32,11.19%
210,0,32,11.19%
211,0,32,11.19%
212,0,32,11.19%
213,0,32,11.19%
214,0,32,11.19%
215,0,32,11.19%
216,0,32,11.19%
217,0,32,11.19%
218,0,32,11.19%
219,0,32,11.19%
220,0,32,11.19%
221,0,32,11.19%
222,1,33,11.54%
223,0,33,11.54%
224,0,33,11.54%
225,1,34,11.89%
226,0,34,11.89%
227,0,34,11.89%
228,0,34,11.89%
229,0,34,11.89%
230,0,34,11.89%
231,0,34,11.89%
232,0,34,11.89%
233,0,34,11.89%
234,0,34,11.89%
235,0,34,11.89%
236,0,34,11.89%
237,0,34,11.89%
238,0,34,11.89%
239,0,34,11.89%
240,0,34,11.89%
241,1,35,12.24%
242,1,36,12.59%
243,0,36,12.59%
244,0,36,12.59%
245,0,36,12.59%
246,0,36,12.59%
247,0,36,12.59%
248,1,37,12.94%
249,0,37,12.94%
250,0,37,12.94%
251,0,37,12.94%
252,0,37,12.94%
253,0,37,12.94%
254,0,37,12.94%
255,0,37,12.94%
256,1,38,13.29%
257,0,38,13.29%
258,0,38,13.29%
259,0,38,13.29%
260,1,39,13.64%
261,0,39,13.64%
262,0,39,13.64%
263,0,39,13.64%
264,0,39,13.64%
265,0,39,13.64%
266,0,39,13.64%
267,0,39,13.64%
268,0,39,13.64%
269,1,40,13.99%
270,0,40,13.99%
271,0,40,13.99%
272,0,40,13.99%
273,1,41,14.34%
274,0,41,14.34%
275,0,41,14.34%
276,0,41,14.34%
277,0,41,14.34%
278,1,42,14.69%
279,1,43,15.03%
280,0,43,15.03%
281,1,44,15.38%
282,0,44,15.38%
283,0,44,15.38%
284,0,44,15.38%
285,0,44,15.38%
286,0,44,15.38%
287,0,44,15.38%
288,0,44,15.38%
289,0,44,15.38%
290,0,44,15.38%
291,0,44,15.38%
292,0,44,15.38%
293,0,44,15.38%
294,1,45,15.73%
295,0,45,15.73%
296,0,45,15.73%
297,0,45,15.73%
298,0,45,15.73%
299,0,45,15.73%
300,0,45,15.73%
301,0,45,15.73%
302,0,45,15.73%
303,0,45,15.73%
304,0,45,15.73%
305,0,45,15.73%
306,0,45,15.73%
307,0,45,15.73%
308,0,45,15.73%
309,0,45,15.73%
310,0,45,15.73%
311,0,45,15.73%
312,0,45,15.73%
313,0,45,15.73%
314,0,45,15.73%
315,0,45,15.73%
316,0,45,15.73%
317,0,45,15.73%
318,0,45,15.73%
319,1,46,16.08%
320,0,46,16.08%
321,0,46,16.08%
322,0,46,16.08%
323,0,46,16.08%
324,0,46,16.08%
325,0,46,16.08%
326,1,47,16.43%
327,0,47,16.43%
328,0,47,16.43%
329,0,47,16.43%
330,0,47,16.43%
331,0,47,16.43%
332,0,47,16.43%
333,0,47,16.43%
334,0,47,16.43%
335,0,47,16.43%
336,0,47,16.43%
337,0,47,16.43%
338,0,47,16.43%
339,0,47,16.43%
340,0,47,16.43%
341,0,47,16.43%
342,0,47,16.43%
343,0,47,16.43%
344,0,47,16.43%
345,0,47,16.43%
346,0,47,16.43%
347,0,47,16.43%
348,0,47,16.43%
349,0,47,16.43%
350,0,47,16.43%
351,0,47,16.43%
352,1,48,16.78%
353,0,48,16.78%
354,0,48,16.78%
355,0,48,16.78%
356,0,48,16.78%
357,0,48,16.78%
358,0,48,16.78%
359,0,48,16.78%
360,0,48,16.78%
361,0,48,16.78%
362,0,48,16.78%
363,0,48,16.78%
364,0,48,16.78%
365,0,48,16.78%
366,2,50,17.48%
367,0,50,17.48%
368,0,50,17.48%
369,0,50,17.48%
370,0,50,17.48%
371,0,50,17.48%
372,0,50,17.48%
373,0,50,17.48%
374,0,50,17.48%
375,0,50,17.48%
376,0,50,17.48%
377,0,50,17.48%
378,0,50,17.48%
379,0,50,17.48%
380,0,50,17.48%
381,0,50,17.48%
382,0,50,17.48%
383,0,50,17.48%
384,0,50,17.48%
385,0,50,17.48%
386,0,50,17.48%
387,0,50,17.48%
388,0,50,17.48%
389,0,50,17.48%
390,0,50,17.48%
391,0,50,17.48%
392,0,50,17.48%
393,0,50,17.48%
394,0,50,17.48%
395,0,50,17.48%
396,0,50,17.48%
397,0,50,17.48%
398,0,50,17.48%
399,0,50,17.48%
400,1,51,17.83%
401,1,52,18.18%
402,0,52,18.18%
403,0,52,18.18%
404,0,52,18.18%
405,0,52,18.18%
406,0,52,18.18%
407,0,52,18.18%
408,0,52,18.18%
409,1,53,18.53%
410,1,54,18.88%
411,0,54,18.88%
412,0,54,18.88%
413,1,55,19.23%
414,0,55,19.23%
415,0,55,19.23%
416,0,55,19.23%
417,0,55,19.23%
418,1,56,19.58%
419,1,57,19.93%
420,0,57,19.93%
421,0,57,19.93%
422,0,57,19.93%
423,0,57,19.93%
424,0,57,19.93%
425,0,57,19.93%
426,0,57,19.93%
427,0,57,19.93%
428,0,57,19.93%
429,0,57,19.93%
430,0,57,19.93%
431,0,57,19.93%
432,0,57,19.93%
433,0,57,19.93%
434,0,57,19.93%
435,0,57,19.93%
436,0,57,19.93%
437,0,57,19.93%
438,0,57,19.93%
439,0,57,19.93%
440,0,57,19.93%
441,0,57,19.93%
442,0,57,19.93%
443,0,57,19.93%
444,0,57,19.93%
445,0,57,19.93%
446,0,57,19.93%
447,0,57,19.93%
448,0,57,19.93%
449,0,57,19.93%
450,0,57,19.93%
451,0,57,19.93%
452,1,58,20.28%
453,0,58,20.28%
454,0,58,20.28%
455,1,59,20.63%
456,0,59,20.63%
457,0,59,20.63%
458,0,59,20.63%
459,0,59,20.63%
460,0,59,20.63%
461,0,59,20.63%
462,0,59,20.63%
463,0,59,20.63%
464,0,59,20.63%
465,0,59,20.63%
466,0,59,20.63%
467,0,59,20.63%
468,0,59,20.63%
469,0,59,20.63%
470,0,59,20.63%
471,0,59,20.63%
472,0,59,20.63%
473,0,59,20.63%
474,0,59,20.63%
475,0,59,20.63%
476,0,59,20.63%
477,0,59,20.63%
478,0,59,20.63%
479,0,59,20.63%
480,0,59,20.63%
481,0,59,20.63%
482,0,59,20.63%
483,1,60,20.98%
484,0,60,20.98%
485,0,60,20.98%
486,0,60,20.98%
487,0,60,20.98%
488,0,60,20.98%
489,0,60,20.98%
490,0,60,20.98%
491,0,60,20.98%
492,0,60,20.98%
493,0,60,20.98%
494,0,60,20.98%
495,0,60,20.98%
496,0,60,20.98%
497,0,60,20.98%
498,0,60,20.98%
499,0,60,20.98%
500,0,60,20.98%
501,0,60,20.98%
502,0,60,20.98%
503,0,60,20.98%
504,0,60,20.98%
505,0,60,20.98%
506,0,60,20.98%
507,1,61,21.33%
508,1,62,21.68%
509,0,62,21.68%
510,0,62,21.68%
511,0,62,21.68%
512,0,62,21.68%
513,1,63,22.03%
514,1,64,22.38%
515,0,64,22.38%
516,0,64,22.38%
517,0,64,22.38%
518,0,64,22.38%
519,0,64,22.38%
520,0,64,22.38%
521,0,64,22.38%
522,1,65,22.73%
523,2,67,23.43%
524,0,67,23.43%
525,0,67,23.43%
526,0,67,23.43%
527,1,68,23.78%
528,0,68,23.78%
529,0,68,23.78%
530,0,68,23.78%
531,0,68,23.78%
532,1,69,24.13%
533,0,69,24.13%
534,0,69,24.13%
535,0,69,24.13%
536,0,69,24.13%
537,0,69,24.13%
538,0,69,24.13%
539,0,69,24.13%
540,0,69,24.13%
541,0,69,24.13%
542,0,69,24.13%
543,0,69,24.13%
544,0,69,24.13%
545,0,69,24.13%
546,0,69,24.13%
547,0,69,24.13%
548,1,70,24.48%
549,0,70,24.48%
550,0,70,24.48%
551,0,70,24.48%
552,0,70,24.48%
553,0,70,24.48%
554,0,70,24.48%
555,0,70,24.48%
556,0,70,24.48%
557,0,70,24.48%
558,0,70,24.48%
559,1,71,24.83%
560,0,71,24.83%
561,0,71,24.83%
562,0,71,24.83%
563,0,71,24.83%
564,0,71,24.83%
565,0,71,24.83%
566,0,71,24.83%
567,0,71,24.83%
568,0,71,24.83%
569,0,71,24.83%
570,0,71,24.83%
571,0,71,24.83%
572,0,71,24.83%
573,1,72,25.17%
574,0,72,25.17%
575,0,72,25.17%
576,0,72,25.17%
577,0,72,25.17%
578,0,72,25.17%
579,0,72,25.17%
580,0,72,25.17%
581,0,72,25.17%
582,0,72,25.17%
583,1,73,25.52%
584,0,73,25.52%
585,1,74,25.87%
586,0,74,25.87%
587,0,74,25.87%
588,0,74,25.87%
589,0,74,25.87%
590,0,74,25.87%
591,0,74,25.87%
592,0,74,25.87%
593,0,74,25.87%
594,0,74,25.87%
595,0,74,25.87%
596,0,74,25.87%
597,0,74,25.87%
598,0,74,25.87%
599,0,74,25.87%
600,0,74,25.87%
601,0,74,25.87%
602,0,74,25.87%
603,0,74,25.87%
604,0,74,25.87%
605,0,74,25.87%
606,0,74,25.87%
607,212,286,100.0%
