Length, Count, Sum (Counts <= Length), Percent of Nonzero Data, Nonzero Data Count = 851, Zero Data Count = 993
1,1,1,0.12%
2,0,1,0.12%
3,1,2,0.24%
4,0,2,0.24%
5,0,2,0.24%
6,0,2,0.24%
7,0,2,0.24%
8,0,2,0.24%
9,0,2,0.24%
10,0,2,0.24%
11,1,3,0.35%
12,1,4,0.47%
13,0,4,0.47%
14,0,4,0.47%
15,0,4,0.47%
16,0,4,0.47%
17,0,4,0.47%
18,0,4,0.47%
19,1,5,0.59%
20,0,5,0.59%
21,0,5,0.59%
22,0,5,0.59%
23,0,5,0.59%
24,1,6,0.71%
25,1,7,0.82%
26,0,7,0.82%
27,0,7,0.82%
28,0,7,0.82%
29,0,7,0.82%
30,0,7,0.82%
31,0,7,0.82%
32,0,7,0.82%
33,0,7,0.82%
34,1,8,0.94%
35,0,8,0.94%
36,1,9,1.06%
37,0,9,1.06%
38,0,9,1.06%
39,1,10,1.18%
40,0,10,1.18%
41,1,11,1.29%
42,0,11,1.29%
43,0,11,1.29%
44,0,11,1.29%
45,0,11,1.29%
46,0,11,1.29%
47,0,11,1.29%
48,0,11,1.29%
49,0,11,1.29%
50,0,11,1.29%
51,0,11,1.29%
52,1,12,1.41%
53,0,12,1.41%
54,0,12,1.41%
55,0,12,1.41%
56,0,12,1.41%
57,0,12,1.41%
58,0,12,1.41%
59,0,12,1.41%
60,0,12,1.41%
61,0,12,1.41%
62,0,12,1.41%
63,1,13,1.53%
64,0,13,1.53%
65,1,14,1.65%
66,0,14,1.65%
67,0,14,1.65%
68,0,14,1.65%
69,0,14,1.65%
70,2,16,1.88%
71,0,16,1.88%
72,0,16,1.88%
73,0,16,1.88%
74,0,16,1.88%
75,0,16,1.88%
76,2,18,2.12%
77,0,18,2.12%
78,0,18,2.12%
79,0,18,2.12%
80,0,18,2.12%
81,0,18,2.12%
82,0,18,2.12%
83,0,18,2.12%
84,1,19,2.23%
85,1,20,2.35%
86,0,20,2.35%
87,0,20,2.35%
88,0,20,2.35%
89,0,20,2.35%
90,0,20,2.35%
91,0,20,2.35%
92,1,21,2.47%
93,0,21,2.47%
94,0,21,2.47%
95,0,21,2.47%
96,1,22,2.59%
97,0,22,2.59%
98,0,22,2.59%
99,0,22,2.59%
100,0,22,2.59%
101,0,22,2.59%
102,1,23,2.7%
103,0,23,2.7%
104,0,23,2.7%
105,0,23,2.7%
106,1,24,2.82%
107,0,24,2.82%
108,0,24,2.82%
109,0,24,2.82%
110,0,24,2.82%
111,0,24,2.82%
112,0,24,2.82%
113,0,24,2.82%
114,1,25,2.94%
115,1,26,3.06%
116,0,26,3.06%
117,0,26,3.06%
118,0,26,3.06%
119,0,26,3.06%
120,0,26,3.06%
121,0,26,3.06%
122,0,26,3.06%
123,0,26,3.06%
124,0,26,3.06%
125,1,27,3.17%
126,0,27,3.17%
127,0,27,3.17%
128,1,28,3.29%
129,0,28,3.29%
130,0,28,3.29%
131,1,29,3.41%
132,0,29,3.41%
133,0,29,3.41%
134,0,29,3.41%
135,0,29,3.41%
136,0,29,3.41%
137,0,29,3.41%
138,0,29,3.41%
139,1,30,3.53%
140,0,30,3.53%
141,0,30,3.53%
142,0,30,3.53%
143,0,30,3.53%
144,0,30,3.53%
145,2,32,3.76%
146,0,32,3.76%
147,0,32,3.76%
148,0,32,3.76%
149,0,32,3.76%
150,1,33,3.88%
151,1,34,4.0%
152,0,34,4.0%
153,0,34,4.0%
154,0,34,4.0%
155,1,35,4.11%
156,0,35,4.11%
157,0,35,4.11%
158,0,35,4.11%
159,0,35,4.11%
160,0,35,4.11%
161,0,35,4.11%
162,1,36,4.23%
163,0,36,4.23%
164,0,36,4.23%
165,0,36,4.23%
166,0,36,4.23%
167,0,36,4.23%
168,1,37,4.35%
169,0,37,4.35%
170,1,38,4.47%
171,0,38,4.47%
172,0,38,4.47%
173,0,38,4.47%
174,0,38,4.47%
175,0,38,4.47%
176,0,38,4.47%
177,0,38,4.47%
178,0,38,4.47%
179,0,38,4.47%
180,0,38,4.47%
181,1,39,4.58%
182,0,39,4.58%
183,0,39,4.58%
184,1,40,4.7%
185,0,40,4.7%
186,0,40,4.7%
187,0,40,4.7%
188,0,40,4.7%
189,0,40,4.7%
190,0,40,4.7%
191,0,40,4.7%
192,0,40,4.7%
193,0,40,4.7%
194,0,40,4.7%
195,0,40,4.7%
196,0,40,4.7%
197,1,41,4.82%
198,0,41,4.82%
199,0,41,4.82%
200,1,42,4.94%
201,1,43,5.05%
202,1,44,5.17%
203,2,46,5.41%
204,0,46,5.41%
205,0,46,5.41%
206,0,46,5.41%
207,0,46,5.41%
208,0,46,5.41%
209,0,46,5.41%
210,0,46,5.41%
211,0,46,5.41%
212,1,47,5.52%
213,0,47,5.52%
214,0,47,5.52%
215,1,48,5.64%
216,0,48,5.64%
217,0,48,5.64%
218,1,49,5.76%
219,0,49,5.76%
220,0,49,5.76%
221,0,49,5.76%
222,0,49,5.76%
223,0,49,5.76%
224,0,49,5.76%
225,1,50,5.88%
226,0,50,5.88%
227,0,50,5.88%
228,0,50,5.88%
229,0,50,5.88%
230,0,50,5.88%
231,1,51,5.99%
232,0,51,5.99%
233,0,51,5.99%
234,0,51,5.99%
235,1,52,6.11%
236,1,53,6.23%
237,0,53,6.23%
238,0,53,6.23%
239,1,54,6.35%
240,0,54,6.35%
241,0,54,6.35%
242,0,54,6.35%
243,2,56,6.58%
244,0,56,6.58%
245,0,56,6.58%
246,0,56,6.58%
247,0,56,6.58%
248,0,56,6.58%
249,0,56,6.58%
250,0,56,6.58%
251,0,56,6.58%
252,1,57,6.7%
253,0,57,6.7%
254,0,57,6.7%
255,2,59,6.93%
256,0,59,6.93%
257,2,61,7.17%
258,0,61,7.17%
259,1,62,7.29%
260,0,62,7.29%
261,0,62,7.29%
262,0,62,7.29%
263,1,63,7.4%
264,0,63,7.4%
265,1,64,7.52%
266,0,64,7.52%
267,0,64,7.52%
268,0,64,7.52%
269,0,64,7.52%
270,1,65,7.64%
271,0,65,7.64%
272,0,65,7.64%
273,0,65,7.64%
274,1,66,7.76%
275,0,66,7.76%
276,0,66,7.76%
277,0,66,7.76%
278,0,66,7.76%
279,0,66,7.76%
280,0,66,7.76%
281,0,66,7.76%
282,1,67,7.87%
283,0,67,7.87%
284,0,67,7.87%
285,0,67,7.87%
286,0,67,7.87%
287,0,67,7.87%
288,0,67,7.87%
289,0,67,7.87%
290,1,68,7.99%
291,0,68,7.99%
292,0,68,7.99%
293,0,68,7.99%
294,0,68,7.99%
295,0,68,7.99%
296,0,68,7.99%
297,0,68,7.99%
298,0,68,7.99%
299,1,69,8.11%
300,0,69,8.11%
301,0,69,8.11%
302,0,69,8.11%
303,0,69,8.11%
304,0,69,8.11%
305,0,69,8.11%
306,0,69,8.11%
307,0,69,8.11%
308,1,70,8.23%
309,0,70,8.23%
310,0,70,8.23%
311,2,72,8.46%
312,0,72,8.46%
313,0,72,8.46%
314,0,72,8.46%
315,0,72,8.46%
316,0,72,8.46%
317,0,72,8.46%
318,1,73,8.58%
319,0,73,8.58%
320,0,73,8.58%
321,0,73,8.58%
322,1,74,8.7%
323,1,75,8.81%
324,0,75,8.81%
325,2,77,9.05%
326,0,77,9.05%
327,0,77,9.05%
328,0,77,9.05%
329,0,77,9.05%
330,0,77,9.05%
331,1,78,9.17%
332,0,78,9.17%
333,1,79,9.28%
334,0,79,9.28%
335,0,79,9.28%
336,0,79,9.28%
337,0,79,9.28%
338,0,79,9.28%
339,0,79,9.28%
340,0,79,9.28%
341,0,79,9.28%
342,0,79,9.28%
343,1,80,9.4%
344,0,80,9.4%
345,0,80,9.4%
346,1,81,9.52%
347,0,81,9.52%
348,0,81,9.52%
349,1,82,9.64%
350,1,83,9.75%
351,15,98,11.52%
352,10,108,12.69%
353,0,108,12.69%
354,0,108,12.69%
355,0,108,12.69%
356,0,108,12.69%
357,0,108,12.69%
358,5,113,13.28%
359,0,113,13.28%
360,2,115,13.51%
361,1,116,13.63%
362,1,117,13.75%
363,1,118,13.87%
364,1,119,13.98%
365,0,119,13.98%
366,2,121,14.22%
367,0,121,14.22%
368,1,122,14.34%
369,0,122,14.34%
370,0,122,14.34%
371,0,122,14.34%
372,2,124,14.57%
373,0,124,14.57%
374,0,124,14.57%
375,0,124,14.57%
376,0,124,14.57%
377,1,125,14.69%
378,0,125,14.69%
379,0,125,14.69%
380,0,125,14.69%
381,0,125,14.69%
382,1,126,14.81%
383,0,126,14.81%
384,0,126,14.81%
385,0,126,14.81%
386,0,126,14.81%
387,0,126,14.81%
388,0,126,14.81%
389,1,127,14.92%
390,1,128,15.04%
391,0,128,15.04%
392,0,128,15.04%
393,1,129,15.16%
394,0,129,15.16%
395,0,129,15.16%
396,1,130,15.28%
397,1,131,15.39%
398,0,131,15.39%
399,0,131,15.39%
400,0,131,15.39%
401,0,131,15.39%
402,0,131,15.39%
403,1,132,15.51%
404,0,132,15.51%
405,0,132,15.51%
406,2,134,15.75%
407,0,134,15.75%
408,0,134,15.75%
409,0,134,15.75%
410,0,134,15.75%
411,0,134,15.75%
412,1,135,15.86%
413,0,135,15.86%
414,1,136,15.98%
415,0,136,15.98%
416,0,136,15.98%
417,0,136,15.98%
418,0,136,15.98%
419,0,136,15.98%
420,0,136,15.98%
421,0,136,15.98%
422,2,138,16.22%
423,1,139,16.33%
424,0,139,16.33%
425,0,139,16.33%
426,0,139,16.33%
427,1,140,16.45%
428,0,140,16.45%
429,0,140,16.45%
430,0,140,16.45%
431,0,140,16.45%
432,0,140,16.45%
433,0,140,16.45%
434,1,141,16.57%
435,1,142,16.69%
436,0,142,16.69%
437,0,142,16.69%
438,0,142,16.69%
439,0,142,16.69%
440,0,142,16.69%
441,2,144,16.92%
442,0,144,16.92%
443,0,144,16.92%
444,0,144,16.92%
445,0,144,16.92%
446,1,145,17.04%
447,0,145,17.04%
448,0,145,17.04%
449,0,145,17.04%
450,0,145,17.04%
451,0,145,17.04%
452,0,145,17.04%
453,0,145,17.04%
454,0,145,17.04%
455,1,146,17.16%
456,2,148,17.39%
457,0,148,17.39%
458,0,148,17.39%
459,0,148,17.39%
460,0,148,17.39%
461,0,148,17.39%
462,0,148,17.39%
463,0,148,17.39%
464,0,148,17.39%
465,0,148,17.39%
466,0,148,17.39%
467,0,148,17.39%
468,0,148,17.39%
469,0,148,17.39%
470,0,148,17.39%
471,1,149,17.51%
472,0,149,17.51%
473,0,149,17.51%
474,1,150,17.63%
475,0,150,17.63%
476,1,151,17.74%
477,0,151,17.74%
478,0,151,17.74%
479,0,151,17.74%
480,0,151,17.74%
481,0,151,17.74%
482,1,152,17.86%
483,0,152,17.86%
484,0,152,17.86%
485,0,152,17.86%
486,0,152,17.86%
487,0,152,17.86%
488,0,152,17.86%
489,0,152,17.86%
490,1,153,17.98%
491,0,153,17.98%
492,0,153,17.98%
493,0,153,17.98%
494,1,154,18.1%
495,1,155,18.21%
496,1,156,18.33%
497,0,156,18.33%
498,0,156,18.33%
499,0,156,18.33%
500,0,156,18.33%
501,0,156,18.33%
502,0,156,18.33%
503,1,157,18.45%
504,0,157,18.45%
505,0,157,18.45%
506,0,157,18.45%
507,1,158,18.57%
508,0,158,18.57%
509,0,158,18.57%
510,0,158,18.57%
511,0,158,18.57%
512,0,158,18.57%
513,0,158,18.57%
514,0,158,18.57%
515,0,158,18.57%
516,0,158,18.57%
517,0,158,18.57%
518,1,159,18.68%
519,1,160,18.8%
520,0,160,18.8%
521,0,160,18.8%
522,1,161,18.92%
523,0,161,18.92%
524,0,161,18.92%
525,0,161,18.92%
526,1,162,19.04%
527,1,163,19.15%
528,0,163,19.15%
529,0,163,19.15%
530,2,165,19.39%
531,0,165,19.39%
532,0,165,19.39%
533,0,165,19.39%
534,1,166,19.51%
535,0,166,19.51%
536,0,166,19.51%
537,0,166,19.51%
538,0,166,19.51%
539,0,166,19.51%
540,0,166,19.51%
541,0,166,19.51%
542,1,167,19.62%
543,0,167,19.62%
544,0,167,19.62%
545,0,167,19.62%
546,2,169,19.86%
547,0,169,19.86%
548,0,169,19.86%
549,0,169,19.86%
550,0,169,19.86%
551,0,169,19.86%
552,0,169,19.86%
553,1,170,19.98%
554,0,170,19.98%
555,0,170,19.98%
556,0,170,19.98%
557,0,170,19.98%
558,0,170,19.98%
559,0,170,19.98%
560,0,170,19.98%
561,0,170,19.98%
562,0,170,19.98%
563,0,170,19.98%
564,1,171,20.09%
565,1,172,20.21%
566,0,172,20.21%
567,1,173,20.33%
568,0,173,20.33%
569,0,173,20.33%
570,0,173,20.33%
571,0,173,20.33%
572,0,173,20.33%
573,2,175,20.56%
574,0,175,20.56%
575,0,175,20.56%
576,8,183,21.5%
577,0,183,21.5%
578,0,183,21.5%
579,1,184,21.62%
580,0,184,21.62%
581,0,184,21.62%
582,0,184,21.62%
583,0,184,21.62%
584,0,184,21.62%
585,1,185,21.74%
586,0,185,21.74%
587,0,185,21.74%
588,0,185,21.74%
589,0,185,21.74%
590,0,185,21.74%
591,0,185,21.74%
592,0,185,21.74%
593,0,185,21.74%
594,0,185,21.74%
595,0,185,21.74%
596,0,185,21.74%
597,0,185,21.74%
598,0,185,21.74%
599,2,187,21.97%
600,0,187,21.97%
601,0,187,21.97%
602,0,187,21.97%
603,1,188,22.09%
604,1,189,22.21%
605,0,189,22.21%
606,0,189,22.21%
607,0,189,22.21%
608,0,189,22.21%
609,0,189,22.21%
610,0,189,22.21%
611,0,189,22.21%
612,0,189,22.21%
613,0,189,22.21%
614,0,189,22.21%
615,0,189,22.21%
616,0,189,22.21%
617,0,189,22.21%
618,0,189,22.21%
619,0,189,22.21%
620,0,189,22.21%
621,0,189,22.21%
622,1,190,22.33%
623,0,190,22.33%
624,0,190,22.33%
625,0,190,22.33%
626,1,191,22.44%
627,0,191,22.44%
628,0,191,22.44%
629,0,191,22.44%
630,0,191,22.44%
631,0,191,22.44%
632,1,192,22.56%
633,0,192,22.56%
634,0,192,22.56%
635,1,193,22.68%
636,0,193,22.68%
637,0,193,22.68%
638,0,193,22.68%
639,0,193,22.68%
640,0,193,22.68%
641,0,193,22.68%
642,0,193,22.68%
643,0,193,22.68%
644,0,193,22.68%
645,0,193,22.68%
646,0,193,22.68%
647,1,194,22.8%
648,0,194,22.8%
649,2,196,23.03%
650,1,197,23.15%
651,0,197,23.15%
652,0,197,23.15%
653,1,198,23.27%
654,0,198,23.27%
655,0,198,23.27%
656,0,198,23.27%
657,0,198,23.27%
658,0,198,23.27%
659,1,199,23.38%
660,0,199,23.38%
661,0,199,23.38%
662,0,199,23.38%
663,1,200,23.5%
664,0,200,23.5%
665,0,200,23.5%
666,0,200,23.5%
667,0,200,23.5%
668,0,200,23.5%
669,0,200,23.5%
670,0,200,23.5%
671,0,200,23.5%
672,0,200,23.5%
673,0,200,23.5%
674,0,200,23.5%
675,0,200,23.5%
676,0,200,23.5%
677,0,200,23.5%
678,0,200,23.5%
679,0,200,23.5%
680,0,200,23.5%
681,0,200,23.5%
682,0,200,23.5%
683,1,201,23.62%
684,2,203,23.85%
685,0,203,23.85%
686,0,203,23.85%
687,0,203,23.85%
688,1,204,23.97%
689,0,204,23.97%
690,0,204,23.97%
691,0,204,23.97%
692,0,204,23.97%
693,5,209,24.56%
694,0,209,24.56%
695,0,209,24.56%
696,0,209,24.56%
697,1,210,24.68%
698,0,210,24.68%
699,0,210,24.68%
700,0,210,24.68%
701,0,210,24.68%
702,0,210,24.68%
703,0,210,24.68%
704,1,211,24.79%
705,1,212,24.91%
706,0,212,24.91%
707,0,212,24.91%
708,0,212,24.91%
709,0,212,24.91%
710,0,212,24.91%
711,0,212,24.91%
712,0,212,24.91%
713,0,212,24.91%
714,0,212,24.91%
715,1,213,25.03%
716,0,213,25.03%
717,1,214,25.15%
718,0,214,25.15%
719,1,215,25.26%
720,0,215,25.26%
721,0,215,25.26%
722,0,215,25.26%
723,0,215,25.26%
724,0,215,25.26%
725,0,215,25.26%
726,1,216,25.38%
727,0,216,25.38%
728,0,216,25.38%
729,0,216,25.38%
730,0,216,25.38%
731,0,216,25.38%
732,0,216,25.38%
733,0,216,25.38%
734,0,216,25.38%
735,1,217,25.5%
736,0,217,25.5%
737,0,217,25.5%
738,0,217,25.5%
739,0,217,25.5%
740,0,217,25.5%
741,0,217,25.5%
742,0,217,25.5%
743,0,217,25.5%
744,1,218,25.62%
745,0,218,25.62%
746,0,218,25.62%
747,0,218,25.62%
748,0,218,25.62%
749,0,218,25.62%
750,0,218,25.62%
751,0,218,25.62%
752,0,218,25.62%
753,1,219,25.73%
754,1,220,25.85%
755,0,220,25.85%
756,0,220,25.85%
757,0,220,25.85%
758,0,220,25.85%
759,1,221,25.97%
760,0,221,25.97%
761,0,221,25.97%
762,1,222,26.09%
763,0,222,26.09%
764,0,222,26.09%
765,0,222,26.09%
766,0,222,26.09%
767,0,222,26.09%
768,0,222,26.09%
769,1,223,26.2%
770,0,223,26.2%
771,0,223,26.2%
772,0,223,26.2%
773,1,224,26.32%
774,1,225,26.44%
775,0,225,26.44%
776,0,225,26.44%
777,0,225,26.44%
778,1,226,26.56%
779,0,226,26.56%
780,0,226,26.56%
781,0,226,26.56%
782,1,227,26.67%
783,0,227,26.67%
784,9,236,27.73%
785,1,237,27.85%
786,1,238,27.97%
787,0,238,27.97%
788,0,238,27.97%
789,0,238,27.97%
790,0,238,27.97%
791,0,238,27.97%
792,0,238,27.97%
793,0,238,27.97%
794,0,238,27.97%
795,2,240,28.2%
796,0,240,28.2%
797,0,240,28.2%
798,1,241,28.32%
799,0,241,28.32%
800,0,241,28.32%
801,1,242,28.44%
802,0,242,28.44%
803,0,242,28.44%
804,0,242,28.44%
805,0,242,28.44%
806,0,242,28.44%
807,0,242,28.44%
808,0,242,28.44%
809,0,242,28.44%
810,0,242,28.44%
811,0,242,28.44%
812,0,242,28.44%
813,0,242,28.44%
814,0,242,28.44%
815,0,242,28.44%
816,3,245,28.79%
817,0,245,28.79%
818,0,245,28.79%
819,0,245,28.79%
820,0,245,28.79%
821,0,245,28.79%
822,0,245,28.79%
823,0,245,28.79%
824,0,245,28.79%
825,0,245,28.79%
826,0,245,28.79%
827,0,245,28.79%
828,0,245,28.79%
829,0,245,28.79%
830,0,245,28.79%
831,0,245,28.79%
832,0,245,28.79%
833,0,245,28.79%
834,0,245,28.79%
835,0,245,28.79%
836,0,245,28.79%
837,1,246,28.91%
838,0,246,28.91%
839,0,246,28.91%
840,1,247,29.02%
841,0,247,29.02%
842,0,247,29.02%
843,0,247,29.02%
844,0,247,29.02%
845,0,247,29.02%
846,0,247,29.02%
847,0,247,29.02%
848,0,247,29.02%
849,0,247,29.02%
850,0,247,29.02%
851,0,247,29.02%
852,0,247,29.02%
853,0,247,29.02%
854,0,247,29.02%
855,1,248,29.14%
856,1,249,29.26%
857,0,249,29.26%
858,1,250,29.38%
859,0,250,29.38%
860,0,250,29.38%
861,0,250,29.38%
862,0,250,29.38%
863,1,251,29.49%
864,1,252,29.61%
865,0,252,29.61%
866,0,252,29.61%
867,0,252,29.61%
868,0,252,29.61%
869,1,253,29.73%
870,0,253,29.73%
871,1,254,29.85%
872,0,254,29.85%
873,0,254,29.85%
874,0,254,29.85%
875,0,254,29.85%
876,1,255,29.96%
877,0,255,29.96%
878,0,255,29.96%
879,0,255,29.96%
880,0,255,29.96%
881,1,256,30.08%
882,0,256,30.08%
883,0,256,30.08%
884,1,257,30.2%
885,0,257,30.2%
886,0,257,30.2%
887,0,257,30.2%
888,0,257,30.2%
889,0,257,30.2%
890,0,257,30.2%
891,0,257,30.2%
892,0,257,30.2%
893,0,257,30.2%
894,1,258,30.32%
895,0,258,30.32%
896,0,258,30.32%
897,0,258,30.32%
898,0,258,30.32%
899,0,258,30.32%
900,0,258,30.32%
901,1,259,30.43%
902,0,259,30.43%
903,1,260,30.55%
904,1,261,30.67%
905,0,261,30.67%
906,1,262,30.79%
907,1,263,30.9%
908,1,264,31.02%
909,0,264,31.02%
910,0,264,31.02%
911,0,264,31.02%
912,0,264,31.02%
913,1,265,31.14%
914,0,265,31.14%
915,1,266,31.26%
916,0,266,31.26%
917,0,266,31.26%
918,0,266,31.26%
919,0,266,31.26%
920,0,266,31.26%
921,0,266,31.26%
922,1,267,31.37%
923,0,267,31.37%
924,0,267,31.37%
925,0,267,31.37%
926,0,267,31.37%
927,1,268,31.49%
928,2,270,31.73%
929,0,270,31.73%
930,0,270,31.73%
931,1,271,31.84%
932,0,271,31.84%
933,0,271,31.84%
934,0,271,31.84%
935,0,271,31.84%
936,0,271,31.84%
937,0,271,31.84%
938,0,271,31.84%
939,0,271,31.84%
940,0,271,31.84%
941,0,271,31.84%
942,1,272,31.96%
943,0,272,31.96%
944,0,272,31.96%
945,0,272,31.96%
946,1,273,32.08%
947,0,273,32.08%
948,0,273,32.08%
949,0,273,32.08%
950,0,273,32.08%
951,1,274,32.2%
952,0,274,32.2%
953,0,274,32.2%
954,0,274,32.2%
955,0,274,32.2%
956,0,274,32.2%
957,0,274,32.2%
958,0,274,32.2%
959,1,275,32.31%
960,2,277,32.55%
961,0,277,32.55%
962,0,277,32.55%
963,0,277,32.55%
964,1,278,32.67%
965,0,278,32.67%
966,0,278,32.67%
967,0,278,32.67%
968,0,278,32.67%
969,0,278,32.67%
970,0,278,32.67%
971,1,279,32.78%
972,0,279,32.78%
973,0,279,32.78%
974,0,279,32.78%
975,0,279,32.78%
976,0,279,32.78%
977,0,279,32.78%
978,2,281,33.02%
979,1,282,33.14%
980,0,282,33.14%
981,0,282,33.14%
982,0,282,33.14%
983,0,282,33.14%
984,0,282,33.14%
985,1,283,33.25%
986,0,283,33.25%
987,1,284,33.37%
988,0,284,33.37%
989,0,284,33.37%
990,0,284,33.37%
991,0,284,33.37%
992,0,284,33.37%
993,0,284,33.37%
994,2,286,33.61%
995,0,286,33.61%
996,0,286,33.61%
997,0,286,33.61%
998,0,286,33.61%
999,0,286,33.61%
1000,0,286,33.61%
1001,0,286,33.61%
1002,0,286,33.61%
1003,0,286,33.61%
1004,0,286,33.61%
1005,0,286,33.61%
1006,0,286,33.61%
1007,0,286,33.61%
1008,0,286,33.61%
1009,0,286,33.61%
1010,0,286,33.61%
1011,0,286,33.61%
1012,0,286,33.61%
1013,1,287,33.73%
1014,0,287,33.73%
1015,0,287,33.73%
1016,1,288,33.84%
1017,1,289,33.96%
1018,0,289,33.96%
1019,0,289,33.96%
1020,0,289,33.96%
1021,0,289,33.96%
1022,0,289,33.96%
1023,0,289,33.96%
1024,0,289,33.96%
1025,1,290,34.08%
1026,0,290,34.08%
1027,0,290,34.08%
1028,0,290,34.08%
1029,1,291,34.2%
1030,0,291,34.2%
1031,0,291,34.2%
1032,0,291,34.2%
1033,1,292,34.31%
1034,0,292,34.31%
1035,0,292,34.31%
1036,0,292,34.31%
1037,0,292,34.31%
1038,0,292,34.31%
1039,0,292,34.31%
1040,1,293,34.43%
1041,0,293,34.43%
1042,1,294,34.55%
1043,0,294,34.55%
1044,0,294,34.55%
1045,0,294,34.55%
1046,1,295,34.67%
1047,0,295,34.67%
1048,0,295,34.67%
1049,0,295,34.67%
1050,0,295,34.67%
1051,0,295,34.67%
1052,0,295,34.67%
1053,0,295,34.67%
1054,0,295,34.67%
1055,0,295,34.67%
1056,0,295,34.67%
1057,0,295,34.67%
1058,0,295,34.67%
1059,0,295,34.67%
1060,0,295,34.67%
1061,0,295,34.67%
1062,0,295,34.67%
1063,0,295,34.67%
1064,0,295,34.67%
1065,0,295,34.67%
1066,0,295,34.67%
1067,0,295,34.67%
1068,1,296,34.78%
1069,0,296,34.78%
1070,0,296,34.78%
1071,0,296,34.78%
1072,1,297,34.9%
1073,0,297,34.9%
1074,0,297,34.9%
1075,0,297,34.9%
1076,4,301,35.37%
1077,0,301,35.37%
1078,0,301,35.37%
1079,1,302,35.49%
1080,1,303,35.61%
1081,0,303,35.61%
1082,0,303,35.61%
1083,1,304,35.72%
1084,0,304,35.72%
1085,0,304,35.72%
1086,0,304,35.72%
1087,0,304,35.72%
1088,0,304,35.72%
1089,0,304,35.72%
1090,0,304,35.72%
1091,0,304,35.72%
1092,0,304,35.72%
1093,0,304,35.72%
1094,1,305,35.84%
1095,0,305,35.84%
1096,2,307,36.08%
1097,0,307,36.08%
1098,1,308,36.19%
1099,0,308,36.19%
1100,1,309,36.31%
1101,1,310,36.43%
1102,2,312,36.66%
1103,1,313,36.78%
1104,0,313,36.78%
1105,2,315,37.02%
1106,1,316,37.13%
1107,0,316,37.13%
1108,0,316,37.13%
1109,2,318,37.37%
1110,2,320,37.6%
1111,0,320,37.6%
1112,0,320,37.6%
1113,1,321,37.72%
1114,1,322,37.84%
1115,3,325,38.19%
1116,5,330,38.78%
1117,0,330,38.78%
1118,1,331,38.9%
1119,2,333,39.13%
1120,1,334,39.25%
1121,1,335,39.37%
1122,0,335,39.37%
1123,0,335,39.37%
1124,2,337,39.6%
1125,4,341,40.07%
1126,2,343,40.31%
1127,0,343,40.31%
1128,1,344,40.42%
1129,1,345,40.54%
1130,0,345,40.54%
1131,2,347,40.78%
1132,1,348,40.89%
1133,2,350,41.13%
1134,2,352,41.36%
1135,0,352,41.36%
1136,0,352,41.36%
1137,1,353,41.48%
1138,2,355,41.72%
1139,1,356,41.83%
1140,0,356,41.83%
1141,4,360,42.3%
1142,1,361,42.42%
1143,4,365,42.89%
1144,2,367,43.13%
1145,4,371,43.6%
1146,1,372,43.71%
1147,1,373,43.83%
1148,2,375,44.07%
1149,6,381,44.77%
1150,0,381,44.77%
1151,0,381,44.77%
1152,0,381,44.77%
1153,0,381,44.77%
1154,1,382,44.89%
1155,2,384,45.12%
1156,1,385,45.24%
1157,2,387,45.48%
1158,4,391,45.95%
1159,2,393,46.18%
1160,2,395,46.42%
1161,0,395,46.42%
1162,3,398,46.77%
1163,2,400,47.0%
1164,0,400,47.0%
1165,0,400,47.0%
1166,0,400,47.0%
1167,1,401,47.12%
1168,4,405,47.59%
1169,3,408,47.94%
1170,1,409,48.06%
1171,0,409,48.06%
1172,0,409,48.06%
1173,8,417,49.0%
1174,3,420,49.35%
1175,0,420,49.35%
1176,1,421,49.47%
1177,0,421,49.47%
1178,1,422,49.59%
1179,1,423,49.71%
1180,1,424,49.82%
1181,0,424,49.82%
1182,1,425,49.94%
1183,6,431,50.65%
1184,10,441,51.82%
1185,1,442,51.94%
1186,2,444,52.17%
1187,6,450,52.88%
1188,0,450,52.88%
1189,0,450,52.88%
1190,0,450,52.88%
1191,4,454,53.35%
1192,2,456,53.58%
1193,0,456,53.58%
1194,2,458,53.82%
1195,0,458,53.82%
1196,2,460,54.05%
1197,3,463,54.41%
1198,2,465,54.64%
1199,2,467,54.88%
1200,0,467,54.88%
1201,1,468,54.99%
1202,0,468,54.99%
1203,4,472,55.46%
1204,2,474,55.7%
1205,0,474,55.7%
1206,0,474,55.7%
1207,2,476,55.93%
1208,0,476,55.93%
1209,0,476,55.93%
1210,0,476,55.93%
1211,1,477,56.05%
1212,1,478,56.17%
1213,0,478,56.17%
1214,0,478,56.17%
1215,0,478,56.17%
1216,0,478,56.17%
1217,2,480,56.4%
1218,0,480,56.4%
1219,0,480,56.4%
1220,0,480,56.4%
1221,3,483,56.76%
1222,4,487,57.23%
1223,0,487,57.23%
1224,0,487,57.23%
1225,1,488,57.34%
1226,1,489,57.46%
1227,0,489,57.46%
1228,0,489,57.46%
1229,1,490,57.58%
1230,361,851,100.0%
