Length, Count, Sum (Counts <= Length), Percent of Nonzero Data, Nonzero Data Count = 605, Zero Data Count = 1239
1,3,3,0.5%
2,0,3,0.5%
3,1,4,0.66%
4,2,6,0.99%
5,0,6,0.99%
6,2,8,1.32%
7,0,8,1.32%
8,2,10,1.65%
9,0,10,1.65%
10,1,11,1.82%
11,9,20,3.31%
12,1,21,3.47%
13,0,21,3.47%
14,1,22,3.64%
15,1,23,3.8%
16,0,23,3.8%
17,1,24,3.97%
18,1,25,4.13%
19,3,28,4.63%
20,3,31,5.12%
21,3,34,5.62%
22,3,37,6.12%
23,0,37,6.12%
24,3,40,6.61%
25,4,44,7.27%
26,3,47,7.77%
27,2,49,8.1%
28,0,49,8.1%
29,7,56,9.26%
30,7,63,10.41%
31,4,67,11.07%
32,8,75,12.4%
33,1,76,12.56%
34,0,76,12.56%
35,3,79,13.06%
36,1,80,13.22%
37,0,80,13.22%
38,2,82,13.55%
39,3,85,14.05%
40,1,86,14.21%
41,1,87,14.38%
42,0,87,14.38%
43,0,87,14.38%
44,0,87,14.38%
45,2,89,14.71%
46,4,93,15.37%
47,0,93,15.37%
48,0,93,15.37%
49,0,93,15.37%
50,0,93,15.37%
51,0,93,15.37%
52,2,95,15.7%
53,2,97,16.03%
54,3,100,16.53%
55,1,101,16.69%
56,3,104,17.19%
57,4,108,17.85%
58,2,110,18.18%
59,5,115,19.01%
60,2,117,19.34%
61,1,118,19.5%
62,4,122,20.17%
63,5,127,20.99%
64,11,138,22.81%
65,1,139,22.98%
66,0,139,22.98%
67,3,142,23.47%
68,5,147,24.3%
69,1,148,24.46%
70,0,148,24.46%
71,0,148,24.46%
72,1,149,24.63%
73,5,154,25.45%
74,2,156,25.79%
75,1,157,25.95%
76,3,160,26.45%
77,2,162,26.78%
78,2,164,27.11%
79,1,165,27.27%
80,1,166,27.44%
81,0,166,27.44%
82,3,169,27.93%
83,5,174,28.76%
84,1,175,28.93%
85,0,175,28.93%
86,4,179,29.59%
87,2,181,29.92%
88,2,183,30.25%
89,2,185,30.58%
90,5,190,31.4%
91,3,193,31.9%
92,3,196,32.4%
93,3,199,32.89%
94,2,201,33.22%
95,1,202,33.39%
96,3,205,33.88%
97,2,207,34.21%
98,1,208,34.38%
99,2,210,34.71%
100,1,211,34.88%
101,2,213,35.21%
102,3,216,35.7%
103,0,216,35.7%
104,0,216,35.7%
105,0,216,35.7%
106,3,219,36.2%
107,2,221,36.53%
108,0,221,36.53%
109,0,221,36.53%
110,2,223,36.86%
111,3,226,37.36%
112,2,228,37.69%
113,3,231,38.18%
114,4,235,38.84%
115,0,235,38.84%
116,2,237,39.17%
117,1,238,39.34%
118,7,245,40.5%
119,2,247,40.83%
120,0,247,40.83%
121,1,248,40.99%
122,0,248,40.99%
123,2,250,41.32%
124,3,253,41.82%
125,1,254,41.98%
126,0,254,41.98%
127,9,263,43.47%
128,0,263,43.47%
129,0,263,43.47%
130,0,263,43.47%
131,1,264,43.64%
132,1,265,43.8%
133,0,265,43.8%
134,2,267,44.13%
135,1,268,44.3%
136,1,269,44.46%
137,2,271,44.79%
138,0,271,44.79%
139,0,271,44.79%
140,0,271,44.79%
141,1,272,44.96%
142,1,273,45.12%
143,0,273,45.12%
144,1,274,45.29%
145,2,276,45.62%
146,2,278,45.95%
147,3,281,46.45%
148,1,282,46.61%
149,2,284,46.94%
150,7,291,48.1%
151,2,293,48.43%
152,0,293,48.43%
153,1,294,48.6%
154,1,295,48.76%
155,0,295,48.76%
156,4,299,49.42%
157,1,300,49.59%
158,2,302,49.92%
159,0,302,49.92%
160,3,305,50.41%
161,3,308,50.91%
162,2,310,51.24%
163,1,311,51.4%
164,0,311,51.4%
165,11,322,53.22%
166,2,324,53.55%
167,5,329,54.38%
168,1,330,54.55%
169,0,330,54.55%
170,1,331,54.71%
171,3,334,55.21%
172,2,336,55.54%
173,1,337,55.7%
174,2,339,56.03%
175,2,341,56.36%
176,0,341,56.36%
177,0,341,56.36%
178,0,341,56.36%
179,0,341,56.36%
180,0,341,56.36%
181,0,341,56.36%
182,0,341,56.36%
183,0,341,56.36%
184,0,341,56.36%
185,0,341,56.36%
186,0,341,56.36%
187,0,341,56.36%
188,0,341,56.36%
189,1,342,56.53%
190,0,342,56.53%
191,2,344,56.86%
192,0,344,56.86%
193,0,344,56.86%
194,0,344,56.86%
195,0,344,56.86%
196,0,344,56.86%
197,0,344,56.86%
198,0,344,56.86%
199,0,344,56.86%
200,0,344,56.86%
201,0,344,56.86%
202,0,344,56.86%
203,0,344,56.86%
204,0,344,56.86%
205,0,344,56.86%
206,0,344,56.86%
207,0,344,56.86%
208,0,344,56.86%
209,0,344,56.86%
210,0,344,56.86%
211,0,344,56.86%
212,0,344,56.86%
213,0,344,56.86%
214,0,344,56.86%
215,0,344,56.86%
216,0,344,56.86%
217,0,344,56.86%
218,0,344,56.86%
219,0,344,56.86%
220,0,344,56.86%
221,0,344,56.86%
222,1,345,57.02%
223,0,345,57.02%
224,0,345,57.02%
225,1,346,57.19%
226,0,346,57.19%
227,0,346,57.19%
228,0,346,57.19%
229,0,346,57.19%
230,0,346,57.19%
231,0,346,57.19%
232,0,346,57.19%
233,0,346,57.19%
234,0,346,57.19%
235,0,346,57.19%
236,0,346,57.19%
237,0,346,57.19%
238,0,346,57.19%
239,0,346,57.19%
240,0,346,57.19%
241,1,347,57.36%
242,1,348,57.52%
243,0,348,57.52%
244,0,348,57.52%
245,1,349,57.69%
246,0,349,57.69%
247,0,349,57.69%
248,1,350,57.85%
249,0,350,57.85%
250,0,350,57.85%
251,0,350,57.85%
252,0,350,57.85%
253,0,350,57.85%
254,0,350,57.85%
255,0,350,57.85%
256,1,351,58.02%
257,0,351,58.02%
258,0,351,58.02%
259,0,351,58.02%
260,1,352,58.18%
261,0,352,58.18%
262,1,353,58.35%
263,0,353,58.35%
264,0,353,58.35%
265,0,353,58.35%
266,0,353,58.35%
267,0,353,58.35%
268,0,353,58.35%
269,0,353,58.35%
270,0,353,58.35%
271,0,353,58.35%
272,0,353,58.35%
273,1,354,58.51%
274,0,354,58.51%
275,0,354,58.51%
276,0,354,58.51%
277,0,354,58.51%
278,1,355,58.68%
279,1,356,58.84%
280,0,356,58.84%
281,0,356,58.84%
282,0,356,58.84%
283,0,356,58.84%
284,0,356,58.84%
285,0,356,58.84%
286,0,356,58.84%
287,0,356,58.84%
288,0,356,58.84%
289,0,356,58.84%
290,0,356,58.84%
291,0,356,58.84%
292,0,356,58.84%
293,0,356,58.84%
294,1,357,59.01%
295,0,357,59.01%
296,0,357,59.01%
297,0,357,59.01%
298,0,357,59.01%
299,0,357,59.01%
300,0,357,59.01%
301,0,357,59.01%
302,0,357,59.01%
303,0,357,59.01%
304,0,357,59.01%
305,0,357,59.01%
306,0,357,59.01%
307,0,357,59.01%
308,0,357,59.01%
309,0,357,59.01%
310,0,357,59.01%
311,0,357,59.01%
312,0,357,59.01%
313,0,357,59.01%
314,0,357,59.01%
315,0,357,59.01%
316,0,357,59.01%
317,0,357,59.01%
318,0,357,59.01%
319,1,358,59.17%
320,0,358,59.17%
321,0,358,59.17%
322,0,358,59.17%
323,0,358,59.17%
324,0,358,59.17%
325,0,358,59.17%
326,1,359,59.34%
327,0,359,59.34%
328,0,359,59.34%
329,0,359,59.34%
330,0,359,59.34%
331,0,359,59.34%
332,0,359,59.34%
333,0,359,59.34%
334,0,359,59.34%
335,0,359,59.34%
336,0,359,59.34%
337,0,359,59.34%
338,0,359,59.34%
339,0,359,59.34%
340,0,359,59.34%
341,0,359,59.34%
342,0,359,59.34%
343,0,359,59.34%
344,0,359,59.34%
345,0,359,59.34%
346,0,359,59.34%
347,0,359,59.34%
348,0,359,59.34%
349,0,359,59.34%
350,0,359,59.34%
351,0,359,59.34%
352,2,361,59.67%
353,0,361,59.67%
354,0,361,59.67%
355,0,361,59.67%
356,0,361,59.67%
357,0,361,59.67%
358,0,361,59.67%
359,0,361,59.67%
360,0,361,59.67%
361,0,361,59.67%
362,0,361,59.67%
363,0,361,59.67%
364,0,361,59.67%
365,0,361,59.67%
366,1,362,59.83%
367,0,362,59.83%
368,0,362,59.83%
369,0,362,59.83%
370,0,362,59.83%
371,0,362,59.83%
372,0,362,59.83%
373,0,362,59.83%
374,0,362,59.83%
375,0,362,59.83%
376,0,362,59.83%
377,0,362,59.83%
378,0,362,59.83%
379,0,362,59.83%
380,0,362,59.83%
381,0,362,59.83%
382,0,362,59.83%
383,0,362,59.83%
384,0,362,59.83%
385,0,362,59.83%
386,0,362,59.83%
387,0,362,59.83%
388,0,362,59.83%
389,0,362,59.83%
390,0,362,59.83%
391,0,362,59.83%
392,0,362,59.83%
393,0,362,59.83%
394,1,363,60.0%
395,1,364,60.17%
396,0,364,60.17%
397,0,364,60.17%
398,0,364,60.17%
399,0,364,60.17%
400,1,365,60.33%
401,1,366,60.5%
402,0,366,60.5%
403,1,367,60.66%
404,1,368,60.83%
405,0,368,60.83%
406,0,368,60.83%
407,0,368,60.83%
408,0,368,60.83%
409,1,369,60.99%
410,1,370,61.16%
411,0,370,61.16%
412,0,370,61.16%
413,0,370,61.16%
414,0,370,61.16%
415,0,370,61.16%
416,0,370,61.16%
417,0,370,61.16%
418,0,370,61.16%
419,1,371,61.32%
420,0,371,61.32%
421,0,371,61.32%
422,0,371,61.32%
423,0,371,61.32%
424,0,371,61.32%
425,0,371,61.32%
426,0,371,61.32%
427,0,371,61.32%
428,0,371,61.32%
429,0,371,61.32%
430,0,371,61.32%
431,0,371,61.32%
432,0,371,61.32%
433,0,371,61.32%
434,0,371,61.32%
435,0,371,61.32%
436,0,371,61.32%
437,0,371,61.32%
438,0,371,61.32%
439,0,371,61.32%
440,0,371,61.32%
441,0,371,61.32%
442,0,371,61.32%
443,0,371,61.32%
444,0,371,61.32%
445,0,371,61.32%
446,0,371,61.32%
447,0,371,61.32%
448,0,371,61.32%
449,0,371,61.32%
450,0,371,61.32%
451,0,371,61.32%
452,1,372,61.49%
453,0,372,61.49%
454,0,372,61.49%
455,1,373,61.65%
456,0,373,61.65%
457,0,373,61.65%
458,0,373,61.65%
459,0,373,61.65%
460,0,373,61.65%
461,0,373,61.65%
462,0,373,61.65%
463,0,373,61.65%
464,0,373,61.65%
465,0,373,61.65%
466,1,374,61.82%
467,0,374,61.82%
468,0,374,61.82%
469,0,374,61.82%
470,0,374,61.82%
471,0,374,61.82%
472,0,374,61.82%
473,0,374,61.82%
474,0,374,61.82%
475,0,374,61.82%
476,0,374,61.82%
477,0,374,61.82%
478,1,375,61.98%
479,0,375,61.98%
480,0,375,61.98%
481,0,375,61.98%
482,0,375,61.98%
483,0,375,61.98%
484,0,375,61.98%
485,0,375,61.98%
486,0,375,61.98%
487,0,375,61.98%
488,0,375,61.98%
489,0,375,61.98%
490,0,375,61.98%
491,0,375,61.98%
492,0,375,61.98%
493,0,375,61.98%
494,0,375,61.98%
495,0,375,61.98%
496,0,375,61.98%
497,0,375,61.98%
498,0,375,61.98%
499,0,375,61.98%
500,0,375,61.98%
501,0,375,61.98%
502,0,375,61.98%
503,0,375,61.98%
504,0,375,61.98%
505,0,375,61.98%
506,0,375,61.98%
507,0,375,61.98%
508,1,376,62.15%
509,0,376,62.15%
510,0,376,62.15%
511,0,376,62.15%
512,0,376,62.15%
513,1,377,62.31%
514,1,378,62.48%
515,0,378,62.48%
516,0,378,62.48%
517,0,378,62.48%
518,0,378,62.48%
519,0,378,62.48%
520,0,378,62.48%
521,0,378,62.48%
522,1,379,62.64%
523,1,380,62.81%
524,0,380,62.81%
525,0,380,62.81%
526,0,380,62.81%
527,1,381,62.98%
528,0,381,62.98%
529,0,381,62.98%
530,0,381,62.98%
531,0,381,62.98%
532,0,381,62.98%
533,0,381,62.98%
534,0,381,62.98%
535,0,381,62.98%
536,0,381,62.98%
537,0,381,62.98%
538,0,381,62.98%
539,0,381,62.98%
540,0,381,62.98%
541,0,381,62.98%
542,0,381,62.98%
543,0,381,62.98%
544,0,381,62.98%
545,0,381,62.98%
546,0,381,62.98%
547,0,381,62.98%
548,1,382,63.14%
549,0,382,63.14%
550,0,382,63.14%
551,0,382,63.14%
552,0,382,63.14%
553,0,382,63.14%
554,0,382,63.14%
555,0,382,63.14%
556,0,382,63.14%
557,0,382,63.14%
558,0,382,63.14%
559,1,383,63.31%
560,0,383,63.31%
561,0,383,63.31%
562,0,383,63.31%
563,1,384,63.47%
564,0,384,63.47%
565,0,384,63.47%
566,0,384,63.47%
567,0,384,63.47%
568,0,384,63.47%
569,0,384,63.47%
570,0,384,63.47%
571,0,384,63.47%
572,0,384,63.47%
573,1,385,63.64%
574,0,385,63.64%
575,0,385,63.64%
576,0,385,63.64%
577,0,385,63.64%
578,0,385,63.64%
579,0,385,63.64%
580,0,385,63.64%
581,0,385,63.64%
582,0,385,63.64%
583,1,386,63.8%
584,0,386,63.8%
585,0,386,63.8%
586,0,386,63.8%
587,0,386,63.8%
588,0,386,63.8%
589,0,386,63.8%
590,0,386,63.8%
591,0,386,63.8%
592,0,386,63.8%
593,0,386,63.8%
594,0,386,63.8%
595,0,386,63.8%
596,0,386,63.8%
597,0,386,63.8%
598,0,386,63.8%
599,0,386,63.8%
600,0,386,63.8%
601,0,386,63.8%
602,0,386,63.8%
603,0,386,63.8%
604,0,386,63.8%
605,0,386,63.8%
606,0,386,63.8%
607,1,387,63.97%
608,0,387,63.97%
609,0,387,63.97%
610,1,388,64.13%
611,0,388,64.13%
612,0,388,64.13%
613,0,388,64.13%
614,1,389,64.3%
615,1,390,64.46%
616,0,390,64.46%
617,0,390,64.46%
618,0,390,64.46%
619,0,390,64.46%
620,0,390,64.46%
621,0,390,64.46%
622,0,390,64.46%
623,0,390,64.46%
624,0,390,64.46%
625,0,390,64.46%
626,0,390,64.46%
627,0,390,64.46%
628,0,390,64.46%
629,0,390,64.46%
630,0,390,64.46%
631,0,390,64.46%
632,0,390,64.46%
633,0,390,64.46%
634,0,390,64.46%
635,0,390,64.46%
636,0,390,64.46%
637,0,390,64.46%
638,0,390,64.46%
639,0,390,64.46%
640,0,390,64.46%
641,0,390,64.46%
642,0,390,64.46%
643,0,390,64.46%
644,0,390,64.46%
645,0,390,64.46%
646,1,391,64.63%
647,0,391,64.63%
648,0,391,64.63%
649,0,391,64.63%
650,0,391,64.63%
651,0,391,64.63%
652,0,391,64.63%
653,1,392,64.79%
654,0,392,64.79%
655,0,392,64.79%
656,0,392,64.79%
657,0,392,64.79%
658,0,392,64.79%
659,0,392,64.79%
660,0,392,64.79%
661,0,392,64.79%
662,0,392,64.79%
663,0,392,64.79%
664,0,392,64.79%
665,0,392,64.79%
666,0,392,64.79%
667,0,392,64.79%
668,0,392,64.79%
669,0,392,64.79%
670,0,392,64.79%
671,0,392,64.79%
672,0,392,64.79%
673,0,392,64.79%
674,0,392,64.79%
675,0,392,64.79%
676,0,392,64.79%
677,0,392,64.79%
678,0,392,64.79%
679,0,392,64.79%
680,1,393,64.96%
681,0,393,64.96%
682,0,393,64.96%
683,0,393,64.96%
684,1,394,65.12%
685,0,394,65.12%
686,0,394,65.12%
687,0,394,65.12%
688,0,394,65.12%
689,1,395,65.29%
690,0,395,65.29%
691,0,395,65.29%
692,0,395,65.29%
693,0,395,65.29%
694,1,396,65.45%
695,0,396,65.45%
696,0,396,65.45%
697,0,396,65.45%
698,0,396,65.45%
699,0,396,65.45%
700,0,396,65.45%
701,0,396,65.45%
702,0,396,65.45%
703,0,396,65.45%
704,0,396,65.45%
705,0,396,65.45%
706,0,396,65.45%
707,0,396,65.45%
708,0,396,65.45%
709,0,396,65.45%
710,0,396,65.45%
711,0,396,65.45%
712,0,396,65.45%
713,0,396,65.45%
714,0,396,65.45%
715,0,396,65.45%
716,0,396,65.45%
717,0,396,65.45%
718,1,397,65.62%
719,0,397,65.62%
720,1,398,65.79%
721,0,398,65.79%
722,0,398,65.79%
723,0,398,65.79%
724,0,398,65.79%
725,0,398,65.79%
726,0,398,65.79%
727,0,398,65.79%
728,1,399,65.95%
729,1,400,66.12%
730,0,400,66.12%
731,0,400,66.12%
732,1,401,66.28%
733,0,401,66.28%
734,0,401,66.28%
735,0,401,66.28%
736,1,402,66.45%
737,0,402,66.45%
738,0,402,66.45%
739,0,402,66.45%
740,0,402,66.45%
741,0,402,66.45%
742,0,402,66.45%
743,0,402,66.45%
744,0,402,66.45%
745,1,403,66.61%
746,0,403,66.61%
747,0,403,66.61%
748,0,403,66.61%
749,0,403,66.61%
750,0,403,66.61%
751,0,403,66.61%
752,0,403,66.61%
753,0,403,66.61%
754,0,403,66.61%
755,0,403,66.61%
756,0,403,66.61%
757,0,403,66.61%
758,0,403,66.61%
759,0,403,66.61%
760,0,403,66.61%
761,0,403,66.61%
762,0,403,66.61%
763,0,403,66.61%
764,0,403,66.61%
765,0,403,66.61%
766,0,403,66.61%
767,0,403,66.61%
768,0,403,66.61%
769,0,403,66.61%
770,0,403,66.61%
771,0,403,66.61%
772,0,403,66.61%
773,0,403,66.61%
774,0,403,66.61%
775,1,404,66.78%
776,0,404,66.78%
777,0,404,66.78%
778,0,404,66.78%
779,0,404,66.78%
780,0,404,66.78%
781,0,404,66.78%
782,1,405,66.94%
783,0,405,66.94%
784,0,405,66.94%
785,0,405,66.94%
786,0,405,66.94%
787,0,405,66.94%
788,0,405,66.94%
789,0,405,66.94%
790,0,405,66.94%
791,0,405,66.94%
792,0,405,66.94%
793,0,405,66.94%
794,0,405,66.94%
795,0,405,66.94%
796,1,406,67.11%
797,0,406,67.11%
798,0,406,67.11%
799,0,406,67.11%
800,0,406,67.11%
801,0,406,67.11%
802,0,406,67.11%
803,0,406,67.11%
804,199,605,100.0%
