Length, Count, Sum (Counts <= Length), Percent of Nonzero Data, Nonzero Data Count = 845, Zero Data Count = 999
1,1,1,0.12%
2,2,3,0.36%
3,1,4,0.47%
4,0,4,0.47%
5,0,4,0.47%
6,0,4,0.47%
7,0,4,0.47%
8,0,4,0.47%
9,0,4,0.47%
10,0,4,0.47%
11,0,4,0.47%
12,0,4,0.47%
13,0,4,0.47%
14,0,4,0.47%
15,0,4,0.47%
16,0,4,0.47%
17,0,4,0.47%
18,0,4,0.47%
19,0,4,0.47%
20,0,4,0.47%
21,0,4,0.47%
22,0,4,0.47%
23,0,4,0.47%
24,0,4,0.47%
25,0,4,0.47%
26,1,5,0.59%
27,0,5,0.59%
28,0,5,0.59%
29,0,5,0.59%
30,0,5,0.59%
31,2,7,0.83%
32,0,7,0.83%
33,0,7,0.83%
34,0,7,0.83%
35,0,7,0.83%
36,0,7,0.83%
37,2,9,1.07%
38,0,9,1.07%
39,1,10,1.18%
40,0,10,1.18%
41,0,10,1.18%
42,0,10,1.18%
43,0,10,1.18%
44,0,10,1.18%
45,1,11,1.3%
46,0,11,1.3%
47,0,11,1.3%
48,0,11,1.3%
49,0,11,1.3%
50,0,11,1.3%
51,0,11,1.3%
52,1,12,1.42%
53,0,12,1.42%
54,0,12,1.42%
55,0,12,1.42%
56,0,12,1.42%
57,0,12,1.42%
58,0,12,1.42%
59,0,12,1.42%
60,0,12,1.42%
61,0,12,1.42%
62,0,12,1.42%
63,2,14,1.66%
64,0,14,1.66%
65,0,14,1.66%
66,0,14,1.66%
67,0,14,1.66%
68,0,14,1.66%
69,0,14,1.66%
70,0,14,1.66%
71,0,14,1.66%
72,0,14,1.66%
73,0,14,1.66%
74,0,14,1.66%
75,1,15,1.78%
76,1,16,1.89%
77,0,16,1.89%
78,0,16,1.89%
79,0,16,1.89%
80,0,16,1.89%
81,0,16,1.89%
82,0,16,1.89%
83,0,16,1.89%
84,0,16,1.89%
85,1,17,2.01%
86,0,17,2.01%
87,0,17,2.01%
88,0,17,2.01%
89,0,17,2.01%
90,0,17,2.01%
91,0,17,2.01%
92,2,19,2.25%
93,0,19,2.25%
94,0,19,2.25%
95,0,19,2.25%
96,1,20,2.37%
97,0,20,2.37%
98,0,20,2.37%
99,0,20,2.37%
100,1,21,2.49%
101,0,21,2.49%
102,0,21,2.49%
103,0,21,2.49%
104,0,21,2.49%
105,0,21,2.49%
106,1,22,2.6%
107,0,22,2.6%
108,0,22,2.6%
109,0,22,2.6%
110,0,22,2.6%
111,0,22,2.6%
112,0,22,2.6%
113,0,22,2.6%
114,0,22,2.6%
115,0,22,2.6%
116,0,22,2.6%
117,0,22,2.6%
118,0,22,2.6%
119,0,22,2.6%
120,0,22,2.6%
121,0,22,2.6%
122,0,22,2.6%
123,1,23,2.72%
124,0,23,2.72%
125,1,24,2.84%
126,0,24,2.84%
127,0,24,2.84%
128,1,25,2.96%
129,1,26,3.08%
130,0,26,3.08%
131,0,26,3.08%
132,0,26,3.08%
133,0,26,3.08%
134,0,26,3.08%
135,0,26,3.08%
136,0,26,3.08%
137,0,26,3.08%
138,0,26,3.08%
139,0,26,3.08%
140,0,26,3.08%
141,0,26,3.08%
142,0,26,3.08%
143,0,26,3.08%
144,0,26,3.08%
145,2,28,3.31%
146,0,28,3.31%
147,0,28,3.31%
148,0,28,3.31%
149,0,28,3.31%
150,1,29,3.43%
151,1,30,3.55%
152,0,30,3.55%
153,0,30,3.55%
154,0,30,3.55%
155,1,31,3.67%
156,0,31,3.67%
157,0,31,3.67%
158,1,32,3.79%
159,0,32,3.79%
160,0,32,3.79%
161,0,32,3.79%
162,0,32,3.79%
163,1,33,3.91%
164,2,35,4.14%
165,0,35,4.14%
166,0,35,4.14%
167,0,35,4.14%
168,0,35,4.14%
169,0,35,4.14%
170,0,35,4.14%
171,0,35,4.14%
172,0,35,4.14%
173,0,35,4.14%
174,0,35,4.14%
175,0,35,4.14%
176,0,35,4.14%
177,0,35,4.14%
178,0,35,4.14%
179,1,36,4.26%
180,0,36,4.26%
181,1,37,4.38%
182,0,37,4.38%
183,0,37,4.38%
184,1,38,4.5%
185,0,38,4.5%
186,1,39,4.62%
187,0,39,4.62%
188,0,39,4.62%
189,0,39,4.62%
190,0,39,4.62%
191,0,39,4.62%
192,0,39,4.62%
193,0,39,4.62%
194,0,39,4.62%
195,0,39,4.62%
196,1,40,4.73%
197,0,40,4.73%
198,0,40,4.73%
199,0,40,4.73%
200,2,42,4.97%
201,1,43,5.09%
202,1,44,5.21%
203,0,44,5.21%
204,1,45,5.33%
205,0,45,5.33%
206,0,45,5.33%
207,0,45,5.33%
208,0,45,5.33%
209,0,45,5.33%
210,0,45,5.33%
211,0,45,5.33%
212,1,46,5.44%
213,0,46,5.44%
214,0,46,5.44%
215,1,47,5.56%
216,1,48,5.68%
217,0,48,5.68%
218,3,51,6.04%
219,0,51,6.04%
220,0,51,6.04%
221,0,51,6.04%
222,0,51,6.04%
223,0,51,6.04%
224,0,51,6.04%
225,0,51,6.04%
226,0,51,6.04%
227,0,51,6.04%
228,0,51,6.04%
229,0,51,6.04%
230,0,51,6.04%
231,1,52,6.15%
232,0,52,6.15%
233,0,52,6.15%
234,0,52,6.15%
235,0,52,6.15%
236,0,52,6.15%
237,0,52,6.15%
238,0,52,6.15%
239,0,52,6.15%
240,0,52,6.15%
241,0,52,6.15%
242,0,52,6.15%
243,2,54,6.39%
244,0,54,6.39%
245,0,54,6.39%
246,0,54,6.39%
247,0,54,6.39%
248,0,54,6.39%
249,0,54,6.39%
250,0,54,6.39%
251,1,55,6.51%
252,1,56,6.63%
253,0,56,6.63%
254,0,56,6.63%
255,1,57,6.75%
256,0,57,6.75%
257,0,57,6.75%
258,0,57,6.75%
259,1,58,6.86%
260,1,59,6.98%
261,0,59,6.98%
262,0,59,6.98%
263,1,60,7.1%
264,0,60,7.1%
265,1,61,7.22%
266,0,61,7.22%
267,0,61,7.22%
268,0,61,7.22%
269,1,62,7.34%
270,1,63,7.46%
271,0,63,7.46%
272,0,63,7.46%
273,0,63,7.46%
274,1,64,7.57%
275,0,64,7.57%
276,0,64,7.57%
277,0,64,7.57%
278,0,64,7.57%
279,1,65,7.69%
280,0,65,7.69%
281,0,65,7.69%
282,0,65,7.69%
283,1,66,7.81%
284,1,67,7.93%
285,0,67,7.93%
286,0,67,7.93%
287,0,67,7.93%
288,0,67,7.93%
289,0,67,7.93%
290,0,67,7.93%
291,0,67,7.93%
292,1,68,8.05%
293,0,68,8.05%
294,1,69,8.17%
295,0,69,8.17%
296,0,69,8.17%
297,0,69,8.17%
298,0,69,8.17%
299,0,69,8.17%
300,0,69,8.17%
301,0,69,8.17%
302,0,69,8.17%
303,0,69,8.17%
304,0,69,8.17%
305,0,69,8.17%
306,0,69,8.17%
307,1,70,8.28%
308,0,70,8.28%
309,0,70,8.28%
310,1,71,8.4%
311,2,73,8.64%
312,0,73,8.64%
313,0,73,8.64%
314,0,73,8.64%
315,0,73,8.64%
316,0,73,8.64%
317,0,73,8.64%
318,0,73,8.64%
319,0,73,8.64%
320,0,73,8.64%
321,0,73,8.64%
322,0,73,8.64%
323,1,74,8.76%
324,0,74,8.76%
325,3,77,9.11%
326,0,77,9.11%
327,1,78,9.23%
328,0,78,9.23%
329,1,79,9.35%
330,0,79,9.35%
331,0,79,9.35%
332,0,79,9.35%
333,0,79,9.35%
334,0,79,9.35%
335,0,79,9.35%
336,0,79,9.35%
337,0,79,9.35%
338,1,80,9.47%
339,0,80,9.47%
340,0,80,9.47%
341,0,80,9.47%
342,0,80,9.47%
343,1,81,9.59%
344,15,96,11.36%
345,0,96,11.36%
346,0,96,11.36%
347,1,97,11.48%
348,0,97,11.48%
349,0,97,11.48%
350,2,99,11.72%
351,1,100,11.83%
352,10,110,13.02%
353,0,110,13.02%
354,1,111,13.14%
355,0,111,13.14%
356,1,112,13.25%
357,1,113,13.37%
358,5,118,13.96%
359,0,118,13.96%
360,2,120,14.2%
361,1,121,14.32%
362,0,121,14.32%
363,1,122,14.44%
364,1,123,14.56%
365,0,123,14.56%
366,0,123,14.56%
367,0,123,14.56%
368,0,123,14.56%
369,0,123,14.56%
370,0,123,14.56%
371,0,123,14.56%
372,1,124,14.67%
373,0,124,14.67%
374,0,124,14.67%
375,1,125,14.79%
376,0,125,14.79%
377,0,125,14.79%
378,0,125,14.79%
379,0,125,14.79%
380,0,125,14.79%
381,0,125,14.79%
382,0,125,14.79%
383,1,126,14.91%
384,1,127,15.03%
385,0,127,15.03%
386,0,127,15.03%
387,0,127,15.03%
388,1,128,15.15%
389,0,128,15.15%
390,0,128,15.15%
391,0,128,15.15%
392,0,128,15.15%
393,1,129,15.27%
394,0,129,15.27%
395,1,130,15.38%
396,0,130,15.38%
397,1,131,15.5%
398,0,131,15.5%
399,0,131,15.5%
400,0,131,15.5%
401,0,131,15.5%
402,1,132,15.62%
403,0,132,15.62%
404,0,132,15.62%
405,0,132,15.62%
406,2,134,15.86%
407,0,134,15.86%
408,0,134,15.86%
409,0,134,15.86%
410,0,134,15.86%
411,0,134,15.86%
412,1,135,15.98%
413,0,135,15.98%
414,0,135,15.98%
415,0,135,15.98%
416,1,136,16.09%
417,2,138,16.33%
418,0,138,16.33%
419,0,138,16.33%
420,0,138,16.33%
421,0,138,16.33%
422,1,139,16.45%
423,0,139,16.45%
424,0,139,16.45%
425,0,139,16.45%
426,0,139,16.45%
427,0,139,16.45%
428,0,139,16.45%
429,0,139,16.45%
430,0,139,16.45%
431,0,139,16.45%
432,1,140,16.57%
433,0,140,16.57%
434,0,140,16.57%
435,2,142,16.8%
436,0,142,16.8%
437,1,143,16.92%
438,0,143,16.92%
439,0,143,16.92%
440,0,143,16.92%
441,1,144,17.04%
442,0,144,17.04%
443,0,144,17.04%
444,0,144,17.04%
445,0,144,17.04%
446,1,145,17.16%
447,0,145,17.16%
448,0,145,17.16%
449,0,145,17.16%
450,0,145,17.16%
451,0,145,17.16%
452,0,145,17.16%
453,0,145,17.16%
454,0,145,17.16%
455,1,146,17.28%
456,0,146,17.28%
457,0,146,17.28%
458,0,146,17.28%
459,0,146,17.28%
460,0,146,17.28%
461,0,146,17.28%
462,0,146,17.28%
463,0,146,17.28%
464,0,146,17.28%
465,0,146,17.28%
466,0,146,17.28%
467,0,146,17.28%
468,1,147,17.4%
469,0,147,17.4%
470,0,147,17.4%
471,0,147,17.4%
472,0,147,17.4%
473,0,147,17.4%
474,0,147,17.4%
475,0,147,17.4%
476,0,147,17.4%
477,0,147,17.4%
478,0,147,17.4%
479,1,148,17.51%
480,0,148,17.51%
481,0,148,17.51%
482,1,149,17.63%
483,1,150,17.75%
484,0,150,17.75%
485,0,150,17.75%
486,0,150,17.75%
487,1,151,17.87%
488,1,152,17.99%
489,0,152,17.99%
490,1,153,18.11%
491,2,155,18.34%
492,0,155,18.34%
493,0,155,18.34%
494,0,155,18.34%
495,2,157,18.58%
496,1,158,18.7%
497,0,158,18.7%
498,0,158,18.7%
499,0,158,18.7%
500,0,158,18.7%
501,0,158,18.7%
502,0,158,18.7%
503,2,160,18.93%
504,0,160,18.93%
505,0,160,18.93%
506,0,160,18.93%
507,1,161,19.05%
508,0,161,19.05%
509,0,161,19.05%
510,0,161,19.05%
511,0,161,19.05%
512,0,161,19.05%
513,0,161,19.05%
514,1,162,19.17%
515,0,162,19.17%
516,0,162,19.17%
517,0,162,19.17%
518,0,162,19.17%
519,1,163,19.29%
520,0,163,19.29%
521,0,163,19.29%
522,0,163,19.29%
523,0,163,19.29%
524,0,163,19.29%
525,0,163,19.29%
526,1,164,19.41%
527,0,164,19.41%
528,0,164,19.41%
529,0,164,19.41%
530,0,164,19.41%
531,0,164,19.41%
532,0,164,19.41%
533,0,164,19.41%
534,0,164,19.41%
535,0,164,19.41%
536,0,164,19.41%
537,0,164,19.41%
538,0,164,19.41%
539,0,164,19.41%
540,0,164,19.41%
541,0,164,19.41%
542,0,164,19.41%
543,0,164,19.41%
544,0,164,19.41%
545,0,164,19.41%
546,2,166,19.64%
547,0,166,19.64%
548,0,166,19.64%
549,0,166,19.64%
550,0,166,19.64%
551,0,166,19.64%
552,0,166,19.64%
553,0,166,19.64%
554,0,166,19.64%
555,0,166,19.64%
556,0,166,19.64%
557,0,166,19.64%
558,0,166,19.64%
559,0,166,19.64%
560,1,167,19.76%
561,0,167,19.76%
562,0,167,19.76%
563,0,167,19.76%
564,1,168,19.88%
565,0,168,19.88%
566,0,168,19.88%
567,1,169,20.0%
568,0,169,20.0%
569,1,170,20.12%
570,0,170,20.12%
571,0,170,20.12%
572,0,170,20.12%
573,1,171,20.24%
574,0,171,20.24%
575,0,171,20.24%
576,8,179,21.18%
577,0,179,21.18%
578,0,179,21.18%
579,1,180,21.3%
580,0,180,21.3%
581,0,180,21.3%
582,0,180,21.3%
583,0,180,21.3%
584,0,180,21.3%
585,0,180,21.3%
586,0,180,21.3%
587,0,180,21.3%
588,0,180,21.3%
589,0,180,21.3%
590,0,180,21.3%
591,0,180,21.3%
592,0,180,21.3%
593,0,180,21.3%
594,0,180,21.3%
595,0,180,21.3%
596,0,180,21.3%
597,0,180,21.3%
598,0,180,21.3%
599,1,181,21.42%
600,0,181,21.42%
601,0,181,21.42%
602,0,181,21.42%
603,1,182,21.54%
604,1,183,21.66%
605,0,183,21.66%
606,0,183,21.66%
607,0,183,21.66%
608,0,183,21.66%
609,0,183,21.66%
610,1,184,21.78%
611,1,185,21.89%
612,0,185,21.89%
613,0,185,21.89%
614,0,185,21.89%
615,0,185,21.89%
616,0,185,21.89%
617,0,185,21.89%
618,0,185,21.89%
619,0,185,21.89%
620,1,186,22.01%
621,0,186,22.01%
622,1,187,22.13%
623,0,187,22.13%
624,1,188,22.25%
625,0,188,22.25%
626,1,189,22.37%
627,0,189,22.37%
628,0,189,22.37%
629,0,189,22.37%
630,0,189,22.37%
631,0,189,22.37%
632,1,190,22.49%
633,0,190,22.49%
634,0,190,22.49%
635,1,191,22.6%
636,0,191,22.6%
637,0,191,22.6%
638,0,191,22.6%
639,0,191,22.6%
640,0,191,22.6%
641,0,191,22.6%
642,0,191,22.6%
643,0,191,22.6%
644,0,191,22.6%
645,2,193,22.84%
646,0,193,22.84%
647,1,194,22.96%
648,0,194,22.96%
649,2,196,23.2%
650,0,196,23.2%
651,0,196,23.2%
652,0,196,23.2%
653,1,197,23.31%
654,0,197,23.31%
655,1,198,23.43%
656,0,198,23.43%
657,0,198,23.43%
658,1,199,23.55%
659,0,199,23.55%
660,0,199,23.55%
661,0,199,23.55%
662,5,204,24.14%
663,0,204,24.14%
664,0,204,24.14%
665,0,204,24.14%
666,0,204,24.14%
667,0,204,24.14%
668,0,204,24.14%
669,0,204,24.14%
670,0,204,24.14%
671,0,204,24.14%
672,0,204,24.14%
673,0,204,24.14%
674,0,204,24.14%
675,0,204,24.14%
676,1,205,24.26%
677,0,205,24.26%
678,1,206,24.38%
679,0,206,24.38%
680,0,206,24.38%
681,0,206,24.38%
682,0,206,24.38%
683,0,206,24.38%
684,0,206,24.38%
685,0,206,24.38%
686,0,206,24.38%
687,1,207,24.5%
688,0,207,24.5%
689,0,207,24.5%
690,0,207,24.5%
691,0,207,24.5%
692,0,207,24.5%
693,0,207,24.5%
694,0,207,24.5%
695,0,207,24.5%
696,0,207,24.5%
697,0,207,24.5%
698,0,207,24.5%
699,0,207,24.5%
700,0,207,24.5%
701,0,207,24.5%
702,0,207,24.5%
703,0,207,24.5%
704,1,208,24.62%
705,1,209,24.73%
706,0,209,24.73%
707,0,209,24.73%
708,0,209,24.73%
709,0,209,24.73%
710,0,209,24.73%
711,0,209,24.73%
712,0,209,24.73%
713,0,209,24.73%
714,0,209,24.73%
715,0,209,24.73%
716,0,209,24.73%
717,0,209,24.73%
718,0,209,24.73%
719,1,210,24.85%
720,1,211,24.97%
721,0,211,24.97%
722,0,211,24.97%
723,1,212,25.09%
724,0,212,25.09%
725,0,212,25.09%
726,0,212,25.09%
727,0,212,25.09%
728,0,212,25.09%
729,0,212,25.09%
730,0,212,25.09%
731,0,212,25.09%
732,0,212,25.09%
733,0,212,25.09%
734,1,213,25.21%
735,1,214,25.33%
736,0,214,25.33%
737,0,214,25.33%
738,0,214,25.33%
739,0,214,25.33%
740,0,214,25.33%
741,0,214,25.33%
742,0,214,25.33%
743,1,215,25.44%
744,1,216,25.56%
745,9,225,26.63%
746,0,225,26.63%
747,1,226,26.75%
748,0,226,26.75%
749,0,226,26.75%
750,0,226,26.75%
751,0,226,26.75%
752,0,226,26.75%
753,1,227,26.86%
754,1,228,26.98%
755,0,228,26.98%
756,0,228,26.98%
757,0,228,26.98%
758,0,228,26.98%
759,1,229,27.1%
760,0,229,27.1%
761,0,229,27.1%
762,1,230,27.22%
763,0,230,27.22%
764,0,230,27.22%
765,0,230,27.22%
766,0,230,27.22%
767,0,230,27.22%
768,0,230,27.22%
769,1,231,27.34%
770,0,231,27.34%
771,0,231,27.34%
772,0,231,27.34%
773,0,231,27.34%
774,1,232,27.46%
775,0,232,27.46%
776,0,232,27.46%
777,1,233,27.57%
778,1,234,27.69%
779,0,234,27.69%
780,0,234,27.69%
781,0,234,27.69%
782,0,234,27.69%
783,0,234,27.69%
784,0,234,27.69%
785,1,235,27.81%
786,0,235,27.81%
787,0,235,27.81%
788,0,235,27.81%
789,0,235,27.81%
790,0,235,27.81%
791,0,235,27.81%
792,0,235,27.81%
793,0,235,27.81%
794,0,235,27.81%
795,2,237,28.05%
796,0,237,28.05%
797,0,237,28.05%
798,0,237,28.05%
799,0,237,28.05%
800,0,237,28.05%
801,0,237,28.05%
802,0,237,28.05%
803,0,237,28.05%
804,0,237,28.05%
805,0,237,28.05%
806,0,237,28.05%
807,0,237,28.05%
808,0,237,28.05%
809,0,237,28.05%
810,0,237,28.05%
811,0,237,28.05%
812,0,237,28.05%
813,0,237,28.05%
814,0,237,28.05%
815,0,237,28.05%
816,3,240,28.4%
817,0,240,28.4%
818,0,240,28.4%
819,1,241,28.52%
820,0,241,28.52%
821,0,241,28.52%
822,0,241,28.52%
823,0,241,28.52%
824,1,242,28.64%
825,1,243,28.76%
826,0,243,28.76%
827,0,243,28.76%
828,0,243,28.76%
829,0,243,28.76%
830,1,244,28.88%
831,0,244,28.88%
832,0,244,28.88%
833,0,244,28.88%
834,0,244,28.88%
835,0,244,28.88%
836,0,244,28.88%
837,1,245,28.99%
838,0,245,28.99%
839,0,245,28.99%
840,1,246,29.11%
841,0,246,29.11%
842,0,246,29.11%
843,0,246,29.11%
844,0,246,29.11%
845,0,246,29.11%
846,0,246,29.11%
847,0,246,29.11%
848,0,246,29.11%
849,0,246,29.11%
850,0,246,29.11%
851,0,246,29.11%
852,0,246,29.11%
853,0,246,29.11%
854,0,246,29.11%
855,1,247,29.23%
856,1,248,29.35%
857,0,248,29.35%
858,0,248,29.35%
859,0,248,29.35%
860,0,248,29.35%
861,0,248,29.35%
862,1,249,29.47%
863,0,249,29.47%
864,1,250,29.59%
865,0,250,29.59%
866,0,250,29.59%
867,0,250,29.59%
868,0,250,29.59%
869,1,251,29.7%
870,0,251,29.7%
871,1,252,29.82%
872,0,252,29.82%
873,0,252,29.82%
874,1,253,29.94%
875,0,253,29.94%
876,2,255,30.18%
877,0,255,30.18%
878,0,255,30.18%
879,0,255,30.18%
880,0,255,30.18%
881,1,256,30.3%
882,0,256,30.3%
883,1,257,30.41%
884,1,258,30.53%
885,0,258,30.53%
886,0,258,30.53%
887,0,258,30.53%
888,1,259,30.65%
889,1,260,30.77%
890,0,260,30.77%
891,0,260,30.77%
892,0,260,30.77%
893,0,260,30.77%
894,0,260,30.77%
895,0,260,30.77%
896,0,260,30.77%
897,0,260,30.77%
898,0,260,30.77%
899,0,260,30.77%
900,0,260,30.77%
901,0,260,30.77%
902,0,260,30.77%
903,0,260,30.77%
904,1,261,30.89%
905,0,261,30.89%
906,0,261,30.89%
907,1,262,31.01%
908,0,262,31.01%
909,0,262,31.01%
910,0,262,31.01%
911,0,262,31.01%
912,1,263,31.12%
913,0,263,31.12%
914,0,263,31.12%
915,0,263,31.12%
916,0,263,31.12%
917,0,263,31.12%
918,0,263,31.12%
919,0,263,31.12%
920,1,264,31.24%
921,2,266,31.48%
922,0,266,31.48%
923,0,266,31.48%
924,0,266,31.48%
925,0,266,31.48%
926,0,266,31.48%
927,1,267,31.6%
928,3,270,31.95%
929,0,270,31.95%
930,0,270,31.95%
931,0,270,31.95%
932,2,272,32.19%
933,0,272,32.19%
934,0,272,32.19%
935,0,272,32.19%
936,0,272,32.19%
937,0,272,32.19%
938,0,272,32.19%
939,2,274,32.43%
940,1,275,32.54%
941,0,275,32.54%
942,1,276,32.66%
943,0,276,32.66%
944,0,276,32.66%
945,0,276,32.66%
946,0,276,32.66%
947,0,276,32.66%
948,0,276,32.66%
949,0,276,32.66%
950,0,276,32.66%
951,0,276,32.66%
952,0,276,32.66%
953,0,276,32.66%
954,0,276,32.66%
955,1,277,32.78%
956,0,277,32.78%
957,0,277,32.78%
958,0,277,32.78%
959,0,277,32.78%
960,0,277,32.78%
961,0,277,32.78%
962,0,277,32.78%
963,0,277,32.78%
964,0,277,32.78%
965,0,277,32.78%
966,0,277,32.78%
967,0,277,32.78%
968,0,277,32.78%
969,0,277,32.78%
970,0,277,32.78%
971,0,277,32.78%
972,0,277,32.78%
973,0,277,32.78%
974,1,278,32.9%
975,0,278,32.9%
976,0,278,32.9%
977,0,278,32.9%
978,1,279,33.02%
979,0,279,33.02%
980,0,279,33.02%
981,0,279,33.02%
982,0,279,33.02%
983,0,279,33.02%
984,0,279,33.02%
985,1,280,33.14%
986,0,280,33.14%
987,1,281,33.25%
988,0,281,33.25%
989,1,282,33.37%
990,0,282,33.37%
991,0,282,33.37%
992,0,282,33.37%
993,0,282,33.37%
994,0,282,33.37%
995,0,282,33.37%
996,0,282,33.37%
997,0,282,33.37%
998,0,282,33.37%
999,0,282,33.37%
1000,0,282,33.37%
1001,1,283,33.49%
1002,0,283,33.49%
1003,1,284,33.61%
1004,0,284,33.61%
1005,1,285,33.73%
1006,0,285,33.73%
1007,1,286,33.85%
1008,0,286,33.85%
1009,0,286,33.85%
1010,0,286,33.85%
1011,0,286,33.85%
1012,0,286,33.85%
1013,0,286,33.85%
1014,0,286,33.85%
1015,0,286,33.85%
1016,1,287,33.96%
1017,0,287,33.96%
1018,0,287,33.96%
1019,0,287,33.96%
1020,0,287,33.96%
1021,0,287,33.96%
1022,0,287,33.96%
1023,0,287,33.96%
1024,0,287,33.96%
1025,1,288,34.08%
1026,0,288,34.08%
1027,0,288,34.08%
1028,0,288,34.08%
1029,0,288,34.08%
1030,0,288,34.08%
1031,0,288,34.08%
1032,0,288,34.08%
1033,1,289,34.2%
1034,0,289,34.2%
1035,0,289,34.2%
1036,0,289,34.2%
1037,0,289,34.2%
1038,0,289,34.2%
1039,0,289,34.2%
1040,1,290,34.32%
1041,1,291,34.44%
1042,0,291,34.44%
1043,0,291,34.44%
1044,1,292,34.56%
1045,0,292,34.56%
1046,0,292,34.56%
1047,0,292,34.56%
1048,0,292,34.56%
1049,0,292,34.56%
1050,0,292,34.56%
1051,0,292,34.56%
1052,0,292,34.56%
1053,0,292,34.56%
1054,0,292,34.56%
1055,0,292,34.56%
1056,0,292,34.56%
1057,1,293,34.67%
1058,0,293,34.67%
1059,1,294,34.79%
1060,0,294,34.79%
1061,0,294,34.79%
1062,0,294,34.79%
1063,1,295,34.91%
1064,0,295,34.91%
1065,0,295,34.91%
1066,0,295,34.91%
1067,0,295,34.91%
1068,1,296,35.03%
1069,0,296,35.03%
1070,0,296,35.03%
1071,0,296,35.03%
1072,1,297,35.15%
1073,0,297,35.15%
1074,0,297,35.15%
1075,0,297,35.15%
1076,4,301,35.62%
1077,0,301,35.62%
1078,0,301,35.62%
1079,0,301,35.62%
1080,0,301,35.62%
1081,0,301,35.62%
1082,0,301,35.62%
1083,0,301,35.62%
1084,0,301,35.62%
1085,1,302,35.74%
1086,0,302,35.74%
1087,0,302,35.74%
1088,0,302,35.74%
1089,0,302,35.74%
1090,0,302,35.74%
1091,0,302,35.74%
1092,0,302,35.74%
1093,1,303,35.86%
1094,1,304,35.98%
1095,0,304,35.98%
1096,1,305,36.09%
1097,0,305,36.09%
1098,0,305,36.09%
1099,2,307,36.33%
1100,1,308,36.45%
1101,1,309,36.57%
1102,1,310,36.69%
1103,1,311,36.8%
1104,0,311,36.8%
1105,2,313,37.04%
1106,3,316,37.4%
1107,0,316,37.4%
1108,0,316,37.4%
1109,2,318,37.63%
1110,2,320,37.87%
1111,0,320,37.87%
1112,0,320,37.87%
1113,1,321,37.99%
1114,1,322,38.11%
1115,3,325,38.46%
1116,6,331,39.17%
1117,1,332,39.29%
1118,1,333,39.41%
1119,2,335,39.64%
1120,1,336,39.76%
1121,1,337,39.88%
1122,0,337,39.88%
1123,0,337,39.88%
1124,1,338,40.0%
1125,4,342,40.47%
1126,2,344,40.71%
1127,0,344,40.71%
1128,2,346,40.95%
1129,1,347,41.07%
1130,0,347,41.07%
1131,2,349,41.3%
1132,0,349,41.3%
1133,2,351,41.54%
1134,4,355,42.01%
1135,0,355,42.01%
1136,0,355,42.01%
1137,1,356,42.13%
1138,0,356,42.13%
1139,1,357,42.25%
1140,0,357,42.25%
1141,4,361,42.72%
1142,1,362,42.84%
1143,3,365,43.2%
1144,2,367,43.43%
1145,3,370,43.79%
1146,1,371,43.91%
1147,1,372,44.02%
1148,2,374,44.26%
1149,6,380,44.97%
1150,0,380,44.97%
1151,0,380,44.97%
1152,0,380,44.97%
1153,0,380,44.97%
1154,1,381,45.09%
1155,1,382,45.21%
1156,0,382,45.21%
1157,2,384,45.44%
1158,4,388,45.92%
1159,2,390,46.15%
1160,2,392,46.39%
1161,0,392,46.39%
1162,3,395,46.75%
1163,2,397,46.98%
1164,0,397,46.98%
1165,0,397,46.98%
1166,0,397,46.98%
1167,0,397,46.98%
1168,4,401,47.46%
1169,3,404,47.81%
1170,1,405,47.93%
1171,0,405,47.93%
1172,0,405,47.93%
1173,6,411,48.64%
1174,3,414,48.99%
1175,0,414,48.99%
1176,1,415,49.11%
1177,0,415,49.11%
1178,1,416,49.23%
1179,1,417,49.35%
1180,1,418,49.47%
1181,0,418,49.47%
1182,3,421,49.82%
1183,6,427,50.53%
1184,10,437,51.72%
1185,1,438,51.83%
1186,2,440,52.07%
1187,6,446,52.78%
1188,0,446,52.78%
1189,0,446,52.78%
1190,1,447,52.9%
1191,398,845,100.0%
