Length, Count, Sum (Counts <= Length), Percent of Nonzero Data, Nonzero Data Count = 781, Zero Data Count = 1063
1,6,6,0.77%
2,0,6,0.77%
3,1,7,0.9%
4,2,9,1.15%
5,1,10,1.28%
6,3,13,1.66%
7,0,13,1.66%
8,0,13,1.66%
9,0,13,1.66%
10,5,18,2.3%
11,3,21,2.69%
12,0,21,2.69%
13,1,22,2.82%
14,1,23,2.94%
15,1,24,3.07%
16,2,26,3.33%
17,0,26,3.33%
18,2,28,3.59%
19,3,31,3.97%
20,1,32,4.1%
21,0,32,4.1%
22,1,33,4.23%
23,1,34,4.35%
24,10,44,5.63%
25,1,45,5.76%
26,4,49,6.27%
27,1,50,6.4%
28,4,54,6.91%
29,2,56,7.17%
30,8,64,8.19%
31,1,65,8.32%
32,2,67,8.58%
33,2,69,8.83%
34,8,77,9.86%
35,1,78,9.99%
36,0,78,9.99%
37,1,79,10.12%
38,0,79,10.12%
39,4,83,10.63%
40,1,84,10.76%
41,0,84,10.76%
42,12,96,12.29%
43,8,104,13.32%
44,7,111,14.21%
45,3,114,14.6%
46,1,115,14.72%
47,3,118,15.11%
48,9,127,16.26%
49,1,128,16.39%
50,0,128,16.39%
51,1,129,16.52%
52,1,130,16.65%
53,5,135,17.29%
54,4,139,17.8%
55,1,140,17.93%
56,1,141,18.05%
57,0,141,18.05%
58,7,148,18.95%
59,4,152,19.46%
60,1,153,19.59%
61,2,155,19.85%
62,0,155,19.85%
63,2,157,20.1%
64,2,159,20.36%
65,1,160,20.49%
66,0,160,20.49%
67,2,162,20.74%
68,7,169,21.64%
69,10,179,22.92%
70,1,180,23.05%
71,3,183,23.43%
72,9,192,24.58%
73,1,193,24.71%
74,0,193,24.71%
75,1,194,24.84%
76,4,198,25.35%
77,2,200,25.61%
78,0,200,25.61%
79,4,204,26.12%
80,1,205,26.25%
81,3,208,26.63%
82,3,211,27.02%
83,18,229,29.32%
84,2,231,29.58%
85,0,231,29.58%
86,1,232,29.71%
87,0,232,29.71%
88,5,237,30.35%
89,3,240,30.73%
90,0,240,30.73%
91,0,240,30.73%
92,3,243,31.11%
93,0,243,31.11%
94,3,246,31.5%
95,1,247,31.63%
96,1,248,31.75%
97,1,249,31.88%
98,0,249,31.88%
99,0,249,31.88%
100,1,250,32.01%
101,0,250,32.01%
102,2,252,32.27%
103,0,252,32.27%
104,2,254,32.52%
105,0,254,32.52%
106,1,255,32.65%
107,9,264,33.8%
108,1,265,33.93%
109,0,265,33.93%
110,1,266,34.06%
111,1,267,34.19%
112,0,267,34.19%
113,1,268,34.31%
114,0,268,34.31%
115,3,271,34.7%
116,3,274,35.08%
117,3,277,35.47%
118,3,280,35.85%
119,0,280,35.85%
120,3,283,36.24%
121,4,287,36.75%
122,3,290,37.13%
123,2,292,37.39%
124,0,292,37.39%
125,7,299,38.28%
126,7,306,39.18%
127,3,309,39.56%
128,8,317,40.59%
129,0,317,40.59%
130,0,317,40.59%
131,3,320,40.97%
132,1,321,41.1%
133,0,321,41.1%
134,2,323,41.36%
135,3,326,41.74%
136,1,327,41.87%
137,0,327,41.87%
138,1,328,42.0%
139,1,329,42.13%
140,0,329,42.13%
141,2,331,42.38%
142,4,335,42.89%
143,0,335,42.89%
144,0,335,42.89%
145,0,335,42.89%
146,0,335,42.89%
147,1,336,43.02%
148,0,336,43.02%
149,2,338,43.28%
150,2,340,43.53%
151,1,341,43.66%
152,4,345,44.17%
153,4,349,44.69%
154,2,351,44.94%
155,5,356,45.58%
156,1,357,45.71%
157,1,358,45.84%
158,4,362,46.35%
159,4,366,46.86%
160,11,377,48.27%
161,1,378,48.4%
162,1,379,48.53%
163,3,382,48.91%
164,5,387,49.55%
165,1,388,49.68%
166,0,388,49.68%
167,0,388,49.68%
168,1,389,49.81%
169,6,395,50.58%
170,2,397,50.83%
171,0,397,50.83%
172,3,400,51.22%
173,2,402,51.47%
174,2,404,51.73%
175,1,405,51.86%
176,1,406,51.98%
177,0,406,51.98%
178,3,409,52.37%
179,5,414,53.01%
180,0,414,53.01%
181,0,414,53.01%
182,4,418,53.52%
183,2,420,53.78%
184,2,422,54.03%
185,2,424,54.29%
186,4,428,54.8%
187,3,431,55.19%
188,3,434,55.57%
189,3,437,55.95%
190,2,439,56.21%
191,1,440,56.34%
192,3,443,56.72%
193,3,446,57.11%
194,1,447,57.23%
195,2,449,57.49%
196,0,449,57.49%
197,2,451,57.75%
198,5,456,58.39%
199,0,456,58.39%
200,0,456,58.39%
201,0,456,58.39%
202,2,458,58.64%
203,2,460,58.9%
204,2,462,59.15%
205,0,462,59.15%
206,1,463,59.28%
207,3,466,59.67%
208,2,468,59.92%
209,3,471,60.31%
210,4,475,60.82%
211,0,475,60.82%
212,3,478,61.2%
213,1,479,61.33%
214,7,486,62.23%
215,2,488,62.48%
216,0,488,62.48%
217,1,489,62.61%
218,0,489,62.61%
219,1,490,62.74%
220,3,493,63.12%
221,1,494,63.25%
222,0,494,63.25%
223,9,503,64.4%
224,0,503,64.4%
225,0,503,64.4%
226,0,503,64.4%
227,1,504,64.53%
228,1,505,64.66%
229,0,505,64.66%
230,2,507,64.92%
231,1,508,65.04%
232,1,509,65.17%
233,2,511,65.43%
234,0,511,65.43%
235,0,511,65.43%
236,0,511,65.43%
237,0,511,65.43%
238,1,512,65.56%
239,0,512,65.56%
240,1,513,65.69%
241,2,515,65.94%
242,3,518,66.33%
243,263,781,100.0%
