Length, Count, Sum (Counts <= Length), Percent of Nonzero Data, Nonzero Data Count = 837, Zero Data Count = 1007
1,1,1,0.12%
2,1,2,0.24%
3,1,3,0.36%
4,0,3,0.36%
5,0,3,0.36%
6,1,4,0.48%
7,0,4,0.48%
8,0,4,0.48%
9,0,4,0.48%
10,0,4,0.48%
11,0,4,0.48%
12,0,4,0.48%
13,0,4,0.48%
14,0,4,0.48%
15,0,4,0.48%
16,0,4,0.48%
17,0,4,0.48%
18,1,5,0.6%
19,1,6,0.72%
20,0,6,0.72%
21,0,6,0.72%
22,0,6,0.72%
23,0,6,0.72%
24,0,6,0.72%
25,0,6,0.72%
26,0,6,0.72%
27,0,6,0.72%
28,0,6,0.72%
29,0,6,0.72%
30,0,6,0.72%
31,0,6,0.72%
32,0,6,0.72%
33,0,6,0.72%
34,0,6,0.72%
35,1,7,0.84%
36,0,7,0.84%
37,0,7,0.84%
38,0,7,0.84%
39,0,7,0.84%
40,0,7,0.84%
41,0,7,0.84%
42,0,7,0.84%
43,1,8,0.96%
44,0,8,0.96%
45,0,8,0.96%
46,0,8,0.96%
47,0,8,0.96%
48,0,8,0.96%
49,0,8,0.96%
50,0,8,0.96%
51,0,8,0.96%
52,1,9,1.08%
53,0,9,1.08%
54,0,9,1.08%
55,0,9,1.08%
56,0,9,1.08%
57,0,9,1.08%
58,0,9,1.08%
59,0,9,1.08%
60,0,9,1.08%
61,0,9,1.08%
62,0,9,1.08%
63,1,10,1.19%
64,0,10,1.19%
65,0,10,1.19%
66,1,11,1.31%
67,0,11,1.31%
68,0,11,1.31%
69,0,11,1.31%
70,0,11,1.31%
71,0,11,1.31%
72,1,12,1.43%
73,0,12,1.43%
74,0,12,1.43%
75,0,12,1.43%
76,0,12,1.43%
77,0,12,1.43%
78,0,12,1.43%
79,0,12,1.43%
80,0,12,1.43%
81,0,12,1.43%
82,0,12,1.43%
83,0,12,1.43%
84,0,12,1.43%
85,1,13,1.55%
86,0,13,1.55%
87,0,13,1.55%
88,0,13,1.55%
89,0,13,1.55%
90,0,13,1.55%
91,0,13,1.55%
92,1,14,1.67%
93,0,14,1.67%
94,0,14,1.67%
95,0,14,1.67%
96,1,15,1.79%
97,0,15,1.79%
98,0,15,1.79%
99,0,15,1.79%
100,0,15,1.79%
101,1,16,1.91%
102,0,16,1.91%
103,0,16,1.91%
104,0,16,1.91%
105,0,16,1.91%
106,2,18,2.15%
107,2,20,2.39%
108,0,20,2.39%
109,0,20,2.39%
110,0,20,2.39%
111,0,20,2.39%
112,0,20,2.39%
113,0,20,2.39%
114,0,20,2.39%
115,0,20,2.39%
116,0,20,2.39%
117,0,20,2.39%
118,0,20,2.39%
119,0,20,2.39%
120,0,20,2.39%
121,0,20,2.39%
122,1,21,2.51%
123,0,21,2.51%
124,0,21,2.51%
125,3,24,2.87%
126,0,24,2.87%
127,0,24,2.87%
128,1,25,2.99%
129,1,26,3.11%
130,0,26,3.11%
131,0,26,3.11%
132,0,26,3.11%
133,0,26,3.11%
134,0,26,3.11%
135,0,26,3.11%
136,0,26,3.11%
137,0,26,3.11%
138,0,26,3.11%
139,1,27,3.23%
140,0,27,3.23%
141,0,27,3.23%
142,0,27,3.23%
143,1,28,3.35%
144,0,28,3.35%
145,1,29,3.46%
146,0,29,3.46%
147,1,30,3.58%
148,0,30,3.58%
149,0,30,3.58%
150,1,31,3.7%
151,1,32,3.82%
152,0,32,3.82%
153,0,32,3.82%
154,0,32,3.82%
155,0,32,3.82%
156,0,32,3.82%
157,0,32,3.82%
158,0,32,3.82%
159,1,33,3.94%
160,0,33,3.94%
161,8,41,4.9%
162,0,41,4.9%
163,0,41,4.9%
164,0,41,4.9%
165,0,41,4.9%
166,0,41,4.9%
167,0,41,4.9%
168,0,41,4.9%
169,0,41,4.9%
170,0,41,4.9%
171,0,41,4.9%
172,0,41,4.9%
173,0,41,4.9%
174,0,41,4.9%
175,0,41,4.9%
176,0,41,4.9%
177,0,41,4.9%
178,0,41,4.9%
179,0,41,4.9%
180,0,41,4.9%
181,0,41,4.9%
182,0,41,4.9%
183,0,41,4.9%
184,1,42,5.02%
185,0,42,5.02%
186,1,43,5.14%
187,0,43,5.14%
188,0,43,5.14%
189,0,43,5.14%
190,0,43,5.14%
191,0,43,5.14%
192,0,43,5.14%
193,0,43,5.14%
194,1,44,5.26%
195,0,44,5.26%
196,0,44,5.26%
197,0,44,5.26%
198,0,44,5.26%
199,0,44,5.26%
200,0,44,5.26%
201,0,44,5.26%
202,0,44,5.26%
203,1,45,5.38%
204,0,45,5.38%
205,0,45,5.38%
206,0,45,5.38%
207,0,45,5.38%
208,0,45,5.38%
209,0,45,5.38%
210,0,45,5.38%
211,0,45,5.38%
212,2,47,5.62%
213,0,47,5.62%
214,1,48,5.73%
215,0,48,5.73%
216,0,48,5.73%
217,0,48,5.73%
218,0,48,5.73%
219,0,48,5.73%
220,0,48,5.73%
221,0,48,5.73%
222,1,49,5.85%
223,0,49,5.85%
224,0,49,5.85%
225,0,49,5.85%
226,1,50,5.97%
227,1,51,6.09%
228,0,51,6.09%
229,0,51,6.09%
230,0,51,6.09%
231,1,52,6.21%
232,0,52,6.21%
233,0,52,6.21%
234,0,52,6.21%
235,1,53,6.33%
236,0,53,6.33%
237,1,54,6.45%
238,0,54,6.45%
239,0,54,6.45%
240,0,54,6.45%
241,0,54,6.45%
242,0,54,6.45%
243,1,55,6.57%
244,0,55,6.57%
245,0,55,6.57%
246,0,55,6.57%
247,0,55,6.57%
248,0,55,6.57%
249,0,55,6.57%
250,1,56,6.69%
251,0,56,6.69%
252,1,57,6.81%
253,1,58,6.93%
254,0,58,6.93%
255,1,59,7.05%
256,0,59,7.05%
257,0,59,7.05%
258,0,59,7.05%
259,1,60,7.17%
260,0,60,7.17%
261,0,60,7.17%
262,0,60,7.17%
263,0,60,7.17%
264,0,60,7.17%
265,1,61,7.29%
266,1,62,7.41%
267,0,62,7.41%
268,1,63,7.53%
269,0,63,7.53%
270,2,65,7.77%
271,0,65,7.77%
272,1,66,7.89%
273,0,66,7.89%
274,1,67,8.0%
275,0,67,8.0%
276,0,67,8.0%
277,0,67,8.0%
278,0,67,8.0%
279,0,67,8.0%
280,0,67,8.0%
281,1,68,8.12%
282,0,68,8.12%
283,0,68,8.12%
284,0,68,8.12%
285,0,68,8.12%
286,0,68,8.12%
287,15,83,9.92%
288,0,83,9.92%
289,0,83,9.92%
290,1,84,10.04%
291,0,84,10.04%
292,0,84,10.04%
293,1,85,10.16%
294,1,86,10.27%
295,0,86,10.27%
296,0,86,10.27%
297,1,87,10.39%
298,0,87,10.39%
299,1,88,10.51%
300,5,93,11.11%
301,0,93,11.11%
302,0,93,11.11%
303,0,93,11.11%
304,0,93,11.11%
305,0,93,11.11%
306,0,93,11.11%
307,1,94,11.23%
308,0,94,11.23%
309,0,94,11.23%
310,0,94,11.23%
311,0,94,11.23%
312,0,94,11.23%
313,0,94,11.23%
314,0,94,11.23%
315,0,94,11.23%
316,0,94,11.23%
317,0,94,11.23%
318,1,95,11.35%
319,0,95,11.35%
320,0,95,11.35%
321,1,96,11.47%
322,0,96,11.47%
323,0,96,11.47%
324,0,96,11.47%
325,0,96,11.47%
326,1,97,11.59%
327,1,98,11.71%
328,0,98,11.71%
329,15,113,13.5%
330,0,113,13.5%
331,2,115,13.74%
332,0,115,13.74%
333,0,115,13.74%
334,0,115,13.74%
335,0,115,13.74%
336,0,115,13.74%
337,0,115,13.74%
338,1,116,13.86%
339,0,116,13.86%
340,0,116,13.86%
341,0,116,13.86%
342,0,116,13.86%
343,1,117,13.98%
344,0,117,13.98%
345,1,118,14.1%
346,0,118,14.1%
347,0,118,14.1%
348,0,118,14.1%
349,0,118,14.1%
350,0,118,14.1%
351,0,118,14.1%
352,0,118,14.1%
353,0,118,14.1%
354,0,118,14.1%
355,0,118,14.1%
356,0,118,14.1%
357,0,118,14.1%
358,0,118,14.1%
359,1,119,14.22%
360,3,122,14.58%
361,1,123,14.7%
362,0,123,14.7%
363,1,124,14.81%
364,0,124,14.81%
365,0,124,14.81%
366,0,124,14.81%
367,0,124,14.81%
368,0,124,14.81%
369,0,124,14.81%
370,0,124,14.81%
371,0,124,14.81%
372,1,125,14.93%
373,0,125,14.93%
374,0,125,14.93%
375,1,126,15.05%
376,0,126,15.05%
377,0,126,15.05%
378,1,127,15.17%
379,0,127,15.17%
380,1,128,15.29%
381,0,128,15.29%
382,0,128,15.29%
383,0,128,15.29%
384,0,128,15.29%
385,0,128,15.29%
386,0,128,15.29%
387,0,128,15.29%
388,0,128,15.29%
389,0,128,15.29%
390,0,128,15.29%
391,0,128,15.29%
392,0,128,15.29%
393,1,129,15.41%
394,0,129,15.41%
395,0,129,15.41%
396,0,129,15.41%
397,1,130,15.53%
398,1,131,15.65%
399,1,132,15.77%
400,0,132,15.77%
401,1,133,15.89%
402,0,133,15.89%
403,0,133,15.89%
404,0,133,15.89%
405,0,133,15.89%
406,2,135,16.13%
407,0,135,16.13%
408,0,135,16.13%
409,0,135,16.13%
410,0,135,16.13%
411,1,136,16.25%
412,0,136,16.25%
413,0,136,16.25%
414,0,136,16.25%
415,0,136,16.25%
416,0,136,16.25%
417,1,137,16.37%
418,0,137,16.37%
419,0,137,16.37%
420,0,137,16.37%
421,0,137,16.37%
422,1,138,16.49%
423,0,138,16.49%
424,0,138,16.49%
425,0,138,16.49%
426,1,139,16.61%
427,0,139,16.61%
428,0,139,16.61%
429,1,140,16.73%
430,2,142,16.97%
431,1,143,17.08%
432,0,143,17.08%
433,0,143,17.08%
434,2,145,17.32%
435,1,146,17.44%
436,0,146,17.44%
437,0,146,17.44%
438,1,147,17.56%
439,0,147,17.56%
440,0,147,17.56%
441,0,147,17.56%
442,0,147,17.56%
443,0,147,17.56%
444,0,147,17.56%
445,0,147,17.56%
446,1,148,17.68%
447,0,148,17.68%
448,0,148,17.68%
449,0,148,17.68%
450,1,149,17.8%
451,0,149,17.8%
452,0,149,17.8%
453,0,149,17.8%
454,0,149,17.8%
455,0,149,17.8%
456,0,149,17.8%
457,1,150,17.92%
458,0,150,17.92%
459,0,150,17.92%
460,0,150,17.92%
461,0,150,17.92%
462,0,150,17.92%
463,0,150,17.92%
464,0,150,17.92%
465,0,150,17.92%
466,0,150,17.92%
467,0,150,17.92%
468,0,150,17.92%
469,1,151,18.04%
470,0,151,18.04%
471,0,151,18.04%
472,0,151,18.04%
473,0,151,18.04%
474,0,151,18.04%
475,0,151,18.04%
476,0,151,18.04%
477,0,151,18.04%
478,0,151,18.04%
479,0,151,18.04%
480,0,151,18.04%
481,1,152,18.16%
482,0,152,18.16%
483,0,152,18.16%
484,0,152,18.16%
485,0,152,18.16%
486,0,152,18.16%
487,0,152,18.16%
488,0,152,18.16%
489,1,153,18.28%
490,1,154,18.4%
491,0,154,18.4%
492,0,154,18.4%
493,0,154,18.4%
494,0,154,18.4%
495,1,155,18.52%
496,0,155,18.52%
497,0,155,18.52%
498,0,155,18.52%
499,0,155,18.52%
500,0,155,18.52%
501,0,155,18.52%
502,0,155,18.52%
503,2,157,18.76%
504,0,157,18.76%
505,0,157,18.76%
506,0,157,18.76%
507,0,157,18.76%
508,0,157,18.76%
509,0,157,18.76%
510,0,157,18.76%
511,0,157,18.76%
512,1,158,18.88%
513,0,158,18.88%
514,1,159,19.0%
515,0,159,19.0%
516,0,159,19.0%
517,0,159,19.0%
518,0,159,19.0%
519,1,160,19.12%
520,0,160,19.12%
521,0,160,19.12%
522,0,160,19.12%
523,0,160,19.12%
524,0,160,19.12%
525,0,160,19.12%
526,0,160,19.12%
527,0,160,19.12%
528,0,160,19.12%
529,1,161,19.24%
530,0,161,19.24%
531,0,161,19.24%
532,0,161,19.24%
533,0,161,19.24%
534,0,161,19.24%
535,0,161,19.24%
536,0,161,19.24%
537,0,161,19.24%
538,0,161,19.24%
539,0,161,19.24%
540,0,161,19.24%
541,0,161,19.24%
542,0,161,19.24%
543,0,161,19.24%
544,0,161,19.24%
545,0,161,19.24%
546,0,161,19.24%
547,0,161,19.24%
548,0,161,19.24%
549,0,161,19.24%
550,0,161,19.24%
551,0,161,19.24%
552,0,161,19.24%
553,1,162,19.35%
554,1,163,19.47%
555,1,164,19.59%
556,0,164,19.59%
557,0,164,19.59%
558,0,164,19.59%
559,0,164,19.59%
560,0,164,19.59%
561,0,164,19.59%
562,0,164,19.59%
563,1,165,19.71%
564,0,165,19.71%
565,0,165,19.71%
566,0,165,19.71%
567,3,168,20.07%
568,0,168,20.07%
569,0,168,20.07%
570,0,168,20.07%
571,8,176,21.03%
572,0,176,21.03%
573,0,176,21.03%
574,1,177,21.15%
575,0,177,21.15%
576,0,177,21.15%
577,0,177,21.15%
578,0,177,21.15%
579,1,178,21.27%
580,0,178,21.27%
581,0,178,21.27%
582,0,178,21.27%
583,0,178,21.27%
584,0,178,21.27%
585,0,178,21.27%
586,0,178,21.27%
587,0,178,21.27%
588,2,180,21.51%
589,0,180,21.51%
590,0,180,21.51%
591,0,180,21.51%
592,1,181,21.62%
593,0,181,21.62%
594,0,181,21.62%
595,0,181,21.62%
596,0,181,21.62%
597,0,181,21.62%
598,1,182,21.74%
599,0,182,21.74%
600,0,182,21.74%
601,2,184,21.98%
602,0,184,21.98%
603,1,185,22.1%
604,1,186,22.22%
605,5,191,22.82%
606,0,191,22.82%
607,0,191,22.82%
608,0,191,22.82%
609,0,191,22.82%
610,0,191,22.82%
611,0,191,22.82%
612,0,191,22.82%
613,0,191,22.82%
614,0,191,22.82%
615,1,192,22.94%
616,0,192,22.94%
617,0,192,22.94%
618,0,192,22.94%
619,1,193,23.06%
620,0,193,23.06%
621,1,194,23.18%
622,1,195,23.3%
623,0,195,23.3%
624,0,195,23.3%
625,0,195,23.3%
626,0,195,23.3%
627,0,195,23.3%
628,0,195,23.3%
629,0,195,23.3%
630,1,196,23.42%
631,0,196,23.42%
632,0,196,23.42%
633,0,196,23.42%
634,0,196,23.42%
635,1,197,23.54%
636,0,197,23.54%
637,0,197,23.54%
638,0,197,23.54%
639,0,197,23.54%
640,0,197,23.54%
641,0,197,23.54%
642,0,197,23.54%
643,0,197,23.54%
644,0,197,23.54%
645,0,197,23.54%
646,0,197,23.54%
647,1,198,23.66%
648,0,198,23.66%
649,0,198,23.66%
650,0,198,23.66%
651,0,198,23.66%
652,0,198,23.66%
653,1,199,23.78%
654,0,199,23.78%
655,0,199,23.78%
656,1,200,23.89%
657,0,200,23.89%
658,0,200,23.89%
659,0,200,23.89%
660,0,200,23.89%
661,0,200,23.89%
662,0,200,23.89%
663,1,201,24.01%
664,0,201,24.01%
665,0,201,24.01%
666,1,202,24.13%
667,0,202,24.13%
668,0,202,24.13%
669,0,202,24.13%
670,0,202,24.13%
671,0,202,24.13%
672,0,202,24.13%
673,0,202,24.13%
674,0,202,24.13%
675,0,202,24.13%
676,0,202,24.13%
677,1,203,24.25%
678,0,203,24.25%
679,0,203,24.25%
680,0,203,24.25%
681,0,203,24.25%
682,0,203,24.25%
683,0,203,24.25%
684,0,203,24.25%
685,0,203,24.25%
686,1,204,24.37%
687,0,204,24.37%
688,9,213,25.45%
689,0,213,25.45%
690,1,214,25.57%
691,0,214,25.57%
692,0,214,25.57%
693,0,214,25.57%
694,0,214,25.57%
695,0,214,25.57%
696,0,214,25.57%
697,0,214,25.57%
698,0,214,25.57%
699,0,214,25.57%
700,1,215,25.69%
701,0,215,25.69%
702,1,216,25.81%
703,0,216,25.81%
704,0,216,25.81%
705,1,217,25.93%
706,0,217,25.93%
707,0,217,25.93%
708,1,218,26.05%
709,0,218,26.05%
710,0,218,26.05%
711,0,218,26.05%
712,0,218,26.05%
713,0,218,26.05%
714,0,218,26.05%
715,0,218,26.05%
716,0,218,26.05%
717,0,218,26.05%
718,0,218,26.05%
719,1,219,26.16%
720,1,220,26.28%
721,0,220,26.28%
722,0,220,26.28%
723,0,220,26.28%
724,0,220,26.28%
725,0,220,26.28%
726,0,220,26.28%
727,0,220,26.28%
728,0,220,26.28%
729,0,220,26.28%
730,0,220,26.28%
731,0,220,26.28%
732,0,220,26.28%
733,0,220,26.28%
734,0,220,26.28%
735,1,221,26.4%
736,0,221,26.4%
737,0,221,26.4%
738,0,221,26.4%
739,0,221,26.4%
740,0,221,26.4%
741,0,221,26.4%
742,0,221,26.4%
743,0,221,26.4%
744,1,222,26.52%
745,0,222,26.52%
746,0,222,26.52%
747,0,222,26.52%
748,0,222,26.52%
749,0,222,26.52%
750,0,222,26.52%
751,0,222,26.52%
752,0,222,26.52%
753,0,222,26.52%
754,1,223,26.64%
755,0,223,26.64%
756,0,223,26.64%
757,0,223,26.64%
758,0,223,26.64%
759,1,224,26.76%
760,0,224,26.76%
761,0,224,26.76%
762,1,225,26.88%
763,0,225,26.88%
764,0,225,26.88%
765,0,225,26.88%
766,0,225,26.88%
767,1,226,27.0%
768,1,227,27.12%
769,1,228,27.24%
770,1,229,27.36%
771,0,229,27.36%
772,0,229,27.36%
773,1,230,27.48%
774,1,231,27.6%
775,0,231,27.6%
776,0,231,27.6%
777,0,231,27.6%
778,1,232,27.72%
779,0,232,27.72%
780,0,232,27.72%
781,0,232,27.72%
782,0,232,27.72%
783,0,232,27.72%
784,0,232,27.72%
785,0,232,27.72%
786,0,232,27.72%
787,0,232,27.72%
788,0,232,27.72%
789,0,232,27.72%
790,0,232,27.72%
791,0,232,27.72%
792,0,232,27.72%
793,0,232,27.72%
794,0,232,27.72%
795,2,234,27.96%
796,0,234,27.96%
797,0,234,27.96%
798,1,235,28.08%
799,0,235,28.08%
800,0,235,28.08%
801,0,235,28.08%
802,0,235,28.08%
803,0,235,28.08%
804,0,235,28.08%
805,1,236,28.2%
806,0,236,28.2%
807,1,237,28.32%
808,0,237,28.32%
809,0,237,28.32%
810,0,237,28.32%
811,0,237,28.32%
812,2,239,28.55%
813,0,239,28.55%
814,1,240,28.67%
815,0,240,28.67%
816,1,241,28.79%
817,1,242,28.91%
818,0,242,28.91%
819,1,243,29.03%
820,0,243,29.03%
821,0,243,29.03%
822,0,243,29.03%
823,0,243,29.03%
824,0,243,29.03%
825,0,243,29.03%
826,1,244,29.15%
827,0,244,29.15%
828,0,244,29.15%
829,0,244,29.15%
830,0,244,29.15%
831,2,246,29.39%
832,1,247,29.51%
833,0,247,29.51%
834,0,247,29.51%
835,0,247,29.51%
836,0,247,29.51%
837,1,248,29.63%
838,0,248,29.63%
839,0,248,29.63%
840,0,248,29.63%
841,0,248,29.63%
842,0,248,29.63%
843,0,248,29.63%
844,0,248,29.63%
845,0,248,29.63%
846,0,248,29.63%
847,0,248,29.63%
848,0,248,29.63%
849,0,248,29.63%
850,0,248,29.63%
851,0,248,29.63%
852,1,249,29.75%
853,0,249,29.75%
854,0,249,29.75%
855,1,250,29.87%
856,0,250,29.87%
857,0,250,29.87%
858,0,250,29.87%
859,0,250,29.87%
860,1,251,29.99%
861,0,251,29.99%
862,0,251,29.99%
863,1,252,30.11%
864,2,254,30.35%
865,0,254,30.35%
866,0,254,30.35%
867,0,254,30.35%
868,0,254,30.35%
869,0,254,30.35%
870,0,254,30.35%
871,2,256,30.59%
872,0,256,30.59%
873,0,256,30.59%
874,0,256,30.59%
875,2,258,30.82%
876,0,258,30.82%
877,0,258,30.82%
878,0,258,30.82%
879,0,258,30.82%
880,0,258,30.82%
881,1,259,30.94%
882,2,261,31.18%
883,1,262,31.3%
884,2,264,31.54%
885,0,264,31.54%
886,0,264,31.54%
887,0,264,31.54%
888,0,264,31.54%
889,0,264,31.54%
890,0,264,31.54%
891,0,264,31.54%
892,0,264,31.54%
893,0,264,31.54%
894,0,264,31.54%
895,0,264,31.54%
896,0,264,31.54%
897,0,264,31.54%
898,1,265,31.66%
899,0,265,31.66%
900,0,265,31.66%
901,0,265,31.66%
902,0,265,31.66%
903,0,265,31.66%
904,1,266,31.78%
905,0,266,31.78%
906,0,266,31.78%
907,1,267,31.9%
908,0,267,31.9%
909,0,267,31.9%
910,0,267,31.9%
911,0,267,31.9%
912,0,267,31.9%
913,0,267,31.9%
914,0,267,31.9%
915,1,268,32.02%
916,0,268,32.02%
917,1,269,32.14%
918,0,269,32.14%
919,0,269,32.14%
920,0,269,32.14%
921,1,270,32.26%
922,0,270,32.26%
923,0,270,32.26%
924,0,270,32.26%
925,0,270,32.26%
926,0,270,32.26%
927,1,271,32.38%
928,0,271,32.38%
929,0,271,32.38%
930,0,271,32.38%
931,0,271,32.38%
932,1,272,32.5%
933,0,272,32.5%
934,0,272,32.5%
935,0,272,32.5%
936,0,272,32.5%
937,0,272,32.5%
938,0,272,32.5%
939,0,272,32.5%
940,0,272,32.5%
941,0,272,32.5%
942,0,272,32.5%
943,0,272,32.5%
944,1,273,32.62%
945,0,273,32.62%
946,1,274,32.74%
947,0,274,32.74%
948,1,275,32.86%
949,0,275,32.86%
950,1,276,32.97%
951,0,276,32.97%
952,0,276,32.97%
953,0,276,32.97%
954,0,276,32.97%
955,0,276,32.97%
956,0,276,32.97%
957,0,276,32.97%
958,0,276,32.97%
959,0,276,32.97%
960,0,276,32.97%
961,0,276,32.97%
962,0,276,32.97%
963,0,276,32.97%
964,0,276,32.97%
965,0,276,32.97%
966,0,276,32.97%
967,0,276,32.97%
968,0,276,32.97%
969,0,276,32.97%
970,0,276,32.97%
971,0,276,32.97%
972,0,276,32.97%
973,0,276,32.97%
974,0,276,32.97%
975,0,276,32.97%
976,0,276,32.97%
977,0,276,32.97%
978,0,276,32.97%
979,0,276,32.97%
980,0,276,32.97%
981,0,276,32.97%
982,0,276,32.97%
983,1,277,33.09%
984,1,278,33.21%
985,1,279,33.33%
986,0,279,33.33%
987,2,281,33.57%
988,0,281,33.57%
989,0,281,33.57%
990,0,281,33.57%
991,0,281,33.57%
992,0,281,33.57%
993,0,281,33.57%
994,0,281,33.57%
995,0,281,33.57%
996,1,282,33.69%
997,0,282,33.69%
998,0,282,33.69%
999,0,282,33.69%
1000,1,283,33.81%
1001,0,283,33.81%
1002,1,284,33.93%
1003,0,284,33.93%
1004,0,284,33.93%
1005,0,284,33.93%
1006,1,285,34.05%
1007,0,285,34.05%
1008,0,285,34.05%
1009,0,285,34.05%
1010,0,285,34.05%
1011,0,285,34.05%
1012,0,285,34.05%
1013,0,285,34.05%
1014,0,285,34.05%
1015,0,285,34.05%
1016,1,286,34.17%
1017,0,286,34.17%
1018,0,286,34.17%
1019,0,286,34.17%
1020,0,286,34.17%
1021,0,286,34.17%
1022,0,286,34.17%
1023,0,286,34.17%
1024,0,286,34.17%
1025,1,287,34.29%
1026,0,287,34.29%
1027,0,287,34.29%
1028,1,288,34.41%
1029,0,288,34.41%
1030,0,288,34.41%
1031,0,288,34.41%
1032,0,288,34.41%
1033,0,288,34.41%
1034,0,288,34.41%
1035,0,288,34.41%
1036,1,289,34.53%
1037,0,289,34.53%
1038,0,289,34.53%
1039,0,289,34.53%
1040,0,289,34.53%
1041,0,289,34.53%
1042,2,291,34.77%
1043,0,291,34.77%
1044,0,291,34.77%
1045,0,291,34.77%
1046,0,291,34.77%
1047,0,291,34.77%
1048,0,291,34.77%
1049,2,293,35.01%
1050,0,293,35.01%
1051,0,293,35.01%
1052,0,293,35.01%
1053,0,293,35.01%
1054,0,293,35.01%
1055,0,293,35.01%
1056,0,293,35.01%
1057,0,293,35.01%
1058,0,293,35.01%
1059,1,294,35.13%
1060,1,295,35.24%
1061,0,295,35.24%
1062,0,295,35.24%
1063,0,295,35.24%
1064,0,295,35.24%
1065,0,295,35.24%
1066,0,295,35.24%
1067,0,295,35.24%
1068,1,296,35.36%
1069,0,296,35.36%
1070,0,296,35.36%
1071,1,297,35.48%
1072,1,298,35.6%
1073,0,298,35.6%
1074,0,298,35.6%
1075,0,298,35.6%
1076,4,302,36.08%
1077,2,304,36.32%
1078,0,304,36.32%
1079,0,304,36.32%
1080,0,304,36.32%
1081,0,304,36.32%
1082,0,304,36.32%
1083,0,304,36.32%
1084,0,304,36.32%
1085,1,305,36.44%
1086,0,305,36.44%
1087,0,305,36.44%
1088,0,305,36.44%
1089,0,305,36.44%
1090,0,305,36.44%
1091,0,305,36.44%
1092,0,305,36.44%
1093,0,305,36.44%
1094,1,306,36.56%
1095,0,306,36.56%
1096,0,306,36.56%
1097,0,306,36.56%
1098,0,306,36.56%
1099,0,306,36.56%
1100,1,307,36.68%
1101,1,308,36.8%
1102,1,309,36.92%
1103,1,310,37.04%
1104,1,311,37.16%
1105,2,313,37.4%
1106,1,314,37.51%
1107,0,314,37.51%
1108,1,315,37.63%
1109,1,316,37.75%
1110,2,318,37.99%
1111,0,318,37.99%
1112,0,318,37.99%
1113,1,319,38.11%
1114,1,320,38.23%
1115,3,323,38.59%
1116,5,328,39.19%
1117,0,328,39.19%
1118,2,330,39.43%
1119,2,332,39.67%
1120,1,333,39.78%
1121,1,334,39.9%
1122,0,334,39.9%
1123,1,335,40.02%
1124,0,335,40.02%
1125,6,341,40.74%
1126,2,343,40.98%
1127,0,343,40.98%
1128,1,344,41.1%
1129,1,345,41.22%
1130,0,345,41.22%
1131,2,347,41.46%
1132,0,347,41.46%
1133,3,350,41.82%
1134,487,837,100.0%
