Length, Count, Sum (Counts <= Length), Percent of Nonzero Data, Nonzero Data Count = 858, Zero Data Count = 986
1,1,1,0.12%
2,0,1,0.12%
3,1,2,0.23%
4,0,2,0.23%
5,0,2,0.23%
6,0,2,0.23%
7,0,2,0.23%
8,0,2,0.23%
9,0,2,0.23%
10,0,2,0.23%
11,0,2,0.23%
12,0,2,0.23%
13,0,2,0.23%
14,0,2,0.23%
15,0,2,0.23%
16,0,2,0.23%
17,0,2,0.23%
18,0,2,0.23%
19,0,2,0.23%
20,0,2,0.23%
21,0,2,0.23%
22,0,2,0.23%
23,0,2,0.23%
24,1,3,0.35%
25,0,3,0.35%
26,0,3,0.35%
27,0,3,0.35%
28,1,4,0.47%
29,0,4,0.47%
30,0,4,0.47%
31,0,4,0.47%
32,0,4,0.47%
33,0,4,0.47%
34,1,5,0.58%
35,0,5,0.58%
36,0,5,0.58%
37,0,5,0.58%
38,1,6,0.7%
39,1,7,0.82%
40,0,7,0.82%
41,0,7,0.82%
42,1,8,0.93%
43,0,8,0.93%
44,0,8,0.93%
45,0,8,0.93%
46,0,8,0.93%
47,0,8,0.93%
48,0,8,0.93%
49,0,8,0.93%
50,0,8,0.93%
51,1,9,1.05%
52,3,12,1.4%
53,0,12,1.4%
54,0,12,1.4%
55,0,12,1.4%
56,0,12,1.4%
57,0,12,1.4%
58,0,12,1.4%
59,0,12,1.4%
60,0,12,1.4%
61,0,12,1.4%
62,0,12,1.4%
63,1,13,1.52%
64,0,13,1.52%
65,0,13,1.52%
66,0,13,1.52%
67,0,13,1.52%
68,0,13,1.52%
69,0,13,1.52%
70,0,13,1.52%
71,0,13,1.52%
72,0,13,1.52%
73,0,13,1.52%
74,0,13,1.52%
75,0,13,1.52%
76,0,13,1.52%
77,0,13,1.52%
78,0,13,1.52%
79,0,13,1.52%
80,0,13,1.52%
81,1,14,1.63%
82,0,14,1.63%
83,0,14,1.63%
84,0,14,1.63%
85,1,15,1.75%
86,0,15,1.75%
87,0,15,1.75%
88,0,15,1.75%
89,0,15,1.75%
90,0,15,1.75%
91,0,15,1.75%
92,1,16,1.86%
93,0,16,1.86%
94,0,16,1.86%
95,0,16,1.86%
96,1,17,1.98%
97,0,17,1.98%
98,0,17,1.98%
99,0,17,1.98%
100,0,17,1.98%
101,0,17,1.98%
102,1,18,2.1%
103,0,18,2.1%
104,0,18,2.1%
105,0,18,2.1%
106,1,19,2.21%
107,0,19,2.21%
108,0,19,2.21%
109,0,19,2.21%
110,1,20,2.33%
111,0,20,2.33%
112,0,20,2.33%
113,0,20,2.33%
114,0,20,2.33%
115,1,21,2.45%
116,0,21,2.45%
117,0,21,2.45%
118,0,21,2.45%
119,0,21,2.45%
120,0,21,2.45%
121,0,21,2.45%
122,0,21,2.45%
123,0,21,2.45%
124,0,21,2.45%
125,2,23,2.68%
126,0,23,2.68%
127,1,24,2.8%
128,1,25,2.91%
129,0,25,2.91%
130,0,25,2.91%
131,0,25,2.91%
132,1,26,3.03%
133,0,26,3.03%
134,0,26,3.03%
135,0,26,3.03%
136,0,26,3.03%
137,0,26,3.03%
138,0,26,3.03%
139,0,26,3.03%
140,0,26,3.03%
141,0,26,3.03%
142,0,26,3.03%
143,0,26,3.03%
144,0,26,3.03%
145,2,28,3.26%
146,0,28,3.26%
147,0,28,3.26%
148,0,28,3.26%
149,0,28,3.26%
150,1,29,3.38%
151,1,30,3.5%
152,0,30,3.5%
153,0,30,3.5%
154,0,30,3.5%
155,1,31,3.61%
156,1,32,3.73%
157,0,32,3.73%
158,0,32,3.73%
159,0,32,3.73%
160,0,32,3.73%
161,2,34,3.96%
162,0,34,3.96%
163,0,34,3.96%
164,0,34,3.96%
165,0,34,3.96%
166,0,34,3.96%
167,2,36,4.2%
168,0,36,4.2%
169,0,36,4.2%
170,1,37,4.31%
171,0,37,4.31%
172,0,37,4.31%
173,0,37,4.31%
174,0,37,4.31%
175,1,38,4.43%
176,0,38,4.43%
177,0,38,4.43%
178,0,38,4.43%
179,0,38,4.43%
180,0,38,4.43%
181,1,39,4.55%
182,0,39,4.55%
183,0,39,4.55%
184,1,40,4.66%
185,0,40,4.66%
186,0,40,4.66%
187,0,40,4.66%
188,0,40,4.66%
189,0,40,4.66%
190,0,40,4.66%
191,0,40,4.66%
192,0,40,4.66%
193,1,41,4.78%
194,0,41,4.78%
195,0,41,4.78%
196,0,41,4.78%
197,0,41,4.78%
198,0,41,4.78%
199,0,41,4.78%
200,2,43,5.01%
201,1,44,5.13%
202,1,45,5.24%
203,0,45,5.24%
204,0,45,5.24%
205,1,46,5.36%
206,1,47,5.48%
207,0,47,5.48%
208,0,47,5.48%
209,0,47,5.48%
210,0,47,5.48%
211,0,47,5.48%
212,1,48,5.59%
213,1,49,5.71%
214,0,49,5.71%
215,1,50,5.83%
216,0,50,5.83%
217,0,50,5.83%
218,0,50,5.83%
219,0,50,5.83%
220,0,50,5.83%
221,0,50,5.83%
222,0,50,5.83%
223,0,50,5.83%
224,0,50,5.83%
225,0,50,5.83%
226,0,50,5.83%
227,0,50,5.83%
228,0,50,5.83%
229,0,50,5.83%
230,1,51,5.94%
231,1,52,6.06%
232,0,52,6.06%
233,0,52,6.06%
234,0,52,6.06%
235,0,52,6.06%
236,1,53,6.18%
237,0,53,6.18%
238,0,53,6.18%
239,0,53,6.18%
240,0,53,6.18%
241,0,53,6.18%
242,0,53,6.18%
243,1,54,6.29%
244,1,55,6.41%
245,0,55,6.41%
246,0,55,6.41%
247,0,55,6.41%
248,0,55,6.41%
249,0,55,6.41%
250,0,55,6.41%
251,0,55,6.41%
252,1,56,6.53%
253,1,57,6.64%
254,0,57,6.64%
255,1,58,6.76%
256,0,58,6.76%
257,0,58,6.76%
258,0,58,6.76%
259,1,59,6.88%
260,0,59,6.88%
261,0,59,6.88%
262,0,59,6.88%
263,1,60,6.99%
264,0,60,6.99%
265,1,61,7.11%
266,0,61,7.11%
267,0,61,7.11%
268,0,61,7.11%
269,0,61,7.11%
270,3,64,7.46%
271,0,64,7.46%
272,0,64,7.46%
273,0,64,7.46%
274,1,65,7.58%
275,0,65,7.58%
276,0,65,7.58%
277,0,65,7.58%
278,0,65,7.58%
279,0,65,7.58%
280,0,65,7.58%
281,0,65,7.58%
282,0,65,7.58%
283,0,65,7.58%
284,0,65,7.58%
285,0,65,7.58%
286,0,65,7.58%
287,0,65,7.58%
288,1,66,7.69%
289,0,66,7.69%
290,0,66,7.69%
291,0,66,7.69%
292,0,66,7.69%
293,0,66,7.69%
294,2,68,7.93%
295,0,68,7.93%
296,0,68,7.93%
297,0,68,7.93%
298,0,68,7.93%
299,0,68,7.93%
300,0,68,7.93%
301,0,68,7.93%
302,0,68,7.93%
303,2,70,8.16%
304,0,70,8.16%
305,1,71,8.28%
306,0,71,8.28%
307,0,71,8.28%
308,0,71,8.28%
309,0,71,8.28%
310,0,71,8.28%
311,2,73,8.51%
312,0,73,8.51%
313,0,73,8.51%
314,0,73,8.51%
315,0,73,8.51%
316,1,74,8.62%
317,0,74,8.62%
318,0,74,8.62%
319,0,74,8.62%
320,0,74,8.62%
321,0,74,8.62%
322,0,74,8.62%
323,0,74,8.62%
324,0,74,8.62%
325,2,76,8.86%
326,1,77,8.97%
327,0,77,8.97%
328,0,77,8.97%
329,0,77,8.97%
330,0,77,8.97%
331,0,77,8.97%
332,0,77,8.97%
333,0,77,8.97%
334,1,78,9.09%
335,0,78,9.09%
336,0,78,9.09%
337,0,78,9.09%
338,0,78,9.09%
339,0,78,9.09%
340,0,78,9.09%
341,0,78,9.09%
342,0,78,9.09%
343,1,79,9.21%
344,0,79,9.21%
345,0,79,9.21%
346,1,80,9.32%
347,0,80,9.32%
348,0,80,9.32%
349,1,81,9.44%
350,1,82,9.56%
351,15,97,11.31%
352,10,107,12.47%
353,0,107,12.47%
354,0,107,12.47%
355,0,107,12.47%
356,0,107,12.47%
357,0,107,12.47%
358,5,112,13.05%
359,0,112,13.05%
360,3,115,13.4%
361,1,116,13.52%
362,0,116,13.52%
363,1,117,13.64%
364,0,117,13.64%
365,0,117,13.64%
366,1,118,13.75%
367,0,118,13.75%
368,0,118,13.75%
369,0,118,13.75%
370,0,118,13.75%
371,0,118,13.75%
372,2,120,13.99%
373,0,120,13.99%
374,0,120,13.99%
375,0,120,13.99%
376,0,120,13.99%
377,0,120,13.99%
378,0,120,13.99%
379,0,120,13.99%
380,0,120,13.99%
381,0,120,13.99%
382,1,121,14.1%
383,0,121,14.1%
384,0,121,14.1%
385,0,121,14.1%
386,0,121,14.1%
387,0,121,14.1%
388,0,121,14.1%
389,0,121,14.1%
390,1,122,14.22%
391,0,122,14.22%
392,0,122,14.22%
393,1,123,14.34%
394,0,123,14.34%
395,0,123,14.34%
396,0,123,14.34%
397,1,124,14.45%
398,0,124,14.45%
399,1,125,14.57%
400,0,125,14.57%
401,0,125,14.57%
402,0,125,14.57%
403,0,125,14.57%
404,0,125,14.57%
405,0,125,14.57%
406,2,127,14.8%
407,0,127,14.8%
408,0,127,14.8%
409,1,128,14.92%
410,0,128,14.92%
411,0,128,14.92%
412,1,129,15.03%
413,0,129,15.03%
414,0,129,15.03%
415,0,129,15.03%
416,0,129,15.03%
417,0,129,15.03%
418,0,129,15.03%
419,0,129,15.03%
420,0,129,15.03%
421,0,129,15.03%
422,2,131,15.27%
423,0,131,15.27%
424,1,132,15.38%
425,0,132,15.38%
426,0,132,15.38%
427,0,132,15.38%
428,0,132,15.38%
429,0,132,15.38%
430,0,132,15.38%
431,0,132,15.38%
432,0,132,15.38%
433,0,132,15.38%
434,0,132,15.38%
435,1,133,15.5%
436,0,133,15.5%
437,1,134,15.62%
438,0,134,15.62%
439,0,134,15.62%
440,1,135,15.73%
441,1,136,15.85%
442,0,136,15.85%
443,0,136,15.85%
444,0,136,15.85%
445,0,136,15.85%
446,1,137,15.97%
447,0,137,15.97%
448,0,137,15.97%
449,0,137,15.97%
450,0,137,15.97%
451,0,137,15.97%
452,0,137,15.97%
453,2,139,16.2%
454,0,139,16.2%
455,1,140,16.32%
456,0,140,16.32%
457,1,141,16.43%
458,0,141,16.43%
459,1,142,16.55%
460,0,142,16.55%
461,0,142,16.55%
462,0,142,16.55%
463,0,142,16.55%
464,0,142,16.55%
465,1,143,16.67%
466,0,143,16.67%
467,0,143,16.67%
468,1,144,16.78%
469,0,144,16.78%
470,0,144,16.78%
471,0,144,16.78%
472,0,144,16.78%
473,0,144,16.78%
474,0,144,16.78%
475,0,144,16.78%
476,0,144,16.78%
477,0,144,16.78%
478,0,144,16.78%
479,1,145,16.9%
480,1,146,17.02%
481,1,147,17.13%
482,1,148,17.25%
483,0,148,17.25%
484,0,148,17.25%
485,0,148,17.25%
486,0,148,17.25%
487,2,150,17.48%
488,0,150,17.48%
489,0,150,17.48%
490,1,151,17.6%
491,1,152,17.72%
492,0,152,17.72%
493,0,152,17.72%
494,1,153,17.83%
495,1,154,17.95%
496,1,155,18.07%
497,0,155,18.07%
498,0,155,18.07%
499,0,155,18.07%
500,0,155,18.07%
501,0,155,18.07%
502,0,155,18.07%
503,1,156,18.18%
504,0,156,18.18%
505,0,156,18.18%
506,0,156,18.18%
507,0,156,18.18%
508,0,156,18.18%
509,0,156,18.18%
510,0,156,18.18%
511,0,156,18.18%
512,0,156,18.18%
513,0,156,18.18%
514,0,156,18.18%
515,0,156,18.18%
516,1,157,18.3%
517,0,157,18.3%
518,0,157,18.3%
519,1,158,18.41%
520,0,158,18.41%
521,0,158,18.41%
522,0,158,18.41%
523,0,158,18.41%
524,0,158,18.41%
525,1,159,18.53%
526,0,159,18.53%
527,0,159,18.53%
528,1,160,18.65%
529,1,161,18.76%
530,0,161,18.76%
531,0,161,18.76%
532,1,162,18.88%
533,0,162,18.88%
534,0,162,18.88%
535,0,162,18.88%
536,0,162,18.88%
537,0,162,18.88%
538,0,162,18.88%
539,0,162,18.88%
540,0,162,18.88%
541,0,162,18.88%
542,0,162,18.88%
543,0,162,18.88%
544,0,162,18.88%
545,0,162,18.88%
546,2,164,19.11%
547,1,165,19.23%
548,0,165,19.23%
549,0,165,19.23%
550,0,165,19.23%
551,0,165,19.23%
552,0,165,19.23%
553,0,165,19.23%
554,0,165,19.23%
555,0,165,19.23%
556,0,165,19.23%
557,0,165,19.23%
558,0,165,19.23%
559,0,165,19.23%
560,0,165,19.23%
561,0,165,19.23%
562,1,166,19.35%
563,0,166,19.35%
564,1,167,19.46%
565,0,167,19.46%
566,0,167,19.46%
567,2,169,19.7%
568,0,169,19.7%
569,0,169,19.7%
570,0,169,19.7%
571,1,170,19.81%
572,0,170,19.81%
573,2,172,20.05%
574,0,172,20.05%
575,0,172,20.05%
576,8,180,20.98%
577,0,180,20.98%
578,0,180,20.98%
579,1,181,21.1%
580,0,181,21.1%
581,0,181,21.1%
582,0,181,21.1%
583,0,181,21.1%
584,0,181,21.1%
585,1,182,21.21%
586,0,182,21.21%
587,0,182,21.21%
588,0,182,21.21%
589,0,182,21.21%
590,1,183,21.33%
591,0,183,21.33%
592,0,183,21.33%
593,0,183,21.33%
594,0,183,21.33%
595,0,183,21.33%
596,1,184,21.45%
597,0,184,21.45%
598,1,185,21.56%
599,1,186,21.68%
600,0,186,21.68%
601,0,186,21.68%
602,0,186,21.68%
603,1,187,21.79%
604,1,188,21.91%
605,0,188,21.91%
606,0,188,21.91%
607,0,188,21.91%
608,0,188,21.91%
609,0,188,21.91%
610,0,188,21.91%
611,0,188,21.91%
612,0,188,21.91%
613,0,188,21.91%
614,1,189,22.03%
615,0,189,22.03%
616,0,189,22.03%
617,0,189,22.03%
618,0,189,22.03%
619,0,189,22.03%
620,0,189,22.03%
621,2,191,22.26%
622,1,192,22.38%
623,0,192,22.38%
624,0,192,22.38%
625,0,192,22.38%
626,2,194,22.61%
627,0,194,22.61%
628,0,194,22.61%
629,0,194,22.61%
630,0,194,22.61%
631,0,194,22.61%
632,1,195,22.73%
633,0,195,22.73%
634,0,195,22.73%
635,1,196,22.84%
636,0,196,22.84%
637,1,197,22.96%
638,0,197,22.96%
639,0,197,22.96%
640,0,197,22.96%
641,0,197,22.96%
642,0,197,22.96%
643,0,197,22.96%
644,0,197,22.96%
645,0,197,22.96%
646,0,197,22.96%
647,1,198,23.08%
648,0,198,23.08%
649,1,199,23.19%
650,0,199,23.19%
651,0,199,23.19%
652,0,199,23.19%
653,1,200,23.31%
654,0,200,23.31%
655,0,200,23.31%
656,1,201,23.43%
657,0,201,23.43%
658,0,201,23.43%
659,0,201,23.43%
660,0,201,23.43%
661,0,201,23.43%
662,0,201,23.43%
663,0,201,23.43%
664,0,201,23.43%
665,0,201,23.43%
666,0,201,23.43%
667,0,201,23.43%
668,0,201,23.43%
669,0,201,23.43%
670,0,201,23.43%
671,0,201,23.43%
672,0,201,23.43%
673,0,201,23.43%
674,0,201,23.43%
675,0,201,23.43%
676,1,202,23.54%
677,0,202,23.54%
678,0,202,23.54%
679,1,203,23.66%
680,0,203,23.66%
681,0,203,23.66%
682,0,203,23.66%
683,1,204,23.78%
684,0,204,23.78%
685,0,204,23.78%
686,0,204,23.78%
687,0,204,23.78%
688,0,204,23.78%
689,0,204,23.78%
690,0,204,23.78%
691,0,204,23.78%
692,0,204,23.78%
693,5,209,24.36%
694,0,209,24.36%
695,0,209,24.36%
696,0,209,24.36%
697,0,209,24.36%
698,0,209,24.36%
699,0,209,24.36%
700,0,209,24.36%
701,0,209,24.36%
702,0,209,24.36%
703,0,209,24.36%
704,1,210,24.48%
705,1,211,24.59%
706,0,211,24.59%
707,0,211,24.59%
708,0,211,24.59%
709,0,211,24.59%
710,0,211,24.59%
711,0,211,24.59%
712,0,211,24.59%
713,0,211,24.59%
714,0,211,24.59%
715,0,211,24.59%
716,0,211,24.59%
717,0,211,24.59%
718,0,211,24.59%
719,1,212,24.71%
720,0,212,24.71%
721,0,212,24.71%
722,0,212,24.71%
723,0,212,24.71%
724,0,212,24.71%
725,1,213,24.83%
726,0,213,24.83%
727,0,213,24.83%
728,0,213,24.83%
729,0,213,24.83%
730,0,213,24.83%
731,0,213,24.83%
732,0,213,24.83%
733,0,213,24.83%
734,0,213,24.83%
735,1,214,24.94%
736,0,214,24.94%
737,0,214,24.94%
738,0,214,24.94%
739,1,215,25.06%
740,1,216,25.17%
741,1,217,25.29%
742,0,217,25.29%
743,0,217,25.29%
744,1,218,25.41%
745,0,218,25.41%
746,0,218,25.41%
747,1,219,25.52%
748,0,219,25.52%
749,0,219,25.52%
750,0,219,25.52%
751,0,219,25.52%
752,0,219,25.52%
753,1,220,25.64%
754,2,222,25.87%
755,0,222,25.87%
756,0,222,25.87%
757,0,222,25.87%
758,0,222,25.87%
759,0,222,25.87%
760,0,222,25.87%
761,0,222,25.87%
762,0,222,25.87%
763,0,222,25.87%
764,0,222,25.87%
765,0,222,25.87%
766,0,222,25.87%
767,0,222,25.87%
768,0,222,25.87%
769,1,223,25.99%
770,0,223,25.99%
771,0,223,25.99%
772,0,223,25.99%
773,0,223,25.99%
774,1,224,26.11%
775,2,226,26.34%
776,0,226,26.34%
777,0,226,26.34%
778,1,227,26.46%
779,1,228,26.57%
780,0,228,26.57%
781,0,228,26.57%
782,0,228,26.57%
783,0,228,26.57%
784,0,228,26.57%
785,1,229,26.69%
786,0,229,26.69%
787,0,229,26.69%
788,1,230,26.81%
789,0,230,26.81%
790,0,230,26.81%
791,0,230,26.81%
792,1,231,26.92%
793,0,231,26.92%
794,0,231,26.92%
795,2,233,27.16%
796,0,233,27.16%
797,0,233,27.16%
798,0,233,27.16%
799,0,233,27.16%
800,0,233,27.16%
801,0,233,27.16%
802,0,233,27.16%
803,0,233,27.16%
804,1,234,27.27%
805,0,234,27.27%
806,0,234,27.27%
807,0,234,27.27%
808,2,236,27.51%
809,0,236,27.51%
810,0,236,27.51%
811,0,236,27.51%
812,0,236,27.51%
813,0,236,27.51%
814,0,236,27.51%
815,0,236,27.51%
816,2,238,27.74%
817,0,238,27.74%
818,0,238,27.74%
819,0,238,27.74%
820,0,238,27.74%
821,0,238,27.74%
822,0,238,27.74%
823,0,238,27.74%
824,0,238,27.74%
825,0,238,27.74%
826,0,238,27.74%
827,0,238,27.74%
828,0,238,27.74%
829,0,238,27.74%
830,0,238,27.74%
831,0,238,27.74%
832,0,238,27.74%
833,0,238,27.74%
834,0,238,27.74%
835,0,238,27.74%
836,0,238,27.74%
837,1,239,27.86%
838,0,239,27.86%
839,0,239,27.86%
840,1,240,27.97%
841,0,240,27.97%
842,0,240,27.97%
843,0,240,27.97%
844,1,241,28.09%
845,0,241,28.09%
846,0,241,28.09%
847,0,241,28.09%
848,0,241,28.09%
849,0,241,28.09%
850,0,241,28.09%
851,0,241,28.09%
852,0,241,28.09%
853,1,242,28.21%
854,0,242,28.21%
855,0,242,28.21%
856,1,243,28.32%
857,0,243,28.32%
858,0,243,28.32%
859,0,243,28.32%
860,0,243,28.32%
861,0,243,28.32%
862,0,243,28.32%
863,0,243,28.32%
864,0,243,28.32%
865,0,243,28.32%
866,0,243,28.32%
867,0,243,28.32%
868,0,243,28.32%
869,0,243,28.32%
870,0,243,28.32%
871,1,244,28.44%
872,0,244,28.44%
873,0,244,28.44%
874,0,244,28.44%
875,9,253,29.49%
876,1,254,29.6%
877,1,255,29.72%
878,0,255,29.72%
879,0,255,29.72%
880,0,255,29.72%
881,1,256,29.84%
882,0,256,29.84%
883,0,256,29.84%
884,1,257,29.95%
885,0,257,29.95%
886,0,257,29.95%
887,0,257,29.95%
888,0,257,29.95%
889,0,257,29.95%
890,0,257,29.95%
891,0,257,29.95%
892,1,258,30.07%
893,0,258,30.07%
894,0,258,30.07%
895,0,258,30.07%
896,1,259,30.19%
897,0,259,30.19%
898,0,259,30.19%
899,0,259,30.19%
900,0,259,30.19%
901,1,260,30.3%
902,0,260,30.3%
903,0,260,30.3%
904,1,261,30.42%
905,0,261,30.42%
906,1,262,30.54%
907,2,264,30.77%
908,0,264,30.77%
909,0,264,30.77%
910,0,264,30.77%
911,0,264,30.77%
912,0,264,30.77%
913,0,264,30.77%
914,0,264,30.77%
915,0,264,30.77%
916,0,264,30.77%
917,0,264,30.77%
918,0,264,30.77%
919,0,264,30.77%
920,0,264,30.77%
921,0,264,30.77%
922,0,264,30.77%
923,0,264,30.77%
924,0,264,30.77%
925,0,264,30.77%
926,0,264,30.77%
927,1,265,30.89%
928,2,267,31.12%
929,0,267,31.12%
930,0,267,31.12%
931,1,268,31.24%
932,0,268,31.24%
933,0,268,31.24%
934,0,268,31.24%
935,1,269,31.35%
936,0,269,31.35%
937,1,270,31.47%
938,0,270,31.47%
939,0,270,31.47%
940,0,270,31.47%
941,0,270,31.47%
942,1,271,31.59%
943,0,271,31.59%
944,0,271,31.59%
945,0,271,31.59%
946,1,272,31.7%
947,0,272,31.7%
948,0,272,31.7%
949,0,272,31.7%
950,0,272,31.7%
951,0,272,31.7%
952,0,272,31.7%
953,0,272,31.7%
954,1,273,31.82%
955,0,273,31.82%
956,1,274,31.93%
957,0,274,31.93%
958,0,274,31.93%
959,0,274,31.93%
960,2,276,32.17%
961,0,276,32.17%
962,0,276,32.17%
963,0,276,32.17%
964,1,277,32.28%
965,0,277,32.28%
966,0,277,32.28%
967,0,277,32.28%
968,0,277,32.28%
969,0,277,32.28%
970,0,277,32.28%
971,0,277,32.28%
972,0,277,32.28%
973,0,277,32.28%
974,0,277,32.28%
975,0,277,32.28%
976,0,277,32.28%
977,0,277,32.28%
978,0,277,32.28%
979,1,278,32.4%
980,0,278,32.4%
981,0,278,32.4%
982,0,278,32.4%
983,0,278,32.4%
984,0,278,32.4%
985,1,279,32.52%
986,0,279,32.52%
987,1,280,32.63%
988,0,280,32.63%
989,1,281,32.75%
990,0,281,32.75%
991,1,282,32.87%
992,0,282,32.87%
993,0,282,32.87%
994,1,283,32.98%
995,0,283,32.98%
996,0,283,32.98%
997,0,283,32.98%
998,1,284,33.1%
999,1,285,33.22%
1000,0,285,33.22%
1001,0,285,33.22%
1002,0,285,33.22%
1003,0,285,33.22%
1004,1,286,33.33%
1005,0,286,33.33%
1006,1,287,33.45%
1007,0,287,33.45%
1008,0,287,33.45%
1009,0,287,33.45%
1010,0,287,33.45%
1011,0,287,33.45%
1012,0,287,33.45%
1013,1,288,33.57%
1014,0,288,33.57%
1015,0,288,33.57%
1016,1,289,33.68%
1017,0,289,33.68%
1018,0,289,33.68%
1019,0,289,33.68%
1020,0,289,33.68%
1021,0,289,33.68%
1022,0,289,33.68%
1023,0,289,33.68%
1024,0,289,33.68%
1025,1,290,33.8%
1026,0,290,33.8%
1027,0,290,33.8%
1028,0,290,33.8%
1029,1,291,33.92%
1030,0,291,33.92%
1031,1,292,34.03%
1032,0,292,34.03%
1033,1,293,34.15%
1034,0,293,34.15%
1035,0,293,34.15%
1036,0,293,34.15%
1037,0,293,34.15%
1038,0,293,34.15%
1039,0,293,34.15%
1040,0,293,34.15%
1041,0,293,34.15%
1042,0,293,34.15%
1043,0,293,34.15%
1044,0,293,34.15%
1045,0,293,34.15%
1046,0,293,34.15%
1047,0,293,34.15%
1048,0,293,34.15%
1049,0,293,34.15%
1050,0,293,34.15%
1051,1,294,34.27%
1052,0,294,34.27%
1053,0,294,34.27%
1054,0,294,34.27%
1055,0,294,34.27%
1056,0,294,34.27%
1057,0,294,34.27%
1058,1,295,34.38%
1059,0,295,34.38%
1060,0,295,34.38%
1061,0,295,34.38%
1062,0,295,34.38%
1063,0,295,34.38%
1064,0,295,34.38%
1065,0,295,34.38%
1066,0,295,34.38%
1067,0,295,34.38%
1068,1,296,34.5%
1069,1,297,34.62%
1070,1,298,34.73%
1071,0,298,34.73%
1072,1,299,34.85%
1073,0,299,34.85%
1074,0,299,34.85%
1075,0,299,34.85%
1076,4,303,35.31%
1077,0,303,35.31%
1078,0,303,35.31%
1079,0,303,35.31%
1080,0,303,35.31%
1081,0,303,35.31%
1082,0,303,35.31%
1083,1,304,35.43%
1084,0,304,35.43%
1085,0,304,35.43%
1086,0,304,35.43%
1087,0,304,35.43%
1088,0,304,35.43%
1089,0,304,35.43%
1090,0,304,35.43%
1091,0,304,35.43%
1092,0,304,35.43%
1093,0,304,35.43%
1094,1,305,35.55%
1095,0,305,35.55%
1096,1,306,35.66%
1097,0,306,35.66%
1098,0,306,35.66%
1099,0,306,35.66%
1100,1,307,35.78%
1101,1,308,35.9%
1102,1,309,36.01%
1103,1,310,36.13%
1104,1,311,36.25%
1105,2,313,36.48%
1106,1,314,36.6%
1107,0,314,36.6%
1108,1,315,36.71%
1109,2,317,36.95%
1110,2,319,37.18%
1111,0,319,37.18%
1112,0,319,37.18%
1113,1,320,37.3%
1114,1,321,37.41%
1115,3,324,37.76%
1116,5,329,38.34%
1117,0,329,38.34%
1118,1,330,38.46%
1119,2,332,38.69%
1120,1,333,38.81%
1121,1,334,38.93%
1122,0,334,38.93%
1123,0,334,38.93%
1124,1,335,39.04%
1125,4,339,39.51%
1126,2,341,39.74%
1127,0,341,39.74%
1128,1,342,39.86%
1129,1,343,39.98%
1130,0,343,39.98%
1131,2,345,40.21%
1132,0,345,40.21%
1133,3,348,40.56%
1134,2,350,40.79%
1135,0,350,40.79%
1136,0,350,40.79%
1137,2,352,41.03%
1138,0,352,41.03%
1139,1,353,41.14%
1140,1,354,41.26%
1141,5,359,41.84%
1142,1,360,41.96%
1143,4,364,42.42%
1144,2,366,42.66%
1145,3,369,43.01%
1146,1,370,43.12%
1147,1,371,43.24%
1148,3,374,43.59%
1149,6,380,44.29%
1150,0,380,44.29%
1151,1,381,44.41%
1152,0,381,44.41%
1153,0,381,44.41%
1154,1,382,44.52%
1155,1,383,44.64%
1156,0,383,44.64%
1157,2,385,44.87%
1158,4,389,45.34%
1159,2,391,45.57%
1160,3,394,45.92%
1161,0,394,45.92%
1162,3,397,46.27%
1163,2,399,46.5%
1164,0,399,46.5%
1165,0,399,46.5%
1166,0,399,46.5%
1167,0,399,46.5%
1168,4,403,46.97%
1169,3,406,47.32%
1170,2,408,47.55%
1171,1,409,47.67%
1172,0,409,47.67%
1173,7,416,48.48%
1174,3,419,48.83%
1175,0,419,48.83%
1176,1,420,48.95%
1177,0,420,48.95%
1178,1,421,49.07%
1179,1,422,49.18%
1180,1,423,49.3%
1181,0,423,49.3%
1182,1,424,49.42%
1183,6,430,50.12%
1184,10,440,51.28%
1185,2,442,51.52%
1186,2,444,51.75%
1187,6,450,52.45%
1188,0,450,52.45%
1189,1,451,52.56%
1190,0,451,52.56%
1191,4,455,53.03%
1192,2,457,53.26%
1193,1,458,53.38%
1194,2,460,53.61%
1195,0,460,53.61%
1196,2,462,53.85%
1197,3,465,54.2%
1198,2,467,54.43%
1199,3,470,54.78%
1200,0,470,54.78%
1201,1,471,54.9%
1202,0,471,54.9%
1203,4,475,55.36%
1204,2,477,55.59%
1205,0,477,55.59%
1206,0,477,55.59%
1207,2,479,55.83%
1208,0,479,55.83%
1209,0,479,55.83%
1210,0,479,55.83%
1211,1,480,55.94%
1212,1,481,56.06%
1213,0,481,56.06%
1214,0,481,56.06%
1215,0,481,56.06%
1216,0,481,56.06%
1217,2,483,56.29%
1218,0,483,56.29%
1219,0,483,56.29%
1220,0,483,56.29%
1221,1,484,56.41%
1222,4,488,56.88%
1223,0,488,56.88%
1224,0,488,56.88%
1225,1,489,56.99%
1226,1,490,57.11%
1227,0,490,57.11%
1228,0,490,57.11%
1229,2,492,57.34%
1230,2,494,57.58%
1231,3,497,57.93%
1232,3,500,58.28%
1233,1,501,58.39%
1234,0,501,58.39%
1235,1,502,58.51%
1236,2,504,58.74%
1237,2,506,58.97%
1238,1,507,59.09%
1239,0,507,59.09%
1240,4,511,59.56%
1241,7,518,60.37%
1242,4,522,60.84%
1243,1,523,60.96%
1244,0,523,60.96%
1245,0,523,60.96%
1246,3,526,61.31%
1247,1,527,61.42%
1248,0,527,61.42%
1249,1,528,61.54%
1250,3,531,61.89%
1251,0,531,61.89%
1252,0,531,61.89%
1253,0,531,61.89%
1254,0,531,61.89%
1255,0,531,61.89%
1256,2,533,62.12%
1257,3,536,62.47%
1258,0,536,62.47%
1259,0,536,62.47%
1260,0,536,62.47%
1261,0,536,62.47%
1262,0,536,62.47%
1263,0,536,62.47%
1264,4,540,62.94%
1265,1,541,63.05%
1266,1,542,63.17%
1267,2,544,63.4%
1268,1,545,63.52%
1269,2,547,63.75%
1270,5,552,64.34%
1271,0,552,64.34%
1272,0,552,64.34%
1273,2,554,64.57%
1274,4,558,65.03%
1275,8,566,65.97%
1276,1,567,66.08%
1277,0,567,66.08%
1278,2,569,66.32%
1279,4,573,66.78%
1280,1,574,66.9%
1281,0,574,66.9%
1282,0,574,66.9%
1283,1,575,67.02%
1284,4,579,67.48%
1285,2,581,67.72%
1286,0,581,67.72%
1287,0,581,67.72%
1288,2,583,67.95%
1289,2,585,68.18%
1290,0,585,68.18%
1291,0,585,68.18%
1292,0,585,68.18%
1293,2,587,68.41%
1294,3,590,68.76%
1295,0,590,68.76%
1296,0,590,68.76%
1297,4,594,69.23%
1298,2,596,69.46%
1299,1,597,69.58%
1300,2,599,69.81%
1301,2,601,70.05%
1302,2,603,70.28%
1303,2,605,70.51%
1304,3,608,70.86%
1305,2,610,71.1%
1306,1,611,71.21%
1307,2,613,71.45%
1308,2,615,71.68%
1309,1,616,71.79%
1310,0,616,71.79%
1311,0,616,71.79%
1312,2,618,72.03%
1313,3,621,72.38%
1314,0,621,72.38%
1315,0,621,72.38%
1316,0,621,72.38%
1317,1,622,72.49%
1318,1,623,72.61%
1319,0,623,72.61%
1320,0,623,72.61%
1321,235,858,100.0%
