Length, Count, Sum (Counts <= Length), Percent of Nonzero Data, Nonzero Data Count = 606, Zero Data Count = 1238
1,2,2,0.33%
2,0,2,0.33%
3,0,2,0.33%
4,0,2,0.33%
5,0,2,0.33%
6,0,2,0.33%
7,0,2,0.33%
8,0,2,0.33%
9,0,2,0.33%
10,1,3,0.5%
11,0,3,0.5%
12,0,3,0.5%
13,0,3,0.5%
14,0,3,0.5%
15,0,3,0.5%
16,0,3,0.5%
17,0,3,0.5%
18,0,3,0.5%
19,0,3,0.5%
20,0,3,0.5%
21,0,3,0.5%
22,1,4,0.66%
23,0,4,0.66%
24,1,5,0.83%
25,0,5,0.83%
26,1,6,0.99%
27,0,6,0.99%
28,1,7,1.16%
29,0,7,1.16%
30,0,7,1.16%
31,0,7,1.16%
32,0,7,1.16%
33,0,7,1.16%
34,0,7,1.16%
35,0,7,1.16%
36,0,7,1.16%
37,0,7,1.16%
38,0,7,1.16%
39,0,7,1.16%
40,0,7,1.16%
41,0,7,1.16%
42,0,7,1.16%
43,0,7,1.16%
44,0,7,1.16%
45,0,7,1.16%
46,0,7,1.16%
47,0,7,1.16%
48,0,7,1.16%
49,0,7,1.16%
50,0,7,1.16%
51,0,7,1.16%
52,1,8,1.32%
53,0,8,1.32%
54,0,8,1.32%
55,0,8,1.32%
56,0,8,1.32%
57,0,8,1.32%
58,0,8,1.32%
59,0,8,1.32%
60,0,8,1.32%
61,1,9,1.49%
62,1,10,1.65%
63,1,11,1.82%
64,0,11,1.82%
65,1,12,1.98%
66,0,12,1.98%
67,0,12,1.98%
68,0,12,1.98%
69,0,12,1.98%
70,0,12,1.98%
71,0,12,1.98%
72,0,12,1.98%
73,0,12,1.98%
74,1,13,2.15%
75,0,13,2.15%
76,1,14,2.31%
77,0,14,2.31%
78,1,15,2.48%
79,0,15,2.48%
80,1,16,2.64%
81,0,16,2.64%
82,0,16,2.64%
83,0,16,2.64%
84,1,17,2.81%
85,1,18,2.97%
86,0,18,2.97%
87,0,18,2.97%
88,0,18,2.97%
89,0,18,2.97%
90,0,18,2.97%
91,0,18,2.97%
92,1,19,3.14%
93,0,19,3.14%
94,0,19,3.14%
95,0,19,3.14%
96,1,20,3.3%
97,0,20,3.3%
98,0,20,3.3%
99,0,20,3.3%
100,0,20,3.3%
101,0,20,3.3%
102,0,20,3.3%
103,0,20,3.3%
104,0,20,3.3%
105,0,20,3.3%
106,2,22,3.63%
107,0,22,3.63%
108,0,22,3.63%
109,0,22,3.63%
110,0,22,3.63%
111,0,22,3.63%
112,1,23,3.8%
113,0,23,3.8%
114,1,24,3.96%
115,1,25,4.13%
116,1,26,4.29%
117,0,26,4.29%
118,0,26,4.29%
119,0,26,4.29%
120,2,28,4.62%
121,0,28,4.62%
122,0,28,4.62%
123,0,28,4.62%
124,0,28,4.62%
125,1,29,4.79%
126,0,29,4.79%
127,2,31,5.12%
128,2,33,5.45%
129,0,33,5.45%
130,0,33,5.45%
131,0,33,5.45%
132,0,33,5.45%
133,0,33,5.45%
134,0,33,5.45%
135,0,33,5.45%
136,0,33,5.45%
137,1,34,5.61%
138,1,35,5.78%
139,0,35,5.78%
140,0,35,5.78%
141,0,35,5.78%
142,0,35,5.78%
143,0,35,5.78%
144,0,35,5.78%
145,0,35,5.78%
146,0,35,5.78%
147,0,35,5.78%
148,0,35,5.78%
149,1,36,5.94%
150,1,37,6.11%
151,1,38,6.27%
152,0,38,6.27%
153,0,38,6.27%
154,0,38,6.27%
155,3,41,6.77%
156,0,41,6.77%
157,0,41,6.77%
158,0,41,6.77%
159,0,41,6.77%
160,0,41,6.77%
161,0,41,6.77%
162,0,41,6.77%
163,1,42,6.93%
164,0,42,6.93%
165,0,42,6.93%
166,0,42,6.93%
167,0,42,6.93%
168,0,42,6.93%
169,0,42,6.93%
170,0,42,6.93%
171,0,42,6.93%
172,0,42,6.93%
173,0,42,6.93%
174,0,42,6.93%
175,0,42,6.93%
176,0,42,6.93%
177,0,42,6.93%
178,0,42,6.93%
179,0,42,6.93%
180,0,42,6.93%
181,0,42,6.93%
182,1,43,7.1%
183,0,43,7.1%
184,1,44,7.26%
185,0,44,7.26%
186,0,44,7.26%
187,0,44,7.26%
188,0,44,7.26%
189,0,44,7.26%
190,0,44,7.26%
191,1,45,7.43%
192,0,45,7.43%
193,0,45,7.43%
194,0,45,7.43%
195,0,45,7.43%
196,1,46,7.59%
197,0,46,7.59%
198,0,46,7.59%
199,0,46,7.59%
200,0,46,7.59%
201,1,47,7.76%
202,0,47,7.76%
203,2,49,8.09%
204,0,49,8.09%
205,0,49,8.09%
206,0,49,8.09%
207,0,49,8.09%
208,0,49,8.09%
209,0,49,8.09%
210,0,49,8.09%
211,1,50,8.25%
212,556,606,100.0%
