Length, Count, Sum (Counts <= Length), Percent of Nonzero Data, Nonzero Data Count = 283, Zero Data Count = 1561
1,2,2,0.71%
2,0,2,0.71%
3,1,3,1.06%
4,0,3,1.06%
5,0,3,1.06%
6,0,3,1.06%
7,0,3,1.06%
8,0,3,1.06%
9,1,4,1.41%
10,1,5,1.77%
11,0,5,1.77%
12,0,5,1.77%
13,0,5,1.77%
14,0,5,1.77%
15,0,5,1.77%
16,0,5,1.77%
17,0,5,1.77%
18,2,7,2.47%
19,1,8,2.83%
20,0,8,2.83%
21,0,8,2.83%
22,0,8,2.83%
23,0,8,2.83%
24,0,8,2.83%
25,0,8,2.83%
26,0,8,2.83%
27,0,8,2.83%
28,0,8,2.83%
29,0,8,2.83%
30,0,8,2.83%
31,1,9,3.18%
32,0,9,3.18%
33,1,10,3.53%
34,0,10,3.53%
35,0,10,3.53%
36,0,10,3.53%
37,0,10,3.53%
38,0,10,3.53%
39,0,10,3.53%
40,0,10,3.53%
41,1,11,3.89%
42,0,11,3.89%
43,0,11,3.89%
44,0,11,3.89%
45,0,11,3.89%
46,0,11,3.89%
47,0,11,3.89%
48,0,11,3.89%
49,0,11,3.89%
50,0,11,3.89%
51,0,11,3.89%
52,1,12,4.24%
53,0,12,4.24%
54,1,13,4.59%
55,0,13,4.59%
56,0,13,4.59%
57,0,13,4.59%
58,0,13,4.59%
59,0,13,4.59%
60,1,14,4.95%
61,0,14,4.95%
62,0,14,4.95%
63,1,15,5.3%
64,0,15,5.3%
65,0,15,5.3%
66,0,15,5.3%
67,0,15,5.3%
68,0,15,5.3%
69,0,15,5.3%
70,0,15,5.3%
71,0,15,5.3%
72,0,15,5.3%
73,0,15,5.3%
74,0,15,5.3%
75,1,16,5.65%
76,0,16,5.65%
77,0,16,5.65%
78,0,16,5.65%
79,0,16,5.65%
80,0,16,5.65%
81,1,17,6.01%
82,0,17,6.01%
83,0,17,6.01%
84,1,18,6.36%
85,0,18,6.36%
86,0,18,6.36%
87,0,18,6.36%
88,0,18,6.36%
89,0,18,6.36%
90,1,19,6.71%
91,0,19,6.71%
92,0,19,6.71%
93,1,20,7.07%
94,0,20,7.07%
95,0,20,7.07%
96,0,20,7.07%
97,0,20,7.07%
98,0,20,7.07%
99,0,20,7.07%
100,1,21,7.42%
101,0,21,7.42%
102,0,21,7.42%
103,0,21,7.42%
104,0,21,7.42%
105,0,21,7.42%
106,1,22,7.77%
107,0,22,7.77%
108,0,22,7.77%
109,0,22,7.77%
110,1,23,8.13%
111,0,23,8.13%
112,0,23,8.13%
113,0,23,8.13%
114,0,23,8.13%
115,0,23,8.13%
116,0,23,8.13%
117,0,23,8.13%
118,0,23,8.13%
119,0,23,8.13%
120,0,23,8.13%
121,0,23,8.13%
122,0,23,8.13%
123,0,23,8.13%
124,0,23,8.13%
125,0,23,8.13%
126,0,23,8.13%
127,0,23,8.13%
128,0,23,8.13%
129,0,23,8.13%
130,0,23,8.13%
131,0,23,8.13%
132,0,23,8.13%
133,0,23,8.13%
134,1,24,8.48%
135,0,24,8.48%
136,0,24,8.48%
137,0,24,8.48%
138,0,24,8.48%
139,0,24,8.48%
140,0,24,8.48%
141,1,25,8.83%
142,0,25,8.83%
143,0,25,8.83%
144,0,25,8.83%
145,0,25,8.83%
146,0,25,8.83%
147,0,25,8.83%
148,0,25,8.83%
149,1,26,9.19%
150,0,26,9.19%
151,0,26,9.19%
152,0,26,9.19%
153,0,26,9.19%
154,0,26,9.19%
155,0,26,9.19%
156,0,26,9.19%
157,0,26,9.19%
158,1,27,9.54%
159,0,27,9.54%
160,0,27,9.54%
161,0,27,9.54%
162,0,27,9.54%
163,0,27,9.54%
164,0,27,9.54%
165,0,27,9.54%
166,0,27,9.54%
167,0,27,9.54%
168,0,27,9.54%
169,0,27,9.54%
170,0,27,9.54%
171,1,28,9.89%
172,0,28,9.89%
173,0,28,9.89%
174,0,28,9.89%
175,0,28,9.89%
176,0,28,9.89%
177,0,28,9.89%
178,1,29,10.25%
179,0,29,10.25%
180,0,29,10.25%
181,0,29,10.25%
182,0,29,10.25%
183,0,29,10.25%
184,0,29,10.25%
185,0,29,10.25%
186,0,29,10.25%
187,0,29,10.25%
188,0,29,10.25%
189,1,30,10.6%
190,0,30,10.6%
191,2,32,11.31%
192,0,32,11.31%
193,0,32,11.31%
194,0,32,11.31%
195,0,32,11.31%
196,0,32,11.31%
197,1,33,11.66%
198,0,33,11.66%
199,0,33,11.66%
200,0,33,11.66%
201,0,33,11.66%
202,0,33,11.66%
203,0,33,11.66%
204,0,33,11.66%
205,0,33,11.66%
206,0,33,11.66%
207,0,33,11.66%
208,0,33,11.66%
209,0,33,11.66%
210,0,33,11.66%
211,0,33,11.66%
212,0,33,11.66%
213,0,33,11.66%
214,0,33,11.66%
215,0,33,11.66%
216,0,33,11.66%
217,0,33,11.66%
218,0,33,11.66%
219,0,33,11.66%
220,0,33,11.66%
221,0,33,11.66%
222,1,34,12.01%
223,0,34,12.01%
224,0,34,12.01%
225,1,35,12.37%
226,0,35,12.37%
227,0,35,12.37%
228,0,35,12.37%
229,0,35,12.37%
230,1,36,12.72%
231,0,36,12.72%
232,0,36,12.72%
233,0,36,12.72%
234,0,36,12.72%
235,0,36,12.72%
236,0,36,12.72%
237,0,36,12.72%
238,0,36,12.72%
239,0,36,12.72%
240,0,36,12.72%
241,1,37,13.07%
242,1,38,13.43%
243,0,38,13.43%
244,0,38,13.43%
245,0,38,13.43%
246,0,38,13.43%
247,0,38,13.43%
248,1,39,13.78%
249,0,39,13.78%
250,0,39,13.78%
251,0,39,13.78%
252,0,39,13.78%
253,0,39,13.78%
254,0,39,13.78%
255,0,39,13.78%
256,1,40,14.13%
257,0,40,14.13%
258,0,40,14.13%
259,0,40,14.13%
260,1,41,14.49%
261,0,41,14.49%
262,0,41,14.49%
263,0,41,14.49%
264,0,41,14.49%
265,0,41,14.49%
266,0,41,14.49%
267,0,41,14.49%
268,0,41,14.49%
269,0,41,14.49%
270,0,41,14.49%
271,0,41,14.49%
272,0,41,14.49%
273,1,42,14.84%
274,0,42,14.84%
275,0,42,14.84%
276,0,42,14.84%
277,0,42,14.84%
278,1,43,15.19%
279,1,44,15.55%
280,0,44,15.55%
281,0,44,15.55%
282,0,44,15.55%
283,0,44,15.55%
284,0,44,15.55%
285,1,45,15.9%
286,0,45,15.9%
287,0,45,15.9%
288,0,45,15.9%
289,0,45,15.9%
290,0,45,15.9%
291,0,45,15.9%
292,0,45,15.9%
293,0,45,15.9%
294,1,46,16.25%
295,1,47,16.61%
296,0,47,16.61%
297,0,47,16.61%
298,0,47,16.61%
299,0,47,16.61%
300,0,47,16.61%
301,0,47,16.61%
302,0,47,16.61%
303,0,47,16.61%
304,0,47,16.61%
305,0,47,16.61%
306,0,47,16.61%
307,0,47,16.61%
308,0,47,16.61%
309,0,47,16.61%
310,0,47,16.61%
311,0,47,16.61%
312,0,47,16.61%
313,0,47,16.61%
314,0,47,16.61%
315,0,47,16.61%
316,0,47,16.61%
317,0,47,16.61%
318,0,47,16.61%
319,2,49,17.31%
320,0,49,17.31%
321,0,49,17.31%
322,0,49,17.31%
323,0,49,17.31%
324,0,49,17.31%
325,0,49,17.31%
326,1,50,17.67%
327,0,50,17.67%
328,0,50,17.67%
329,0,50,17.67%
330,0,50,17.67%
331,0,50,17.67%
332,0,50,17.67%
333,0,50,17.67%
334,0,50,17.67%
335,1,51,18.02%
336,0,51,18.02%
337,0,51,18.02%
338,0,51,18.02%
339,0,51,18.02%
340,0,51,18.02%
341,0,51,18.02%
342,0,51,18.02%
343,0,51,18.02%
344,1,52,18.37%
345,0,52,18.37%
346,0,52,18.37%
347,0,52,18.37%
348,0,52,18.37%
349,0,52,18.37%
350,0,52,18.37%
351,0,52,18.37%
352,1,53,18.73%
353,0,53,18.73%
354,0,53,18.73%
355,0,53,18.73%
356,0,53,18.73%
357,0,53,18.73%
358,0,53,18.73%
359,0,53,18.73%
360,0,53,18.73%
361,0,53,18.73%
362,0,53,18.73%
363,0,53,18.73%
364,0,53,18.73%
365,0,53,18.73%
366,0,53,18.73%
367,0,53,18.73%
368,0,53,18.73%
369,0,53,18.73%
370,0,53,18.73%
371,0,53,18.73%
372,0,53,18.73%
373,0,53,18.73%
374,0,53,18.73%
375,0,53,18.73%
376,0,53,18.73%
377,0,53,18.73%
378,0,53,18.73%
379,0,53,18.73%
380,0,53,18.73%
381,0,53,18.73%
382,0,53,18.73%
383,0,53,18.73%
384,0,53,18.73%
385,0,53,18.73%
386,0,53,18.73%
387,0,53,18.73%
388,0,53,18.73%
389,0,53,18.73%
390,0,53,18.73%
391,0,53,18.73%
392,0,53,18.73%
393,0,53,18.73%
394,0,53,18.73%
395,0,53,18.73%
396,0,53,18.73%
397,1,54,19.08%
398,0,54,19.08%
399,0,54,19.08%
400,1,55,19.43%
401,1,56,19.79%
402,0,56,19.79%
403,0,56,19.79%
404,0,56,19.79%
405,0,56,19.79%
406,0,56,19.79%
407,0,56,19.79%
408,0,56,19.79%
409,1,57,20.14%
410,1,58,20.49%
411,0,58,20.49%
412,0,58,20.49%
413,0,58,20.49%
414,0,58,20.49%
415,0,58,20.49%
416,0,58,20.49%
417,0,58,20.49%
418,0,58,20.49%
419,225,283,100.0%
