Length, Count, Sum (Counts <= Length), Percent of Nonzero Data, Nonzero Data Count = 266, Zero Data Count = 1578
1,1,1,0.38%
2,0,1,0.38%
3,1,2,0.75%
4,0,2,0.75%
5,0,2,0.75%
6,0,2,0.75%
7,0,2,0.75%
8,0,2,0.75%
9,0,2,0.75%
10,0,2,0.75%
11,0,2,0.75%
12,0,2,0.75%
13,0,2,0.75%
14,0,2,0.75%
15,0,2,0.75%
16,0,2,0.75%
17,0,2,0.75%
18,1,3,1.13%
19,0,3,1.13%
20,0,3,1.13%
21,0,3,1.13%
22,0,3,1.13%
23,0,3,1.13%
24,0,3,1.13%
25,0,3,1.13%
26,0,3,1.13%
27,0,3,1.13%
28,0,3,1.13%
29,0,3,1.13%
30,0,3,1.13%
31,1,4,1.5%
32,0,4,1.5%
33,1,5,1.88%
34,0,5,1.88%
35,0,5,1.88%
36,0,5,1.88%
37,0,5,1.88%
38,1,6,2.26%
39,0,6,2.26%
40,0,6,2.26%
41,1,7,2.63%
42,0,7,2.63%
43,0,7,2.63%
44,0,7,2.63%
45,0,7,2.63%
46,0,7,2.63%
47,0,7,2.63%
48,0,7,2.63%
49,0,7,2.63%
50,0,7,2.63%
51,0,7,2.63%
52,1,8,3.01%
53,0,8,3.01%
54,1,9,3.38%
55,0,9,3.38%
56,0,9,3.38%
57,1,10,3.76%
58,0,10,3.76%
59,0,10,3.76%
60,256,266,100.0%
