Length, Count, Sum (Counts <= Length), Percent of Nonzero Data, Nonzero Data Count = 266, Zero Data Count = 1578
1,1,1,0.38%
2,0,1,0.38%
3,1,2,0.75%
4,0,2,0.75%
5,0,2,0.75%
6,0,2,0.75%
7,0,2,0.75%
8,0,2,0.75%
9,1,3,1.13%
10,0,3,1.13%
11,0,3,1.13%
12,0,3,1.13%
13,0,3,1.13%
14,0,3,1.13%
15,0,3,1.13%
16,0,3,1.13%
17,0,3,1.13%
18,1,4,1.5%
19,0,4,1.5%
20,0,4,1.5%
21,0,4,1.5%
22,0,4,1.5%
23,0,4,1.5%
24,0,4,1.5%
25,0,4,1.5%
26,0,4,1.5%
27,0,4,1.5%
28,1,5,1.88%
29,0,5,1.88%
30,0,5,1.88%
31,261,266,100.0%
