Length, Count, Sum (Counts <= Length), Percent of Nonzero Data, Nonzero Data Count = 857, Zero Data Count = 987
1,1,1,0.12%
2,0,1,0.12%
3,1,2,0.23%
4,0,2,0.23%
5,0,2,0.23%
6,0,2,0.23%
7,0,2,0.23%
8,0,2,0.23%
9,0,2,0.23%
10,1,3,0.35%
11,0,3,0.35%
12,0,3,0.35%
13,0,3,0.35%
14,1,4,0.47%
15,0,4,0.47%
16,0,4,0.47%
17,0,4,0.47%
18,1,5,0.58%
19,0,5,0.58%
20,0,5,0.58%
21,0,5,0.58%
22,0,5,0.58%
23,0,5,0.58%
24,0,5,0.58%
25,0,5,0.58%
26,0,5,0.58%
27,1,6,0.7%
28,2,8,0.93%
29,0,8,0.93%
30,0,8,0.93%
31,0,8,0.93%
32,0,8,0.93%
33,0,8,0.93%
34,0,8,0.93%
35,0,8,0.93%
36,0,8,0.93%
37,0,8,0.93%
38,0,8,0.93%
39,1,9,1.05%
40,0,9,1.05%
41,0,9,1.05%
42,0,9,1.05%
43,0,9,1.05%
44,0,9,1.05%
45,0,9,1.05%
46,0,9,1.05%
47,0,9,1.05%
48,0,9,1.05%
49,0,9,1.05%
50,0,9,1.05%
51,0,9,1.05%
52,2,11,1.28%
53,0,11,1.28%
54,0,11,1.28%
55,0,11,1.28%
56,0,11,1.28%
57,1,12,1.4%
58,0,12,1.4%
59,0,12,1.4%
60,0,12,1.4%
61,0,12,1.4%
62,0,12,1.4%
63,1,13,1.52%
64,0,13,1.52%
65,0,13,1.52%
66,0,13,1.52%
67,0,13,1.52%
68,0,13,1.52%
69,0,13,1.52%
70,0,13,1.52%
71,0,13,1.52%
72,0,13,1.52%
73,0,13,1.52%
74,0,13,1.52%
75,0,13,1.52%
76,0,13,1.52%
77,0,13,1.52%
78,1,14,1.63%
79,0,14,1.63%
80,0,14,1.63%
81,0,14,1.63%
82,0,14,1.63%
83,0,14,1.63%
84,0,14,1.63%
85,1,15,1.75%
86,1,16,1.87%
87,0,16,1.87%
88,0,16,1.87%
89,0,16,1.87%
90,0,16,1.87%
91,1,17,1.98%
92,1,18,2.1%
93,0,18,2.1%
94,0,18,2.1%
95,0,18,2.1%
96,1,19,2.22%
97,0,19,2.22%
98,0,19,2.22%
99,0,19,2.22%
100,0,19,2.22%
101,1,20,2.33%
102,0,20,2.33%
103,1,21,2.45%
104,0,21,2.45%
105,0,21,2.45%
106,1,22,2.57%
107,0,22,2.57%
108,1,23,2.68%
109,0,23,2.68%
110,0,23,2.68%
111,0,23,2.68%
112,0,23,2.68%
113,0,23,2.68%
114,0,23,2.68%
115,0,23,2.68%
116,0,23,2.68%
117,0,23,2.68%
118,0,23,2.68%
119,0,23,2.68%
120,0,23,2.68%
121,0,23,2.68%
122,0,23,2.68%
123,0,23,2.68%
124,0,23,2.68%
125,1,24,2.8%
126,0,24,2.8%
127,0,24,2.8%
128,1,25,2.92%
129,0,25,2.92%
130,0,25,2.92%
131,0,25,2.92%
132,1,26,3.03%
133,0,26,3.03%
134,0,26,3.03%
135,0,26,3.03%
136,0,26,3.03%
137,2,28,3.27%
138,0,28,3.27%
139,0,28,3.27%
140,0,28,3.27%
141,0,28,3.27%
142,0,28,3.27%
143,2,30,3.5%
144,0,30,3.5%
145,2,32,3.73%
146,0,32,3.73%
147,0,32,3.73%
148,0,32,3.73%
149,0,32,3.73%
150,1,33,3.85%
151,2,35,4.08%
152,0,35,4.08%
153,0,35,4.08%
154,0,35,4.08%
155,1,36,4.2%
156,0,36,4.2%
157,0,36,4.2%
158,0,36,4.2%
159,0,36,4.2%
160,0,36,4.2%
161,0,36,4.2%
162,0,36,4.2%
163,0,36,4.2%
164,0,36,4.2%
165,0,36,4.2%
166,0,36,4.2%
167,0,36,4.2%
168,0,36,4.2%
169,1,37,4.32%
170,1,38,4.43%
171,0,38,4.43%
172,0,38,4.43%
173,0,38,4.43%
174,0,38,4.43%
175,0,38,4.43%
176,0,38,4.43%
177,0,38,4.43%
178,0,38,4.43%
179,0,38,4.43%
180,0,38,4.43%
181,2,40,4.67%
182,1,41,4.78%
183,0,41,4.78%
184,1,42,4.9%
185,0,42,4.9%
186,0,42,4.9%
187,0,42,4.9%
188,0,42,4.9%
189,0,42,4.9%
190,0,42,4.9%
191,0,42,4.9%
192,0,42,4.9%
193,0,42,4.9%
194,0,42,4.9%
195,0,42,4.9%
196,0,42,4.9%
197,0,42,4.9%
198,1,43,5.02%
199,0,43,5.02%
200,1,44,5.13%
201,1,45,5.25%
202,1,46,5.37%
203,0,46,5.37%
204,0,46,5.37%
205,0,46,5.37%
206,1,47,5.48%
207,0,47,5.48%
208,0,47,5.48%
209,0,47,5.48%
210,0,47,5.48%
211,0,47,5.48%
212,1,48,5.6%
213,1,49,5.72%
214,0,49,5.72%
215,1,50,5.83%
216,0,50,5.83%
217,0,50,5.83%
218,0,50,5.83%
219,0,50,5.83%
220,0,50,5.83%
221,0,50,5.83%
222,0,50,5.83%
223,0,50,5.83%
224,0,50,5.83%
225,0,50,5.83%
226,0,50,5.83%
227,0,50,5.83%
228,0,50,5.83%
229,1,51,5.95%
230,0,51,5.95%
231,1,52,6.07%
232,0,52,6.07%
233,0,52,6.07%
234,0,52,6.07%
235,0,52,6.07%
236,1,53,6.18%
237,0,53,6.18%
238,0,53,6.18%
239,0,53,6.18%
240,0,53,6.18%
241,0,53,6.18%
242,0,53,6.18%
243,1,54,6.3%
244,1,55,6.42%
245,0,55,6.42%
246,0,55,6.42%
247,0,55,6.42%
248,0,55,6.42%
249,0,55,6.42%
250,0,55,6.42%
251,0,55,6.42%
252,1,56,6.53%
253,0,56,6.53%
254,0,56,6.53%
255,1,57,6.65%
256,0,57,6.65%
257,0,57,6.65%
258,0,57,6.65%
259,1,58,6.77%
260,0,58,6.77%
261,0,58,6.77%
262,0,58,6.77%
263,1,59,6.88%
264,1,60,7.0%
265,1,61,7.12%
266,0,61,7.12%
267,0,61,7.12%
268,0,61,7.12%
269,0,61,7.12%
270,5,66,7.7%
271,0,66,7.7%
272,0,66,7.7%
273,0,66,7.7%
274,1,67,7.82%
275,0,67,7.82%
276,0,67,7.82%
277,0,67,7.82%
278,0,67,7.82%
279,0,67,7.82%
280,0,67,7.82%
281,0,67,7.82%
282,0,67,7.82%
283,0,67,7.82%
284,0,67,7.82%
285,1,68,7.93%
286,0,68,7.93%
287,0,68,7.93%
288,0,68,7.93%
289,0,68,7.93%
290,0,68,7.93%
291,0,68,7.93%
292,1,69,8.05%
293,0,69,8.05%
294,0,69,8.05%
295,0,69,8.05%
296,0,69,8.05%
297,0,69,8.05%
298,0,69,8.05%
299,0,69,8.05%
300,0,69,8.05%
301,0,69,8.05%
302,1,70,8.17%
303,2,72,8.4%
304,0,72,8.4%
305,0,72,8.4%
306,0,72,8.4%
307,0,72,8.4%
308,0,72,8.4%
309,0,72,8.4%
310,1,73,8.52%
311,2,75,8.75%
312,0,75,8.75%
313,0,75,8.75%
314,0,75,8.75%
315,0,75,8.75%
316,0,75,8.75%
317,0,75,8.75%
318,0,75,8.75%
319,0,75,8.75%
320,0,75,8.75%
321,0,75,8.75%
322,1,76,8.87%
323,0,76,8.87%
324,0,76,8.87%
325,2,78,9.1%
326,0,78,9.1%
327,0,78,9.1%
328,0,78,9.1%
329,0,78,9.1%
330,0,78,9.1%
331,0,78,9.1%
332,0,78,9.1%
333,0,78,9.1%
334,0,78,9.1%
335,0,78,9.1%
336,0,78,9.1%
337,0,78,9.1%
338,0,78,9.1%
339,0,78,9.1%
340,0,78,9.1%
341,0,78,9.1%
342,0,78,9.1%
343,1,79,9.22%
344,0,79,9.22%
345,0,79,9.22%
346,0,79,9.22%
347,0,79,9.22%
348,0,79,9.22%
349,1,80,9.33%
350,1,81,9.45%
351,15,96,11.2%
352,10,106,12.37%
353,0,106,12.37%
354,0,106,12.37%
355,0,106,12.37%
356,0,106,12.37%
357,0,106,12.37%
358,5,111,12.95%
359,0,111,12.95%
360,3,114,13.3%
361,1,115,13.42%
362,0,115,13.42%
363,1,116,13.54%
364,0,116,13.54%
365,0,116,13.54%
366,2,118,13.77%
367,0,118,13.77%
368,0,118,13.77%
369,0,118,13.77%
370,0,118,13.77%
371,0,118,13.77%
372,2,120,14.0%
373,0,120,14.0%
374,0,120,14.0%
375,1,121,14.12%
376,0,121,14.12%
377,0,121,14.12%
378,0,121,14.12%
379,0,121,14.12%
380,0,121,14.12%
381,0,121,14.12%
382,1,122,14.24%
383,0,122,14.24%
384,0,122,14.24%
385,1,123,14.35%
386,0,123,14.35%
387,0,123,14.35%
388,0,123,14.35%
389,0,123,14.35%
390,0,123,14.35%
391,0,123,14.35%
392,0,123,14.35%
393,1,124,14.47%
394,0,124,14.47%
395,0,124,14.47%
396,0,124,14.47%
397,1,125,14.59%
398,1,126,14.7%
399,0,126,14.7%
400,1,127,14.82%
401,0,127,14.82%
402,0,127,14.82%
403,0,127,14.82%
404,0,127,14.82%
405,0,127,14.82%
406,2,129,15.05%
407,0,129,15.05%
408,0,129,15.05%
409,0,129,15.05%
410,0,129,15.05%
411,0,129,15.05%
412,1,130,15.17%
413,1,131,15.29%
414,0,131,15.29%
415,0,131,15.29%
416,1,132,15.4%
417,0,132,15.4%
418,0,132,15.4%
419,0,132,15.4%
420,0,132,15.4%
421,0,132,15.4%
422,1,133,15.52%
423,0,133,15.52%
424,0,133,15.52%
425,0,133,15.52%
426,0,133,15.52%
427,0,133,15.52%
428,0,133,15.52%
429,1,134,15.64%
430,0,134,15.64%
431,1,135,15.75%
432,0,135,15.75%
433,1,136,15.87%
434,0,136,15.87%
435,2,138,16.1%
436,0,138,16.1%
437,0,138,16.1%
438,0,138,16.1%
439,0,138,16.1%
440,0,138,16.1%
441,1,139,16.22%
442,0,139,16.22%
443,0,139,16.22%
444,1,140,16.34%
445,0,140,16.34%
446,1,141,16.45%
447,0,141,16.45%
448,0,141,16.45%
449,0,141,16.45%
450,0,141,16.45%
451,0,141,16.45%
452,0,141,16.45%
453,1,142,16.57%
454,0,142,16.57%
455,0,142,16.57%
456,1,143,16.69%
457,1,144,16.8%
458,0,144,16.8%
459,0,144,16.8%
460,0,144,16.8%
461,0,144,16.8%
462,0,144,16.8%
463,1,145,16.92%
464,0,145,16.92%
465,1,146,17.04%
466,0,146,17.04%
467,0,146,17.04%
468,0,146,17.04%
469,0,146,17.04%
470,1,147,17.15%
471,0,147,17.15%
472,0,147,17.15%
473,0,147,17.15%
474,0,147,17.15%
475,0,147,17.15%
476,0,147,17.15%
477,0,147,17.15%
478,0,147,17.15%
479,1,148,17.27%
480,0,148,17.27%
481,1,149,17.39%
482,1,150,17.5%
483,0,150,17.5%
484,0,150,17.5%
485,0,150,17.5%
486,0,150,17.5%
487,1,151,17.62%
488,0,151,17.62%
489,0,151,17.62%
490,1,152,17.74%
491,0,152,17.74%
492,0,152,17.74%
493,0,152,17.74%
494,0,152,17.74%
495,1,153,17.85%
496,1,154,17.97%
497,0,154,17.97%
498,0,154,17.97%
499,0,154,17.97%
500,0,154,17.97%
501,1,155,18.09%
502,0,155,18.09%
503,1,156,18.2%
504,0,156,18.2%
505,0,156,18.2%
506,0,156,18.2%
507,0,156,18.2%
508,1,157,18.32%
509,0,157,18.32%
510,0,157,18.32%
511,0,157,18.32%
512,0,157,18.32%
513,0,157,18.32%
514,0,157,18.32%
515,0,157,18.32%
516,1,158,18.44%
517,0,158,18.44%
518,0,158,18.44%
519,1,159,18.55%
520,0,159,18.55%
521,0,159,18.55%
522,1,160,18.67%
523,1,161,18.79%
524,0,161,18.79%
525,0,161,18.79%
526,0,161,18.79%
527,0,161,18.79%
528,1,162,18.9%
529,1,163,19.02%
530,0,163,19.02%
531,0,163,19.02%
532,0,163,19.02%
533,0,163,19.02%
534,0,163,19.02%
535,0,163,19.02%
536,0,163,19.02%
537,0,163,19.02%
538,1,164,19.14%
539,0,164,19.14%
540,0,164,19.14%
541,0,164,19.14%
542,0,164,19.14%
543,1,165,19.25%
544,0,165,19.25%
545,0,165,19.25%
546,1,166,19.37%
547,0,166,19.37%
548,0,166,19.37%
549,0,166,19.37%
550,0,166,19.37%
551,0,166,19.37%
552,0,166,19.37%
553,0,166,19.37%
554,0,166,19.37%
555,0,166,19.37%
556,0,166,19.37%
557,0,166,19.37%
558,0,166,19.37%
559,0,166,19.37%
560,0,166,19.37%
561,1,167,19.49%
562,0,167,19.49%
563,0,167,19.49%
564,1,168,19.6%
565,0,168,19.6%
566,0,168,19.6%
567,1,169,19.72%
568,0,169,19.72%
569,0,169,19.72%
570,0,169,19.72%
571,1,170,19.84%
572,0,170,19.84%
573,2,172,20.07%
574,1,173,20.19%
575,0,173,20.19%
576,8,181,21.12%
577,0,181,21.12%
578,0,181,21.12%
579,1,182,21.24%
580,0,182,21.24%
581,0,182,21.24%
582,0,182,21.24%
583,0,182,21.24%
584,0,182,21.24%
585,0,182,21.24%
586,0,182,21.24%
587,0,182,21.24%
588,0,182,21.24%
589,0,182,21.24%
590,1,183,21.35%
591,0,183,21.35%
592,0,183,21.35%
593,0,183,21.35%
594,0,183,21.35%
595,0,183,21.35%
596,1,184,21.47%
597,2,186,21.7%
598,0,186,21.7%
599,1,187,21.82%
600,0,187,21.82%
601,1,188,21.94%
602,0,188,21.94%
603,1,189,22.05%
604,1,190,22.17%
605,0,190,22.17%
606,0,190,22.17%
607,0,190,22.17%
608,0,190,22.17%
609,0,190,22.17%
610,0,190,22.17%
611,0,190,22.17%
612,0,190,22.17%
613,1,191,22.29%
614,0,191,22.29%
615,0,191,22.29%
616,0,191,22.29%
617,0,191,22.29%
618,0,191,22.29%
619,0,191,22.29%
620,1,192,22.4%
621,0,192,22.4%
622,1,193,22.52%
623,0,193,22.52%
624,0,193,22.52%
625,0,193,22.52%
626,1,194,22.64%
627,0,194,22.64%
628,0,194,22.64%
629,0,194,22.64%
630,0,194,22.64%
631,0,194,22.64%
632,2,196,22.87%
633,0,196,22.87%
634,0,196,22.87%
635,1,197,22.99%
636,0,197,22.99%
637,0,197,22.99%
638,0,197,22.99%
639,0,197,22.99%
640,0,197,22.99%
641,0,197,22.99%
642,0,197,22.99%
643,0,197,22.99%
644,0,197,22.99%
645,0,197,22.99%
646,0,197,22.99%
647,1,198,23.1%
648,0,198,23.1%
649,1,199,23.22%
650,0,199,23.22%
651,0,199,23.22%
652,1,200,23.34%
653,1,201,23.45%
654,0,201,23.45%
655,0,201,23.45%
656,0,201,23.45%
657,0,201,23.45%
658,0,201,23.45%
659,0,201,23.45%
660,0,201,23.45%
661,0,201,23.45%
662,0,201,23.45%
663,0,201,23.45%
664,0,201,23.45%
665,0,201,23.45%
666,1,202,23.57%
667,0,202,23.57%
668,0,202,23.57%
669,0,202,23.57%
670,0,202,23.57%
671,0,202,23.57%
672,0,202,23.57%
673,0,202,23.57%
674,0,202,23.57%
675,0,202,23.57%
676,0,202,23.57%
677,0,202,23.57%
678,0,202,23.57%
679,0,202,23.57%
680,0,202,23.57%
681,0,202,23.57%
682,0,202,23.57%
683,1,203,23.69%
684,0,203,23.69%
685,0,203,23.69%
686,0,203,23.69%
687,0,203,23.69%
688,0,203,23.69%
689,0,203,23.69%
690,0,203,23.69%
691,0,203,23.69%
692,0,203,23.69%
693,5,208,24.27%
694,0,208,24.27%
695,0,208,24.27%
696,0,208,24.27%
697,0,208,24.27%
698,0,208,24.27%
699,0,208,24.27%
700,0,208,24.27%
701,0,208,24.27%
702,0,208,24.27%
703,0,208,24.27%
704,1,209,24.39%
705,1,210,24.5%
706,0,210,24.5%
707,0,210,24.5%
708,0,210,24.5%
709,0,210,24.5%
710,0,210,24.5%
711,0,210,24.5%
712,0,210,24.5%
713,0,210,24.5%
714,0,210,24.5%
715,0,210,24.5%
716,1,211,24.62%
717,1,212,24.74%
718,0,212,24.74%
719,1,213,24.85%
720,0,213,24.85%
721,0,213,24.85%
722,0,213,24.85%
723,0,213,24.85%
724,0,213,24.85%
725,1,214,24.97%
726,1,215,25.09%
727,0,215,25.09%
728,0,215,25.09%
729,0,215,25.09%
730,1,216,25.2%
731,0,216,25.2%
732,0,216,25.2%
733,0,216,25.2%
734,0,216,25.2%
735,1,217,25.32%
736,0,217,25.32%
737,0,217,25.32%
738,0,217,25.32%
739,1,218,25.44%
740,0,218,25.44%
741,0,218,25.44%
742,0,218,25.44%
743,0,218,25.44%
744,1,219,25.55%
745,0,219,25.55%
746,0,219,25.55%
747,0,219,25.55%
748,0,219,25.55%
749,0,219,25.55%
750,0,219,25.55%
751,2,221,25.79%
752,0,221,25.79%
753,1,222,25.9%
754,1,223,26.02%
755,1,224,26.14%
756,0,224,26.14%
757,0,224,26.14%
758,0,224,26.14%
759,0,224,26.14%
760,0,224,26.14%
761,0,224,26.14%
762,0,224,26.14%
763,0,224,26.14%
764,1,225,26.25%
765,0,225,26.25%
766,0,225,26.25%
767,0,225,26.25%
768,0,225,26.25%
769,1,226,26.37%
770,0,226,26.37%
771,0,226,26.37%
772,0,226,26.37%
773,0,226,26.37%
774,1,227,26.49%
775,0,227,26.49%
776,0,227,26.49%
777,0,227,26.49%
778,1,228,26.6%
779,0,228,26.6%
780,0,228,26.6%
781,0,228,26.6%
782,0,228,26.6%
783,0,228,26.6%
784,1,229,26.72%
785,1,230,26.84%
786,0,230,26.84%
787,0,230,26.84%
788,0,230,26.84%
789,0,230,26.84%
790,0,230,26.84%
791,0,230,26.84%
792,1,231,26.95%
793,0,231,26.95%
794,0,231,26.95%
795,2,233,27.19%
796,0,233,27.19%
797,0,233,27.19%
798,0,233,27.19%
799,0,233,27.19%
800,0,233,27.19%
801,0,233,27.19%
802,0,233,27.19%
803,0,233,27.19%
804,1,234,27.3%
805,0,234,27.3%
806,0,234,27.3%
807,0,234,27.3%
808,1,235,27.42%
809,0,235,27.42%
810,0,235,27.42%
811,0,235,27.42%
812,0,235,27.42%
813,0,235,27.42%
814,0,235,27.42%
815,0,235,27.42%
816,2,237,27.65%
817,0,237,27.65%
818,0,237,27.65%
819,0,237,27.65%
820,0,237,27.65%
821,0,237,27.65%
822,0,237,27.65%
823,0,237,27.65%
824,0,237,27.65%
825,0,237,27.65%
826,0,237,27.65%
827,0,237,27.65%
828,0,237,27.65%
829,1,238,27.77%
830,0,238,27.77%
831,0,238,27.77%
832,0,238,27.77%
833,0,238,27.77%
834,0,238,27.77%
835,0,238,27.77%
836,0,238,27.77%
837,1,239,27.89%
838,0,239,27.89%
839,0,239,27.89%
840,2,241,28.12%
841,0,241,28.12%
842,0,241,28.12%
843,0,241,28.12%
844,0,241,28.12%
845,0,241,28.12%
846,0,241,28.12%
847,0,241,28.12%
848,0,241,28.12%
849,0,241,28.12%
850,0,241,28.12%
851,9,250,29.17%
852,0,250,29.17%
853,1,251,29.29%
854,0,251,29.29%
855,0,251,29.29%
856,1,252,29.4%
857,0,252,29.4%
858,0,252,29.4%
859,0,252,29.4%
860,0,252,29.4%
861,0,252,29.4%
862,0,252,29.4%
863,0,252,29.4%
864,0,252,29.4%
865,0,252,29.4%
866,0,252,29.4%
867,0,252,29.4%
868,1,253,29.52%
869,0,253,29.52%
870,0,253,29.52%
871,1,254,29.64%
872,0,254,29.64%
873,0,254,29.64%
874,0,254,29.64%
875,0,254,29.64%
876,1,255,29.75%
877,0,255,29.75%
878,0,255,29.75%
879,0,255,29.75%
880,0,255,29.75%
881,1,256,29.87%
882,0,256,29.87%
883,1,257,29.99%
884,1,258,30.11%
885,0,258,30.11%
886,0,258,30.11%
887,0,258,30.11%
888,0,258,30.11%
889,0,258,30.11%
890,0,258,30.11%
891,0,258,30.11%
892,0,258,30.11%
893,0,258,30.11%
894,0,258,30.11%
895,0,258,30.11%
896,1,259,30.22%
897,0,259,30.22%
898,0,259,30.22%
899,0,259,30.22%
900,0,259,30.22%
901,1,260,30.34%
902,0,260,30.34%
903,0,260,30.34%
904,1,261,30.46%
905,0,261,30.46%
906,1,262,30.57%
907,1,263,30.69%
908,0,263,30.69%
909,0,263,30.69%
910,0,263,30.69%
911,0,263,30.69%
912,0,263,30.69%
913,0,263,30.69%
914,0,263,30.69%
915,0,263,30.69%
916,0,263,30.69%
917,0,263,30.69%
918,0,263,30.69%
919,0,263,30.69%
920,0,263,30.69%
921,0,263,30.69%
922,1,264,30.81%
923,0,264,30.81%
924,0,264,30.81%
925,0,264,30.81%
926,0,264,30.81%
927,1,265,30.92%
928,2,267,31.16%
929,0,267,31.16%
930,1,268,31.27%
931,1,269,31.39%
932,0,269,31.39%
933,0,269,31.39%
934,0,269,31.39%
935,1,270,31.51%
936,1,271,31.62%
937,0,271,31.62%
938,0,271,31.62%
939,0,271,31.62%
940,0,271,31.62%
941,0,271,31.62%
942,1,272,31.74%
943,0,272,31.74%
944,0,272,31.74%
945,0,272,31.74%
946,1,273,31.86%
947,0,273,31.86%
948,0,273,31.86%
949,0,273,31.86%
950,0,273,31.86%
951,0,273,31.86%
952,0,273,31.86%
953,0,273,31.86%
954,0,273,31.86%
955,0,273,31.86%
956,1,274,31.97%
957,0,274,31.97%
958,0,274,31.97%
959,0,274,31.97%
960,1,275,32.09%
961,0,275,32.09%
962,0,275,32.09%
963,0,275,32.09%
964,1,276,32.21%
965,0,276,32.21%
966,0,276,32.21%
967,0,276,32.21%
968,0,276,32.21%
969,0,276,32.21%
970,0,276,32.21%
971,0,276,32.21%
972,0,276,32.21%
973,0,276,32.21%
974,0,276,32.21%
975,0,276,32.21%
976,0,276,32.21%
977,0,276,32.21%
978,0,276,32.21%
979,1,277,32.32%
980,1,278,32.44%
981,0,278,32.44%
982,1,279,32.56%
983,0,279,32.56%
984,0,279,32.56%
985,1,280,32.67%
986,0,280,32.67%
987,1,281,32.79%
988,0,281,32.79%
989,2,283,33.02%
990,0,283,33.02%
991,1,284,33.14%
992,0,284,33.14%
993,0,284,33.14%
994,1,285,33.26%
995,1,286,33.37%
996,0,286,33.37%
997,0,286,33.37%
998,1,287,33.49%
999,0,287,33.49%
1000,0,287,33.49%
1001,0,287,33.49%
1002,0,287,33.49%
1003,0,287,33.49%
1004,0,287,33.49%
1005,0,287,33.49%
1006,0,287,33.49%
1007,0,287,33.49%
1008,0,287,33.49%
1009,0,287,33.49%
1010,0,287,33.49%
1011,0,287,33.49%
1012,0,287,33.49%
1013,0,287,33.49%
1014,0,287,33.49%
1015,0,287,33.49%
1016,1,288,33.61%
1017,0,288,33.61%
1018,0,288,33.61%
1019,0,288,33.61%
1020,0,288,33.61%
1021,0,288,33.61%
1022,0,288,33.61%
1023,0,288,33.61%
1024,0,288,33.61%
1025,1,289,33.72%
1026,1,290,33.84%
1027,1,291,33.96%
1028,0,291,33.96%
1029,1,292,34.07%
1030,0,292,34.07%
1031,0,292,34.07%
1032,0,292,34.07%
1033,1,293,34.19%
1034,0,293,34.19%
1035,0,293,34.19%
1036,0,293,34.19%
1037,0,293,34.19%
1038,0,293,34.19%
1039,0,293,34.19%
1040,0,293,34.19%
1041,0,293,34.19%
1042,0,293,34.19%
1043,0,293,34.19%
1044,0,293,34.19%
1045,1,294,34.31%
1046,1,295,34.42%
1047,0,295,34.42%
1048,0,295,34.42%
1049,0,295,34.42%
1050,0,295,34.42%
1051,0,295,34.42%
1052,0,295,34.42%
1053,0,295,34.42%
1054,0,295,34.42%
1055,0,295,34.42%
1056,0,295,34.42%
1057,0,295,34.42%
1058,1,296,34.54%
1059,0,296,34.54%
1060,0,296,34.54%
1061,0,296,34.54%
1062,0,296,34.54%
1063,0,296,34.54%
1064,0,296,34.54%
1065,0,296,34.54%
1066,0,296,34.54%
1067,0,296,34.54%
1068,1,297,34.66%
1069,0,297,34.66%
1070,0,297,34.66%
1071,0,297,34.66%
1072,1,298,34.77%
1073,0,298,34.77%
1074,0,298,34.77%
1075,0,298,34.77%
1076,4,302,35.24%
1077,0,302,35.24%
1078,0,302,35.24%
1079,0,302,35.24%
1080,1,303,35.36%
1081,0,303,35.36%
1082,0,303,35.36%
1083,1,304,35.47%
1084,1,305,35.59%
1085,0,305,35.59%
1086,0,305,35.59%
1087,0,305,35.59%
1088,0,305,35.59%
1089,0,305,35.59%
1090,0,305,35.59%
1091,0,305,35.59%
1092,0,305,35.59%
1093,0,305,35.59%
1094,1,306,35.71%
1095,0,306,35.71%
1096,1,307,35.82%
1097,0,307,35.82%
1098,0,307,35.82%
1099,0,307,35.82%
1100,1,308,35.94%
1101,1,309,36.06%
1102,1,310,36.17%
1103,1,311,36.29%
1104,0,311,36.29%
1105,2,313,36.52%
1106,1,314,36.64%
1107,0,314,36.64%
1108,0,314,36.64%
1109,3,317,36.99%
1110,2,319,37.22%
1111,0,319,37.22%
1112,0,319,37.22%
1113,2,321,37.46%
1114,1,322,37.57%
1115,3,325,37.92%
1116,5,330,38.51%
1117,0,330,38.51%
1118,1,331,38.62%
1119,2,333,38.86%
1120,1,334,38.97%
1121,1,335,39.09%
1122,0,335,39.09%
1123,0,335,39.09%
1124,1,336,39.21%
1125,4,340,39.67%
1126,2,342,39.91%
1127,0,342,39.91%
1128,1,343,40.02%
1129,1,344,40.14%
1130,0,344,40.14%
1131,2,346,40.37%
1132,0,346,40.37%
1133,2,348,40.61%
1134,2,350,40.84%
1135,0,350,40.84%
1136,0,350,40.84%
1137,1,351,40.96%
1138,0,351,40.96%
1139,1,352,41.07%
1140,1,353,41.19%
1141,5,358,41.77%
1142,1,359,41.89%
1143,4,363,42.36%
1144,2,365,42.59%
1145,3,368,42.94%
1146,2,370,43.17%
1147,2,372,43.41%
1148,3,375,43.76%
1149,6,381,44.46%
1150,0,381,44.46%
1151,1,382,44.57%
1152,0,382,44.57%
1153,0,382,44.57%
1154,1,383,44.69%
1155,1,384,44.81%
1156,0,384,44.81%
1157,2,386,45.04%
1158,4,390,45.51%
1159,2,392,45.74%
1160,3,395,46.09%
1161,0,395,46.09%
1162,3,398,46.44%
1163,2,400,46.67%
1164,0,400,46.67%
1165,1,401,46.79%
1166,0,401,46.79%
1167,0,401,46.79%
1168,4,405,47.26%
1169,4,409,47.72%
1170,1,410,47.84%
1171,0,410,47.84%
1172,0,410,47.84%
1173,7,417,48.66%
1174,3,420,49.01%
1175,0,420,49.01%
1176,1,421,49.12%
1177,0,421,49.12%
1178,1,422,49.24%
1179,1,423,49.36%
1180,1,424,49.47%
1181,0,424,49.47%
1182,1,425,49.59%
1183,6,431,50.29%
1184,10,441,51.46%
1185,2,443,51.69%
1186,2,445,51.93%
1187,6,451,52.63%
1188,0,451,52.63%
1189,0,451,52.63%
1190,0,451,52.63%
1191,4,455,53.09%
1192,2,457,53.33%
1193,0,457,53.33%
1194,2,459,53.56%
1195,0,459,53.56%
1196,2,461,53.79%
1197,3,464,54.14%
1198,2,466,54.38%
1199,3,469,54.73%
1200,0,469,54.73%
1201,1,470,54.84%
1202,0,470,54.84%
1203,4,474,55.31%
1204,2,476,55.54%
1205,2,478,55.78%
1206,0,478,55.78%
1207,2,480,56.01%
1208,0,480,56.01%
1209,0,480,56.01%
1210,0,480,56.01%
1211,1,481,56.13%
1212,1,482,56.24%
1213,0,482,56.24%
1214,0,482,56.24%
1215,0,482,56.24%
1216,0,482,56.24%
1217,2,484,56.48%
1218,0,484,56.48%
1219,0,484,56.48%
1220,0,484,56.48%
1221,1,485,56.59%
1222,4,489,57.06%
1223,0,489,57.06%
1224,0,489,57.06%
1225,1,490,57.18%
1226,1,491,57.29%
1227,0,491,57.29%
1228,0,491,57.29%
1229,0,491,57.29%
1230,2,493,57.53%
1231,3,496,57.88%
1232,3,499,58.23%
1233,1,500,58.34%
1234,0,500,58.34%
1235,1,501,58.46%
1236,2,503,58.69%
1237,2,505,58.93%
1238,1,506,59.04%
1239,0,506,59.04%
1240,6,512,59.74%
1241,7,519,60.56%
1242,4,523,61.03%
1243,1,524,61.14%
1244,0,524,61.14%
1245,0,524,61.14%
1246,3,527,61.49%
1247,1,528,61.61%
1248,0,528,61.61%
1249,1,529,61.73%
1250,3,532,62.08%
1251,0,532,62.08%
1252,0,532,62.08%
1253,0,532,62.08%
1254,0,532,62.08%
1255,0,532,62.08%
1256,2,534,62.31%
1257,3,537,62.66%
1258,0,537,62.66%
1259,0,537,62.66%
1260,0,537,62.66%
1261,0,537,62.66%
1262,0,537,62.66%
1263,0,537,62.66%
1264,2,539,62.89%
1265,1,540,63.01%
1266,1,541,63.13%
1267,2,543,63.36%
1268,1,544,63.48%
1269,2,546,63.71%
1270,5,551,64.29%
1271,0,551,64.29%
1272,0,551,64.29%
1273,2,553,64.53%
1274,4,557,64.99%
1275,8,565,65.93%
1276,1,566,66.04%
1277,0,566,66.04%
1278,2,568,66.28%
1279,4,572,66.74%
1280,1,573,66.86%
1281,0,573,66.86%
1282,0,573,66.86%
1283,1,574,66.98%
1284,4,578,67.44%
1285,2,580,67.68%
1286,0,580,67.68%
1287,0,580,67.68%
1288,3,583,68.03%
1289,2,585,68.26%
1290,0,585,68.26%
1291,0,585,68.26%
1292,0,585,68.26%
1293,2,587,68.49%
1294,3,590,68.84%
1295,0,590,68.84%
1296,0,590,68.84%
1297,267,857,100.0%
