Length, Count, Sum (Counts <= Length), Percent of Nonzero Data, Nonzero Data Count = 852, Zero Data Count = 992
1,1,1,0.12%
2,0,1,0.12%
3,1,2,0.23%
4,0,2,0.23%
5,0,2,0.23%
6,0,2,0.23%
7,0,2,0.23%
8,0,2,0.23%
9,0,2,0.23%
10,0,2,0.23%
11,0,2,0.23%
12,0,2,0.23%
13,0,2,0.23%
14,0,2,0.23%
15,0,2,0.23%
16,0,2,0.23%
17,0,2,0.23%
18,0,2,0.23%
19,0,2,0.23%
20,0,2,0.23%
21,0,2,0.23%
22,0,2,0.23%
23,0,2,0.23%
24,0,2,0.23%
25,0,2,0.23%
26,0,2,0.23%
27,0,2,0.23%
28,1,3,0.35%
29,1,4,0.47%
30,0,4,0.47%
31,0,4,0.47%
32,0,4,0.47%
33,0,4,0.47%
34,0,4,0.47%
35,0,4,0.47%
36,0,4,0.47%
37,0,4,0.47%
38,0,4,0.47%
39,1,5,0.59%
40,0,5,0.59%
41,0,5,0.59%
42,0,5,0.59%
43,0,5,0.59%
44,0,5,0.59%
45,0,5,0.59%
46,0,5,0.59%
47,0,5,0.59%
48,0,5,0.59%
49,0,5,0.59%
50,1,6,0.7%
51,1,7,0.82%
52,1,8,0.94%
53,0,8,0.94%
54,0,8,0.94%
55,0,8,0.94%
56,0,8,0.94%
57,0,8,0.94%
58,1,9,1.06%
59,0,9,1.06%
60,0,9,1.06%
61,0,9,1.06%
62,0,9,1.06%
63,2,11,1.29%
64,0,11,1.29%
65,0,11,1.29%
66,0,11,1.29%
67,0,11,1.29%
68,0,11,1.29%
69,0,11,1.29%
70,0,11,1.29%
71,0,11,1.29%
72,0,11,1.29%
73,1,12,1.41%
74,0,12,1.41%
75,1,13,1.53%
76,0,13,1.53%
77,0,13,1.53%
78,0,13,1.53%
79,0,13,1.53%
80,1,14,1.64%
81,0,14,1.64%
82,0,14,1.64%
83,0,14,1.64%
84,0,14,1.64%
85,1,15,1.76%
86,0,15,1.76%
87,0,15,1.76%
88,0,15,1.76%
89,0,15,1.76%
90,0,15,1.76%
91,0,15,1.76%
92,1,16,1.88%
93,0,16,1.88%
94,0,16,1.88%
95,0,16,1.88%
96,1,17,2.0%
97,0,17,2.0%
98,0,17,2.0%
99,0,17,2.0%
100,0,17,2.0%
101,0,17,2.0%
102,0,17,2.0%
103,0,17,2.0%
104,1,18,2.11%
105,0,18,2.11%
106,1,19,2.23%
107,0,19,2.23%
108,0,19,2.23%
109,2,21,2.46%
110,0,21,2.46%
111,0,21,2.46%
112,0,21,2.46%
113,0,21,2.46%
114,0,21,2.46%
115,2,23,2.7%
116,0,23,2.7%
117,0,23,2.7%
118,0,23,2.7%
119,0,23,2.7%
120,0,23,2.7%
121,0,23,2.7%
122,0,23,2.7%
123,1,24,2.82%
124,0,24,2.82%
125,1,25,2.93%
126,0,25,2.93%
127,0,25,2.93%
128,1,26,3.05%
129,0,26,3.05%
130,0,26,3.05%
131,0,26,3.05%
132,0,26,3.05%
133,0,26,3.05%
134,0,26,3.05%
135,0,26,3.05%
136,0,26,3.05%
137,0,26,3.05%
138,0,26,3.05%
139,0,26,3.05%
140,0,26,3.05%
141,1,27,3.17%
142,0,27,3.17%
143,0,27,3.17%
144,0,27,3.17%
145,2,29,3.4%
146,0,29,3.4%
147,0,29,3.4%
148,0,29,3.4%
149,0,29,3.4%
150,1,30,3.52%
151,1,31,3.64%
152,0,31,3.64%
153,1,32,3.76%
154,1,33,3.87%
155,1,34,3.99%
156,0,34,3.99%
157,0,34,3.99%
158,0,34,3.99%
159,0,34,3.99%
160,0,34,3.99%
161,0,34,3.99%
162,0,34,3.99%
163,0,34,3.99%
164,0,34,3.99%
165,0,34,3.99%
166,0,34,3.99%
167,0,34,3.99%
168,0,34,3.99%
169,0,34,3.99%
170,2,36,4.23%
171,0,36,4.23%
172,0,36,4.23%
173,0,36,4.23%
174,0,36,4.23%
175,0,36,4.23%
176,0,36,4.23%
177,0,36,4.23%
178,1,37,4.34%
179,0,37,4.34%
180,0,37,4.34%
181,1,38,4.46%
182,0,38,4.46%
183,0,38,4.46%
184,1,39,4.58%
185,0,39,4.58%
186,0,39,4.58%
187,0,39,4.58%
188,0,39,4.58%
189,0,39,4.58%
190,0,39,4.58%
191,0,39,4.58%
192,0,39,4.58%
193,0,39,4.58%
194,0,39,4.58%
195,0,39,4.58%
196,0,39,4.58%
197,0,39,4.58%
198,0,39,4.58%
199,0,39,4.58%
200,1,40,4.69%
201,2,42,4.93%
202,1,43,5.05%
203,0,43,5.05%
204,0,43,5.05%
205,0,43,5.05%
206,0,43,5.05%
207,1,44,5.16%
208,0,44,5.16%
209,0,44,5.16%
210,0,44,5.16%
211,0,44,5.16%
212,1,45,5.28%
213,0,45,5.28%
214,0,45,5.28%
215,1,46,5.4%
216,0,46,5.4%
217,0,46,5.4%
218,0,46,5.4%
219,0,46,5.4%
220,0,46,5.4%
221,0,46,5.4%
222,0,46,5.4%
223,0,46,5.4%
224,0,46,5.4%
225,0,46,5.4%
226,0,46,5.4%
227,0,46,5.4%
228,0,46,5.4%
229,0,46,5.4%
230,0,46,5.4%
231,1,47,5.52%
232,0,47,5.52%
233,0,47,5.52%
234,0,47,5.52%
235,0,47,5.52%
236,2,49,5.75%
237,0,49,5.75%
238,0,49,5.75%
239,0,49,5.75%
240,0,49,5.75%
241,0,49,5.75%
242,2,51,5.99%
243,1,52,6.1%
244,1,53,6.22%
245,0,53,6.22%
246,0,53,6.22%
247,0,53,6.22%
248,0,53,6.22%
249,0,53,6.22%
250,0,53,6.22%
251,0,53,6.22%
252,1,54,6.34%
253,0,54,6.34%
254,0,54,6.34%
255,1,55,6.46%
256,0,55,6.46%
257,1,56,6.57%
258,0,56,6.57%
259,1,57,6.69%
260,0,57,6.69%
261,0,57,6.69%
262,0,57,6.69%
263,1,58,6.81%
264,1,59,6.92%
265,1,60,7.04%
266,0,60,7.04%
267,0,60,7.04%
268,0,60,7.04%
269,0,60,7.04%
270,3,63,7.39%
271,0,63,7.39%
272,0,63,7.39%
273,0,63,7.39%
274,2,65,7.63%
275,0,65,7.63%
276,0,65,7.63%
277,0,65,7.63%
278,0,65,7.63%
279,0,65,7.63%
280,0,65,7.63%
281,0,65,7.63%
282,1,66,7.75%
283,0,66,7.75%
284,0,66,7.75%
285,0,66,7.75%
286,0,66,7.75%
287,0,66,7.75%
288,0,66,7.75%
289,0,66,7.75%
290,0,66,7.75%
291,0,66,7.75%
292,0,66,7.75%
293,0,66,7.75%
294,1,67,7.86%
295,0,67,7.86%
296,0,67,7.86%
297,0,67,7.86%
298,0,67,7.86%
299,0,67,7.86%
300,0,67,7.86%
301,0,67,7.86%
302,0,67,7.86%
303,2,69,8.1%
304,0,69,8.1%
305,0,69,8.1%
306,0,69,8.1%
307,0,69,8.1%
308,0,69,8.1%
309,0,69,8.1%
310,0,69,8.1%
311,2,71,8.33%
312,0,71,8.33%
313,0,71,8.33%
314,0,71,8.33%
315,0,71,8.33%
316,0,71,8.33%
317,0,71,8.33%
318,0,71,8.33%
319,0,71,8.33%
320,0,71,8.33%
321,0,71,8.33%
322,0,71,8.33%
323,0,71,8.33%
324,0,71,8.33%
325,2,73,8.57%
326,0,73,8.57%
327,0,73,8.57%
328,0,73,8.57%
329,0,73,8.57%
330,0,73,8.57%
331,0,73,8.57%
332,0,73,8.57%
333,0,73,8.57%
334,0,73,8.57%
335,0,73,8.57%
336,0,73,8.57%
337,0,73,8.57%
338,1,74,8.69%
339,0,74,8.69%
340,0,74,8.69%
341,0,74,8.69%
342,0,74,8.69%
343,1,75,8.8%
344,0,75,8.8%
345,0,75,8.8%
346,0,75,8.8%
347,1,76,8.92%
348,0,76,8.92%
349,1,77,9.04%
350,1,78,9.15%
351,15,93,10.92%
352,10,103,12.09%
353,0,103,12.09%
354,0,103,12.09%
355,0,103,12.09%
356,0,103,12.09%
357,1,104,12.21%
358,5,109,12.79%
359,0,109,12.79%
360,3,112,13.15%
361,1,113,13.26%
362,0,113,13.26%
363,1,114,13.38%
364,0,114,13.38%
365,0,114,13.38%
366,1,115,13.5%
367,0,115,13.5%
368,0,115,13.5%
369,0,115,13.5%
370,1,116,13.62%
371,0,116,13.62%
372,3,119,13.97%
373,0,119,13.97%
374,0,119,13.97%
375,0,119,13.97%
376,0,119,13.97%
377,0,119,13.97%
378,0,119,13.97%
379,0,119,13.97%
380,0,119,13.97%
381,0,119,13.97%
382,1,120,14.08%
383,0,120,14.08%
384,0,120,14.08%
385,1,121,14.2%
386,0,121,14.2%
387,0,121,14.2%
388,1,122,14.32%
389,0,122,14.32%
390,0,122,14.32%
391,0,122,14.32%
392,0,122,14.32%
393,1,123,14.44%
394,0,123,14.44%
395,0,123,14.44%
396,0,123,14.44%
397,1,124,14.55%
398,0,124,14.55%
399,0,124,14.55%
400,0,124,14.55%
401,1,125,14.67%
402,0,125,14.67%
403,1,126,14.79%
404,0,126,14.79%
405,1,127,14.91%
406,2,129,15.14%
407,1,130,15.26%
408,0,130,15.26%
409,0,130,15.26%
410,0,130,15.26%
411,0,130,15.26%
412,1,131,15.38%
413,0,131,15.38%
414,0,131,15.38%
415,0,131,15.38%
416,1,132,15.49%
417,0,132,15.49%
418,0,132,15.49%
419,0,132,15.49%
420,0,132,15.49%
421,0,132,15.49%
422,1,133,15.61%
423,0,133,15.61%
424,0,133,15.61%
425,0,133,15.61%
426,0,133,15.61%
427,0,133,15.61%
428,1,134,15.73%
429,1,135,15.85%
430,0,135,15.85%
431,0,135,15.85%
432,0,135,15.85%
433,0,135,15.85%
434,0,135,15.85%
435,2,137,16.08%
436,0,137,16.08%
437,0,137,16.08%
438,0,137,16.08%
439,0,137,16.08%
440,0,137,16.08%
441,1,138,16.2%
442,1,139,16.31%
443,0,139,16.31%
444,0,139,16.31%
445,0,139,16.31%
446,1,140,16.43%
447,0,140,16.43%
448,0,140,16.43%
449,0,140,16.43%
450,0,140,16.43%
451,0,140,16.43%
452,0,140,16.43%
453,2,142,16.67%
454,0,142,16.67%
455,0,142,16.67%
456,0,142,16.67%
457,0,142,16.67%
458,0,142,16.67%
459,0,142,16.67%
460,0,142,16.67%
461,1,143,16.78%
462,1,144,16.9%
463,0,144,16.9%
464,0,144,16.9%
465,0,144,16.9%
466,0,144,16.9%
467,0,144,16.9%
468,0,144,16.9%
469,0,144,16.9%
470,0,144,16.9%
471,0,144,16.9%
472,0,144,16.9%
473,1,145,17.02%
474,0,145,17.02%
475,0,145,17.02%
476,0,145,17.02%
477,0,145,17.02%
478,0,145,17.02%
479,0,145,17.02%
480,1,146,17.14%
481,0,146,17.14%
482,1,147,17.25%
483,0,147,17.25%
484,0,147,17.25%
485,0,147,17.25%
486,0,147,17.25%
487,1,148,17.37%
488,0,148,17.37%
489,0,148,17.37%
490,1,149,17.49%
491,0,149,17.49%
492,0,149,17.49%
493,0,149,17.49%
494,1,150,17.61%
495,3,153,17.96%
496,1,154,18.08%
497,0,154,18.08%
498,0,154,18.08%
499,0,154,18.08%
500,0,154,18.08%
501,0,154,18.08%
502,0,154,18.08%
503,1,155,18.19%
504,0,155,18.19%
505,0,155,18.19%
506,0,155,18.19%
507,0,155,18.19%
508,0,155,18.19%
509,0,155,18.19%
510,1,156,18.31%
511,0,156,18.31%
512,0,156,18.31%
513,0,156,18.31%
514,0,156,18.31%
515,1,157,18.43%
516,0,157,18.43%
517,0,157,18.43%
518,0,157,18.43%
519,1,158,18.54%
520,0,158,18.54%
521,0,158,18.54%
522,0,158,18.54%
523,0,158,18.54%
524,0,158,18.54%
525,0,158,18.54%
526,0,158,18.54%
527,0,158,18.54%
528,1,159,18.66%
529,1,160,18.78%
530,0,160,18.78%
531,0,160,18.78%
532,0,160,18.78%
533,1,161,18.9%
534,0,161,18.9%
535,0,161,18.9%
536,0,161,18.9%
537,0,161,18.9%
538,0,161,18.9%
539,0,161,18.9%
540,0,161,18.9%
541,0,161,18.9%
542,0,161,18.9%
543,0,161,18.9%
544,0,161,18.9%
545,0,161,18.9%
546,2,163,19.13%
547,0,163,19.13%
548,0,163,19.13%
549,0,163,19.13%
550,0,163,19.13%
551,0,163,19.13%
552,0,163,19.13%
553,0,163,19.13%
554,0,163,19.13%
555,0,163,19.13%
556,0,163,19.13%
557,0,163,19.13%
558,0,163,19.13%
559,0,163,19.13%
560,0,163,19.13%
561,0,163,19.13%
562,0,163,19.13%
563,0,163,19.13%
564,1,164,19.25%
565,1,165,19.37%
566,1,166,19.48%
567,1,167,19.6%
568,0,167,19.6%
569,2,169,19.84%
570,0,169,19.84%
571,0,169,19.84%
572,0,169,19.84%
573,3,172,20.19%
574,0,172,20.19%
575,0,172,20.19%
576,8,180,21.13%
577,0,180,21.13%
578,0,180,21.13%
579,1,181,21.24%
580,0,181,21.24%
581,1,182,21.36%
582,0,182,21.36%
583,0,182,21.36%
584,0,182,21.36%
585,1,183,21.48%
586,0,183,21.48%
587,0,183,21.48%
588,0,183,21.48%
589,0,183,21.48%
590,0,183,21.48%
591,0,183,21.48%
592,1,184,21.6%
593,0,184,21.6%
594,0,184,21.6%
595,0,184,21.6%
596,0,184,21.6%
597,0,184,21.6%
598,0,184,21.6%
599,1,185,21.71%
600,0,185,21.71%
601,0,185,21.71%
602,0,185,21.71%
603,1,186,21.83%
604,2,188,22.07%
605,0,188,22.07%
606,0,188,22.07%
607,0,188,22.07%
608,0,188,22.07%
609,0,188,22.07%
610,0,188,22.07%
611,0,188,22.07%
612,0,188,22.07%
613,0,188,22.07%
614,0,188,22.07%
615,0,188,22.07%
616,0,188,22.07%
617,0,188,22.07%
618,0,188,22.07%
619,0,188,22.07%
620,0,188,22.07%
621,0,188,22.07%
622,1,189,22.18%
623,0,189,22.18%
624,1,190,22.3%
625,0,190,22.3%
626,1,191,22.42%
627,0,191,22.42%
628,0,191,22.42%
629,0,191,22.42%
630,0,191,22.42%
631,0,191,22.42%
632,1,192,22.54%
633,0,192,22.54%
634,0,192,22.54%
635,1,193,22.65%
636,0,193,22.65%
637,0,193,22.65%
638,1,194,22.77%
639,0,194,22.77%
640,0,194,22.77%
641,0,194,22.77%
642,0,194,22.77%
643,0,194,22.77%
644,0,194,22.77%
645,0,194,22.77%
646,0,194,22.77%
647,1,195,22.89%
648,0,195,22.89%
649,1,196,23.0%
650,0,196,23.0%
651,0,196,23.0%
652,0,196,23.0%
653,1,197,23.12%
654,0,197,23.12%
655,0,197,23.12%
656,0,197,23.12%
657,0,197,23.12%
658,0,197,23.12%
659,0,197,23.12%
660,0,197,23.12%
661,0,197,23.12%
662,0,197,23.12%
663,0,197,23.12%
664,0,197,23.12%
665,0,197,23.12%
666,0,197,23.12%
667,0,197,23.12%
668,0,197,23.12%
669,0,197,23.12%
670,0,197,23.12%
671,0,197,23.12%
672,0,197,23.12%
673,0,197,23.12%
674,0,197,23.12%
675,0,197,23.12%
676,0,197,23.12%
677,0,197,23.12%
678,0,197,23.12%
679,0,197,23.12%
680,0,197,23.12%
681,0,197,23.12%
682,0,197,23.12%
683,1,198,23.24%
684,0,198,23.24%
685,0,198,23.24%
686,0,198,23.24%
687,0,198,23.24%
688,1,199,23.36%
689,1,200,23.47%
690,0,200,23.47%
691,0,200,23.47%
692,0,200,23.47%
693,5,205,24.06%
694,0,205,24.06%
695,0,205,24.06%
696,0,205,24.06%
697,0,205,24.06%
698,1,206,24.18%
699,0,206,24.18%
700,0,206,24.18%
701,0,206,24.18%
702,1,207,24.3%
703,0,207,24.3%
704,1,208,24.41%
705,1,209,24.53%
706,0,209,24.53%
707,0,209,24.53%
708,0,209,24.53%
709,0,209,24.53%
710,0,209,24.53%
711,0,209,24.53%
712,0,209,24.53%
713,0,209,24.53%
714,0,209,24.53%
715,0,209,24.53%
716,0,209,24.53%
717,0,209,24.53%
718,0,209,24.53%
719,1,210,24.65%
720,0,210,24.65%
721,0,210,24.65%
722,0,210,24.65%
723,2,212,24.88%
724,0,212,24.88%
725,1,213,25.0%
726,0,213,25.0%
727,1,214,25.12%
728,0,214,25.12%
729,0,214,25.12%
730,0,214,25.12%
731,0,214,25.12%
732,0,214,25.12%
733,0,214,25.12%
734,0,214,25.12%
735,1,215,25.23%
736,1,216,25.35%
737,0,216,25.35%
738,0,216,25.35%
739,1,217,25.47%
740,0,217,25.47%
741,0,217,25.47%
742,0,217,25.47%
743,0,217,25.47%
744,1,218,25.59%
745,0,218,25.59%
746,0,218,25.59%
747,0,218,25.59%
748,0,218,25.59%
749,0,218,25.59%
750,0,218,25.59%
751,0,218,25.59%
752,0,218,25.59%
753,1,219,25.7%
754,1,220,25.82%
755,0,220,25.82%
756,1,221,25.94%
757,0,221,25.94%
758,0,221,25.94%
759,0,221,25.94%
760,0,221,25.94%
761,0,221,25.94%
762,0,221,25.94%
763,0,221,25.94%
764,0,221,25.94%
765,0,221,25.94%
766,0,221,25.94%
767,0,221,25.94%
768,0,221,25.94%
769,1,222,26.06%
770,0,222,26.06%
771,0,222,26.06%
772,0,222,26.06%
773,0,222,26.06%
774,1,223,26.17%
775,0,223,26.17%
776,0,223,26.17%
777,0,223,26.17%
778,1,224,26.29%
779,0,224,26.29%
780,0,224,26.29%
781,0,224,26.29%
782,0,224,26.29%
783,0,224,26.29%
784,0,224,26.29%
785,1,225,26.41%
786,0,225,26.41%
787,0,225,26.41%
788,0,225,26.41%
789,0,225,26.41%
790,0,225,26.41%
791,0,225,26.41%
792,1,226,26.53%
793,0,226,26.53%
794,0,226,26.53%
795,2,228,26.76%
796,0,228,26.76%
797,0,228,26.76%
798,1,229,26.88%
799,0,229,26.88%
800,0,229,26.88%
801,1,230,27.0%
802,0,230,27.0%
803,0,230,27.0%
804,1,231,27.11%
805,0,231,27.11%
806,0,231,27.11%
807,0,231,27.11%
808,0,231,27.11%
809,0,231,27.11%
810,0,231,27.11%
811,0,231,27.11%
812,1,232,27.23%
813,0,232,27.23%
814,0,232,27.23%
815,0,232,27.23%
816,2,234,27.46%
817,0,234,27.46%
818,0,234,27.46%
819,0,234,27.46%
820,0,234,27.46%
821,0,234,27.46%
822,0,234,27.46%
823,9,243,28.52%
824,0,243,28.52%
825,1,244,28.64%
826,0,244,28.64%
827,0,244,28.64%
828,0,244,28.64%
829,0,244,28.64%
830,0,244,28.64%
831,0,244,28.64%
832,0,244,28.64%
833,0,244,28.64%
834,0,244,28.64%
835,0,244,28.64%
836,0,244,28.64%
837,1,245,28.76%
838,0,245,28.76%
839,0,245,28.76%
840,2,247,28.99%
841,0,247,28.99%
842,0,247,28.99%
843,0,247,28.99%
844,0,247,28.99%
845,0,247,28.99%
846,0,247,28.99%
847,0,247,28.99%
848,0,247,28.99%
849,0,247,28.99%
850,0,247,28.99%
851,0,247,28.99%
852,0,247,28.99%
853,0,247,28.99%
854,0,247,28.99%
855,1,248,29.11%
856,1,249,29.23%
857,0,249,29.23%
858,0,249,29.23%
859,0,249,29.23%
860,0,249,29.23%
861,0,249,29.23%
862,0,249,29.23%
863,0,249,29.23%
864,0,249,29.23%
865,0,249,29.23%
866,0,249,29.23%
867,0,249,29.23%
868,0,249,29.23%
869,0,249,29.23%
870,0,249,29.23%
871,1,250,29.34%
872,0,250,29.34%
873,0,250,29.34%
874,0,250,29.34%
875,0,250,29.34%
876,1,251,29.46%
877,0,251,29.46%
878,0,251,29.46%
879,0,251,29.46%
880,0,251,29.46%
881,1,252,29.58%
882,0,252,29.58%
883,0,252,29.58%
884,1,253,29.69%
885,0,253,29.69%
886,0,253,29.69%
887,0,253,29.69%
888,0,253,29.69%
889,0,253,29.69%
890,0,253,29.69%
891,0,253,29.69%
892,0,253,29.69%
893,0,253,29.69%
894,1,254,29.81%
895,0,254,29.81%
896,1,255,29.93%
897,0,255,29.93%
898,0,255,29.93%
899,0,255,29.93%
900,0,255,29.93%
901,1,256,30.05%
902,1,257,30.16%
903,1,258,30.28%
904,1,259,30.4%
905,0,259,30.4%
906,1,260,30.52%
907,1,261,30.63%
908,1,262,30.75%
909,0,262,30.75%
910,0,262,30.75%
911,0,262,30.75%
912,0,262,30.75%
913,0,262,30.75%
914,0,262,30.75%
915,0,262,30.75%
916,0,262,30.75%
917,0,262,30.75%
918,0,262,30.75%
919,0,262,30.75%
920,0,262,30.75%
921,0,262,30.75%
922,0,262,30.75%
923,0,262,30.75%
924,0,262,30.75%
925,0,262,30.75%
926,0,262,30.75%
927,1,263,30.87%
928,1,264,30.99%
929,0,264,30.99%
930,0,264,30.99%
931,1,265,31.1%
932,0,265,31.1%
933,1,266,31.22%
934,0,266,31.22%
935,0,266,31.22%
936,0,266,31.22%
937,0,266,31.22%
938,0,266,31.22%
939,0,266,31.22%
940,0,266,31.22%
941,0,266,31.22%
942,2,268,31.46%
943,0,268,31.46%
944,0,268,31.46%
945,0,268,31.46%
946,1,269,31.57%
947,1,270,31.69%
948,0,270,31.69%
949,0,270,31.69%
950,0,270,31.69%
951,0,270,31.69%
952,1,271,31.81%
953,0,271,31.81%
954,1,272,31.92%
955,0,272,31.92%
956,0,272,31.92%
957,0,272,31.92%
958,0,272,31.92%
959,0,272,31.92%
960,0,272,31.92%
961,1,273,32.04%
962,0,273,32.04%
963,0,273,32.04%
964,1,274,32.16%
965,0,274,32.16%
966,0,274,32.16%
967,1,275,32.28%
968,0,275,32.28%
969,0,275,32.28%
970,0,275,32.28%
971,0,275,32.28%
972,0,275,32.28%
973,0,275,32.28%
974,0,275,32.28%
975,0,275,32.28%
976,0,275,32.28%
977,0,275,32.28%
978,0,275,32.28%
979,1,276,32.39%
980,0,276,32.39%
981,0,276,32.39%
982,0,276,32.39%
983,0,276,32.39%
984,0,276,32.39%
985,1,277,32.51%
986,0,277,32.51%
987,1,278,32.63%
988,0,278,32.63%
989,1,279,32.75%
990,0,279,32.75%
991,1,280,32.86%
992,0,280,32.86%
993,0,280,32.86%
994,1,281,32.98%
995,0,281,32.98%
996,0,281,32.98%
997,0,281,32.98%
998,2,283,33.22%
999,1,284,33.33%
1000,0,284,33.33%
1001,0,284,33.33%
1002,0,284,33.33%
1003,0,284,33.33%
1004,0,284,33.33%
1005,0,284,33.33%
1006,0,284,33.33%
1007,0,284,33.33%
1008,0,284,33.33%
1009,0,284,33.33%
1010,0,284,33.33%
1011,0,284,33.33%
1012,0,284,33.33%
1013,0,284,33.33%
1014,0,284,33.33%
1015,0,284,33.33%
1016,1,285,33.45%
1017,1,286,33.57%
1018,1,287,33.69%
1019,0,287,33.69%
1020,0,287,33.69%
1021,0,287,33.69%
1022,0,287,33.69%
1023,0,287,33.69%
1024,0,287,33.69%
1025,1,288,33.8%
1026,0,288,33.8%
1027,0,288,33.8%
1028,0,288,33.8%
1029,1,289,33.92%
1030,0,289,33.92%
1031,0,289,33.92%
1032,0,289,33.92%
1033,2,291,34.15%
1034,0,291,34.15%
1035,0,291,34.15%
1036,0,291,34.15%
1037,0,291,34.15%
1038,0,291,34.15%
1039,0,291,34.15%
1040,0,291,34.15%
1041,0,291,34.15%
1042,0,291,34.15%
1043,0,291,34.15%
1044,0,291,34.15%
1045,0,291,34.15%
1046,0,291,34.15%
1047,0,291,34.15%
1048,0,291,34.15%
1049,0,291,34.15%
1050,0,291,34.15%
1051,0,291,34.15%
1052,1,292,34.27%
1053,0,292,34.27%
1054,0,292,34.27%
1055,0,292,34.27%
1056,1,293,34.39%
1057,0,293,34.39%
1058,0,293,34.39%
1059,0,293,34.39%
1060,0,293,34.39%
1061,0,293,34.39%
1062,0,293,34.39%
1063,0,293,34.39%
1064,0,293,34.39%
1065,0,293,34.39%
1066,0,293,34.39%
1067,0,293,34.39%
1068,1,294,34.51%
1069,0,294,34.51%
1070,0,294,34.51%
1071,0,294,34.51%
1072,1,295,34.62%
1073,0,295,34.62%
1074,0,295,34.62%
1075,0,295,34.62%
1076,4,299,35.09%
1077,0,299,35.09%
1078,0,299,35.09%
1079,1,300,35.21%
1080,0,300,35.21%
1081,1,301,35.33%
1082,0,301,35.33%
1083,0,301,35.33%
1084,0,301,35.33%
1085,1,302,35.45%
1086,0,302,35.45%
1087,0,302,35.45%
1088,0,302,35.45%
1089,0,302,35.45%
1090,0,302,35.45%
1091,0,302,35.45%
1092,0,302,35.45%
1093,0,302,35.45%
1094,1,303,35.56%
1095,0,303,35.56%
1096,1,304,35.68%
1097,0,304,35.68%
1098,0,304,35.68%
1099,0,304,35.68%
1100,1,305,35.8%
1101,1,306,35.92%
1102,1,307,36.03%
1103,1,308,36.15%
1104,0,308,36.15%
1105,2,310,36.38%
1106,1,311,36.5%
1107,0,311,36.5%
1108,0,311,36.5%
1109,2,313,36.74%
1110,2,315,36.97%
1111,0,315,36.97%
1112,0,315,36.97%
1113,1,316,37.09%
1114,1,317,37.21%
1115,3,320,37.56%
1116,5,325,38.15%
1117,0,325,38.15%
1118,2,327,38.38%
1119,3,330,38.73%
1120,1,331,38.85%
1121,1,332,38.97%
1122,1,333,39.08%
1123,0,333,39.08%
1124,1,334,39.2%
1125,4,338,39.67%
1126,2,340,39.91%
1127,0,340,39.91%
1128,1,341,40.02%
1129,1,342,40.14%
1130,0,342,40.14%
1131,2,344,40.38%
1132,0,344,40.38%
1133,2,346,40.61%
1134,2,348,40.85%
1135,1,349,40.96%
1136,0,349,40.96%
1137,2,351,41.2%
1138,0,351,41.2%
1139,1,352,41.31%
1140,0,352,41.31%
1141,5,357,41.9%
1142,1,358,42.02%
1143,4,362,42.49%
1144,2,364,42.72%
1145,3,367,43.08%
1146,1,368,43.19%
1147,1,369,43.31%
1148,3,372,43.66%
1149,6,378,44.37%
1150,0,378,44.37%
1151,1,379,44.48%
1152,0,379,44.48%
1153,0,379,44.48%
1154,1,380,44.6%
1155,1,381,44.72%
1156,0,381,44.72%
1157,2,383,44.95%
1158,4,387,45.42%
1159,2,389,45.66%
1160,3,392,46.01%
1161,0,392,46.01%
1162,3,395,46.36%
1163,3,398,46.71%
1164,0,398,46.71%
1165,0,398,46.71%
1166,0,398,46.71%
1167,0,398,46.71%
1168,4,402,47.18%
1169,3,405,47.54%
1170,1,406,47.65%
1171,0,406,47.65%
1172,0,406,47.65%
1173,7,413,48.47%
1174,3,416,48.83%
1175,0,416,48.83%
1176,1,417,48.94%
1177,2,419,49.18%
1178,1,420,49.3%
1179,1,421,49.41%
1180,1,422,49.53%
1181,0,422,49.53%
1182,1,423,49.65%
1183,6,429,50.35%
1184,10,439,51.53%
1185,1,440,51.64%
1186,2,442,51.88%
1187,6,448,52.58%
1188,0,448,52.58%
1189,0,448,52.58%
1190,0,448,52.58%
1191,4,452,53.05%
1192,2,454,53.29%
1193,0,454,53.29%
1194,2,456,53.52%
1195,1,457,53.64%
1196,2,459,53.87%
1197,3,462,54.23%
1198,2,464,54.46%
1199,2,466,54.69%
1200,0,466,54.69%
1201,1,467,54.81%
1202,0,467,54.81%
1203,4,471,55.28%
1204,2,473,55.52%
1205,0,473,55.52%
1206,0,473,55.52%
1207,2,475,55.75%
1208,0,475,55.75%
1209,0,475,55.75%
1210,0,475,55.75%
1211,1,476,55.87%
1212,3,479,56.22%
1213,0,479,56.22%
1214,0,479,56.22%
1215,0,479,56.22%
1216,0,479,56.22%
1217,2,481,56.46%
1218,0,481,56.46%
1219,0,481,56.46%
1220,0,481,56.46%
1221,1,482,56.57%
1222,4,486,57.04%
1223,0,486,57.04%
1224,0,486,57.04%
1225,1,487,57.16%
1226,1,488,57.28%
1227,0,488,57.28%
1228,0,488,57.28%
1229,0,488,57.28%
1230,2,490,57.51%
1231,3,493,57.86%
1232,3,496,58.22%
1233,1,497,58.33%
1234,0,497,58.33%
1235,1,498,58.45%
1236,2,500,58.69%
1237,2,502,58.92%
1238,1,503,59.04%
1239,0,503,59.04%
1240,4,507,59.51%
1241,7,514,60.33%
1242,4,518,60.8%
1243,1,519,60.92%
1244,0,519,60.92%
1245,0,519,60.92%
1246,3,522,61.27%
1247,1,523,61.38%
1248,0,523,61.38%
1249,1,524,61.5%
1250,3,527,61.85%
1251,0,527,61.85%
1252,0,527,61.85%
1253,0,527,61.85%
1254,0,527,61.85%
1255,0,527,61.85%
1256,2,529,62.09%
1257,3,532,62.44%
1258,0,532,62.44%
1259,0,532,62.44%
1260,1,533,62.56%
1261,0,533,62.56%
1262,0,533,62.56%
1263,0,533,62.56%
1264,2,535,62.79%
1265,1,536,62.91%
1266,1,537,63.03%
1267,2,539,63.26%
1268,1,540,63.38%
1269,312,852,100.0%
