Length, Count, Sum (Counts <= Length), Percent of Nonzero Data, Nonzero Data Count = 270, Zero Data Count = 1574
1,2,2,0.74%
2,0,2,0.74%
3,1,3,1.11%
4,0,3,1.11%
5,0,3,1.11%
6,1,4,1.48%
7,0,4,1.48%
8,0,4,1.48%
9,0,4,1.48%
10,0,4,1.48%
11,0,4,1.48%
12,0,4,1.48%
13,0,4,1.48%
14,0,4,1.48%
15,0,4,1.48%
16,0,4,1.48%
17,0,4,1.48%
18,1,5,1.85%
19,0,5,1.85%
20,0,5,1.85%
21,0,5,1.85%
22,1,6,2.22%
23,0,6,2.22%
24,0,6,2.22%
25,0,6,2.22%
26,0,6,2.22%
27,0,6,2.22%
28,0,6,2.22%
29,0,6,2.22%
30,0,6,2.22%
31,2,8,2.96%
32,0,8,2.96%
33,1,9,3.33%
34,0,9,3.33%
35,0,9,3.33%
36,0,9,3.33%
37,0,9,3.33%
38,0,9,3.33%
39,0,9,3.33%
40,0,9,3.33%
41,1,10,3.7%
42,0,10,3.7%
43,0,10,3.7%
44,0,10,3.7%
45,0,10,3.7%
46,0,10,3.7%
47,0,10,3.7%
48,0,10,3.7%
49,0,10,3.7%
50,0,10,3.7%
51,0,10,3.7%
52,1,11,4.07%
53,0,11,4.07%
54,1,12,4.44%
55,0,12,4.44%
56,0,12,4.44%
57,0,12,4.44%
58,0,12,4.44%
59,0,12,4.44%
60,1,13,4.81%
61,0,13,4.81%
62,0,13,4.81%
63,1,14,5.19%
64,0,14,5.19%
65,0,14,5.19%
66,0,14,5.19%
67,0,14,5.19%
68,0,14,5.19%
69,0,14,5.19%
70,0,14,5.19%
71,0,14,5.19%
72,0,14,5.19%
73,0,14,5.19%
74,0,14,5.19%
75,1,15,5.56%
76,0,15,5.56%
77,0,15,5.56%
78,0,15,5.56%
79,0,15,5.56%
80,0,15,5.56%
81,0,15,5.56%
82,0,15,5.56%
83,0,15,5.56%
84,2,17,6.3%
85,0,17,6.3%
86,0,17,6.3%
87,0,17,6.3%
88,0,17,6.3%
89,0,17,6.3%
90,1,18,6.67%
91,0,18,6.67%
92,0,18,6.67%
93,0,18,6.67%
94,0,18,6.67%
95,0,18,6.67%
96,0,18,6.67%
97,0,18,6.67%
98,0,18,6.67%
99,0,18,6.67%
100,1,19,7.04%
101,0,19,7.04%
102,0,19,7.04%
103,1,20,7.41%
104,0,20,7.41%
105,0,20,7.41%
106,250,270,100.0%
