Length, Count, Sum (Counts <= Length), Percent of Nonzero Data, Nonzero Data Count = 828, Zero Data Count = 1016
1,1,1,0.12%
2,0,1,0.12%
3,1,2,0.24%
4,0,2,0.24%
5,0,2,0.24%
6,0,2,0.24%
7,0,2,0.24%
8,0,2,0.24%
9,0,2,0.24%
10,0,2,0.24%
11,0,2,0.24%
12,0,2,0.24%
13,0,2,0.24%
14,0,2,0.24%
15,0,2,0.24%
16,1,3,0.36%
17,0,3,0.36%
18,0,3,0.36%
19,0,3,0.36%
20,0,3,0.36%
21,0,3,0.36%
22,0,3,0.36%
23,0,3,0.36%
24,0,3,0.36%
25,0,3,0.36%
26,0,3,0.36%
27,0,3,0.36%
28,1,4,0.48%
29,0,4,0.48%
30,0,4,0.48%
31,0,4,0.48%
32,1,5,0.6%
33,0,5,0.6%
34,0,5,0.6%
35,0,5,0.6%
36,0,5,0.6%
37,0,5,0.6%
38,0,5,0.6%
39,1,6,0.72%
40,0,6,0.72%
41,0,6,0.72%
42,0,6,0.72%
43,0,6,0.72%
44,0,6,0.72%
45,0,6,0.72%
46,0,6,0.72%
47,2,8,0.97%
48,0,8,0.97%
49,0,8,0.97%
50,1,9,1.09%
51,0,9,1.09%
52,2,11,1.33%
53,0,11,1.33%
54,0,11,1.33%
55,0,11,1.33%
56,0,11,1.33%
57,1,12,1.45%
58,0,12,1.45%
59,0,12,1.45%
60,0,12,1.45%
61,0,12,1.45%
62,0,12,1.45%
63,0,12,1.45%
64,0,12,1.45%
65,0,12,1.45%
66,0,12,1.45%
67,0,12,1.45%
68,0,12,1.45%
69,0,12,1.45%
70,0,12,1.45%
71,0,12,1.45%
72,0,12,1.45%
73,1,13,1.57%
74,0,13,1.57%
75,0,13,1.57%
76,0,13,1.57%
77,0,13,1.57%
78,0,13,1.57%
79,0,13,1.57%
80,0,13,1.57%
81,1,14,1.69%
82,0,14,1.69%
83,0,14,1.69%
84,0,14,1.69%
85,0,14,1.69%
86,0,14,1.69%
87,0,14,1.69%
88,0,14,1.69%
89,0,14,1.69%
90,0,14,1.69%
91,1,15,1.81%
92,0,15,1.81%
93,0,15,1.81%
94,0,15,1.81%
95,1,16,1.93%
96,0,16,1.93%
97,0,16,1.93%
98,0,16,1.93%
99,1,17,2.05%
100,0,17,2.05%
101,0,17,2.05%
102,0,17,2.05%
103,0,17,2.05%
104,0,17,2.05%
105,0,17,2.05%
106,0,17,2.05%
107,0,17,2.05%
108,1,18,2.17%
109,1,19,2.29%
110,0,19,2.29%
111,0,19,2.29%
112,0,19,2.29%
113,0,19,2.29%
114,0,19,2.29%
115,0,19,2.29%
116,0,19,2.29%
117,0,19,2.29%
118,0,19,2.29%
119,0,19,2.29%
120,0,19,2.29%
121,0,19,2.29%
122,0,19,2.29%
123,0,19,2.29%
124,0,19,2.29%
125,0,19,2.29%
126,0,19,2.29%
127,0,19,2.29%
128,0,19,2.29%
129,0,19,2.29%
130,0,19,2.29%
131,0,19,2.29%
132,0,19,2.29%
133,0,19,2.29%
134,0,19,2.29%
135,0,19,2.29%
136,0,19,2.29%
137,0,19,2.29%
138,1,20,2.42%
139,0,20,2.42%
140,1,21,2.54%
141,0,21,2.54%
142,0,21,2.54%
143,0,21,2.54%
144,0,21,2.54%
145,2,23,2.78%
146,0,23,2.78%
147,0,23,2.78%
148,0,23,2.78%
149,0,23,2.78%
150,0,23,2.78%
151,0,23,2.78%
152,0,23,2.78%
153,0,23,2.78%
154,0,23,2.78%
155,1,24,2.9%
156,0,24,2.9%
157,0,24,2.9%
158,0,24,2.9%
159,1,25,3.02%
160,0,25,3.02%
161,0,25,3.02%
162,0,25,3.02%
163,0,25,3.02%
164,0,25,3.02%
165,0,25,3.02%
166,0,25,3.02%
167,1,26,3.14%
168,0,26,3.14%
169,0,26,3.14%
170,1,27,3.26%
171,0,27,3.26%
172,1,28,3.38%
173,0,28,3.38%
174,0,28,3.38%
175,0,28,3.38%
176,0,28,3.38%
177,0,28,3.38%
178,0,28,3.38%
179,0,28,3.38%
180,0,28,3.38%
181,1,29,3.5%
182,1,30,3.62%
183,0,30,3.62%
184,0,30,3.62%
185,0,30,3.62%
186,0,30,3.62%
187,0,30,3.62%
188,0,30,3.62%
189,1,31,3.74%
190,0,31,3.74%
191,0,31,3.74%
192,0,31,3.74%
193,1,32,3.86%
194,0,32,3.86%
195,0,32,3.86%
196,0,32,3.86%
197,0,32,3.86%
198,0,32,3.86%
199,0,32,3.86%
200,2,34,4.11%
201,1,35,4.23%
202,1,36,4.35%
203,0,36,4.35%
204,0,36,4.35%
205,0,36,4.35%
206,0,36,4.35%
207,0,36,4.35%
208,0,36,4.35%
209,0,36,4.35%
210,0,36,4.35%
211,0,36,4.35%
212,0,36,4.35%
213,2,38,4.59%
214,0,38,4.59%
215,1,39,4.71%
216,0,39,4.71%
217,0,39,4.71%
218,2,41,4.95%
219,0,41,4.95%
220,0,41,4.95%
221,0,41,4.95%
222,0,41,4.95%
223,0,41,4.95%
224,2,43,5.19%
225,0,43,5.19%
226,0,43,5.19%
227,0,43,5.19%
228,0,43,5.19%
229,0,43,5.19%
230,0,43,5.19%
231,0,43,5.19%
232,1,44,5.31%
233,0,44,5.31%
234,2,46,5.56%
235,0,46,5.56%
236,1,47,5.68%
237,0,47,5.68%
238,1,48,5.8%
239,0,48,5.8%
240,0,48,5.8%
241,1,49,5.92%
242,5,54,6.52%
243,1,55,6.64%
244,2,57,6.88%
245,0,57,6.88%
246,0,57,6.88%
247,0,57,6.88%
248,0,57,6.88%
249,0,57,6.88%
250,2,59,7.13%
251,0,59,7.13%
252,0,59,7.13%
253,0,59,7.13%
254,0,59,7.13%
255,0,59,7.13%
256,0,59,7.13%
257,0,59,7.13%
258,0,59,7.13%
259,2,61,7.37%
260,1,62,7.49%
261,0,62,7.49%
262,1,63,7.61%
263,1,64,7.73%
264,0,64,7.73%
265,0,64,7.73%
266,4,68,8.21%
267,1,69,8.33%
268,1,70,8.45%
269,1,71,8.57%
270,2,73,8.82%
271,2,75,9.06%
272,2,77,9.3%
273,0,77,9.3%
274,0,77,9.3%
275,1,78,9.42%
276,4,82,9.9%
277,2,84,10.14%
278,1,85,10.27%
279,1,86,10.39%
280,1,87,10.51%
281,4,91,10.99%
282,5,96,11.59%
283,0,96,11.59%
284,1,97,11.71%
285,2,99,11.96%
286,1,100,12.08%
287,4,104,12.56%
288,0,104,12.56%
289,0,104,12.56%
290,0,104,12.56%
291,5,109,13.16%
292,3,112,13.53%
293,0,112,13.53%
294,1,113,13.65%
295,1,114,13.77%
296,1,115,13.89%
297,2,117,14.13%
298,0,117,14.13%
299,2,119,14.37%
300,3,122,14.73%
301,1,123,14.86%
302,0,123,14.86%
303,3,126,15.22%
304,1,127,15.34%
305,11,138,16.67%
306,1,139,16.79%
307,4,143,17.27%
308,0,143,17.27%
309,3,146,17.63%
310,3,149,18.0%
311,8,157,18.96%
312,1,158,19.08%
313,1,159,19.2%
314,2,161,19.44%
315,8,169,20.41%
316,1,170,20.53%
317,0,170,20.53%
318,0,170,20.53%
319,0,170,20.53%
320,1,171,20.65%
321,1,172,20.77%
322,0,172,20.77%
323,12,184,22.22%
324,8,192,23.19%
325,7,199,24.03%
326,3,202,24.4%
327,1,203,24.52%
328,3,206,24.88%
329,9,215,25.97%
330,0,215,25.97%
331,0,215,25.97%
332,1,216,26.09%
333,0,216,26.09%
334,5,221,26.69%
335,4,225,27.17%
336,1,226,27.29%
337,1,227,27.42%
338,0,227,27.42%
339,6,233,28.14%
340,3,236,28.5%
341,0,236,28.5%
342,1,237,28.62%
343,0,237,28.62%
344,2,239,28.86%
345,3,242,29.23%
346,1,243,29.35%
347,0,243,29.35%
348,2,245,29.59%
349,7,252,30.43%
350,10,262,31.64%
351,18,280,33.82%
352,2,282,34.06%
353,9,291,35.14%
354,0,291,35.14%
355,0,291,35.14%
356,0,291,35.14%
357,4,295,35.63%
358,2,297,35.87%
359,0,297,35.87%
360,4,301,36.35%
361,1,302,36.47%
362,3,305,36.84%
363,3,308,37.2%
364,2,310,37.44%
365,2,312,37.68%
366,1,313,37.8%
367,1,314,37.92%
368,0,314,37.92%
369,4,318,38.41%
370,2,320,38.65%
371,0,320,38.65%
372,1,321,38.77%
373,3,324,39.13%
374,0,324,39.13%
375,2,326,39.37%
376,0,326,39.37%
377,1,327,39.49%
378,1,328,39.61%
379,0,328,39.61%
380,0,328,39.61%
381,1,329,39.73%
382,1,330,39.86%
383,3,333,40.22%
384,0,333,40.22%
385,1,334,40.34%
386,0,334,40.34%
387,1,335,40.46%
388,9,344,41.55%
389,1,345,41.67%
390,0,345,41.67%
391,2,347,41.91%
392,1,348,42.03%
393,0,348,42.03%
394,1,349,42.15%
395,0,349,42.15%
396,3,352,42.51%
397,3,355,42.87%
398,3,358,43.24%
399,2,360,43.48%
400,0,360,43.48%
401,2,362,43.72%
402,4,366,44.2%
403,4,370,44.69%
404,2,372,44.93%
405,0,372,44.93%
406,7,379,45.77%
407,7,386,46.62%
408,3,389,46.98%
409,5,394,47.58%
410,0,394,47.58%
411,0,394,47.58%
412,3,397,47.95%
413,1,398,48.07%
414,0,398,48.07%
415,2,400,48.31%
416,3,403,48.67%
417,0,403,48.67%
418,0,403,48.67%
419,0,403,48.67%
420,0,403,48.67%
421,0,403,48.67%
422,2,405,48.91%
423,3,408,49.28%
424,0,408,49.28%
425,0,408,49.28%
426,0,408,49.28%
427,0,408,49.28%
428,0,408,49.28%
429,0,408,49.28%
430,2,410,49.52%
431,2,412,49.76%
432,1,413,49.88%
433,2,415,50.12%
434,4,419,50.6%
435,2,421,50.85%
436,5,426,51.45%
437,1,427,51.57%
438,1,428,51.69%
439,4,432,52.17%
440,4,436,52.66%
441,10,446,53.86%
442,1,447,53.99%
443,0,447,53.99%
444,3,450,54.35%
445,5,455,54.95%
446,1,456,55.07%
447,1,457,55.19%
448,0,457,55.19%
449,1,458,55.31%
450,5,463,55.92%
451,2,465,56.16%
452,0,465,56.16%
453,3,468,56.52%
454,2,470,56.76%
455,2,472,57.0%
456,2,474,57.25%
457,1,475,57.37%
458,0,475,57.37%
459,3,478,57.73%
460,5,483,58.33%
461,0,483,58.33%
462,0,483,58.33%
463,4,487,58.82%
464,2,489,59.06%
465,1,490,59.18%
466,4,494,59.66%
467,4,498,60.14%
468,3,501,60.51%
469,3,504,60.87%
470,3,507,61.23%
471,2,509,61.47%
472,1,510,61.59%
473,3,513,61.96%
474,2,515,62.2%
475,1,516,62.32%
476,2,518,62.56%
477,0,518,62.56%
478,2,520,62.8%
479,4,524,63.29%
480,0,524,63.29%
481,1,525,63.41%
482,0,525,63.41%
483,2,527,63.65%
484,2,529,63.89%
485,0,529,63.89%
486,0,529,63.89%
487,1,530,64.01%
488,3,533,64.37%
489,1,534,64.49%
490,3,537,64.86%
491,4,541,65.34%
492,0,541,65.34%
493,2,543,65.58%
494,2,545,65.82%
495,7,552,66.67%
496,2,554,66.91%
497,1,555,67.03%
498,2,557,67.27%
499,0,557,67.27%
500,0,557,67.27%
501,4,561,67.75%
502,1,562,67.87%
503,0,562,67.87%
504,9,571,68.96%
505,0,571,68.96%
506,0,571,68.96%
507,0,571,68.96%
508,1,572,69.08%
509,1,573,69.2%
510,0,573,69.2%
511,1,574,69.32%
512,1,575,69.44%
513,1,576,69.57%
514,2,578,69.81%
515,0,578,69.81%
516,1,579,69.93%
517,0,579,69.93%
518,0,579,69.93%
519,1,580,70.05%
520,0,580,70.05%
521,1,581,70.17%
522,2,583,70.41%
523,2,585,70.65%
524,2,587,70.89%
525,2,589,71.14%
526,1,590,71.26%
527,7,597,72.1%
528,1,598,72.22%
529,0,598,72.22%
530,1,599,72.34%
531,1,600,72.46%
532,0,600,72.46%
533,3,603,72.83%
534,1,604,72.95%
535,1,605,73.07%
536,0,605,73.07%
537,4,609,73.55%
538,3,612,73.91%
539,2,614,74.15%
540,1,615,74.28%
541,0,615,74.28%
542,11,626,75.6%
543,2,628,75.85%
544,200,828,100.0%
