Length, Count, Sum (Counts <= Length), Percent of Nonzero Data, Nonzero Data Count = 844, Zero Data Count = 1000
1,1,1,0.12%
2,1,2,0.24%
3,1,3,0.36%
4,1,4,0.47%
5,0,4,0.47%
6,0,4,0.47%
7,0,4,0.47%
8,0,4,0.47%
9,2,6,0.71%
10,0,6,0.71%
11,0,6,0.71%
12,0,6,0.71%
13,0,6,0.71%
14,0,6,0.71%
15,2,8,0.95%
16,0,8,0.95%
17,0,8,0.95%
18,0,8,0.95%
19,0,8,0.95%
20,0,8,0.95%
21,0,8,0.95%
22,1,9,1.07%
23,1,10,1.18%
24,0,10,1.18%
25,0,10,1.18%
26,0,10,1.18%
27,0,10,1.18%
28,0,10,1.18%
29,0,10,1.18%
30,0,10,1.18%
31,0,10,1.18%
32,0,10,1.18%
33,0,10,1.18%
34,0,10,1.18%
35,0,10,1.18%
36,0,10,1.18%
37,0,10,1.18%
38,0,10,1.18%
39,0,10,1.18%
40,0,10,1.18%
41,1,11,1.3%
42,0,11,1.3%
43,0,11,1.3%
44,0,11,1.3%
45,0,11,1.3%
46,0,11,1.3%
47,0,11,1.3%
48,0,11,1.3%
49,0,11,1.3%
50,0,11,1.3%
51,0,11,1.3%
52,1,12,1.42%
53,1,13,1.54%
54,1,14,1.66%
55,0,14,1.66%
56,0,14,1.66%
57,0,14,1.66%
58,0,14,1.66%
59,0,14,1.66%
60,0,14,1.66%
61,0,14,1.66%
62,0,14,1.66%
63,1,15,1.78%
64,0,15,1.78%
65,0,15,1.78%
66,0,15,1.78%
67,0,15,1.78%
68,0,15,1.78%
69,0,15,1.78%
70,1,16,1.9%
71,0,16,1.9%
72,0,16,1.9%
73,0,16,1.9%
74,0,16,1.9%
75,0,16,1.9%
76,0,16,1.9%
77,0,16,1.9%
78,1,17,2.01%
79,0,17,2.01%
80,0,17,2.01%
81,0,17,2.01%
82,0,17,2.01%
83,0,17,2.01%
84,0,17,2.01%
85,1,18,2.13%
86,0,18,2.13%
87,0,18,2.13%
88,0,18,2.13%
89,0,18,2.13%
90,0,18,2.13%
91,0,18,2.13%
92,1,19,2.25%
93,0,19,2.25%
94,0,19,2.25%
95,0,19,2.25%
96,1,20,2.37%
97,0,20,2.37%
98,0,20,2.37%
99,0,20,2.37%
100,0,20,2.37%
101,1,21,2.49%
102,0,21,2.49%
103,0,21,2.49%
104,0,21,2.49%
105,0,21,2.49%
106,1,22,2.61%
107,1,23,2.73%
108,0,23,2.73%
109,0,23,2.73%
110,0,23,2.73%
111,0,23,2.73%
112,0,23,2.73%
113,0,23,2.73%
114,0,23,2.73%
115,0,23,2.73%
116,0,23,2.73%
117,0,23,2.73%
118,0,23,2.73%
119,0,23,2.73%
120,0,23,2.73%
121,0,23,2.73%
122,0,23,2.73%
123,0,23,2.73%
124,0,23,2.73%
125,1,24,2.84%
126,0,24,2.84%
127,0,24,2.84%
128,1,25,2.96%
129,0,25,2.96%
130,0,25,2.96%
131,0,25,2.96%
132,0,25,2.96%
133,0,25,2.96%
134,0,25,2.96%
135,0,25,2.96%
136,1,26,3.08%
137,0,26,3.08%
138,0,26,3.08%
139,0,26,3.08%
140,0,26,3.08%
141,1,27,3.2%
142,2,29,3.44%
143,0,29,3.44%
144,0,29,3.44%
145,2,31,3.67%
146,0,31,3.67%
147,0,31,3.67%
148,0,31,3.67%
149,0,31,3.67%
150,1,32,3.79%
151,1,33,3.91%
152,0,33,3.91%
153,0,33,3.91%
154,0,33,3.91%
155,1,34,4.03%
156,0,34,4.03%
157,1,35,4.15%
158,0,35,4.15%
159,0,35,4.15%
160,0,35,4.15%
161,0,35,4.15%
162,0,35,4.15%
163,0,35,4.15%
164,1,36,4.27%
165,0,36,4.27%
166,0,36,4.27%
167,0,36,4.27%
168,0,36,4.27%
169,0,36,4.27%
170,0,36,4.27%
171,0,36,4.27%
172,0,36,4.27%
173,0,36,4.27%
174,1,37,4.38%
175,0,37,4.38%
176,0,37,4.38%
177,0,37,4.38%
178,1,38,4.5%
179,0,38,4.5%
180,0,38,4.5%
181,1,39,4.62%
182,1,40,4.74%
183,0,40,4.74%
184,1,41,4.86%
185,0,41,4.86%
186,0,41,4.86%
187,0,41,4.86%
188,0,41,4.86%
189,0,41,4.86%
190,0,41,4.86%
191,0,41,4.86%
192,0,41,4.86%
193,0,41,4.86%
194,1,42,4.98%
195,0,42,4.98%
196,7,49,5.81%
197,0,49,5.81%
198,0,49,5.81%
199,0,49,5.81%
200,0,49,5.81%
201,0,49,5.81%
202,0,49,5.81%
203,0,49,5.81%
204,0,49,5.81%
205,0,49,5.81%
206,0,49,5.81%
207,0,49,5.81%
208,0,49,5.81%
209,0,49,5.81%
210,0,49,5.81%
211,0,49,5.81%
212,1,50,5.92%
213,0,50,5.92%
214,0,50,5.92%
215,0,50,5.92%
216,0,50,5.92%
217,0,50,5.92%
218,0,50,5.92%
219,0,50,5.92%
220,0,50,5.92%
221,1,51,6.04%
222,0,51,6.04%
223,0,51,6.04%
224,0,51,6.04%
225,0,51,6.04%
226,0,51,6.04%
227,0,51,6.04%
228,0,51,6.04%
229,1,52,6.16%
230,0,52,6.16%
231,1,53,6.28%
232,0,53,6.28%
233,0,53,6.28%
234,0,53,6.28%
235,0,53,6.28%
236,0,53,6.28%
237,0,53,6.28%
238,1,54,6.4%
239,0,54,6.4%
240,0,54,6.4%
241,0,54,6.4%
242,0,54,6.4%
243,1,55,6.52%
244,0,55,6.52%
245,0,55,6.52%
246,0,55,6.52%
247,1,56,6.64%
248,0,56,6.64%
249,1,57,6.75%
250,0,57,6.75%
251,0,57,6.75%
252,1,58,6.87%
253,0,58,6.87%
254,0,58,6.87%
255,1,59,6.99%
256,0,59,6.99%
257,1,60,7.11%
258,0,60,7.11%
259,1,61,7.23%
260,0,61,7.23%
261,1,62,7.35%
262,1,63,7.46%
263,0,63,7.46%
264,0,63,7.46%
265,1,64,7.58%
266,0,64,7.58%
267,0,64,7.58%
268,0,64,7.58%
269,0,64,7.58%
270,2,66,7.82%
271,0,66,7.82%
272,1,67,7.94%
273,0,67,7.94%
274,1,68,8.06%
275,0,68,8.06%
276,0,68,8.06%
277,0,68,8.06%
278,0,68,8.06%
279,0,68,8.06%
280,0,68,8.06%
281,0,68,8.06%
282,0,68,8.06%
283,0,68,8.06%
284,0,68,8.06%
285,1,69,8.18%
286,0,69,8.18%
287,0,69,8.18%
288,1,70,8.29%
289,0,70,8.29%
290,0,70,8.29%
291,0,70,8.29%
292,0,70,8.29%
293,0,70,8.29%
294,0,70,8.29%
295,0,70,8.29%
296,0,70,8.29%
297,0,70,8.29%
298,0,70,8.29%
299,0,70,8.29%
300,0,70,8.29%
301,1,71,8.41%
302,0,71,8.41%
303,1,72,8.53%
304,0,72,8.53%
305,1,73,8.65%
306,0,73,8.65%
307,1,74,8.77%
308,0,74,8.77%
309,0,74,8.77%
310,0,74,8.77%
311,2,76,9.0%
312,0,76,9.0%
313,0,76,9.0%
314,0,76,9.0%
315,0,76,9.0%
316,1,77,9.12%
317,0,77,9.12%
318,0,77,9.12%
319,0,77,9.12%
320,0,77,9.12%
321,0,77,9.12%
322,15,92,10.9%
323,0,92,10.9%
324,0,92,10.9%
325,3,95,11.26%
326,0,95,11.26%
327,0,95,11.26%
328,1,96,11.37%
329,1,97,11.49%
330,0,97,11.49%
331,0,97,11.49%
332,1,98,11.61%
333,0,98,11.61%
334,1,99,11.73%
335,1,100,11.85%
336,0,100,11.85%
337,0,100,11.85%
338,0,100,11.85%
339,0,100,11.85%
340,0,100,11.85%
341,0,100,11.85%
342,1,101,11.97%
343,1,102,12.09%
344,0,102,12.09%
345,0,102,12.09%
346,0,102,12.09%
347,0,102,12.09%
348,0,102,12.09%
349,0,102,12.09%
350,1,103,12.2%
351,0,103,12.2%
352,10,113,13.39%
353,1,114,13.51%
354,0,114,13.51%
355,0,114,13.51%
356,0,114,13.51%
357,0,114,13.51%
358,5,119,14.1%
359,0,119,14.1%
360,2,121,14.34%
361,2,123,14.57%
362,1,124,14.69%
363,1,125,14.81%
364,0,125,14.81%
365,0,125,14.81%
366,1,126,14.93%
367,0,126,14.93%
368,0,126,14.93%
369,0,126,14.93%
370,0,126,14.93%
371,0,126,14.93%
372,1,127,15.05%
373,1,128,15.17%
374,0,128,15.17%
375,0,128,15.17%
376,0,128,15.17%
377,0,128,15.17%
378,0,128,15.17%
379,0,128,15.17%
380,1,129,15.28%
381,0,129,15.28%
382,0,129,15.28%
383,0,129,15.28%
384,0,129,15.28%
385,0,129,15.28%
386,0,129,15.28%
387,0,129,15.28%
388,0,129,15.28%
389,0,129,15.28%
390,0,129,15.28%
391,0,129,15.28%
392,0,129,15.28%
393,1,130,15.4%
394,1,131,15.52%
395,2,133,15.76%
396,0,133,15.76%
397,1,134,15.88%
398,0,134,15.88%
399,0,134,15.88%
400,0,134,15.88%
401,0,134,15.88%
402,0,134,15.88%
403,0,134,15.88%
404,0,134,15.88%
405,0,134,15.88%
406,2,136,16.11%
407,0,136,16.11%
408,0,136,16.11%
409,0,136,16.11%
410,1,137,16.23%
411,0,137,16.23%
412,1,138,16.35%
413,1,139,16.47%
414,0,139,16.47%
415,1,140,16.59%
416,0,140,16.59%
417,0,140,16.59%
418,0,140,16.59%
419,0,140,16.59%
420,0,140,16.59%
421,0,140,16.59%
422,1,141,16.71%
423,0,141,16.71%
424,0,141,16.71%
425,0,141,16.71%
426,0,141,16.71%
427,0,141,16.71%
428,0,141,16.71%
429,0,141,16.71%
430,0,141,16.71%
431,0,141,16.71%
432,0,141,16.71%
433,1,142,16.82%
434,0,142,16.82%
435,1,143,16.94%
436,0,143,16.94%
437,0,143,16.94%
438,0,143,16.94%
439,0,143,16.94%
440,0,143,16.94%
441,1,144,17.06%
442,0,144,17.06%
443,0,144,17.06%
444,0,144,17.06%
445,0,144,17.06%
446,2,146,17.3%
447,0,146,17.3%
448,0,146,17.3%
449,0,146,17.3%
450,0,146,17.3%
451,0,146,17.3%
452,0,146,17.3%
453,0,146,17.3%
454,0,146,17.3%
455,0,146,17.3%
456,0,146,17.3%
457,1,147,17.42%
458,0,147,17.42%
459,0,147,17.42%
460,0,147,17.42%
461,1,148,17.54%
462,0,148,17.54%
463,0,148,17.54%
464,1,149,17.65%
465,1,150,17.77%
466,1,151,17.89%
467,0,151,17.89%
468,0,151,17.89%
469,2,153,18.13%
470,0,153,18.13%
471,0,153,18.13%
472,0,153,18.13%
473,1,154,18.25%
474,0,154,18.25%
475,0,154,18.25%
476,0,154,18.25%
477,0,154,18.25%
478,0,154,18.25%
479,0,154,18.25%
480,0,154,18.25%
481,1,155,18.36%
482,0,155,18.36%
483,0,155,18.36%
484,0,155,18.36%
485,1,156,18.48%
486,0,156,18.48%
487,0,156,18.48%
488,0,156,18.48%
489,0,156,18.48%
490,1,157,18.6%
491,0,157,18.6%
492,1,158,18.72%
493,0,158,18.72%
494,0,158,18.72%
495,1,159,18.84%
496,1,160,18.96%
497,0,160,18.96%
498,0,160,18.96%
499,0,160,18.96%
500,0,160,18.96%
501,0,160,18.96%
502,0,160,18.96%
503,1,161,19.08%
504,1,162,19.19%
505,0,162,19.19%
506,0,162,19.19%
507,0,162,19.19%
508,0,162,19.19%
509,0,162,19.19%
510,0,162,19.19%
511,0,162,19.19%
512,0,162,19.19%
513,0,162,19.19%
514,0,162,19.19%
515,0,162,19.19%
516,0,162,19.19%
517,0,162,19.19%
518,0,162,19.19%
519,1,163,19.31%
520,0,163,19.31%
521,0,163,19.31%
522,0,163,19.31%
523,0,163,19.31%
524,1,164,19.43%
525,0,164,19.43%
526,0,164,19.43%
527,0,164,19.43%
528,0,164,19.43%
529,0,164,19.43%
530,0,164,19.43%
531,0,164,19.43%
532,0,164,19.43%
533,0,164,19.43%
534,0,164,19.43%
535,0,164,19.43%
536,0,164,19.43%
537,0,164,19.43%
538,1,165,19.55%
539,0,165,19.55%
540,0,165,19.55%
541,0,165,19.55%
542,0,165,19.55%
543,0,165,19.55%
544,0,165,19.55%
545,0,165,19.55%
546,1,166,19.67%
547,1,167,19.79%
548,0,167,19.79%
549,0,167,19.79%
550,0,167,19.79%
551,0,167,19.79%
552,0,167,19.79%
553,0,167,19.79%
554,0,167,19.79%
555,0,167,19.79%
556,0,167,19.79%
557,0,167,19.79%
558,0,167,19.79%
559,0,167,19.79%
560,0,167,19.79%
561,0,167,19.79%
562,0,167,19.79%
563,0,167,19.79%
564,1,168,19.91%
565,0,168,19.91%
566,0,168,19.91%
567,1,169,20.02%
568,0,169,20.02%
569,0,169,20.02%
570,0,169,20.02%
571,0,169,20.02%
572,0,169,20.02%
573,1,170,20.14%
574,0,170,20.14%
575,0,170,20.14%
576,8,178,21.09%
577,0,178,21.09%
578,0,178,21.09%
579,1,179,21.21%
580,0,179,21.21%
581,0,179,21.21%
582,0,179,21.21%
583,0,179,21.21%
584,0,179,21.21%
585,0,179,21.21%
586,0,179,21.21%
587,0,179,21.21%
588,1,180,21.33%
589,1,181,21.45%
590,0,181,21.45%
591,0,181,21.45%
592,0,181,21.45%
593,0,181,21.45%
594,0,181,21.45%
595,0,181,21.45%
596,0,181,21.45%
597,0,181,21.45%
598,1,182,21.56%
599,1,183,21.68%
600,0,183,21.68%
601,0,183,21.68%
602,1,184,21.8%
603,1,185,21.92%
604,1,186,22.04%
605,0,186,22.04%
606,0,186,22.04%
607,0,186,22.04%
608,0,186,22.04%
609,0,186,22.04%
610,0,186,22.04%
611,0,186,22.04%
612,0,186,22.04%
613,0,186,22.04%
614,1,187,22.16%
615,0,187,22.16%
616,0,187,22.16%
617,0,187,22.16%
618,0,187,22.16%
619,0,187,22.16%
620,0,187,22.16%
621,0,187,22.16%
622,1,188,22.27%
623,2,190,22.51%
624,0,190,22.51%
625,0,190,22.51%
626,1,191,22.63%
627,1,192,22.75%
628,0,192,22.75%
629,0,192,22.75%
630,0,192,22.75%
631,0,192,22.75%
632,0,192,22.75%
633,1,193,22.87%
634,0,193,22.87%
635,1,194,22.99%
636,1,195,23.1%
637,0,195,23.1%
638,0,195,23.1%
639,0,195,23.1%
640,5,200,23.7%
641,0,200,23.7%
642,0,200,23.7%
643,0,200,23.7%
644,0,200,23.7%
645,0,200,23.7%
646,0,200,23.7%
647,1,201,23.82%
648,0,201,23.82%
649,1,202,23.93%
650,0,202,23.93%
651,0,202,23.93%
652,0,202,23.93%
653,1,203,24.05%
654,1,204,24.17%
655,0,204,24.17%
656,1,205,24.29%
657,0,205,24.29%
658,0,205,24.29%
659,0,205,24.29%
660,0,205,24.29%
661,0,205,24.29%
662,0,205,24.29%
663,0,205,24.29%
664,0,205,24.29%
665,1,206,24.41%
666,0,206,24.41%
667,0,206,24.41%
668,0,206,24.41%
669,0,206,24.41%
670,0,206,24.41%
671,0,206,24.41%
672,0,206,24.41%
673,0,206,24.41%
674,0,206,24.41%
675,0,206,24.41%
676,0,206,24.41%
677,0,206,24.41%
678,0,206,24.41%
679,0,206,24.41%
680,0,206,24.41%
681,0,206,24.41%
682,0,206,24.41%
683,0,206,24.41%
684,0,206,24.41%
685,0,206,24.41%
686,0,206,24.41%
687,0,206,24.41%
688,0,206,24.41%
689,0,206,24.41%
690,0,206,24.41%
691,1,207,24.53%
692,0,207,24.53%
693,0,207,24.53%
694,0,207,24.53%
695,0,207,24.53%
696,0,207,24.53%
697,0,207,24.53%
698,1,208,24.64%
699,0,208,24.64%
700,0,208,24.64%
701,1,209,24.76%
702,0,209,24.76%
703,0,209,24.76%
704,0,209,24.76%
705,1,210,24.88%
706,0,210,24.88%
707,0,210,24.88%
708,0,210,24.88%
709,0,210,24.88%
710,0,210,24.88%
711,0,210,24.88%
712,1,211,25.0%
713,0,211,25.0%
714,0,211,25.0%
715,0,211,25.0%
716,0,211,25.0%
717,0,211,25.0%
718,0,211,25.0%
719,1,212,25.12%
720,0,212,25.12%
721,1,213,25.24%
722,0,213,25.24%
723,9,222,26.3%
724,0,222,26.3%
725,1,223,26.42%
726,0,223,26.42%
727,0,223,26.42%
728,0,223,26.42%
729,0,223,26.42%
730,0,223,26.42%
731,0,223,26.42%
732,0,223,26.42%
733,0,223,26.42%
734,0,223,26.42%
735,1,224,26.54%
736,0,224,26.54%
737,1,225,26.66%
738,0,225,26.66%
739,0,225,26.66%
740,1,226,26.78%
741,0,226,26.78%
742,0,226,26.78%
743,1,227,26.9%
744,1,228,27.01%
745,0,228,27.01%
746,0,228,27.01%
747,0,228,27.01%
748,0,228,27.01%
749,0,228,27.01%
750,0,228,27.01%
751,0,228,27.01%
752,0,228,27.01%
753,0,228,27.01%
754,1,229,27.13%
755,1,230,27.25%
756,0,230,27.25%
757,0,230,27.25%
758,0,230,27.25%
759,0,230,27.25%
760,0,230,27.25%
761,0,230,27.25%
762,0,230,27.25%
763,0,230,27.25%
764,0,230,27.25%
765,0,230,27.25%
766,0,230,27.25%
767,0,230,27.25%
768,0,230,27.25%
769,1,231,27.37%
770,0,231,27.37%
771,0,231,27.37%
772,0,231,27.37%
773,0,231,27.37%
774,1,232,27.49%
775,0,232,27.49%
776,0,232,27.49%
777,0,232,27.49%
778,1,233,27.61%
779,0,233,27.61%
780,0,233,27.61%
781,0,233,27.61%
782,0,233,27.61%
783,0,233,27.61%
784,0,233,27.61%
785,1,234,27.73%
786,0,234,27.73%
787,0,234,27.73%
788,0,234,27.73%
789,0,234,27.73%
790,0,234,27.73%
791,0,234,27.73%
792,0,234,27.73%
793,0,234,27.73%
794,1,235,27.84%
795,2,237,28.08%
796,0,237,28.08%
797,1,238,28.2%
798,0,238,28.2%
799,0,238,28.2%
800,0,238,28.2%
801,0,238,28.2%
802,1,239,28.32%
803,1,240,28.44%
804,0,240,28.44%
805,0,240,28.44%
806,0,240,28.44%
807,0,240,28.44%
808,1,241,28.55%
809,0,241,28.55%
810,0,241,28.55%
811,0,241,28.55%
812,0,241,28.55%
813,0,241,28.55%
814,0,241,28.55%
815,0,241,28.55%
816,2,243,28.79%
817,0,243,28.79%
818,0,243,28.79%
819,0,243,28.79%
820,0,243,28.79%
821,0,243,28.79%
822,0,243,28.79%
823,0,243,28.79%
824,0,243,28.79%
825,0,243,28.79%
826,0,243,28.79%
827,0,243,28.79%
828,0,243,28.79%
829,0,243,28.79%
830,0,243,28.79%
831,0,243,28.79%
832,0,243,28.79%
833,1,244,28.91%
834,0,244,28.91%
835,0,244,28.91%
836,0,244,28.91%
837,1,245,29.03%
838,0,245,29.03%
839,0,245,29.03%
840,2,247,29.27%
841,0,247,29.27%
842,1,248,29.38%
843,0,248,29.38%
844,0,248,29.38%
845,0,248,29.38%
846,0,248,29.38%
847,1,249,29.5%
848,0,249,29.5%
849,0,249,29.5%
850,0,249,29.5%
851,0,249,29.5%
852,1,250,29.62%
853,0,250,29.62%
854,1,251,29.74%
855,0,251,29.74%
856,1,252,29.86%
857,0,252,29.86%
858,0,252,29.86%
859,0,252,29.86%
860,0,252,29.86%
861,1,253,29.98%
862,0,253,29.98%
863,0,253,29.98%
864,0,253,29.98%
865,0,253,29.98%
866,1,254,30.09%
867,1,255,30.21%
868,0,255,30.21%
869,0,255,30.21%
870,0,255,30.21%
871,1,256,30.33%
872,0,256,30.33%
873,0,256,30.33%
874,0,256,30.33%
875,0,256,30.33%
876,1,257,30.45%
877,0,257,30.45%
878,0,257,30.45%
879,0,257,30.45%
880,0,257,30.45%
881,1,258,30.57%
882,0,258,30.57%
883,0,258,30.57%
884,1,259,30.69%
885,0,259,30.69%
886,0,259,30.69%
887,0,259,30.69%
888,0,259,30.69%
889,0,259,30.69%
890,1,260,30.81%
891,0,260,30.81%
892,0,260,30.81%
893,0,260,30.81%
894,0,260,30.81%
895,0,260,30.81%
896,0,260,30.81%
897,0,260,30.81%
898,1,261,30.92%
899,2,263,31.16%
900,0,263,31.16%
901,0,263,31.16%
902,0,263,31.16%
903,0,263,31.16%
904,1,264,31.28%
905,0,264,31.28%
906,2,266,31.52%
907,1,267,31.64%
908,0,267,31.64%
909,0,267,31.64%
910,2,269,31.87%
911,0,269,31.87%
912,0,269,31.87%
913,0,269,31.87%
914,0,269,31.87%
915,0,269,31.87%
916,0,269,31.87%
917,2,271,32.11%
918,1,272,32.23%
919,1,273,32.35%
920,0,273,32.35%
921,0,273,32.35%
922,0,273,32.35%
923,0,273,32.35%
924,0,273,32.35%
925,0,273,32.35%
926,0,273,32.35%
927,1,274,32.46%
928,0,274,32.46%
929,0,274,32.46%
930,0,274,32.46%
931,0,274,32.46%
932,0,274,32.46%
933,1,275,32.58%
934,0,275,32.58%
935,0,275,32.58%
936,0,275,32.58%
937,0,275,32.58%
938,0,275,32.58%
939,0,275,32.58%
940,0,275,32.58%
941,0,275,32.58%
942,1,276,32.7%
943,0,276,32.7%
944,0,276,32.7%
945,0,276,32.7%
946,0,276,32.7%
947,0,276,32.7%
948,0,276,32.7%
949,0,276,32.7%
950,0,276,32.7%
951,0,276,32.7%
952,1,277,32.82%
953,0,277,32.82%
954,0,277,32.82%
955,0,277,32.82%
956,1,278,32.94%
957,0,278,32.94%
958,0,278,32.94%
959,0,278,32.94%
960,0,278,32.94%
961,0,278,32.94%
962,0,278,32.94%
963,0,278,32.94%
964,0,278,32.94%
965,0,278,32.94%
966,0,278,32.94%
967,1,279,33.06%
968,0,279,33.06%
969,0,279,33.06%
970,0,279,33.06%
971,0,279,33.06%
972,0,279,33.06%
973,0,279,33.06%
974,0,279,33.06%
975,0,279,33.06%
976,0,279,33.06%
977,0,279,33.06%
978,0,279,33.06%
979,1,280,33.18%
980,0,280,33.18%
981,1,281,33.29%
982,0,281,33.29%
983,1,282,33.41%
984,0,282,33.41%
985,2,284,33.65%
986,0,284,33.65%
987,1,285,33.77%
988,0,285,33.77%
989,0,285,33.77%
990,0,285,33.77%
991,0,285,33.77%
992,0,285,33.77%
993,0,285,33.77%
994,0,285,33.77%
995,0,285,33.77%
996,0,285,33.77%
997,0,285,33.77%
998,0,285,33.77%
999,0,285,33.77%
1000,0,285,33.77%
1001,0,285,33.77%
1002,0,285,33.77%
1003,0,285,33.77%
1004,0,285,33.77%
1005,0,285,33.77%
1006,0,285,33.77%
1007,0,285,33.77%
1008,0,285,33.77%
1009,0,285,33.77%
1010,0,285,33.77%
1011,0,285,33.77%
1012,0,285,33.77%
1013,0,285,33.77%
1014,0,285,33.77%
1015,0,285,33.77%
1016,1,286,33.89%
1017,0,286,33.89%
1018,1,287,34.0%
1019,1,288,34.12%
1020,0,288,34.12%
1021,0,288,34.12%
1022,1,289,34.24%
1023,0,289,34.24%
1024,0,289,34.24%
1025,1,290,34.36%
1026,0,290,34.36%
1027,0,290,34.36%
1028,0,290,34.36%
1029,0,290,34.36%
1030,0,290,34.36%
1031,1,291,34.48%
1032,0,291,34.48%
1033,0,291,34.48%
1034,0,291,34.48%
1035,1,292,34.6%
1036,0,292,34.6%
1037,1,293,34.72%
1038,0,293,34.72%
1039,0,293,34.72%
1040,0,293,34.72%
1041,1,294,34.83%
1042,0,294,34.83%
1043,0,294,34.83%
1044,0,294,34.83%
1045,0,294,34.83%
1046,0,294,34.83%
1047,0,294,34.83%
1048,0,294,34.83%
1049,0,294,34.83%
1050,0,294,34.83%
1051,0,294,34.83%
1052,0,294,34.83%
1053,0,294,34.83%
1054,0,294,34.83%
1055,0,294,34.83%
1056,0,294,34.83%
1057,0,294,34.83%
1058,0,294,34.83%
1059,0,294,34.83%
1060,0,294,34.83%
1061,0,294,34.83%
1062,0,294,34.83%
1063,1,295,34.95%
1064,0,295,34.95%
1065,0,295,34.95%
1066,0,295,34.95%
1067,0,295,34.95%
1068,1,296,35.07%
1069,0,296,35.07%
1070,0,296,35.07%
1071,1,297,35.19%
1072,1,298,35.31%
1073,0,298,35.31%
1074,0,298,35.31%
1075,0,298,35.31%
1076,4,302,35.78%
1077,2,304,36.02%
1078,0,304,36.02%
1079,0,304,36.02%
1080,0,304,36.02%
1081,0,304,36.02%
1082,0,304,36.02%
1083,0,304,36.02%
1084,2,306,36.26%
1085,0,306,36.26%
1086,0,306,36.26%
1087,0,306,36.26%
1088,0,306,36.26%
1089,0,306,36.26%
1090,0,306,36.26%
1091,0,306,36.26%
1092,0,306,36.26%
1093,0,306,36.26%
1094,2,308,36.49%
1095,1,309,36.61%
1096,1,310,36.73%
1097,0,310,36.73%
1098,0,310,36.73%
1099,0,310,36.73%
1100,1,311,36.85%
1101,1,312,36.97%
1102,1,313,37.09%
1103,1,314,37.2%
1104,0,314,37.2%
1105,2,316,37.44%
1106,2,318,37.68%
1107,0,318,37.68%
1108,0,318,37.68%
1109,2,320,37.91%
1110,2,322,38.15%
1111,0,322,38.15%
1112,2,324,38.39%
1113,1,325,38.51%
1114,1,326,38.63%
1115,3,329,38.98%
1116,5,334,39.57%
1117,0,334,39.57%
1118,1,335,39.69%
1119,2,337,39.93%
1120,1,338,40.05%
1121,1,339,40.17%
1122,0,339,40.17%
1123,0,339,40.17%
1124,1,340,40.28%
1125,4,344,40.76%
1126,2,346,41.0%
1127,0,346,41.0%
1128,1,347,41.11%
1129,1,348,41.23%
1130,0,348,41.23%
1131,2,350,41.47%
1132,0,350,41.47%
1133,2,352,41.71%
1134,2,354,41.94%
1135,0,354,41.94%
1136,0,354,41.94%
1137,1,355,42.06%
1138,0,355,42.06%
1139,2,357,42.3%
1140,0,357,42.3%
1141,4,361,42.77%
1142,1,362,42.89%
1143,3,365,43.25%
1144,2,367,43.48%
1145,3,370,43.84%
1146,1,371,43.96%
1147,1,372,44.08%
1148,2,374,44.31%
1149,6,380,45.02%
1150,0,380,45.02%
1151,0,380,45.02%
1152,0,380,45.02%
1153,0,380,45.02%
1154,1,381,45.14%
1155,1,382,45.26%
1156,0,382,45.26%
1157,1,383,45.38%
1158,4,387,45.85%
1159,2,389,46.09%
1160,4,393,46.56%
1161,0,393,46.56%
1162,3,396,46.92%
1163,2,398,47.16%
1164,0,398,47.16%
1165,0,398,47.16%
1166,0,398,47.16%
1167,0,398,47.16%
1168,5,403,47.75%
1169,441,844,100.0%
