Length, Count, Sum (Counts <= Length), Percent of Nonzero Data, Nonzero Data Count = 798, Zero Data Count = 1046
1,0,0,0.0%
2,1,1,0.13%
3,0,1,0.13%
4,0,1,0.13%
5,0,1,0.13%
6,0,1,0.13%
7,1,2,0.25%
8,1,3,0.38%
9,0,3,0.38%
10,0,3,0.38%
11,0,3,0.38%
12,0,3,0.38%
13,0,3,0.38%
14,0,3,0.38%
15,0,3,0.38%
16,0,3,0.38%
17,0,3,0.38%
18,1,4,0.5%
19,0,4,0.5%
20,0,4,0.5%
21,0,4,0.5%
22,0,4,0.5%
23,0,4,0.5%
24,0,4,0.5%
25,0,4,0.5%
26,1,5,0.63%
27,0,5,0.63%
28,0,5,0.63%
29,0,5,0.63%
30,0,5,0.63%
31,0,5,0.63%
32,0,5,0.63%
33,0,5,0.63%
34,0,5,0.63%
35,0,5,0.63%
36,0,5,0.63%
37,0,5,0.63%
38,1,6,0.75%
39,1,7,0.88%
40,0,7,0.88%
41,0,7,0.88%
42,0,7,0.88%
43,0,7,0.88%
44,0,7,0.88%
45,0,7,0.88%
46,0,7,0.88%
47,0,7,0.88%
48,0,7,0.88%
49,0,7,0.88%
50,0,7,0.88%
51,0,7,0.88%
52,0,7,0.88%
53,0,7,0.88%
54,0,7,0.88%
55,1,8,1.0%
56,0,8,1.0%
57,0,8,1.0%
58,0,8,1.0%
59,2,10,1.25%
60,0,10,1.25%
61,0,10,1.25%
62,0,10,1.25%
63,2,12,1.5%
64,0,12,1.5%
65,0,12,1.5%
66,1,13,1.63%
67,5,18,2.26%
68,0,18,2.26%
69,1,19,2.38%
70,0,19,2.38%
71,0,19,2.38%
72,0,19,2.38%
73,0,19,2.38%
74,0,19,2.38%
75,1,20,2.51%
76,0,20,2.51%
77,0,20,2.51%
78,0,20,2.51%
79,0,20,2.51%
80,0,20,2.51%
81,0,20,2.51%
82,0,20,2.51%
83,0,20,2.51%
84,1,21,2.63%
85,1,22,2.76%
86,1,23,2.88%
87,0,23,2.88%
88,0,23,2.88%
89,0,23,2.88%
90,0,23,2.88%
91,4,27,3.38%
92,3,30,3.76%
93,1,31,3.88%
94,1,32,4.01%
95,0,32,4.01%
96,2,34,4.26%
97,2,36,4.51%
98,0,36,4.51%
99,0,36,4.51%
100,1,37,4.64%
101,4,41,5.14%
102,2,43,5.39%
103,1,44,5.51%
104,1,45,5.64%
105,1,46,5.76%
106,4,50,6.27%
107,5,55,6.89%
108,0,55,6.89%
109,1,56,7.02%
110,2,58,7.27%
111,1,59,7.39%
112,3,62,7.77%
113,0,62,7.77%
114,0,62,7.77%
115,0,62,7.77%
116,5,67,8.4%
117,3,70,8.77%
118,0,70,8.77%
119,1,71,8.9%
120,1,72,9.02%
121,2,74,9.27%
122,2,76,9.52%
123,0,76,9.52%
124,2,78,9.77%
125,3,81,10.15%
126,2,83,10.4%
127,2,85,10.65%
128,1,86,10.78%
129,1,87,10.9%
130,10,97,12.16%
131,1,98,12.28%
132,4,102,12.78%
133,0,102,12.78%
134,3,105,13.16%
135,2,107,13.41%
136,8,115,14.41%
137,1,116,14.54%
138,1,117,14.66%
139,2,119,14.91%
140,8,127,15.91%
141,1,128,16.04%
142,1,129,16.17%
143,0,129,16.17%
144,0,129,16.17%
145,669,798,100.0%
