Length, Count, Sum (Counts <= Length), Percent of Nonzero Data, Nonzero Data Count = 827, Zero Data Count = 1017
1,0,0,0.0%
2,2,2,0.24%
3,0,2,0.24%
4,0,2,0.24%
5,1,3,0.36%
6,1,4,0.48%
7,0,4,0.48%
8,0,4,0.48%
9,0,4,0.48%
10,0,4,0.48%
11,0,4,0.48%
12,0,4,0.48%
13,0,4,0.48%
14,1,5,0.6%
15,1,6,0.73%
16,0,6,0.73%
17,0,6,0.73%
18,0,6,0.73%
19,0,6,0.73%
20,0,6,0.73%
21,0,6,0.73%
22,1,7,0.85%
23,0,7,0.85%
24,0,7,0.85%
25,0,7,0.85%
26,0,7,0.85%
27,0,7,0.85%
28,0,7,0.85%
29,0,7,0.85%
30,1,8,0.97%
31,0,8,0.97%
32,0,8,0.97%
33,0,8,0.97%
34,0,8,0.97%
35,0,8,0.97%
36,0,8,0.97%
37,0,8,0.97%
38,0,8,0.97%
39,0,8,0.97%
40,0,8,0.97%
41,0,8,0.97%
42,0,8,0.97%
43,0,8,0.97%
44,0,8,0.97%
45,0,8,0.97%
46,0,8,0.97%
47,0,8,0.97%
48,1,9,1.09%
49,0,9,1.09%
50,0,9,1.09%
51,0,9,1.09%
52,0,9,1.09%
53,1,10,1.21%
54,0,10,1.21%
55,0,10,1.21%
56,0,10,1.21%
57,0,10,1.21%
58,0,10,1.21%
59,1,11,1.33%
60,0,11,1.33%
61,0,11,1.33%
62,0,11,1.33%
63,0,11,1.33%
64,0,11,1.33%
65,0,11,1.33%
66,0,11,1.33%
67,0,11,1.33%
68,0,11,1.33%
69,0,11,1.33%
70,0,11,1.33%
71,0,11,1.33%
72,0,11,1.33%
73,0,11,1.33%
74,0,11,1.33%
75,0,11,1.33%
76,1,12,1.45%
77,0,12,1.45%
78,0,12,1.45%
79,0,12,1.45%
80,0,12,1.45%
81,0,12,1.45%
82,0,12,1.45%
83,0,12,1.45%
84,0,12,1.45%
85,0,12,1.45%
86,0,12,1.45%
87,0,12,1.45%
88,1,13,1.57%
89,0,13,1.57%
90,0,13,1.57%
91,0,13,1.57%
92,0,13,1.57%
93,1,14,1.69%
94,2,16,1.93%
95,1,17,2.06%
96,0,17,2.06%
97,0,17,2.06%
98,0,17,2.06%
99,0,17,2.06%
100,0,17,2.06%
101,0,17,2.06%
102,0,17,2.06%
103,0,17,2.06%
104,0,17,2.06%
105,0,17,2.06%
106,0,17,2.06%
107,1,18,2.18%
108,0,18,2.18%
109,1,19,2.3%
110,0,19,2.3%
111,0,19,2.3%
112,2,21,2.54%
113,0,21,2.54%
114,0,21,2.54%
115,0,21,2.54%
116,2,23,2.78%
117,0,23,2.78%
118,0,23,2.78%
119,1,24,2.9%
120,0,24,2.9%
121,0,24,2.9%
122,0,24,2.9%
123,0,24,2.9%
124,0,24,2.9%
125,0,24,2.9%
126,1,25,3.02%
127,0,25,3.02%
128,0,25,3.02%
129,1,26,3.14%
130,1,27,3.26%
131,0,27,3.26%
132,0,27,3.26%
133,0,27,3.26%
134,2,29,3.51%
135,0,29,3.51%
136,0,29,3.51%
137,0,29,3.51%
138,1,30,3.63%
139,0,30,3.63%
140,0,30,3.63%
141,0,30,3.63%
142,0,30,3.63%
143,0,30,3.63%
144,0,30,3.63%
145,1,31,3.75%
146,1,32,3.87%
147,0,32,3.87%
148,8,40,4.84%
149,0,40,4.84%
150,0,40,4.84%
151,0,40,4.84%
152,0,40,4.84%
153,0,40,4.84%
154,0,40,4.84%
155,0,40,4.84%
156,0,40,4.84%
157,0,40,4.84%
158,0,40,4.84%
159,0,40,4.84%
160,0,40,4.84%
161,0,40,4.84%
162,0,40,4.84%
163,0,40,4.84%
164,0,40,4.84%
165,0,40,4.84%
166,0,40,4.84%
167,0,40,4.84%
168,0,40,4.84%
169,0,40,4.84%
170,0,40,4.84%
171,0,40,4.84%
172,0,40,4.84%
173,1,41,4.96%
174,0,41,4.96%
175,0,41,4.96%
176,0,41,4.96%
177,0,41,4.96%
178,0,41,4.96%
179,0,41,4.96%
180,0,41,4.96%
181,1,42,5.08%
182,0,42,5.08%
183,0,42,5.08%
184,0,42,5.08%
185,0,42,5.08%
186,0,42,5.08%
187,0,42,5.08%
188,0,42,5.08%
189,0,42,5.08%
190,1,43,5.2%
191,0,43,5.2%
192,0,43,5.2%
193,0,43,5.2%
194,0,43,5.2%
195,0,43,5.2%
196,0,43,5.2%
197,0,43,5.2%
198,0,43,5.2%
199,1,44,5.32%
200,0,44,5.32%
201,1,45,5.44%
202,0,45,5.44%
203,0,45,5.44%
204,0,45,5.44%
205,0,45,5.44%
206,0,45,5.44%
207,0,45,5.44%
208,0,45,5.44%
209,1,46,5.56%
210,0,46,5.56%
211,0,46,5.56%
212,0,46,5.56%
213,1,47,5.68%
214,1,48,5.8%
215,0,48,5.8%
216,0,48,5.8%
217,0,48,5.8%
218,0,48,5.8%
219,0,48,5.8%
220,0,48,5.8%
221,0,48,5.8%
222,1,49,5.93%
223,0,49,5.93%
224,1,50,6.05%
225,1,51,6.17%
226,0,51,6.17%
227,0,51,6.17%
228,0,51,6.17%
229,0,51,6.17%
230,0,51,6.17%
231,0,51,6.17%
232,0,51,6.17%
233,0,51,6.17%
234,0,51,6.17%
235,0,51,6.17%
236,1,52,6.29%
237,1,53,6.41%
238,0,53,6.41%
239,0,53,6.41%
240,1,54,6.53%
241,0,54,6.53%
242,0,54,6.53%
243,0,54,6.53%
244,0,54,6.53%
245,0,54,6.53%
246,0,54,6.53%
247,0,54,6.53%
248,0,54,6.53%
249,0,54,6.53%
250,0,54,6.53%
251,0,54,6.53%
252,0,54,6.53%
253,1,55,6.65%
254,0,55,6.65%
255,1,56,6.77%
256,0,56,6.77%
257,1,57,6.89%
258,0,57,6.89%
259,2,59,7.13%
260,0,59,7.13%
261,0,59,7.13%
262,0,59,7.13%
263,0,59,7.13%
264,0,59,7.13%
265,0,59,7.13%
266,0,59,7.13%
267,0,59,7.13%
268,1,60,7.26%
269,0,60,7.26%
270,0,60,7.26%
271,0,60,7.26%
272,0,60,7.26%
273,0,60,7.26%
274,15,75,9.07%
275,0,75,9.07%
276,0,75,9.07%
277,1,76,9.19%
278,0,76,9.19%
279,0,76,9.19%
280,1,77,9.31%
281,1,78,9.43%
282,0,78,9.43%
283,0,78,9.43%
284,1,79,9.55%
285,0,79,9.55%
286,1,80,9.67%
287,5,85,10.28%
288,0,85,10.28%
289,0,85,10.28%
290,0,85,10.28%
291,0,85,10.28%
292,0,85,10.28%
293,0,85,10.28%
294,1,86,10.4%
295,0,86,10.4%
296,0,86,10.4%
297,0,86,10.4%
298,0,86,10.4%
299,0,86,10.4%
300,0,86,10.4%
301,0,86,10.4%
302,0,86,10.4%
303,0,86,10.4%
304,0,86,10.4%
305,1,87,10.52%
306,0,87,10.52%
307,0,87,10.52%
308,1,88,10.64%
309,0,88,10.64%
310,0,88,10.64%
311,0,88,10.64%
312,0,88,10.64%
313,1,89,10.76%
314,1,90,10.88%
315,0,90,10.88%
316,15,105,12.7%
317,0,105,12.7%
318,2,107,12.94%
319,0,107,12.94%
320,0,107,12.94%
321,0,107,12.94%
322,0,107,12.94%
323,0,107,12.94%
324,0,107,12.94%
325,1,108,13.06%
326,0,108,13.06%
327,0,108,13.06%
328,0,108,13.06%
329,0,108,13.06%
330,0,108,13.06%
331,0,108,13.06%
332,1,109,13.18%
333,0,109,13.18%
334,0,109,13.18%
335,0,109,13.18%
336,0,109,13.18%
337,0,109,13.18%
338,0,109,13.18%
339,0,109,13.18%
340,0,109,13.18%
341,0,109,13.18%
342,0,109,13.18%
343,1,110,13.3%
344,0,110,13.3%
345,0,110,13.3%
346,1,111,13.42%
347,2,113,13.66%
348,0,113,13.66%
349,0,113,13.66%
350,0,113,13.66%
351,0,113,13.66%
352,0,113,13.66%
353,0,113,13.66%
354,1,114,13.78%
355,0,114,13.78%
356,0,114,13.78%
357,0,114,13.78%
358,1,115,13.91%
359,0,115,13.91%
360,1,116,14.03%
361,0,116,14.03%
362,1,117,14.15%
363,0,117,14.15%
364,0,117,14.15%
365,1,118,14.27%
366,0,118,14.27%
367,1,119,14.39%
368,0,119,14.39%
369,0,119,14.39%
370,0,119,14.39%
371,0,119,14.39%
372,0,119,14.39%
373,0,119,14.39%
374,0,119,14.39%
375,0,119,14.39%
376,0,119,14.39%
377,0,119,14.39%
378,0,119,14.39%
379,0,119,14.39%
380,0,119,14.39%
381,0,119,14.39%
382,0,119,14.39%
383,1,120,14.51%
384,0,120,14.51%
385,1,121,14.63%
386,1,122,14.75%
387,0,122,14.75%
388,1,123,14.87%
389,0,123,14.87%
390,0,123,14.87%
391,0,123,14.87%
392,0,123,14.87%
393,1,124,14.99%
394,0,124,14.99%
395,0,124,14.99%
396,0,124,14.99%
397,1,125,15.11%
398,1,126,15.24%
399,0,126,15.24%
400,0,126,15.24%
401,0,126,15.24%
402,0,126,15.24%
403,0,126,15.24%
404,1,127,15.36%
405,0,127,15.36%
406,2,129,15.6%
407,0,129,15.6%
408,0,129,15.6%
409,1,130,15.72%
410,0,130,15.72%
411,0,130,15.72%
412,0,130,15.72%
413,1,131,15.84%
414,0,131,15.84%
415,0,131,15.84%
416,1,132,15.96%
417,2,134,16.2%
418,1,135,16.32%
419,0,135,16.32%
420,0,135,16.32%
421,2,137,16.57%
422,0,137,16.57%
423,0,137,16.57%
424,0,137,16.57%
425,1,138,16.69%
426,0,138,16.69%
427,0,138,16.69%
428,0,138,16.69%
429,0,138,16.69%
430,0,138,16.69%
431,1,139,16.81%
432,0,139,16.81%
433,1,140,16.93%
434,0,140,16.93%
435,1,141,17.05%
436,0,141,17.05%
437,1,142,17.17%
438,0,142,17.17%
439,0,142,17.17%
440,0,142,17.17%
441,0,142,17.17%
442,0,142,17.17%
443,0,142,17.17%
444,1,143,17.29%
445,0,143,17.29%
446,0,143,17.29%
447,0,143,17.29%
448,0,143,17.29%
449,0,143,17.29%
450,0,143,17.29%
451,0,143,17.29%
452,0,143,17.29%
453,0,143,17.29%
454,0,143,17.29%
455,0,143,17.29%
456,1,144,17.41%
457,0,144,17.41%
458,0,144,17.41%
459,0,144,17.41%
460,0,144,17.41%
461,0,144,17.41%
462,0,144,17.41%
463,0,144,17.41%
464,0,144,17.41%
465,0,144,17.41%
466,0,144,17.41%
467,1,145,17.53%
468,2,147,17.78%
469,0,147,17.78%
470,0,147,17.78%
471,0,147,17.78%
472,0,147,17.78%
473,0,147,17.78%
474,0,147,17.78%
475,0,147,17.78%
476,1,148,17.9%
477,0,148,17.9%
478,0,148,17.9%
479,0,148,17.9%
480,0,148,17.9%
481,0,148,17.9%
482,0,148,17.9%
483,0,148,17.9%
484,0,148,17.9%
485,0,148,17.9%
486,1,149,18.02%
487,0,149,18.02%
488,0,149,18.02%
489,0,149,18.02%
490,1,150,18.14%
491,0,150,18.14%
492,0,150,18.14%
493,0,150,18.14%
494,0,150,18.14%
495,1,151,18.26%
496,0,151,18.26%
497,0,151,18.26%
498,0,151,18.26%
499,1,152,18.38%
500,0,152,18.38%
501,1,153,18.5%
502,0,153,18.5%
503,1,154,18.62%
504,0,154,18.62%
505,0,154,18.62%
506,0,154,18.62%
507,0,154,18.62%
508,0,154,18.62%
509,0,154,18.62%
510,0,154,18.62%
511,0,154,18.62%
512,0,154,18.62%
513,0,154,18.62%
514,0,154,18.62%
515,0,154,18.62%
516,1,155,18.74%
517,1,156,18.86%
518,0,156,18.86%
519,0,156,18.86%
520,0,156,18.86%
521,0,156,18.86%
522,0,156,18.86%
523,0,156,18.86%
524,0,156,18.86%
525,0,156,18.86%
526,0,156,18.86%
527,0,156,18.86%
528,0,156,18.86%
529,0,156,18.86%
530,0,156,18.86%
531,0,156,18.86%
532,0,156,18.86%
533,0,156,18.86%
534,0,156,18.86%
535,0,156,18.86%
536,0,156,18.86%
537,0,156,18.86%
538,0,156,18.86%
539,0,156,18.86%
540,1,157,18.98%
541,1,158,19.11%
542,1,159,19.23%
543,0,159,19.23%
544,0,159,19.23%
545,0,159,19.23%
546,0,159,19.23%
547,0,159,19.23%
548,0,159,19.23%
549,0,159,19.23%
550,1,160,19.35%
551,0,160,19.35%
552,0,160,19.35%
553,0,160,19.35%
554,2,162,19.59%
555,0,162,19.59%
556,0,162,19.59%
557,0,162,19.59%
558,8,170,20.56%
559,0,170,20.56%
560,0,170,20.56%
561,1,171,20.68%
562,0,171,20.68%
563,0,171,20.68%
564,0,171,20.68%
565,0,171,20.68%
566,1,172,20.8%
567,0,172,20.8%
568,0,172,20.8%
569,0,172,20.8%
570,0,172,20.8%
571,0,172,20.8%
572,0,172,20.8%
573,0,172,20.8%
574,0,172,20.8%
575,2,174,21.04%
576,0,174,21.04%
577,0,174,21.04%
578,0,174,21.04%
579,1,175,21.16%
580,0,175,21.16%
581,0,175,21.16%
582,0,175,21.16%
583,1,176,21.28%
584,0,176,21.28%
585,1,177,21.4%
586,0,177,21.4%
587,0,177,21.4%
588,2,179,21.64%
589,0,179,21.64%
590,0,179,21.64%
591,0,179,21.64%
592,5,184,22.25%
593,0,184,22.25%
594,0,184,22.25%
595,0,184,22.25%
596,0,184,22.25%
597,0,184,22.25%
598,0,184,22.25%
599,1,185,22.37%
600,0,185,22.37%
601,0,185,22.37%
602,1,186,22.49%
603,0,186,22.49%
604,0,186,22.49%
605,0,186,22.49%
606,1,187,22.61%
607,0,187,22.61%
608,1,188,22.73%
609,0,188,22.73%
610,0,188,22.73%
611,0,188,22.73%
612,0,188,22.73%
613,0,188,22.73%
614,0,188,22.73%
615,0,188,22.73%
616,0,188,22.73%
617,1,189,22.85%
618,0,189,22.85%
619,0,189,22.85%
620,0,189,22.85%
621,0,189,22.85%
622,0,189,22.85%
623,0,189,22.85%
624,0,189,22.85%
625,0,189,22.85%
626,0,189,22.85%
627,0,189,22.85%
628,0,189,22.85%
629,0,189,22.85%
630,0,189,22.85%
631,0,189,22.85%
632,0,189,22.85%
633,0,189,22.85%
634,0,189,22.85%
635,1,190,22.97%
636,0,190,22.97%
637,0,190,22.97%
638,1,191,23.1%
639,0,191,23.1%
640,0,191,23.1%
641,0,191,23.1%
642,0,191,23.1%
643,1,192,23.22%
644,0,192,23.22%
645,0,192,23.22%
646,0,192,23.22%
647,1,193,23.34%
648,0,193,23.34%
649,0,193,23.34%
650,1,194,23.46%
651,0,194,23.46%
652,0,194,23.46%
653,1,195,23.58%
654,0,195,23.58%
655,0,195,23.58%
656,0,195,23.58%
657,0,195,23.58%
658,0,195,23.58%
659,0,195,23.58%
660,0,195,23.58%
661,0,195,23.58%
662,0,195,23.58%
663,0,195,23.58%
664,1,196,23.7%
665,0,196,23.7%
666,0,196,23.7%
667,0,196,23.7%
668,0,196,23.7%
669,0,196,23.7%
670,0,196,23.7%
671,0,196,23.7%
672,0,196,23.7%
673,1,197,23.82%
674,0,197,23.82%
675,9,206,24.91%
676,0,206,24.91%
677,1,207,25.03%
678,0,207,25.03%
679,0,207,25.03%
680,1,208,25.15%
681,0,208,25.15%
682,0,208,25.15%
683,0,208,25.15%
684,0,208,25.15%
685,0,208,25.15%
686,0,208,25.15%
687,1,209,25.27%
688,0,209,25.27%
689,1,210,25.39%
690,0,210,25.39%
691,0,210,25.39%
692,1,211,25.51%
693,0,211,25.51%
694,0,211,25.51%
695,1,212,25.63%
696,0,212,25.63%
697,0,212,25.63%
698,0,212,25.63%
699,1,213,25.76%
700,0,213,25.76%
701,1,214,25.88%
702,0,214,25.88%
703,0,214,25.88%
704,0,214,25.88%
705,0,214,25.88%
706,0,214,25.88%
707,1,215,26.0%
708,0,215,26.0%
709,0,215,26.0%
710,0,215,26.0%
711,0,215,26.0%
712,0,215,26.0%
713,0,215,26.0%
714,0,215,26.0%
715,0,215,26.0%
716,0,215,26.0%
717,0,215,26.0%
718,0,215,26.0%
719,0,215,26.0%
720,0,215,26.0%
721,0,215,26.0%
722,0,215,26.0%
723,0,215,26.0%
724,0,215,26.0%
725,0,215,26.0%
726,0,215,26.0%
727,0,215,26.0%
728,0,215,26.0%
729,0,215,26.0%
730,0,215,26.0%
731,0,215,26.0%
732,0,215,26.0%
733,0,215,26.0%
734,0,215,26.0%
735,0,215,26.0%
736,0,215,26.0%
737,0,215,26.0%
738,0,215,26.0%
739,0,215,26.0%
740,0,215,26.0%
741,1,216,26.12%
742,0,216,26.12%
743,0,216,26.12%
744,1,217,26.24%
745,1,218,26.36%
746,1,219,26.48%
747,0,219,26.48%
748,1,220,26.6%
749,1,221,26.72%
750,0,221,26.72%
751,0,221,26.72%
752,0,221,26.72%
753,0,221,26.72%
754,1,222,26.84%
755,1,223,26.96%
756,0,223,26.96%
757,1,224,27.09%
758,0,224,27.09%
759,0,224,27.09%
760,1,225,27.21%
761,0,225,27.21%
762,0,225,27.21%
763,0,225,27.21%
764,0,225,27.21%
765,0,225,27.21%
766,0,225,27.21%
767,0,225,27.21%
768,0,225,27.21%
769,1,226,27.33%
770,0,226,27.33%
771,1,227,27.45%
772,0,227,27.45%
773,0,227,27.45%
774,0,227,27.45%
775,0,227,27.45%
776,0,227,27.45%
777,0,227,27.45%
778,0,227,27.45%
779,0,227,27.45%
780,0,227,27.45%
781,0,227,27.45%
782,0,227,27.45%
783,0,227,27.45%
784,0,227,27.45%
785,1,228,27.57%
786,0,228,27.57%
787,0,228,27.57%
788,0,228,27.57%
789,0,228,27.57%
790,0,228,27.57%
791,0,228,27.57%
792,1,229,27.69%
793,0,229,27.69%
794,1,230,27.81%
795,2,232,28.05%
796,0,232,28.05%
797,0,232,28.05%
798,0,232,28.05%
799,2,234,28.3%
800,0,234,28.3%
801,1,235,28.42%
802,0,235,28.42%
803,0,235,28.42%
804,1,236,28.54%
805,0,236,28.54%
806,1,237,28.66%
807,0,237,28.66%
808,0,237,28.66%
809,0,237,28.66%
810,0,237,28.66%
811,0,237,28.66%
812,0,237,28.66%
813,1,238,28.78%
814,0,238,28.78%
815,0,238,28.78%
816,0,238,28.78%
817,0,238,28.78%
818,2,240,29.02%
819,1,241,29.14%
820,0,241,29.14%
821,0,241,29.14%
822,0,241,29.14%
823,0,241,29.14%
824,0,241,29.14%
825,0,241,29.14%
826,0,241,29.14%
827,0,241,29.14%
828,0,241,29.14%
829,0,241,29.14%
830,0,241,29.14%
831,0,241,29.14%
832,0,241,29.14%
833,0,241,29.14%
834,0,241,29.14%
835,0,241,29.14%
836,0,241,29.14%
837,0,241,29.14%
838,0,241,29.14%
839,1,242,29.26%
840,0,242,29.26%
841,0,242,29.26%
842,1,243,29.38%
843,0,243,29.38%
844,0,243,29.38%
845,0,243,29.38%
846,0,243,29.38%
847,1,244,29.5%
848,0,244,29.5%
849,0,244,29.5%
850,1,245,29.63%
851,2,247,29.87%
852,0,247,29.87%
853,0,247,29.87%
854,0,247,29.87%
855,0,247,29.87%
856,0,247,29.87%
857,0,247,29.87%
858,2,249,30.11%
859,0,249,30.11%
860,0,249,30.11%
861,0,249,30.11%
862,2,251,30.35%
863,0,251,30.35%
864,0,251,30.35%
865,0,251,30.35%
866,0,251,30.35%
867,0,251,30.35%
868,0,251,30.35%
869,2,253,30.59%
870,1,254,30.71%
871,1,255,30.83%
872,0,255,30.83%
873,0,255,30.83%
874,0,255,30.83%
875,0,255,30.83%
876,0,255,30.83%
877,0,255,30.83%
878,0,255,30.83%
879,0,255,30.83%
880,0,255,30.83%
881,0,255,30.83%
882,0,255,30.83%
883,0,255,30.83%
884,0,255,30.83%
885,1,256,30.96%
886,0,256,30.96%
887,0,256,30.96%
888,0,256,30.96%
889,0,256,30.96%
890,0,256,30.96%
891,1,257,31.08%
892,0,257,31.08%
893,0,257,31.08%
894,0,257,31.08%
895,0,257,31.08%
896,0,257,31.08%
897,0,257,31.08%
898,0,257,31.08%
899,0,257,31.08%
900,1,258,31.2%
901,0,258,31.2%
902,1,259,31.32%
903,0,259,31.32%
904,1,260,31.44%
905,0,260,31.44%
906,0,260,31.44%
907,0,260,31.44%
908,1,261,31.56%
909,0,261,31.56%
910,0,261,31.56%
911,0,261,31.56%
912,0,261,31.56%
913,0,261,31.56%
914,0,261,31.56%
915,0,261,31.56%
916,0,261,31.56%
917,0,261,31.56%
918,0,261,31.56%
919,1,262,31.68%
920,0,262,31.68%
921,0,262,31.68%
922,0,262,31.68%
923,0,262,31.68%
924,0,262,31.68%
925,0,262,31.68%
926,0,262,31.68%
927,0,262,31.68%
928,0,262,31.68%
929,0,262,31.68%
930,0,262,31.68%
931,1,263,31.8%
932,1,264,31.92%
933,1,265,32.04%
934,0,265,32.04%
935,1,266,32.16%
936,1,267,32.29%
937,1,268,32.41%
938,0,268,32.41%
939,0,268,32.41%
940,4,272,32.89%
941,0,272,32.89%
942,0,272,32.89%
943,0,272,32.89%
944,0,272,32.89%
945,0,272,32.89%
946,0,272,32.89%
947,0,272,32.89%
948,1,273,33.01%
949,0,273,33.01%
950,0,273,33.01%
951,0,273,33.01%
952,0,273,33.01%
953,0,273,33.01%
954,0,273,33.01%
955,0,273,33.01%
956,0,273,33.01%
957,0,273,33.01%
958,1,274,33.13%
959,0,274,33.13%
960,0,274,33.13%
961,0,274,33.13%
962,0,274,33.13%
963,0,274,33.13%
964,2,276,33.37%
965,1,277,33.49%
966,1,278,33.62%
967,1,279,33.74%
968,0,279,33.74%
969,2,281,33.98%
970,2,283,34.22%
971,1,284,34.34%
972,1,285,34.46%
973,0,285,34.46%
974,3,288,34.82%
975,0,288,34.82%
976,0,288,34.82%
977,1,289,34.95%
978,1,290,35.07%
979,3,293,35.43%
980,5,298,36.03%
981,0,298,36.03%
982,1,299,36.15%
983,3,302,36.52%
984,1,303,36.64%
985,524,827,100.0%
