Length, Count, Sum (Counts <= Length), Percent of Nonzero Data, Nonzero Data Count = 861, Zero Data Count = 983
1,1,1,0.12%
2,0,1,0.12%
3,1,2,0.23%
4,0,2,0.23%
5,0,2,0.23%
6,0,2,0.23%
7,0,2,0.23%
8,0,2,0.23%
9,0,2,0.23%
10,0,2,0.23%
11,0,2,0.23%
12,0,2,0.23%
13,0,2,0.23%
14,0,2,0.23%
15,0,2,0.23%
16,0,2,0.23%
17,1,3,0.35%
18,0,3,0.35%
19,0,3,0.35%
20,0,3,0.35%
21,0,3,0.35%
22,1,4,0.46%
23,0,4,0.46%
24,0,4,0.46%
25,0,4,0.46%
26,0,4,0.46%
27,1,5,0.58%
28,1,6,0.7%
29,0,6,0.7%
30,0,6,0.7%
31,0,6,0.7%
32,0,6,0.7%
33,0,6,0.7%
34,0,6,0.7%
35,0,6,0.7%
36,0,6,0.7%
37,0,6,0.7%
38,0,6,0.7%
39,1,7,0.81%
40,0,7,0.81%
41,0,7,0.81%
42,0,7,0.81%
43,0,7,0.81%
44,0,7,0.81%
45,0,7,0.81%
46,0,7,0.81%
47,0,7,0.81%
48,0,7,0.81%
49,0,7,0.81%
50,0,7,0.81%
51,1,8,0.93%
52,2,10,1.16%
53,0,10,1.16%
54,0,10,1.16%
55,0,10,1.16%
56,0,10,1.16%
57,0,10,1.16%
58,0,10,1.16%
59,0,10,1.16%
60,0,10,1.16%
61,1,11,1.28%
62,0,11,1.28%
63,1,12,1.39%
64,0,12,1.39%
65,1,13,1.51%
66,0,13,1.51%
67,0,13,1.51%
68,0,13,1.51%
69,1,14,1.63%
70,0,14,1.63%
71,0,14,1.63%
72,0,14,1.63%
73,0,14,1.63%
74,0,14,1.63%
75,0,14,1.63%
76,0,14,1.63%
77,0,14,1.63%
78,1,15,1.74%
79,1,16,1.86%
80,0,16,1.86%
81,0,16,1.86%
82,0,16,1.86%
83,0,16,1.86%
84,0,16,1.86%
85,1,17,1.97%
86,0,17,1.97%
87,0,17,1.97%
88,0,17,1.97%
89,0,17,1.97%
90,0,17,1.97%
91,0,17,1.97%
92,1,18,2.09%
93,0,18,2.09%
94,0,18,2.09%
95,0,18,2.09%
96,1,19,2.21%
97,0,19,2.21%
98,0,19,2.21%
99,0,19,2.21%
100,0,19,2.21%
101,0,19,2.21%
102,0,19,2.21%
103,0,19,2.21%
104,0,19,2.21%
105,0,19,2.21%
106,1,20,2.32%
107,0,20,2.32%
108,1,21,2.44%
109,0,21,2.44%
110,0,21,2.44%
111,0,21,2.44%
112,0,21,2.44%
113,0,21,2.44%
114,0,21,2.44%
115,0,21,2.44%
116,0,21,2.44%
117,0,21,2.44%
118,0,21,2.44%
119,0,21,2.44%
120,0,21,2.44%
121,0,21,2.44%
122,0,21,2.44%
123,0,21,2.44%
124,0,21,2.44%
125,1,22,2.56%
126,0,22,2.56%
127,0,22,2.56%
128,1,23,2.67%
129,1,24,2.79%
130,0,24,2.79%
131,0,24,2.79%
132,0,24,2.79%
133,0,24,2.79%
134,0,24,2.79%
135,0,24,2.79%
136,0,24,2.79%
137,1,25,2.9%
138,0,25,2.9%
139,0,25,2.9%
140,1,26,3.02%
141,0,26,3.02%
142,1,27,3.14%
143,0,27,3.14%
144,0,27,3.14%
145,2,29,3.37%
146,0,29,3.37%
147,0,29,3.37%
148,0,29,3.37%
149,0,29,3.37%
150,1,30,3.48%
151,1,31,3.6%
152,1,32,3.72%
153,0,32,3.72%
154,0,32,3.72%
155,1,33,3.83%
156,0,33,3.83%
157,0,33,3.83%
158,0,33,3.83%
159,1,34,3.95%
160,0,34,3.95%
161,0,34,3.95%
162,0,34,3.95%
163,0,34,3.95%
164,0,34,3.95%
165,0,34,3.95%
166,0,34,3.95%
167,0,34,3.95%
168,0,34,3.95%
169,0,34,3.95%
170,1,35,4.07%
171,0,35,4.07%
172,0,35,4.07%
173,0,35,4.07%
174,0,35,4.07%
175,0,35,4.07%
176,0,35,4.07%
177,0,35,4.07%
178,0,35,4.07%
179,0,35,4.07%
180,0,35,4.07%
181,1,36,4.18%
182,0,36,4.18%
183,1,37,4.3%
184,1,38,4.41%
185,0,38,4.41%
186,0,38,4.41%
187,0,38,4.41%
188,2,40,4.65%
189,0,40,4.65%
190,0,40,4.65%
191,0,40,4.65%
192,0,40,4.65%
193,0,40,4.65%
194,2,42,4.88%
195,0,42,4.88%
196,0,42,4.88%
197,0,42,4.88%
198,0,42,4.88%
199,0,42,4.88%
200,2,44,5.11%
201,1,45,5.23%
202,2,47,5.46%
203,0,47,5.46%
204,0,47,5.46%
205,0,47,5.46%
206,0,47,5.46%
207,0,47,5.46%
208,0,47,5.46%
209,0,47,5.46%
210,0,47,5.46%
211,0,47,5.46%
212,1,48,5.57%
213,1,49,5.69%
214,0,49,5.69%
215,1,50,5.81%
216,0,50,5.81%
217,0,50,5.81%
218,0,50,5.81%
219,0,50,5.81%
220,1,51,5.92%
221,0,51,5.92%
222,0,51,5.92%
223,0,51,5.92%
224,0,51,5.92%
225,0,51,5.92%
226,0,51,5.92%
227,0,51,5.92%
228,0,51,5.92%
229,0,51,5.92%
230,0,51,5.92%
231,1,52,6.04%
232,1,53,6.16%
233,1,54,6.27%
234,0,54,6.27%
235,0,54,6.27%
236,1,55,6.39%
237,0,55,6.39%
238,0,55,6.39%
239,0,55,6.39%
240,0,55,6.39%
241,0,55,6.39%
242,0,55,6.39%
243,1,56,6.5%
244,1,57,6.62%
245,0,57,6.62%
246,0,57,6.62%
247,0,57,6.62%
248,0,57,6.62%
249,0,57,6.62%
250,0,57,6.62%
251,0,57,6.62%
252,1,58,6.74%
253,0,58,6.74%
254,0,58,6.74%
255,1,59,6.85%
256,0,59,6.85%
257,1,60,6.97%
258,0,60,6.97%
259,1,61,7.08%
260,0,61,7.08%
261,0,61,7.08%
262,0,61,7.08%
263,1,62,7.2%
264,0,62,7.2%
265,1,63,7.32%
266,0,63,7.32%
267,0,63,7.32%
268,0,63,7.32%
269,0,63,7.32%
270,3,66,7.67%
271,0,66,7.67%
272,0,66,7.67%
273,0,66,7.67%
274,1,67,7.78%
275,0,67,7.78%
276,0,67,7.78%
277,0,67,7.78%
278,0,67,7.78%
279,0,67,7.78%
280,1,68,7.9%
281,0,68,7.9%
282,0,68,7.9%
283,0,68,7.9%
284,0,68,7.9%
285,0,68,7.9%
286,0,68,7.9%
287,0,68,7.9%
288,0,68,7.9%
289,0,68,7.9%
290,0,68,7.9%
291,0,68,7.9%
292,0,68,7.9%
293,0,68,7.9%
294,0,68,7.9%
295,0,68,7.9%
296,0,68,7.9%
297,0,68,7.9%
298,0,68,7.9%
299,0,68,7.9%
300,0,68,7.9%
301,0,68,7.9%
302,0,68,7.9%
303,2,70,8.13%
304,0,70,8.13%
305,1,71,8.25%
306,0,71,8.25%
307,0,71,8.25%
308,0,71,8.25%
309,0,71,8.25%
310,0,71,8.25%
311,2,73,8.48%
312,0,73,8.48%
313,0,73,8.48%
314,0,73,8.48%
315,1,74,8.59%
316,0,74,8.59%
317,0,74,8.59%
318,0,74,8.59%
319,0,74,8.59%
320,0,74,8.59%
321,2,76,8.83%
322,0,76,8.83%
323,0,76,8.83%
324,0,76,8.83%
325,2,78,9.06%
326,0,78,9.06%
327,0,78,9.06%
328,0,78,9.06%
329,0,78,9.06%
330,0,78,9.06%
331,0,78,9.06%
332,0,78,9.06%
333,0,78,9.06%
334,0,78,9.06%
335,0,78,9.06%
336,0,78,9.06%
337,0,78,9.06%
338,0,78,9.06%
339,0,78,9.06%
340,0,78,9.06%
341,0,78,9.06%
342,0,78,9.06%
343,2,80,9.29%
344,0,80,9.29%
345,0,80,9.29%
346,0,80,9.29%
347,0,80,9.29%
348,0,80,9.29%
349,1,81,9.41%
350,1,82,9.52%
351,15,97,11.27%
352,10,107,12.43%
353,1,108,12.54%
354,0,108,12.54%
355,0,108,12.54%
356,0,108,12.54%
357,0,108,12.54%
358,5,113,13.12%
359,0,113,13.12%
360,3,116,13.47%
361,2,118,13.7%
362,0,118,13.7%
363,1,119,13.82%
364,0,119,13.82%
365,0,119,13.82%
366,1,120,13.94%
367,0,120,13.94%
368,0,120,13.94%
369,0,120,13.94%
370,0,120,13.94%
371,0,120,13.94%
372,2,122,14.17%
373,1,123,14.29%
374,0,123,14.29%
375,0,123,14.29%
376,0,123,14.29%
377,0,123,14.29%
378,0,123,14.29%
379,0,123,14.29%
380,0,123,14.29%
381,0,123,14.29%
382,1,124,14.4%
383,0,124,14.4%
384,0,124,14.4%
385,0,124,14.4%
386,0,124,14.4%
387,0,124,14.4%
388,0,124,14.4%
389,0,124,14.4%
390,0,124,14.4%
391,0,124,14.4%
392,0,124,14.4%
393,1,125,14.52%
394,0,125,14.52%
395,0,125,14.52%
396,0,125,14.52%
397,1,126,14.63%
398,0,126,14.63%
399,0,126,14.63%
400,0,126,14.63%
401,0,126,14.63%
402,0,126,14.63%
403,0,126,14.63%
404,0,126,14.63%
405,0,126,14.63%
406,2,128,14.87%
407,0,128,14.87%
408,0,128,14.87%
409,0,128,14.87%
410,0,128,14.87%
411,0,128,14.87%
412,1,129,14.98%
413,0,129,14.98%
414,0,129,14.98%
415,0,129,14.98%
416,0,129,14.98%
417,1,130,15.1%
418,0,130,15.1%
419,0,130,15.1%
420,0,130,15.1%
421,0,130,15.1%
422,1,131,15.21%
423,0,131,15.21%
424,0,131,15.21%
425,0,131,15.21%
426,1,132,15.33%
427,0,132,15.33%
428,0,132,15.33%
429,0,132,15.33%
430,0,132,15.33%
431,0,132,15.33%
432,0,132,15.33%
433,0,132,15.33%
434,0,132,15.33%
435,1,133,15.45%
436,1,134,15.56%
437,0,134,15.56%
438,0,134,15.56%
439,0,134,15.56%
440,0,134,15.56%
441,1,135,15.68%
442,0,135,15.68%
443,0,135,15.68%
444,0,135,15.68%
445,0,135,15.68%
446,1,136,15.8%
447,0,136,15.8%
448,0,136,15.8%
449,1,137,15.91%
450,0,137,15.91%
451,1,138,16.03%
452,0,138,16.03%
453,1,139,16.14%
454,0,139,16.14%
455,0,139,16.14%
456,0,139,16.14%
457,0,139,16.14%
458,0,139,16.14%
459,0,139,16.14%
460,0,139,16.14%
461,0,139,16.14%
462,0,139,16.14%
463,0,139,16.14%
464,1,140,16.26%
465,1,141,16.38%
466,1,142,16.49%
467,1,143,16.61%
468,0,143,16.61%
469,0,143,16.61%
470,0,143,16.61%
471,0,143,16.61%
472,0,143,16.61%
473,0,143,16.61%
474,0,143,16.61%
475,0,143,16.61%
476,0,143,16.61%
477,0,143,16.61%
478,0,143,16.61%
479,1,144,16.72%
480,0,144,16.72%
481,0,144,16.72%
482,2,146,16.96%
483,1,147,17.07%
484,1,148,17.19%
485,0,148,17.19%
486,1,149,17.31%
487,1,150,17.42%
488,0,150,17.42%
489,0,150,17.42%
490,1,151,17.54%
491,1,152,17.65%
492,0,152,17.65%
493,0,152,17.65%
494,0,152,17.65%
495,2,154,17.89%
496,1,155,18.0%
497,0,155,18.0%
498,0,155,18.0%
499,0,155,18.0%
500,0,155,18.0%
501,0,155,18.0%
502,0,155,18.0%
503,1,156,18.12%
504,0,156,18.12%
505,0,156,18.12%
506,0,156,18.12%
507,1,157,18.23%
508,0,157,18.23%
509,0,157,18.23%
510,0,157,18.23%
511,0,157,18.23%
512,0,157,18.23%
513,0,157,18.23%
514,1,158,18.35%
515,0,158,18.35%
516,1,159,18.47%
517,0,159,18.47%
518,0,159,18.47%
519,1,160,18.58%
520,0,160,18.58%
521,1,161,18.7%
522,0,161,18.7%
523,0,161,18.7%
524,0,161,18.7%
525,0,161,18.7%
526,0,161,18.7%
527,0,161,18.7%
528,1,162,18.82%
529,1,163,18.93%
530,0,163,18.93%
531,0,163,18.93%
532,0,163,18.93%
533,0,163,18.93%
534,0,163,18.93%
535,0,163,18.93%
536,0,163,18.93%
537,0,163,18.93%
538,0,163,18.93%
539,0,163,18.93%
540,0,163,18.93%
541,0,163,18.93%
542,0,163,18.93%
543,0,163,18.93%
544,0,163,18.93%
545,0,163,18.93%
546,1,164,19.05%
547,0,164,19.05%
548,0,164,19.05%
549,0,164,19.05%
550,0,164,19.05%
551,0,164,19.05%
552,1,165,19.16%
553,0,165,19.16%
554,0,165,19.16%
555,0,165,19.16%
556,0,165,19.16%
557,0,165,19.16%
558,0,165,19.16%
559,1,166,19.28%
560,0,166,19.28%
561,0,166,19.28%
562,0,166,19.28%
563,0,166,19.28%
564,1,167,19.4%
565,0,167,19.4%
566,0,167,19.4%
567,1,168,19.51%
568,0,168,19.51%
569,0,168,19.51%
570,0,168,19.51%
571,1,169,19.63%
572,0,169,19.63%
573,3,172,19.98%
574,1,173,20.09%
575,0,173,20.09%
576,8,181,21.02%
577,0,181,21.02%
578,0,181,21.02%
579,1,182,21.14%
580,0,182,21.14%
581,0,182,21.14%
582,0,182,21.14%
583,0,182,21.14%
584,0,182,21.14%
585,0,182,21.14%
586,0,182,21.14%
587,0,182,21.14%
588,0,182,21.14%
589,1,183,21.25%
590,1,184,21.37%
591,0,184,21.37%
592,0,184,21.37%
593,0,184,21.37%
594,1,185,21.49%
595,0,185,21.49%
596,1,186,21.6%
597,0,186,21.6%
598,0,186,21.6%
599,1,187,21.72%
600,0,187,21.72%
601,0,187,21.72%
602,0,187,21.72%
603,1,188,21.84%
604,1,189,21.95%
605,0,189,21.95%
606,0,189,21.95%
607,0,189,21.95%
608,0,189,21.95%
609,0,189,21.95%
610,0,189,21.95%
611,0,189,21.95%
612,1,190,22.07%
613,0,190,22.07%
614,1,191,22.18%
615,0,191,22.18%
616,0,191,22.18%
617,0,191,22.18%
618,0,191,22.18%
619,0,191,22.18%
620,0,191,22.18%
621,0,191,22.18%
622,1,192,22.3%
623,0,192,22.3%
624,0,192,22.3%
625,1,193,22.42%
626,2,195,22.65%
627,0,195,22.65%
628,0,195,22.65%
629,0,195,22.65%
630,0,195,22.65%
631,0,195,22.65%
632,1,196,22.76%
633,0,196,22.76%
634,0,196,22.76%
635,1,197,22.88%
636,0,197,22.88%
637,0,197,22.88%
638,0,197,22.88%
639,0,197,22.88%
640,0,197,22.88%
641,0,197,22.88%
642,0,197,22.88%
643,0,197,22.88%
644,0,197,22.88%
645,0,197,22.88%
646,0,197,22.88%
647,1,198,23.0%
648,2,200,23.23%
649,1,201,23.34%
650,0,201,23.34%
651,0,201,23.34%
652,0,201,23.34%
653,1,202,23.46%
654,0,202,23.46%
655,0,202,23.46%
656,0,202,23.46%
657,0,202,23.46%
658,0,202,23.46%
659,0,202,23.46%
660,0,202,23.46%
661,0,202,23.46%
662,0,202,23.46%
663,0,202,23.46%
664,1,203,23.58%
665,0,203,23.58%
666,0,203,23.58%
667,0,203,23.58%
668,0,203,23.58%
669,0,203,23.58%
670,0,203,23.58%
671,0,203,23.58%
672,0,203,23.58%
673,0,203,23.58%
674,0,203,23.58%
675,0,203,23.58%
676,0,203,23.58%
677,0,203,23.58%
678,0,203,23.58%
679,1,204,23.69%
680,0,204,23.69%
681,0,204,23.69%
682,0,204,23.69%
683,2,206,23.93%
684,0,206,23.93%
685,0,206,23.93%
686,0,206,23.93%
687,0,206,23.93%
688,0,206,23.93%
689,0,206,23.93%
690,0,206,23.93%
691,0,206,23.93%
692,0,206,23.93%
693,5,211,24.51%
694,0,211,24.51%
695,0,211,24.51%
696,0,211,24.51%
697,0,211,24.51%
698,0,211,24.51%
699,0,211,24.51%
700,0,211,24.51%
701,0,211,24.51%
702,0,211,24.51%
703,1,212,24.62%
704,1,213,24.74%
705,1,214,24.85%
706,0,214,24.85%
707,0,214,24.85%
708,0,214,24.85%
709,0,214,24.85%
710,0,214,24.85%
711,0,214,24.85%
712,0,214,24.85%
713,0,214,24.85%
714,0,214,24.85%
715,0,214,24.85%
716,0,214,24.85%
717,0,214,24.85%
718,0,214,24.85%
719,1,215,24.97%
720,0,215,24.97%
721,0,215,24.97%
722,0,215,24.97%
723,0,215,24.97%
724,0,215,24.97%
725,1,216,25.09%
726,0,216,25.09%
727,0,216,25.09%
728,0,216,25.09%
729,0,216,25.09%
730,0,216,25.09%
731,0,216,25.09%
732,0,216,25.09%
733,0,216,25.09%
734,0,216,25.09%
735,1,217,25.2%
736,0,217,25.2%
737,0,217,25.2%
738,0,217,25.2%
739,1,218,25.32%
740,0,218,25.32%
741,0,218,25.32%
742,0,218,25.32%
743,0,218,25.32%
744,1,219,25.44%
745,0,219,25.44%
746,0,219,25.44%
747,1,220,25.55%
748,0,220,25.55%
749,0,220,25.55%
750,0,220,25.55%
751,0,220,25.55%
752,0,220,25.55%
753,1,221,25.67%
754,1,222,25.78%
755,0,222,25.78%
756,0,222,25.78%
757,0,222,25.78%
758,0,222,25.78%
759,0,222,25.78%
760,0,222,25.78%
761,0,222,25.78%
762,0,222,25.78%
763,0,222,25.78%
764,0,222,25.78%
765,0,222,25.78%
766,0,222,25.78%
767,1,223,25.9%
768,1,224,26.02%
769,1,225,26.13%
770,0,225,26.13%
771,0,225,26.13%
772,0,225,26.13%
773,0,225,26.13%
774,1,226,26.25%
775,0,226,26.25%
776,0,226,26.25%
777,0,226,26.25%
778,1,227,26.36%
779,0,227,26.36%
780,0,227,26.36%
781,1,228,26.48%
782,0,228,26.48%
783,0,228,26.48%
784,0,228,26.48%
785,1,229,26.6%
786,0,229,26.6%
787,0,229,26.6%
788,0,229,26.6%
789,0,229,26.6%
790,0,229,26.6%
791,0,229,26.6%
792,1,230,26.71%
793,0,230,26.71%
794,0,230,26.71%
795,2,232,26.95%
796,0,232,26.95%
797,0,232,26.95%
798,0,232,26.95%
799,0,232,26.95%
800,0,232,26.95%
801,0,232,26.95%
802,2,234,27.18%
803,0,234,27.18%
804,1,235,27.29%
805,0,235,27.29%
806,1,236,27.41%
807,0,236,27.41%
808,1,237,27.53%
809,0,237,27.53%
810,0,237,27.53%
811,0,237,27.53%
812,0,237,27.53%
813,0,237,27.53%
814,0,237,27.53%
815,1,238,27.64%
816,2,240,27.87%
817,0,240,27.87%
818,0,240,27.87%
819,0,240,27.87%
820,0,240,27.87%
821,0,240,27.87%
822,0,240,27.87%
823,0,240,27.87%
824,0,240,27.87%
825,0,240,27.87%
826,0,240,27.87%
827,0,240,27.87%
828,0,240,27.87%
829,0,240,27.87%
830,0,240,27.87%
831,0,240,27.87%
832,0,240,27.87%
833,0,240,27.87%
834,0,240,27.87%
835,1,241,27.99%
836,0,241,27.99%
837,1,242,28.11%
838,0,242,28.11%
839,0,242,28.11%
840,1,243,28.22%
841,0,243,28.22%
842,0,243,28.22%
843,0,243,28.22%
844,1,244,28.34%
845,0,244,28.34%
846,0,244,28.34%
847,0,244,28.34%
848,0,244,28.34%
849,0,244,28.34%
850,0,244,28.34%
851,0,244,28.34%
852,0,244,28.34%
853,0,244,28.34%
854,0,244,28.34%
855,0,244,28.34%
856,1,245,28.46%
857,0,245,28.46%
858,0,245,28.46%
859,0,245,28.46%
860,0,245,28.46%
861,0,245,28.46%
862,0,245,28.46%
863,0,245,28.46%
864,0,245,28.46%
865,0,245,28.46%
866,0,245,28.46%
867,0,245,28.46%
868,0,245,28.46%
869,0,245,28.46%
870,0,245,28.46%
871,1,246,28.57%
872,0,246,28.57%
873,0,246,28.57%
874,0,246,28.57%
875,0,246,28.57%
876,1,247,28.69%
877,0,247,28.69%
878,0,247,28.69%
879,0,247,28.69%
880,1,248,28.8%
881,1,249,28.92%
882,0,249,28.92%
883,0,249,28.92%
884,1,250,29.04%
885,0,250,29.04%
886,0,250,29.04%
887,0,250,29.04%
888,0,250,29.04%
889,0,250,29.04%
890,0,250,29.04%
891,0,250,29.04%
892,0,250,29.04%
893,0,250,29.04%
894,0,250,29.04%
895,0,250,29.04%
896,1,251,29.15%
897,0,251,29.15%
898,0,251,29.15%
899,0,251,29.15%
900,0,251,29.15%
901,1,252,29.27%
902,9,261,30.31%
903,0,261,30.31%
904,2,263,30.55%
905,0,263,30.55%
906,1,264,30.66%
907,1,265,30.78%
908,0,265,30.78%
909,0,265,30.78%
910,0,265,30.78%
911,0,265,30.78%
912,0,265,30.78%
913,0,265,30.78%
914,0,265,30.78%
915,0,265,30.78%
916,0,265,30.78%
917,0,265,30.78%
918,0,265,30.78%
919,1,266,30.89%
920,0,266,30.89%
921,0,266,30.89%
922,0,266,30.89%
923,0,266,30.89%
924,0,266,30.89%
925,0,266,30.89%
926,0,266,30.89%
927,1,267,31.01%
928,2,269,31.24%
929,0,269,31.24%
930,0,269,31.24%
931,1,270,31.36%
932,0,270,31.36%
933,0,270,31.36%
934,1,271,31.48%
935,1,272,31.59%
936,0,272,31.59%
937,1,273,31.71%
938,0,273,31.71%
939,0,273,31.71%
940,0,273,31.71%
941,0,273,31.71%
942,1,274,31.82%
943,0,274,31.82%
944,0,274,31.82%
945,0,274,31.82%
946,1,275,31.94%
947,0,275,31.94%
948,0,275,31.94%
949,0,275,31.94%
950,0,275,31.94%
951,0,275,31.94%
952,0,275,31.94%
953,0,275,31.94%
954,0,275,31.94%
955,0,275,31.94%
956,1,276,32.06%
957,0,276,32.06%
958,0,276,32.06%
959,0,276,32.06%
960,1,277,32.17%
961,0,277,32.17%
962,0,277,32.17%
963,0,277,32.17%
964,1,278,32.29%
965,0,278,32.29%
966,0,278,32.29%
967,0,278,32.29%
968,0,278,32.29%
969,0,278,32.29%
970,0,278,32.29%
971,0,278,32.29%
972,0,278,32.29%
973,0,278,32.29%
974,0,278,32.29%
975,0,278,32.29%
976,0,278,32.29%
977,0,278,32.29%
978,0,278,32.29%
979,1,279,32.4%
980,0,279,32.4%
981,1,280,32.52%
982,0,280,32.52%
983,0,280,32.52%
984,0,280,32.52%
985,1,281,32.64%
986,0,281,32.64%
987,2,283,32.87%
988,0,283,32.87%
989,1,284,32.98%
990,0,284,32.98%
991,1,285,33.1%
992,0,285,33.1%
993,0,285,33.1%
994,1,286,33.22%
995,0,286,33.22%
996,0,286,33.22%
997,0,286,33.22%
998,1,287,33.33%
999,1,288,33.45%
1000,0,288,33.45%
1001,0,288,33.45%
1002,0,288,33.45%
1003,0,288,33.45%
1004,0,288,33.45%
1005,0,288,33.45%
1006,0,288,33.45%
1007,0,288,33.45%
1008,0,288,33.45%
1009,0,288,33.45%
1010,0,288,33.45%
1011,0,288,33.45%
1012,0,288,33.45%
1013,1,289,33.57%
1014,0,289,33.57%
1015,0,289,33.57%
1016,1,290,33.68%
1017,0,290,33.68%
1018,0,290,33.68%
1019,0,290,33.68%
1020,0,290,33.68%
1021,0,290,33.68%
1022,0,290,33.68%
1023,0,290,33.68%
1024,0,290,33.68%
1025,1,291,33.8%
1026,0,291,33.8%
1027,0,291,33.8%
1028,0,291,33.8%
1029,1,292,33.91%
1030,0,292,33.91%
1031,1,293,34.03%
1032,0,293,34.03%
1033,2,295,34.26%
1034,0,295,34.26%
1035,0,295,34.26%
1036,0,295,34.26%
1037,0,295,34.26%
1038,0,295,34.26%
1039,0,295,34.26%
1040,1,296,34.38%
1041,0,296,34.38%
1042,0,296,34.38%
1043,0,296,34.38%
1044,0,296,34.38%
1045,0,296,34.38%
1046,0,296,34.38%
1047,0,296,34.38%
1048,0,296,34.38%
1049,0,296,34.38%
1050,0,296,34.38%
1051,0,296,34.38%
1052,0,296,34.38%
1053,0,296,34.38%
1054,0,296,34.38%
1055,0,296,34.38%
1056,0,296,34.38%
1057,0,296,34.38%
1058,1,297,34.49%
1059,0,297,34.49%
1060,0,297,34.49%
1061,0,297,34.49%
1062,0,297,34.49%
1063,0,297,34.49%
1064,0,297,34.49%
1065,0,297,34.49%
1066,0,297,34.49%
1067,0,297,34.49%
1068,1,298,34.61%
1069,0,298,34.61%
1070,0,298,34.61%
1071,0,298,34.61%
1072,1,299,34.73%
1073,0,299,34.73%
1074,0,299,34.73%
1075,0,299,34.73%
1076,4,303,35.19%
1077,0,303,35.19%
1078,1,304,35.31%
1079,0,304,35.31%
1080,0,304,35.31%
1081,0,304,35.31%
1082,0,304,35.31%
1083,1,305,35.42%
1084,0,305,35.42%
1085,0,305,35.42%
1086,0,305,35.42%
1087,0,305,35.42%
1088,0,305,35.42%
1089,0,305,35.42%
1090,0,305,35.42%
1091,0,305,35.42%
1092,0,305,35.42%
1093,0,305,35.42%
1094,1,306,35.54%
1095,0,306,35.54%
1096,2,308,35.77%
1097,1,309,35.89%
1098,0,309,35.89%
1099,0,309,35.89%
1100,1,310,36.0%
1101,1,311,36.12%
1102,1,312,36.24%
1103,1,313,36.35%
1104,0,313,36.35%
1105,2,315,36.59%
1106,1,316,36.7%
1107,0,316,36.7%
1108,0,316,36.7%
1109,2,318,36.93%
1110,2,320,37.17%
1111,0,320,37.17%
1112,0,320,37.17%
1113,1,321,37.28%
1114,1,322,37.4%
1115,3,325,37.75%
1116,5,330,38.33%
1117,0,330,38.33%
1118,1,331,38.44%
1119,2,333,38.68%
1120,1,334,38.79%
1121,1,335,38.91%
1122,0,335,38.91%
1123,0,335,38.91%
1124,1,336,39.02%
1125,4,340,39.49%
1126,2,342,39.72%
1127,0,342,39.72%
1128,1,343,39.84%
1129,1,344,39.95%
1130,0,344,39.95%
1131,3,347,40.3%
1132,0,347,40.3%
1133,2,349,40.53%
1134,2,351,40.77%
1135,1,352,40.88%
1136,0,352,40.88%
1137,1,353,41.0%
1138,0,353,41.0%
1139,1,354,41.11%
1140,1,355,41.23%
1141,5,360,41.81%
1142,1,361,41.93%
1143,4,365,42.39%
1144,2,367,42.62%
1145,3,370,42.97%
1146,1,371,43.09%
1147,1,372,43.21%
1148,3,375,43.55%
1149,6,381,44.25%
1150,0,381,44.25%
1151,1,382,44.37%
1152,0,382,44.37%
1153,0,382,44.37%
1154,1,383,44.48%
1155,1,384,44.6%
1156,0,384,44.6%
1157,2,386,44.83%
1158,4,390,45.3%
1159,2,392,45.53%
1160,4,396,45.99%
1161,0,396,45.99%
1162,3,399,46.34%
1163,2,401,46.57%
1164,1,402,46.69%
1165,0,402,46.69%
1166,0,402,46.69%
1167,0,402,46.69%
1168,4,406,47.15%
1169,3,409,47.5%
1170,1,410,47.62%
1171,0,410,47.62%
1172,0,410,47.62%
1173,7,417,48.43%
1174,3,420,48.78%
1175,0,420,48.78%
1176,1,421,48.9%
1177,0,421,48.9%
1178,1,422,49.01%
1179,1,423,49.13%
1180,1,424,49.25%
1181,0,424,49.25%
1182,1,425,49.36%
1183,6,431,50.06%
1184,10,441,51.22%
1185,2,443,51.45%
1186,2,445,51.68%
1187,6,451,52.38%
1188,0,451,52.38%
1189,0,451,52.38%
1190,0,451,52.38%
1191,4,455,52.85%
1192,2,457,53.08%
1193,0,457,53.08%
1194,2,459,53.31%
1195,0,459,53.31%
1196,2,461,53.54%
1197,4,465,54.01%
1198,3,468,54.36%
1199,3,471,54.7%
1200,0,471,54.7%
1201,1,472,54.82%
1202,0,472,54.82%
1203,4,476,55.28%
1204,2,478,55.52%
1205,0,478,55.52%
1206,0,478,55.52%
1207,2,480,55.75%
1208,0,480,55.75%
1209,0,480,55.75%
1210,0,480,55.75%
1211,1,481,55.87%
1212,1,482,55.98%
1213,0,482,55.98%
1214,0,482,55.98%
1215,0,482,55.98%
1216,1,483,56.1%
1217,2,485,56.33%
1218,0,485,56.33%
1219,0,485,56.33%
1220,1,486,56.45%
1221,1,487,56.56%
1222,4,491,57.03%
1223,0,491,57.03%
1224,0,491,57.03%
1225,1,492,57.14%
1226,1,493,57.26%
1227,0,493,57.26%
1228,0,493,57.26%
1229,0,493,57.26%
1230,2,495,57.49%
1231,3,498,57.84%
1232,3,501,58.19%
1233,1,502,58.3%
1234,0,502,58.3%
1235,1,503,58.42%
1236,2,505,58.65%
1237,2,507,58.89%
1238,1,508,59.0%
1239,0,508,59.0%
1240,4,512,59.47%
1241,7,519,60.28%
1242,4,523,60.74%
1243,1,524,60.86%
1244,0,524,60.86%
1245,0,524,60.86%
1246,3,527,61.21%
1247,1,528,61.32%
1248,0,528,61.32%
1249,1,529,61.44%
1250,3,532,61.79%
1251,0,532,61.79%
1252,0,532,61.79%
1253,0,532,61.79%
1254,0,532,61.79%
1255,0,532,61.79%
1256,4,536,62.25%
1257,3,539,62.6%
1258,0,539,62.6%
1259,0,539,62.6%
1260,0,539,62.6%
1261,0,539,62.6%
1262,0,539,62.6%
1263,0,539,62.6%
1264,2,541,62.83%
1265,1,542,62.95%
1266,1,543,63.07%
1267,2,545,63.3%
1268,1,546,63.41%
1269,2,548,63.65%
1270,5,553,64.23%
1271,0,553,64.23%
1272,0,553,64.23%
1273,2,555,64.46%
1274,4,559,64.92%
1275,8,567,65.85%
1276,1,568,65.97%
1277,0,568,65.97%
1278,2,570,66.2%
1279,4,574,66.67%
1280,1,575,66.78%
1281,0,575,66.78%
1282,0,575,66.78%
1283,1,576,66.9%
1284,4,580,67.36%
1285,2,582,67.6%
1286,0,582,67.6%
1287,0,582,67.6%
1288,2,584,67.83%
1289,2,586,68.06%
1290,0,586,68.06%
1291,2,588,68.29%
1292,0,588,68.29%
1293,2,590,68.52%
1294,3,593,68.87%
1295,0,593,68.87%
1296,0,593,68.87%
1297,4,597,69.34%
1298,2,599,69.57%
1299,1,600,69.69%
1300,2,602,69.92%
1301,2,604,70.15%
1302,2,606,70.38%
1303,2,608,70.62%
1304,3,611,70.96%
1305,2,613,71.2%
1306,1,614,71.31%
1307,2,616,71.54%
1308,2,618,71.78%
1309,1,619,71.89%
1310,0,619,71.89%
1311,0,619,71.89%
1312,1,620,72.01%
1313,3,623,72.36%
1314,1,624,72.47%
1315,0,624,72.47%
1316,0,624,72.47%
1317,1,625,72.59%
1318,1,626,72.71%
1319,0,626,72.71%
1320,0,626,72.71%
1321,1,627,72.82%
1322,3,630,73.17%
1323,0,630,73.17%
1324,3,633,73.52%
1325,4,637,73.98%
1326,0,637,73.98%
1327,2,639,74.22%
1328,1,640,74.33%
1329,7,647,75.15%
1330,1,648,75.26%
1331,0,648,75.26%
1332,1,649,75.38%
1333,0,649,75.38%
1334,0,649,75.38%
1335,3,652,75.73%
1336,1,653,75.84%
1337,0,653,75.84%
1338,9,662,76.89%
1339,0,662,76.89%
1340,0,662,76.89%
1341,0,662,76.89%
1342,1,663,77.0%
1343,1,664,77.12%
1344,0,664,77.12%
1345,1,665,77.24%
1346,1,666,77.35%
1347,1,667,77.47%
1348,194,861,100.0%
