Length, Count, Sum (Counts <= Length), Percent of Nonzero Data, Nonzero Data Count = 808, Zero Data Count = 1036
1,0,0,0.0%
2,1,1,0.12%
3,2,3,0.37%
4,0,3,0.37%
5,0,3,0.37%
6,0,3,0.37%
7,0,3,0.37%
8,0,3,0.37%
9,0,3,0.37%
10,1,4,0.5%
11,2,6,0.74%
12,0,6,0.74%
13,0,6,0.74%
14,0,6,0.74%
15,0,6,0.74%
16,0,6,0.74%
17,0,6,0.74%
18,0,6,0.74%
19,0,6,0.74%
20,0,6,0.74%
21,0,6,0.74%
22,0,6,0.74%
23,0,6,0.74%
24,0,6,0.74%
25,0,6,0.74%
26,0,6,0.74%
27,0,6,0.74%
28,0,6,0.74%
29,1,7,0.87%
30,1,8,0.99%
31,0,8,0.99%
32,1,9,1.11%
33,0,9,1.11%
34,0,9,1.11%
35,0,9,1.11%
36,0,9,1.11%
37,0,9,1.11%
38,0,9,1.11%
39,0,9,1.11%
40,0,9,1.11%
41,1,10,1.24%
42,1,11,1.36%
43,0,11,1.36%
44,0,11,1.36%
45,0,11,1.36%
46,0,11,1.36%
47,0,11,1.36%
48,0,11,1.36%
49,0,11,1.36%
50,0,11,1.36%
51,0,11,1.36%
52,0,11,1.36%
53,0,11,1.36%
54,0,11,1.36%
55,0,11,1.36%
56,0,11,1.36%
57,0,11,1.36%
58,1,12,1.49%
59,0,12,1.49%
60,0,12,1.49%
61,1,13,1.61%
62,0,13,1.61%
63,0,13,1.61%
64,0,13,1.61%
65,0,13,1.61%
66,1,14,1.73%
67,0,14,1.73%
68,0,14,1.73%
69,0,14,1.73%
70,0,14,1.73%
71,0,14,1.73%
72,0,14,1.73%
73,0,14,1.73%
74,0,14,1.73%
75,0,14,1.73%
76,1,15,1.86%
77,0,15,1.86%
78,0,15,1.86%
79,1,16,1.98%
80,0,16,1.98%
81,0,16,1.98%
82,0,16,1.98%
83,0,16,1.98%
84,0,16,1.98%
85,0,16,1.98%
86,0,16,1.98%
87,0,16,1.98%
88,0,16,1.98%
89,1,17,2.1%
90,0,17,2.1%
91,0,17,2.1%
92,0,17,2.1%
93,0,17,2.1%
94,0,17,2.1%
95,1,18,2.23%
96,0,18,2.23%
97,0,18,2.23%
98,0,18,2.23%
99,0,18,2.23%
100,0,18,2.23%
101,0,18,2.23%
102,1,19,2.35%
103,0,19,2.35%
104,0,19,2.35%
105,0,19,2.35%
106,0,19,2.35%
107,0,19,2.35%
108,0,19,2.35%
109,0,19,2.35%
110,0,19,2.35%
111,0,19,2.35%
112,0,19,2.35%
113,0,19,2.35%
114,0,19,2.35%
115,0,19,2.35%
116,0,19,2.35%
117,0,19,2.35%
118,0,19,2.35%
119,0,19,2.35%
120,0,19,2.35%
121,0,19,2.35%
122,0,19,2.35%
123,0,19,2.35%
124,1,20,2.48%
125,0,20,2.48%
126,0,20,2.48%
127,0,20,2.48%
128,0,20,2.48%
129,1,21,2.6%
130,2,23,2.85%
131,0,23,2.85%
132,0,23,2.85%
133,0,23,2.85%
134,0,23,2.85%
135,0,23,2.85%
136,0,23,2.85%
137,0,23,2.85%
138,0,23,2.85%
139,0,23,2.85%
140,0,23,2.85%
141,0,23,2.85%
142,0,23,2.85%
143,0,23,2.85%
144,0,23,2.85%
145,3,26,3.22%
146,0,26,3.22%
147,0,26,3.22%
148,1,27,3.34%
149,0,27,3.34%
150,0,27,3.34%
151,0,27,3.34%
152,1,28,3.47%
153,0,28,3.47%
154,0,28,3.47%
155,0,28,3.47%
156,0,28,3.47%
157,0,28,3.47%
158,0,28,3.47%
159,0,28,3.47%
160,0,28,3.47%
161,0,28,3.47%
162,1,29,3.59%
163,0,29,3.59%
164,0,29,3.59%
165,0,29,3.59%
166,1,30,3.71%
167,0,30,3.71%
168,0,30,3.71%
169,0,30,3.71%
170,1,31,3.84%
171,0,31,3.84%
172,0,31,3.84%
173,0,31,3.84%
174,0,31,3.84%
175,0,31,3.84%
176,0,31,3.84%
177,0,31,3.84%
178,0,31,3.84%
179,0,31,3.84%
180,0,31,3.84%
181,1,32,3.96%
182,1,33,4.08%
183,0,33,4.08%
184,7,40,4.95%
185,0,40,4.95%
186,0,40,4.95%
187,0,40,4.95%
188,0,40,4.95%
189,0,40,4.95%
190,0,40,4.95%
191,0,40,4.95%
192,0,40,4.95%
193,0,40,4.95%
194,0,40,4.95%
195,0,40,4.95%
196,0,40,4.95%
197,0,40,4.95%
198,0,40,4.95%
199,0,40,4.95%
200,0,40,4.95%
201,0,40,4.95%
202,0,40,4.95%
203,0,40,4.95%
204,0,40,4.95%
205,0,40,4.95%
206,0,40,4.95%
207,0,40,4.95%
208,0,40,4.95%
209,1,41,5.07%
210,0,41,5.07%
211,0,41,5.07%
212,0,41,5.07%
213,0,41,5.07%
214,0,41,5.07%
215,0,41,5.07%
216,0,41,5.07%
217,1,42,5.2%
218,0,42,5.2%
219,0,42,5.2%
220,0,42,5.2%
221,0,42,5.2%
222,1,43,5.32%
223,0,43,5.32%
224,0,43,5.32%
225,0,43,5.32%
226,1,44,5.45%
227,0,44,5.45%
228,0,44,5.45%
229,0,44,5.45%
230,0,44,5.45%
231,0,44,5.45%
232,0,44,5.45%
233,0,44,5.45%
234,0,44,5.45%
235,1,45,5.57%
236,0,45,5.57%
237,1,46,5.69%
238,0,46,5.69%
239,0,46,5.69%
240,0,46,5.69%
241,0,46,5.69%
242,0,46,5.69%
243,0,46,5.69%
244,0,46,5.69%
245,1,47,5.82%
246,0,47,5.82%
247,0,47,5.82%
248,0,47,5.82%
249,1,48,5.94%
250,1,49,6.06%
251,0,49,6.06%
252,0,49,6.06%
253,0,49,6.06%
254,0,49,6.06%
255,0,49,6.06%
256,0,49,6.06%
257,0,49,6.06%
258,1,50,6.19%
259,1,51,6.31%
260,1,52,6.44%
261,0,52,6.44%
262,0,52,6.44%
263,2,54,6.68%
264,0,54,6.68%
265,0,54,6.68%
266,0,54,6.68%
267,1,55,6.81%
268,0,55,6.81%
269,0,55,6.81%
270,1,56,6.93%
271,5,61,7.55%
272,0,61,7.55%
273,2,63,7.8%
274,0,63,7.8%
275,0,63,7.8%
276,1,64,7.92%
277,0,64,7.92%
278,0,64,7.92%
279,1,65,8.04%
280,0,65,8.04%
281,0,65,8.04%
282,0,65,8.04%
283,0,65,8.04%
284,0,65,8.04%
285,0,65,8.04%
286,0,65,8.04%
287,0,65,8.04%
288,1,66,8.17%
289,2,68,8.42%
290,0,68,8.42%
291,1,69,8.54%
292,0,69,8.54%
293,1,70,8.66%
294,0,70,8.66%
295,5,75,9.28%
296,1,76,9.41%
297,1,77,9.53%
298,1,78,9.65%
299,0,78,9.65%
300,2,80,9.9%
301,2,82,10.15%
302,0,82,10.15%
303,0,82,10.15%
304,2,84,10.4%
305,4,88,10.89%
306,2,90,11.14%
307,1,91,11.26%
308,1,92,11.39%
309,1,93,11.51%
310,19,112,13.86%
311,7,119,14.73%
312,0,119,14.73%
313,2,121,14.98%
314,2,123,15.22%
315,1,124,15.35%
316,4,128,15.84%
317,1,129,15.97%
318,0,129,15.97%
319,0,129,15.97%
320,6,135,16.71%
321,3,138,17.08%
322,1,139,17.2%
323,4,143,17.7%
324,1,144,17.82%
325,1,145,17.95%
326,2,147,18.19%
327,0,147,18.19%
328,2,149,18.44%
329,3,152,18.81%
330,2,154,19.06%
331,0,154,19.06%
332,1,155,19.18%
333,1,156,19.31%
334,10,166,20.54%
335,1,167,20.67%
336,4,171,21.16%
337,0,171,21.16%
338,3,174,21.53%
339,2,176,21.78%
340,6,182,22.52%
341,2,184,22.77%
342,1,185,22.9%
343,2,187,23.14%
344,9,196,24.26%
345,1,197,24.38%
346,0,197,24.38%
347,0,197,24.38%
348,0,197,24.38%
349,2,199,24.63%
350,2,201,24.88%
351,0,201,24.88%
352,607,808,100.0%
