Length, Count, Sum (Counts <= Length), Percent of Nonzero Data, Nonzero Data Count = 841, Zero Data Count = 1003
1,1,1,0.12%
2,1,2,0.24%
3,1,3,0.36%
4,2,5,0.59%
5,0,5,0.59%
6,0,5,0.59%
7,0,5,0.59%
8,0,5,0.59%
9,0,5,0.59%
10,0,5,0.59%
11,1,6,0.71%
12,1,7,0.83%
13,0,7,0.83%
14,0,7,0.83%
15,0,7,0.83%
16,0,7,0.83%
17,0,7,0.83%
18,0,7,0.83%
19,0,7,0.83%
20,0,7,0.83%
21,0,7,0.83%
22,0,7,0.83%
23,0,7,0.83%
24,0,7,0.83%
25,0,7,0.83%
26,0,7,0.83%
27,0,7,0.83%
28,0,7,0.83%
29,0,7,0.83%
30,1,8,0.95%
31,0,8,0.95%
32,0,8,0.95%
33,0,8,0.95%
34,0,8,0.95%
35,0,8,0.95%
36,0,8,0.95%
37,0,8,0.95%
38,0,8,0.95%
39,0,8,0.95%
40,0,8,0.95%
41,0,8,0.95%
42,1,9,1.07%
43,1,10,1.19%
44,0,10,1.19%
45,0,10,1.19%
46,0,10,1.19%
47,0,10,1.19%
48,0,10,1.19%
49,0,10,1.19%
50,0,10,1.19%
51,0,10,1.19%
52,1,11,1.31%
53,0,11,1.31%
54,0,11,1.31%
55,0,11,1.31%
56,0,11,1.31%
57,0,11,1.31%
58,0,11,1.31%
59,1,12,1.43%
60,0,12,1.43%
61,0,12,1.43%
62,0,12,1.43%
63,1,13,1.55%
64,0,13,1.55%
65,0,13,1.55%
66,0,13,1.55%
67,1,14,1.66%
68,0,14,1.66%
69,0,14,1.66%
70,0,14,1.66%
71,0,14,1.66%
72,0,14,1.66%
73,0,14,1.66%
74,0,14,1.66%
75,0,14,1.66%
76,0,14,1.66%
77,0,14,1.66%
78,0,14,1.66%
79,0,14,1.66%
80,0,14,1.66%
81,0,14,1.66%
82,0,14,1.66%
83,0,14,1.66%
84,0,14,1.66%
85,1,15,1.78%
86,0,15,1.78%
87,0,15,1.78%
88,0,15,1.78%
89,0,15,1.78%
90,1,16,1.9%
91,0,16,1.9%
92,1,17,2.02%
93,0,17,2.02%
94,0,17,2.02%
95,0,17,2.02%
96,2,19,2.26%
97,0,19,2.26%
98,0,19,2.26%
99,0,19,2.26%
100,0,19,2.26%
101,0,19,2.26%
102,0,19,2.26%
103,0,19,2.26%
104,0,19,2.26%
105,0,19,2.26%
106,1,20,2.38%
107,0,20,2.38%
108,0,20,2.38%
109,0,20,2.38%
110,0,20,2.38%
111,0,20,2.38%
112,0,20,2.38%
113,0,20,2.38%
114,0,20,2.38%
115,0,20,2.38%
116,0,20,2.38%
117,0,20,2.38%
118,0,20,2.38%
119,0,20,2.38%
120,0,20,2.38%
121,0,20,2.38%
122,0,20,2.38%
123,0,20,2.38%
124,0,20,2.38%
125,2,22,2.62%
126,0,22,2.62%
127,0,22,2.62%
128,1,23,2.73%
129,0,23,2.73%
130,1,24,2.85%
131,2,26,3.09%
132,0,26,3.09%
133,0,26,3.09%
134,0,26,3.09%
135,0,26,3.09%
136,0,26,3.09%
137,0,26,3.09%
138,0,26,3.09%
139,0,26,3.09%
140,0,26,3.09%
141,0,26,3.09%
142,0,26,3.09%
143,0,26,3.09%
144,0,26,3.09%
145,2,28,3.33%
146,1,29,3.45%
147,0,29,3.45%
148,0,29,3.45%
149,1,30,3.57%
150,1,31,3.69%
151,1,32,3.8%
152,0,32,3.8%
153,1,33,3.92%
154,0,33,3.92%
155,0,33,3.92%
156,0,33,3.92%
157,0,33,3.92%
158,0,33,3.92%
159,0,33,3.92%
160,0,33,3.92%
161,0,33,3.92%
162,0,33,3.92%
163,1,34,4.04%
164,0,34,4.04%
165,0,34,4.04%
166,0,34,4.04%
167,1,35,4.16%
168,0,35,4.16%
169,0,35,4.16%
170,0,35,4.16%
171,1,36,4.28%
172,0,36,4.28%
173,0,36,4.28%
174,0,36,4.28%
175,0,36,4.28%
176,0,36,4.28%
177,0,36,4.28%
178,0,36,4.28%
179,0,36,4.28%
180,0,36,4.28%
181,1,37,4.4%
182,0,37,4.4%
183,1,38,4.52%
184,1,39,4.64%
185,7,46,5.47%
186,0,46,5.47%
187,0,46,5.47%
188,0,46,5.47%
189,0,46,5.47%
190,0,46,5.47%
191,0,46,5.47%
192,0,46,5.47%
193,0,46,5.47%
194,0,46,5.47%
195,0,46,5.47%
196,0,46,5.47%
197,0,46,5.47%
198,0,46,5.47%
199,0,46,5.47%
200,0,46,5.47%
201,0,46,5.47%
202,0,46,5.47%
203,0,46,5.47%
204,0,46,5.47%
205,0,46,5.47%
206,0,46,5.47%
207,0,46,5.47%
208,0,46,5.47%
209,0,46,5.47%
210,1,47,5.59%
211,0,47,5.59%
212,1,48,5.71%
213,0,48,5.71%
214,0,48,5.71%
215,0,48,5.71%
216,0,48,5.71%
217,0,48,5.71%
218,1,49,5.83%
219,0,49,5.83%
220,0,49,5.83%
221,0,49,5.83%
222,0,49,5.83%
223,0,49,5.83%
224,0,49,5.83%
225,0,49,5.83%
226,0,49,5.83%
227,1,50,5.95%
228,0,50,5.95%
229,0,50,5.95%
230,0,50,5.95%
231,1,51,6.06%
232,0,51,6.06%
233,0,51,6.06%
234,0,51,6.06%
235,0,51,6.06%
236,1,52,6.18%
237,0,52,6.18%
238,1,53,6.3%
239,0,53,6.3%
240,0,53,6.3%
241,0,53,6.3%
242,0,53,6.3%
243,1,54,6.42%
244,0,54,6.42%
245,0,54,6.42%
246,1,55,6.54%
247,0,55,6.54%
248,0,55,6.54%
249,0,55,6.54%
250,1,56,6.66%
251,1,57,6.78%
252,1,58,6.9%
253,0,58,6.9%
254,0,58,6.9%
255,1,59,7.02%
256,0,59,7.02%
257,0,59,7.02%
258,0,59,7.02%
259,2,61,7.25%
260,0,61,7.25%
261,1,62,7.37%
262,0,62,7.37%
263,0,62,7.37%
264,0,62,7.37%
265,1,63,7.49%
266,0,63,7.49%
267,0,63,7.49%
268,0,63,7.49%
269,0,63,7.49%
270,1,64,7.61%
271,0,64,7.61%
272,0,64,7.61%
273,0,64,7.61%
274,2,66,7.85%
275,0,66,7.85%
276,0,66,7.85%
277,1,67,7.97%
278,0,67,7.97%
279,0,67,7.97%
280,0,67,7.97%
281,0,67,7.97%
282,0,67,7.97%
283,0,67,7.97%
284,0,67,7.97%
285,0,67,7.97%
286,0,67,7.97%
287,0,67,7.97%
288,0,67,7.97%
289,0,67,7.97%
290,1,68,8.09%
291,0,68,8.09%
292,1,69,8.2%
293,0,69,8.2%
294,1,70,8.32%
295,0,70,8.32%
296,1,71,8.44%
297,0,71,8.44%
298,0,71,8.44%
299,0,71,8.44%
300,0,71,8.44%
301,0,71,8.44%
302,0,71,8.44%
303,0,71,8.44%
304,0,71,8.44%
305,1,72,8.56%
306,0,72,8.56%
307,0,72,8.56%
308,0,72,8.56%
309,0,72,8.56%
310,0,72,8.56%
311,17,89,10.58%
312,0,89,10.58%
313,0,89,10.58%
314,1,90,10.7%
315,0,90,10.7%
316,0,90,10.7%
317,1,91,10.82%
318,1,92,10.94%
319,0,92,10.94%
320,0,92,10.94%
321,1,93,11.06%
322,0,93,11.06%
323,1,94,11.18%
324,3,97,11.53%
325,0,97,11.53%
326,0,97,11.53%
327,0,97,11.53%
328,0,97,11.53%
329,0,97,11.53%
330,0,97,11.53%
331,1,98,11.65%
332,0,98,11.65%
333,0,98,11.65%
334,0,98,11.65%
335,0,98,11.65%
336,0,98,11.65%
337,0,98,11.65%
338,0,98,11.65%
339,0,98,11.65%
340,0,98,11.65%
341,0,98,11.65%
342,1,99,11.77%
343,1,100,11.89%
344,0,100,11.89%
345,1,101,12.01%
346,0,101,12.01%
347,0,101,12.01%
348,0,101,12.01%
349,0,101,12.01%
350,1,102,12.13%
351,1,103,12.25%
352,10,113,13.44%
353,5,118,14.03%
354,0,118,14.03%
355,2,120,14.27%
356,0,120,14.27%
357,0,120,14.27%
358,0,120,14.27%
359,0,120,14.27%
360,1,121,14.39%
361,1,122,14.51%
362,1,123,14.63%
363,1,124,14.74%
364,0,124,14.74%
365,0,124,14.74%
366,0,124,14.74%
367,0,124,14.74%
368,0,124,14.74%
369,1,125,14.86%
370,0,125,14.86%
371,0,125,14.86%
372,1,126,14.98%
373,0,126,14.98%
374,0,126,14.98%
375,0,126,14.98%
376,0,126,14.98%
377,0,126,14.98%
378,0,126,14.98%
379,0,126,14.98%
380,0,126,14.98%
381,0,126,14.98%
382,0,126,14.98%
383,1,127,15.1%
384,2,129,15.34%
385,0,129,15.34%
386,0,129,15.34%
387,0,129,15.34%
388,0,129,15.34%
389,0,129,15.34%
390,0,129,15.34%
391,0,129,15.34%
392,0,129,15.34%
393,1,130,15.46%
394,0,130,15.46%
395,0,130,15.46%
396,0,130,15.46%
397,1,131,15.58%
398,0,131,15.58%
399,1,132,15.7%
400,0,132,15.7%
401,0,132,15.7%
402,1,133,15.81%
403,0,133,15.81%
404,1,134,15.93%
405,0,134,15.93%
406,2,136,16.17%
407,0,136,16.17%
408,0,136,16.17%
409,0,136,16.17%
410,0,136,16.17%
411,0,136,16.17%
412,1,137,16.29%
413,0,137,16.29%
414,0,137,16.29%
415,0,137,16.29%
416,0,137,16.29%
417,0,137,16.29%
418,0,137,16.29%
419,0,137,16.29%
420,0,137,16.29%
421,0,137,16.29%
422,2,139,16.53%
423,0,139,16.53%
424,0,139,16.53%
425,0,139,16.53%
426,0,139,16.53%
427,0,139,16.53%
428,0,139,16.53%
429,0,139,16.53%
430,0,139,16.53%
431,0,139,16.53%
432,0,139,16.53%
433,0,139,16.53%
434,0,139,16.53%
435,2,141,16.77%
436,0,141,16.77%
437,0,141,16.77%
438,0,141,16.77%
439,0,141,16.77%
440,0,141,16.77%
441,1,142,16.88%
442,0,142,16.88%
443,0,142,16.88%
444,0,142,16.88%
445,0,142,16.88%
446,2,144,17.12%
447,0,144,17.12%
448,0,144,17.12%
449,0,144,17.12%
450,1,145,17.24%
451,0,145,17.24%
452,0,145,17.24%
453,1,146,17.36%
454,1,147,17.48%
455,1,148,17.6%
456,0,148,17.6%
457,0,148,17.6%
458,2,150,17.84%
459,0,150,17.84%
460,0,150,17.84%
461,0,150,17.84%
462,1,151,17.95%
463,0,151,17.95%
464,0,151,17.95%
465,0,151,17.95%
466,0,151,17.95%
467,0,151,17.95%
468,0,151,17.95%
469,0,151,17.95%
470,1,152,18.07%
471,0,152,18.07%
472,0,152,18.07%
473,0,152,18.07%
474,1,153,18.19%
475,0,153,18.19%
476,0,153,18.19%
477,0,153,18.19%
478,0,153,18.19%
479,0,153,18.19%
480,0,153,18.19%
481,1,154,18.31%
482,0,154,18.31%
483,0,154,18.31%
484,0,154,18.31%
485,0,154,18.31%
486,0,154,18.31%
487,0,154,18.31%
488,0,154,18.31%
489,0,154,18.31%
490,1,155,18.43%
491,0,155,18.43%
492,0,155,18.43%
493,1,156,18.55%
494,0,156,18.55%
495,1,157,18.67%
496,1,158,18.79%
497,0,158,18.79%
498,0,158,18.79%
499,0,158,18.79%
500,0,158,18.79%
501,0,158,18.79%
502,0,158,18.79%
503,1,159,18.91%
504,0,159,18.91%
505,0,159,18.91%
506,0,159,18.91%
507,0,159,18.91%
508,0,159,18.91%
509,0,159,18.91%
510,0,159,18.91%
511,0,159,18.91%
512,0,159,18.91%
513,1,160,19.02%
514,0,160,19.02%
515,0,160,19.02%
516,0,160,19.02%
517,0,160,19.02%
518,0,160,19.02%
519,1,161,19.14%
520,0,161,19.14%
521,0,161,19.14%
522,0,161,19.14%
523,0,161,19.14%
524,0,161,19.14%
525,0,161,19.14%
526,0,161,19.14%
527,1,162,19.26%
528,0,162,19.26%
529,0,162,19.26%
530,0,162,19.26%
531,0,162,19.26%
532,0,162,19.26%
533,0,162,19.26%
534,0,162,19.26%
535,0,162,19.26%
536,1,163,19.38%
537,0,163,19.38%
538,1,164,19.5%
539,0,164,19.5%
540,0,164,19.5%
541,0,164,19.5%
542,0,164,19.5%
543,0,164,19.5%
544,0,164,19.5%
545,0,164,19.5%
546,0,164,19.5%
547,0,164,19.5%
548,0,164,19.5%
549,0,164,19.5%
550,0,164,19.5%
551,0,164,19.5%
552,0,164,19.5%
553,1,165,19.62%
554,0,165,19.62%
555,0,165,19.62%
556,0,165,19.62%
557,0,165,19.62%
558,0,165,19.62%
559,0,165,19.62%
560,0,165,19.62%
561,0,165,19.62%
562,0,165,19.62%
563,0,165,19.62%
564,0,165,19.62%
565,0,165,19.62%
566,0,165,19.62%
567,1,166,19.74%
568,0,166,19.74%
569,0,166,19.74%
570,0,166,19.74%
571,0,166,19.74%
572,0,166,19.74%
573,1,167,19.86%
574,0,167,19.86%
575,0,167,19.86%
576,8,175,20.81%
577,1,176,20.93%
578,1,177,21.05%
579,1,178,21.17%
580,0,178,21.17%
581,0,178,21.17%
582,0,178,21.17%
583,0,178,21.17%
584,0,178,21.17%
585,0,178,21.17%
586,0,178,21.17%
587,1,179,21.28%
588,0,179,21.28%
589,0,179,21.28%
590,0,179,21.28%
591,1,180,21.4%
592,0,180,21.4%
593,0,180,21.4%
594,0,180,21.4%
595,0,180,21.4%
596,0,180,21.4%
597,0,180,21.4%
598,1,181,21.52%
599,0,181,21.52%
600,0,181,21.52%
601,0,181,21.52%
602,0,181,21.52%
603,2,183,21.76%
604,1,184,21.88%
605,0,184,21.88%
606,0,184,21.88%
607,0,184,21.88%
608,0,184,21.88%
609,0,184,21.88%
610,0,184,21.88%
611,0,184,21.88%
612,2,186,22.12%
613,0,186,22.12%
614,0,186,22.12%
615,0,186,22.12%
616,1,187,22.24%
617,0,187,22.24%
618,0,187,22.24%
619,0,187,22.24%
620,0,187,22.24%
621,0,187,22.24%
622,2,189,22.47%
623,0,189,22.47%
624,0,189,22.47%
625,2,191,22.71%
626,0,191,22.71%
627,0,191,22.71%
628,0,191,22.71%
629,5,196,23.31%
630,0,196,23.31%
631,0,196,23.31%
632,0,196,23.31%
633,0,196,23.31%
634,0,196,23.31%
635,1,197,23.42%
636,0,197,23.42%
637,0,197,23.42%
638,0,197,23.42%
639,1,198,23.54%
640,0,198,23.54%
641,0,198,23.54%
642,0,198,23.54%
643,1,199,23.66%
644,0,199,23.66%
645,1,200,23.78%
646,0,200,23.78%
647,1,201,23.9%
648,0,201,23.9%
649,0,201,23.9%
650,0,201,23.9%
651,0,201,23.9%
652,0,201,23.9%
653,1,202,24.02%
654,1,203,24.14%
655,0,203,24.14%
656,0,203,24.14%
657,0,203,24.14%
658,0,203,24.14%
659,0,203,24.14%
660,0,203,24.14%
661,0,203,24.14%
662,0,203,24.14%
663,0,203,24.14%
664,0,203,24.14%
665,0,203,24.14%
666,0,203,24.14%
667,0,203,24.14%
668,0,203,24.14%
669,0,203,24.14%
670,0,203,24.14%
671,0,203,24.14%
672,0,203,24.14%
673,0,203,24.14%
674,0,203,24.14%
675,0,203,24.14%
676,0,203,24.14%
677,0,203,24.14%
678,0,203,24.14%
679,0,203,24.14%
680,1,204,24.26%
681,0,204,24.26%
682,0,204,24.26%
683,0,204,24.26%
684,0,204,24.26%
685,0,204,24.26%
686,0,204,24.26%
687,1,205,24.38%
688,0,205,24.38%
689,0,205,24.38%
690,1,206,24.49%
691,0,206,24.49%
692,0,206,24.49%
693,0,206,24.49%
694,0,206,24.49%
695,0,206,24.49%
696,0,206,24.49%
697,0,206,24.49%
698,0,206,24.49%
699,0,206,24.49%
700,0,206,24.49%
701,1,207,24.61%
702,0,207,24.61%
703,0,207,24.61%
704,0,207,24.61%
705,1,208,24.73%
706,0,208,24.73%
707,0,208,24.73%
708,0,208,24.73%
709,0,208,24.73%
710,1,209,24.85%
711,0,209,24.85%
712,9,218,25.92%
713,0,218,25.92%
714,1,219,26.04%
715,0,219,26.04%
716,0,219,26.04%
717,0,219,26.04%
718,0,219,26.04%
719,1,220,26.16%
720,0,220,26.16%
721,0,220,26.16%
722,0,220,26.16%
723,0,220,26.16%
724,0,220,26.16%
725,0,220,26.16%
726,1,221,26.28%
727,0,221,26.28%
728,0,221,26.28%
729,1,222,26.4%
730,0,222,26.4%
731,0,222,26.4%
732,1,223,26.52%
733,0,223,26.52%
734,0,223,26.52%
735,1,224,26.63%
736,0,224,26.63%
737,0,224,26.63%
738,0,224,26.63%
739,0,224,26.63%
740,0,224,26.63%
741,0,224,26.63%
742,0,224,26.63%
743,0,224,26.63%
744,2,226,26.87%
745,0,226,26.87%
746,0,226,26.87%
747,0,226,26.87%
748,0,226,26.87%
749,0,226,26.87%
750,0,226,26.87%
751,0,226,26.87%
752,0,226,26.87%
753,0,226,26.87%
754,1,227,26.99%
755,0,227,26.99%
756,0,227,26.99%
757,0,227,26.99%
758,0,227,26.99%
759,0,227,26.99%
760,0,227,26.99%
761,0,227,26.99%
762,0,227,26.99%
763,0,227,26.99%
764,0,227,26.99%
765,0,227,26.99%
766,0,227,26.99%
767,0,227,26.99%
768,0,227,26.99%
769,1,228,27.11%
770,0,228,27.11%
771,0,228,27.11%
772,0,228,27.11%
773,0,228,27.11%
774,1,229,27.23%
775,0,229,27.23%
776,0,229,27.23%
777,0,229,27.23%
778,1,230,27.35%
779,0,230,27.35%
780,0,230,27.35%
781,0,230,27.35%
782,0,230,27.35%
783,1,231,27.47%
784,0,231,27.47%
785,1,232,27.59%
786,1,233,27.71%
787,0,233,27.71%
788,0,233,27.71%
789,0,233,27.71%
790,0,233,27.71%
791,1,234,27.82%
792,1,235,27.94%
793,0,235,27.94%
794,0,235,27.94%
795,2,237,28.18%
796,0,237,28.18%
797,1,238,28.3%
798,0,238,28.3%
799,0,238,28.3%
800,0,238,28.3%
801,0,238,28.3%
802,0,238,28.3%
803,0,238,28.3%
804,0,238,28.3%
805,0,238,28.3%
806,0,238,28.3%
807,0,238,28.3%
808,0,238,28.3%
809,0,238,28.3%
810,0,238,28.3%
811,0,238,28.3%
812,0,238,28.3%
813,0,238,28.3%
814,0,238,28.3%
815,0,238,28.3%
816,2,240,28.54%
817,0,240,28.54%
818,0,240,28.54%
819,0,240,28.54%
820,0,240,28.54%
821,0,240,28.54%
822,1,241,28.66%
823,0,241,28.66%
824,0,241,28.66%
825,0,241,28.66%
826,0,241,28.66%
827,0,241,28.66%
828,0,241,28.66%
829,1,242,28.78%
830,0,242,28.78%
831,1,243,28.89%
832,0,243,28.89%
833,0,243,28.89%
834,0,243,28.89%
835,0,243,28.89%
836,1,244,29.01%
837,1,245,29.13%
838,1,246,29.25%
839,0,246,29.25%
840,0,246,29.25%
841,1,247,29.37%
842,0,247,29.37%
843,1,248,29.49%
844,0,248,29.49%
845,0,248,29.49%
846,0,248,29.49%
847,0,248,29.49%
848,0,248,29.49%
849,0,248,29.49%
850,1,249,29.61%
851,0,249,29.61%
852,0,249,29.61%
853,0,249,29.61%
854,0,249,29.61%
855,2,251,29.85%
856,1,252,29.96%
857,0,252,29.96%
858,0,252,29.96%
859,0,252,29.96%
860,0,252,29.96%
861,0,252,29.96%
862,0,252,29.96%
863,0,252,29.96%
864,0,252,29.96%
865,0,252,29.96%
866,0,252,29.96%
867,0,252,29.96%
868,0,252,29.96%
869,0,252,29.96%
870,0,252,29.96%
871,1,253,30.08%
872,0,253,30.08%
873,0,253,30.08%
874,0,253,30.08%
875,0,253,30.08%
876,1,254,30.2%
877,0,254,30.2%
878,0,254,30.2%
879,1,255,30.32%
880,0,255,30.32%
881,1,256,30.44%
882,0,256,30.44%
883,0,256,30.44%
884,1,257,30.56%
885,0,257,30.56%
886,0,257,30.56%
887,1,258,30.68%
888,2,260,30.92%
889,0,260,30.92%
890,0,260,30.92%
891,0,260,30.92%
892,0,260,30.92%
893,0,260,30.92%
894,0,260,30.92%
895,2,262,31.15%
896,0,262,31.15%
897,0,262,31.15%
898,0,262,31.15%
899,2,264,31.39%
900,0,264,31.39%
901,0,264,31.39%
902,0,264,31.39%
903,0,264,31.39%
904,1,265,31.51%
905,0,265,31.51%
906,2,267,31.75%
907,2,269,31.99%
908,1,270,32.1%
909,0,270,32.1%
910,0,270,32.1%
911,0,270,32.1%
912,0,270,32.1%
913,0,270,32.1%
914,0,270,32.1%
915,0,270,32.1%
916,0,270,32.1%
917,0,270,32.1%
918,0,270,32.1%
919,0,270,32.1%
920,0,270,32.1%
921,0,270,32.1%
922,1,271,32.22%
923,0,271,32.22%
924,0,271,32.22%
925,0,271,32.22%
926,0,271,32.22%
927,1,272,32.34%
928,0,272,32.34%
929,0,272,32.34%
930,0,272,32.34%
931,0,272,32.34%
932,0,272,32.34%
933,0,272,32.34%
934,0,272,32.34%
935,0,272,32.34%
936,0,272,32.34%
937,0,272,32.34%
938,0,272,32.34%
939,1,273,32.46%
940,0,273,32.46%
941,1,274,32.58%
942,0,274,32.58%
943,0,274,32.58%
944,0,274,32.58%
945,1,275,32.7%
946,0,275,32.7%
947,0,275,32.7%
948,0,275,32.7%
949,0,275,32.7%
950,0,275,32.7%
951,0,275,32.7%
952,0,275,32.7%
953,0,275,32.7%
954,0,275,32.7%
955,0,275,32.7%
956,1,276,32.82%
957,0,276,32.82%
958,0,276,32.82%
959,0,276,32.82%
960,0,276,32.82%
961,0,276,32.82%
962,0,276,32.82%
963,0,276,32.82%
964,0,276,32.82%
965,0,276,32.82%
966,0,276,32.82%
967,0,276,32.82%
968,1,277,32.94%
969,0,277,32.94%
970,1,278,33.06%
971,0,278,33.06%
972,1,279,33.17%
973,0,279,33.17%
974,1,280,33.29%
975,0,280,33.29%
976,0,280,33.29%
977,0,280,33.29%
978,0,280,33.29%
979,0,280,33.29%
980,0,280,33.29%
981,0,280,33.29%
982,0,280,33.29%
983,0,280,33.29%
984,0,280,33.29%
985,1,281,33.41%
986,0,281,33.41%
987,1,282,33.53%
988,0,282,33.53%
989,0,282,33.53%
990,0,282,33.53%
991,0,282,33.53%
992,0,282,33.53%
993,0,282,33.53%
994,0,282,33.53%
995,0,282,33.53%
996,0,282,33.53%
997,0,282,33.53%
998,0,282,33.53%
999,0,282,33.53%
1000,0,282,33.53%
1001,0,282,33.53%
1002,0,282,33.53%
1003,0,282,33.53%
1004,0,282,33.53%
1005,0,282,33.53%
1006,0,282,33.53%
1007,1,283,33.65%
1008,1,284,33.77%
1009,0,284,33.77%
1010,0,284,33.77%
1011,1,285,33.89%
1012,0,285,33.89%
1013,0,285,33.89%
1014,0,285,33.89%
1015,0,285,33.89%
1016,1,286,34.01%
1017,0,286,34.01%
1018,0,286,34.01%
1019,0,286,34.01%
1020,1,287,34.13%
1021,0,287,34.13%
1022,0,287,34.13%
1023,0,287,34.13%
1024,1,288,34.24%
1025,1,289,34.36%
1026,1,290,34.48%
1027,0,290,34.48%
1028,0,290,34.48%
1029,0,290,34.48%
1030,1,291,34.6%
1031,0,291,34.6%
1032,0,291,34.6%
1033,0,291,34.6%
1034,0,291,34.6%
1035,0,291,34.6%
1036,0,291,34.6%
1037,0,291,34.6%
1038,0,291,34.6%
1039,0,291,34.6%
1040,0,291,34.6%
1041,0,291,34.6%
1042,0,291,34.6%
1043,0,291,34.6%
1044,0,291,34.6%
1045,0,291,34.6%
1046,0,291,34.6%
1047,0,291,34.6%
1048,0,291,34.6%
1049,0,291,34.6%
1050,0,291,34.6%
1051,0,291,34.6%
1052,1,292,34.72%
1053,0,292,34.72%
1054,0,292,34.72%
1055,0,292,34.72%
1056,0,292,34.72%
1057,0,292,34.72%
1058,0,292,34.72%
1059,0,292,34.72%
1060,1,293,34.84%
1061,0,293,34.84%
1062,0,293,34.84%
1063,0,293,34.84%
1064,0,293,34.84%
1065,0,293,34.84%
1066,2,295,35.08%
1067,0,295,35.08%
1068,1,296,35.2%
1069,0,296,35.2%
1070,0,296,35.2%
1071,0,296,35.2%
1072,1,297,35.32%
1073,2,299,35.55%
1074,0,299,35.55%
1075,0,299,35.55%
1076,4,303,36.03%
1077,0,303,36.03%
1078,0,303,36.03%
1079,0,303,36.03%
1080,0,303,36.03%
1081,0,303,36.03%
1082,0,303,36.03%
1083,1,304,36.15%
1084,1,305,36.27%
1085,0,305,36.27%
1086,0,305,36.27%
1087,0,305,36.27%
1088,0,305,36.27%
1089,0,305,36.27%
1090,0,305,36.27%
1091,0,305,36.27%
1092,0,305,36.27%
1093,0,305,36.27%
1094,1,306,36.39%
1095,1,307,36.5%
1096,1,308,36.62%
1097,0,308,36.62%
1098,0,308,36.62%
1099,0,308,36.62%
1100,1,309,36.74%
1101,3,312,37.1%
1102,1,313,37.22%
1103,1,314,37.34%
1104,0,314,37.34%
1105,2,316,37.57%
1106,1,317,37.69%
1107,0,317,37.69%
1108,0,317,37.69%
1109,2,319,37.93%
1110,2,321,38.17%
1111,0,321,38.17%
1112,0,321,38.17%
1113,1,322,38.29%
1114,1,323,38.41%
1115,3,326,38.76%
1116,5,331,39.36%
1117,0,331,39.36%
1118,1,332,39.48%
1119,2,334,39.71%
1120,1,335,39.83%
1121,1,336,39.95%
1122,0,336,39.95%
1123,0,336,39.95%
1124,1,337,40.07%
1125,4,341,40.55%
1126,2,343,40.78%
1127,0,343,40.78%
1128,2,345,41.02%
1129,1,346,41.14%
1130,0,346,41.14%
1131,2,348,41.38%
1132,0,348,41.38%
1133,2,350,41.62%
1134,2,352,41.85%
1135,0,352,41.85%
1136,0,352,41.85%
1137,1,353,41.97%
1138,0,353,41.97%
1139,1,354,42.09%
1140,0,354,42.09%
1141,4,358,42.57%
1142,1,359,42.69%
1143,3,362,43.04%
1144,2,364,43.28%
1145,3,367,43.64%
1146,1,368,43.76%
1147,1,369,43.88%
1148,2,371,44.11%
1149,8,379,45.07%
1150,0,379,45.07%
1151,0,379,45.07%
1152,0,379,45.07%
1153,0,379,45.07%
1154,1,380,45.18%
1155,1,381,45.3%
1156,0,381,45.3%
1157,2,383,45.54%
1158,458,841,100.0%
