Length, Count, Sum (Counts <= Length), Percent of Nonzero Data, Nonzero Data Count = 804, Zero Data Count = 1040
1,0,0,0.0%
2,1,1,0.12%
3,0,1,0.12%
4,1,2,0.25%
5,0,2,0.25%
6,0,2,0.25%
7,0,2,0.25%
8,0,2,0.25%
9,1,3,0.37%
10,0,3,0.37%
11,0,3,0.37%
12,0,3,0.37%
13,0,3,0.37%
14,0,3,0.37%
15,0,3,0.37%
16,0,3,0.37%
17,0,3,0.37%
18,0,3,0.37%
19,0,3,0.37%
20,0,3,0.37%
21,0,3,0.37%
22,0,3,0.37%
23,0,3,0.37%
24,0,3,0.37%
25,0,3,0.37%
26,0,3,0.37%
27,0,3,0.37%
28,0,3,0.37%
29,0,3,0.37%
30,0,3,0.37%
31,0,3,0.37%
32,0,3,0.37%
33,1,4,0.5%
34,0,4,0.5%
35,0,4,0.5%
36,0,4,0.5%
37,0,4,0.5%
38,2,6,0.75%
39,1,7,0.87%
40,2,9,1.12%
41,0,9,1.12%
42,0,9,1.12%
43,0,9,1.12%
44,3,12,1.49%
45,0,12,1.49%
46,0,12,1.49%
47,1,13,1.62%
48,5,18,2.24%
49,0,18,2.24%
50,1,19,2.36%
51,0,19,2.36%
52,1,20,2.49%
53,0,20,2.49%
54,0,20,2.49%
55,0,20,2.49%
56,1,21,2.61%
57,0,21,2.61%
58,0,21,2.61%
59,0,21,2.61%
60,0,21,2.61%
61,0,21,2.61%
62,0,21,2.61%
63,0,21,2.61%
64,0,21,2.61%
65,1,22,2.74%
66,1,23,2.86%
67,0,23,2.86%
68,0,23,2.86%
69,0,23,2.86%
70,1,24,2.99%
71,0,24,2.99%
72,4,28,3.48%
73,2,30,3.73%
74,1,31,3.86%
75,1,32,3.98%
76,0,32,3.98%
77,2,34,4.23%
78,2,36,4.48%
79,0,36,4.48%
80,0,36,4.48%
81,1,37,4.6%
82,5,42,5.22%
83,3,45,5.6%
84,1,46,5.72%
85,1,47,5.85%
86,1,48,5.97%
87,4,52,6.47%
88,5,57,7.09%
89,0,57,7.09%
90,1,58,7.21%
91,2,60,7.46%
92,1,61,7.59%
93,3,64,7.96%
94,0,64,7.96%
95,0,64,7.96%
96,0,64,7.96%
97,5,69,8.58%
98,3,72,8.96%
99,1,73,9.08%
100,1,74,9.2%
101,1,75,9.33%
102,1,76,9.45%
103,2,78,9.7%
104,0,78,9.7%
105,2,80,9.95%
106,3,83,10.32%
107,2,85,10.57%
108,0,85,10.57%
109,1,86,10.7%
110,1,87,10.82%
111,10,97,12.06%
112,1,98,12.19%
113,4,102,12.69%
114,0,102,12.69%
115,3,105,13.06%
116,2,107,13.31%
117,8,115,14.3%
118,1,116,14.43%
119,1,117,14.55%
120,2,119,14.8%
121,8,127,15.8%
122,1,128,15.92%
123,0,128,15.92%
124,0,128,15.92%
125,0,128,15.92%
126,3,131,16.29%
127,1,132,16.42%
128,0,132,16.42%
129,12,144,17.91%
130,9,153,19.03%
131,7,160,19.9%
132,3,163,20.27%
133,1,164,20.4%
134,3,167,20.77%
135,9,176,21.89%
136,2,178,22.14%
137,0,178,22.14%
138,1,179,22.26%
139,0,179,22.26%
140,5,184,22.89%
141,4,188,23.38%
142,1,189,23.51%
143,1,190,23.63%
144,0,190,23.63%
145,7,197,24.5%
146,4,201,25.0%
147,1,202,25.12%
148,1,203,25.25%
149,0,203,25.25%
150,2,205,25.5%
151,2,207,25.75%
152,1,208,25.87%
153,0,208,25.87%
154,2,210,26.12%
155,7,217,26.99%
156,10,227,28.23%
157,1,228,28.36%
158,2,230,28.61%
159,9,239,29.73%
160,1,240,29.85%
161,0,240,29.85%
162,0,240,29.85%
163,4,244,30.35%
164,2,246,30.6%
165,1,247,30.72%
166,3,250,31.09%
167,1,251,31.22%
168,3,254,31.59%
169,3,257,31.97%
170,547,804,100.0%
