Length, Count, Sum (Counts <= Length), Percent of Nonzero Data, Nonzero Data Count = 836, Zero Data Count = 1008
1,1,1,0.12%
2,1,2,0.24%
3,1,3,0.36%
4,1,4,0.48%
5,1,5,0.6%
6,0,5,0.6%
7,0,5,0.6%
8,0,5,0.6%
9,0,5,0.6%
10,0,5,0.6%
11,0,5,0.6%
12,0,5,0.6%
13,0,5,0.6%
14,0,5,0.6%
15,0,5,0.6%
16,0,5,0.6%
17,0,5,0.6%
18,0,5,0.6%
19,0,5,0.6%
20,0,5,0.6%
21,1,6,0.72%
22,0,6,0.72%
23,0,6,0.72%
24,0,6,0.72%
25,0,6,0.72%
26,0,6,0.72%
27,0,6,0.72%
28,0,6,0.72%
29,1,7,0.84%
30,0,7,0.84%
31,0,7,0.84%
32,0,7,0.84%
33,0,7,0.84%
34,0,7,0.84%
35,0,7,0.84%
36,0,7,0.84%
37,0,7,0.84%
38,0,7,0.84%
39,0,7,0.84%
40,0,7,0.84%
41,0,7,0.84%
42,0,7,0.84%
43,0,7,0.84%
44,0,7,0.84%
45,0,7,0.84%
46,0,7,0.84%
47,0,7,0.84%
48,0,7,0.84%
49,0,7,0.84%
50,0,7,0.84%
51,0,7,0.84%
52,2,9,1.08%
53,0,9,1.08%
54,0,9,1.08%
55,0,9,1.08%
56,0,9,1.08%
57,0,9,1.08%
58,1,10,1.2%
59,0,10,1.2%
60,0,10,1.2%
61,0,10,1.2%
62,0,10,1.2%
63,1,11,1.32%
64,0,11,1.32%
65,0,11,1.32%
66,0,11,1.32%
67,0,11,1.32%
68,0,11,1.32%
69,0,11,1.32%
70,0,11,1.32%
71,0,11,1.32%
72,0,11,1.32%
73,0,11,1.32%
74,0,11,1.32%
75,0,11,1.32%
76,0,11,1.32%
77,0,11,1.32%
78,0,11,1.32%
79,0,11,1.32%
80,0,11,1.32%
81,0,11,1.32%
82,0,11,1.32%
83,0,11,1.32%
84,0,11,1.32%
85,1,12,1.44%
86,0,12,1.44%
87,1,13,1.56%
88,0,13,1.56%
89,0,13,1.56%
90,0,13,1.56%
91,0,13,1.56%
92,2,15,1.79%
93,2,17,2.03%
94,0,17,2.03%
95,0,17,2.03%
96,1,18,2.15%
97,0,18,2.15%
98,0,18,2.15%
99,0,18,2.15%
100,0,18,2.15%
101,0,18,2.15%
102,0,18,2.15%
103,0,18,2.15%
104,0,18,2.15%
105,0,18,2.15%
106,1,19,2.27%
107,0,19,2.27%
108,1,20,2.39%
109,0,20,2.39%
110,0,20,2.39%
111,2,22,2.63%
112,0,22,2.63%
113,0,22,2.63%
114,0,22,2.63%
115,1,23,2.75%
116,0,23,2.75%
117,0,23,2.75%
118,0,23,2.75%
119,0,23,2.75%
120,0,23,2.75%
121,0,23,2.75%
122,0,23,2.75%
123,0,23,2.75%
124,0,23,2.75%
125,2,25,2.99%
126,0,25,2.99%
127,0,25,2.99%
128,1,26,3.11%
129,1,27,3.23%
130,0,27,3.23%
131,0,27,3.23%
132,0,27,3.23%
133,1,28,3.35%
134,0,28,3.35%
135,0,28,3.35%
136,0,28,3.35%
137,0,28,3.35%
138,0,28,3.35%
139,0,28,3.35%
140,0,28,3.35%
141,0,28,3.35%
142,0,28,3.35%
143,0,28,3.35%
144,0,28,3.35%
145,2,30,3.59%
146,0,30,3.59%
147,8,38,4.55%
148,0,38,4.55%
149,0,38,4.55%
150,1,39,4.67%
151,1,40,4.78%
152,0,40,4.78%
153,0,40,4.78%
154,0,40,4.78%
155,0,40,4.78%
156,0,40,4.78%
157,0,40,4.78%
158,0,40,4.78%
159,0,40,4.78%
160,0,40,4.78%
161,0,40,4.78%
162,0,40,4.78%
163,0,40,4.78%
164,0,40,4.78%
165,0,40,4.78%
166,0,40,4.78%
167,0,40,4.78%
168,0,40,4.78%
169,0,40,4.78%
170,0,40,4.78%
171,0,40,4.78%
172,1,41,4.9%
173,0,41,4.9%
174,0,41,4.9%
175,0,41,4.9%
176,0,41,4.9%
177,0,41,4.9%
178,0,41,4.9%
179,0,41,4.9%
180,1,42,5.02%
181,0,42,5.02%
182,0,42,5.02%
183,0,42,5.02%
184,1,43,5.14%
185,0,43,5.14%
186,0,43,5.14%
187,0,43,5.14%
188,0,43,5.14%
189,1,44,5.26%
190,0,44,5.26%
191,0,44,5.26%
192,0,44,5.26%
193,0,44,5.26%
194,0,44,5.26%
195,0,44,5.26%
196,0,44,5.26%
197,0,44,5.26%
198,1,45,5.38%
199,0,45,5.38%
200,1,46,5.5%
201,0,46,5.5%
202,0,46,5.5%
203,0,46,5.5%
204,0,46,5.5%
205,0,46,5.5%
206,0,46,5.5%
207,0,46,5.5%
208,1,47,5.62%
209,0,47,5.62%
210,0,47,5.62%
211,0,47,5.62%
212,2,49,5.86%
213,1,50,5.98%
214,0,50,5.98%
215,0,50,5.98%
216,0,50,5.98%
217,0,50,5.98%
218,0,50,5.98%
219,0,50,5.98%
220,0,50,5.98%
221,1,51,6.1%
222,0,51,6.1%
223,1,52,6.22%
224,0,52,6.22%
225,0,52,6.22%
226,0,52,6.22%
227,0,52,6.22%
228,0,52,6.22%
229,0,52,6.22%
230,0,52,6.22%
231,1,53,6.34%
232,0,53,6.34%
233,0,53,6.34%
234,0,53,6.34%
235,0,53,6.34%
236,1,54,6.46%
237,0,54,6.46%
238,0,54,6.46%
239,1,55,6.58%
240,0,55,6.58%
241,0,55,6.58%
242,0,55,6.58%
243,1,56,6.7%
244,0,56,6.7%
245,0,56,6.7%
246,0,56,6.7%
247,0,56,6.7%
248,0,56,6.7%
249,0,56,6.7%
250,0,56,6.7%
251,0,56,6.7%
252,2,58,6.94%
253,0,58,6.94%
254,1,59,7.06%
255,1,60,7.18%
256,1,61,7.3%
257,0,61,7.3%
258,1,62,7.42%
259,1,63,7.54%
260,0,63,7.54%
261,0,63,7.54%
262,0,63,7.54%
263,0,63,7.54%
264,0,63,7.54%
265,1,64,7.66%
266,0,64,7.66%
267,1,65,7.78%
268,0,65,7.78%
269,0,65,7.78%
270,1,66,7.89%
271,0,66,7.89%
272,0,66,7.89%
273,15,81,9.69%
274,1,82,9.81%
275,0,82,9.81%
276,1,83,9.93%
277,0,83,9.93%
278,0,83,9.93%
279,1,84,10.05%
280,1,85,10.17%
281,0,85,10.17%
282,0,85,10.17%
283,1,86,10.29%
284,0,86,10.29%
285,1,87,10.41%
286,5,92,11.0%
287,0,92,11.0%
288,0,92,11.0%
289,0,92,11.0%
290,0,92,11.0%
291,0,92,11.0%
292,0,92,11.0%
293,1,93,11.12%
294,0,93,11.12%
295,0,93,11.12%
296,0,93,11.12%
297,0,93,11.12%
298,0,93,11.12%
299,0,93,11.12%
300,0,93,11.12%
301,0,93,11.12%
302,0,93,11.12%
303,0,93,11.12%
304,1,94,11.24%
305,0,94,11.24%
306,0,94,11.24%
307,1,95,11.36%
308,0,95,11.36%
309,0,95,11.36%
310,0,95,11.36%
311,0,95,11.36%
312,1,96,11.48%
313,1,97,11.6%
314,0,97,11.6%
315,15,112,13.4%
316,0,112,13.4%
317,2,114,13.64%
318,0,114,13.64%
319,0,114,13.64%
320,0,114,13.64%
321,0,114,13.64%
322,0,114,13.64%
323,0,114,13.64%
324,1,115,13.76%
325,0,115,13.76%
326,0,115,13.76%
327,0,115,13.76%
328,0,115,13.76%
329,0,115,13.76%
330,0,115,13.76%
331,1,116,13.88%
332,0,116,13.88%
333,0,116,13.88%
334,0,116,13.88%
335,0,116,13.88%
336,0,116,13.88%
337,0,116,13.88%
338,0,116,13.88%
339,0,116,13.88%
340,0,116,13.88%
341,0,116,13.88%
342,0,116,13.88%
343,1,117,14.0%
344,0,117,14.0%
345,1,118,14.11%
346,2,120,14.35%
347,0,120,14.35%
348,0,120,14.35%
349,0,120,14.35%
350,0,120,14.35%
351,0,120,14.35%
352,0,120,14.35%
353,0,120,14.35%
354,0,120,14.35%
355,0,120,14.35%
356,0,120,14.35%
357,1,121,14.47%
358,0,121,14.47%
359,0,121,14.47%
360,1,122,14.59%
361,2,124,14.83%
362,0,124,14.83%
363,0,124,14.83%
364,1,125,14.95%
365,0,125,14.95%
366,1,126,15.07%
367,0,126,15.07%
368,0,126,15.07%
369,0,126,15.07%
370,0,126,15.07%
371,0,126,15.07%
372,1,127,15.19%
373,0,127,15.19%
374,0,127,15.19%
375,0,127,15.19%
376,0,127,15.19%
377,0,127,15.19%
378,0,127,15.19%
379,0,127,15.19%
380,0,127,15.19%
381,0,127,15.19%
382,0,127,15.19%
383,0,127,15.19%
384,1,128,15.31%
385,1,129,15.43%
386,0,129,15.43%
387,1,130,15.55%
388,0,130,15.55%
389,0,130,15.55%
390,0,130,15.55%
391,0,130,15.55%
392,0,130,15.55%
393,1,131,15.67%
394,0,131,15.67%
395,0,131,15.67%
396,0,131,15.67%
397,2,133,15.91%
398,0,133,15.91%
399,0,133,15.91%
400,0,133,15.91%
401,0,133,15.91%
402,0,133,15.91%
403,1,134,16.03%
404,0,134,16.03%
405,0,134,16.03%
406,2,136,16.27%
407,0,136,16.27%
408,1,137,16.39%
409,0,137,16.39%
410,0,137,16.39%
411,0,137,16.39%
412,1,138,16.51%
413,0,138,16.51%
414,0,138,16.51%
415,1,139,16.63%
416,2,141,16.87%
417,1,142,16.99%
418,0,142,16.99%
419,0,142,16.99%
420,2,144,17.22%
421,0,144,17.22%
422,0,144,17.22%
423,0,144,17.22%
424,1,145,17.34%
425,0,145,17.34%
426,0,145,17.34%
427,0,145,17.34%
428,0,145,17.34%
429,0,145,17.34%
430,0,145,17.34%
431,0,145,17.34%
432,1,146,17.46%
433,0,146,17.46%
434,0,146,17.46%
435,1,147,17.58%
436,1,148,17.7%
437,0,148,17.7%
438,0,148,17.7%
439,0,148,17.7%
440,0,148,17.7%
441,0,148,17.7%
442,0,148,17.7%
443,1,149,17.82%
444,0,149,17.82%
445,0,149,17.82%
446,0,149,17.82%
447,0,149,17.82%
448,0,149,17.82%
449,0,149,17.82%
450,0,149,17.82%
451,0,149,17.82%
452,0,149,17.82%
453,0,149,17.82%
454,0,149,17.82%
455,1,150,17.94%
456,0,150,17.94%
457,0,150,17.94%
458,0,150,17.94%
459,0,150,17.94%
460,0,150,17.94%
461,0,150,17.94%
462,0,150,17.94%
463,0,150,17.94%
464,0,150,17.94%
465,0,150,17.94%
466,0,150,17.94%
467,1,151,18.06%
468,0,151,18.06%
469,0,151,18.06%
470,0,151,18.06%
471,0,151,18.06%
472,0,151,18.06%
473,0,151,18.06%
474,0,151,18.06%
475,1,152,18.18%
476,0,152,18.18%
477,0,152,18.18%
478,0,152,18.18%
479,0,152,18.18%
480,0,152,18.18%
481,0,152,18.18%
482,0,152,18.18%
483,0,152,18.18%
484,0,152,18.18%
485,0,152,18.18%
486,0,152,18.18%
487,0,152,18.18%
488,0,152,18.18%
489,1,153,18.3%
490,1,154,18.42%
491,0,154,18.42%
492,0,154,18.42%
493,0,154,18.42%
494,0,154,18.42%
495,1,155,18.54%
496,0,155,18.54%
497,0,155,18.54%
498,1,156,18.66%
499,0,156,18.66%
500,1,157,18.78%
501,0,157,18.78%
502,0,157,18.78%
503,1,158,18.9%
504,0,158,18.9%
505,0,158,18.9%
506,0,158,18.9%
507,0,158,18.9%
508,0,158,18.9%
509,0,158,18.9%
510,0,158,18.9%
511,0,158,18.9%
512,0,158,18.9%
513,0,158,18.9%
514,0,158,18.9%
515,1,159,19.02%
516,0,159,19.02%
517,0,159,19.02%
518,0,159,19.02%
519,1,160,19.14%
520,0,160,19.14%
521,0,160,19.14%
522,0,160,19.14%
523,0,160,19.14%
524,0,160,19.14%
525,0,160,19.14%
526,0,160,19.14%
527,0,160,19.14%
528,0,160,19.14%
529,0,160,19.14%
530,0,160,19.14%
531,0,160,19.14%
532,0,160,19.14%
533,0,160,19.14%
534,0,160,19.14%
535,0,160,19.14%
536,0,160,19.14%
537,0,160,19.14%
538,0,160,19.14%
539,1,161,19.26%
540,1,162,19.38%
541,1,163,19.5%
542,0,163,19.5%
543,0,163,19.5%
544,0,163,19.5%
545,0,163,19.5%
546,0,163,19.5%
547,0,163,19.5%
548,0,163,19.5%
549,1,164,19.62%
550,0,164,19.62%
551,0,164,19.62%
552,0,164,19.62%
553,2,166,19.86%
554,0,166,19.86%
555,0,166,19.86%
556,0,166,19.86%
557,8,174,20.81%
558,0,174,20.81%
559,0,174,20.81%
560,1,175,20.93%
561,0,175,20.93%
562,0,175,20.93%
563,0,175,20.93%
564,0,175,20.93%
565,1,176,21.05%
566,0,176,21.05%
567,1,177,21.17%
568,0,177,21.17%
569,0,177,21.17%
570,0,177,21.17%
571,0,177,21.17%
572,0,177,21.17%
573,0,177,21.17%
574,2,179,21.41%
575,0,179,21.41%
576,0,179,21.41%
577,0,179,21.41%
578,1,180,21.53%
579,0,180,21.53%
580,0,180,21.53%
581,0,180,21.53%
582,0,180,21.53%
583,0,180,21.53%
584,1,181,21.65%
585,0,181,21.65%
586,0,181,21.65%
587,2,183,21.89%
588,0,183,21.89%
589,0,183,21.89%
590,0,183,21.89%
591,5,188,22.49%
592,0,188,22.49%
593,0,188,22.49%
594,0,188,22.49%
595,0,188,22.49%
596,0,188,22.49%
597,0,188,22.49%
598,0,188,22.49%
599,0,188,22.49%
600,0,188,22.49%
601,1,189,22.61%
602,0,189,22.61%
603,1,190,22.73%
604,1,191,22.85%
605,1,192,22.97%
606,0,192,22.97%
607,1,193,23.09%
608,0,193,23.09%
609,0,193,23.09%
610,0,193,23.09%
611,0,193,23.09%
612,0,193,23.09%
613,0,193,23.09%
614,0,193,23.09%
615,0,193,23.09%
616,1,194,23.21%
617,0,194,23.21%
618,0,194,23.21%
619,0,194,23.21%
620,0,194,23.21%
621,0,194,23.21%
622,1,195,23.33%
623,0,195,23.33%
624,0,195,23.33%
625,0,195,23.33%
626,0,195,23.33%
627,0,195,23.33%
628,0,195,23.33%
629,0,195,23.33%
630,0,195,23.33%
631,0,195,23.33%
632,0,195,23.33%
633,0,195,23.33%
634,0,195,23.33%
635,1,196,23.44%
636,0,196,23.44%
637,0,196,23.44%
638,0,196,23.44%
639,0,196,23.44%
640,0,196,23.44%
641,0,196,23.44%
642,1,197,23.56%
643,0,197,23.56%
644,0,197,23.56%
645,0,197,23.56%
646,0,197,23.56%
647,1,198,23.68%
648,0,198,23.68%
649,1,199,23.8%
650,0,199,23.8%
651,0,199,23.8%
652,1,200,23.92%
653,1,201,24.04%
654,0,201,24.04%
655,0,201,24.04%
656,0,201,24.04%
657,0,201,24.04%
658,0,201,24.04%
659,0,201,24.04%
660,0,201,24.04%
661,0,201,24.04%
662,0,201,24.04%
663,1,202,24.16%
664,0,202,24.16%
665,0,202,24.16%
666,0,202,24.16%
667,0,202,24.16%
668,0,202,24.16%
669,0,202,24.16%
670,0,202,24.16%
671,0,202,24.16%
672,1,203,24.28%
673,0,203,24.28%
674,9,212,25.36%
675,0,212,25.36%
676,1,213,25.48%
677,0,213,25.48%
678,0,213,25.48%
679,0,213,25.48%
680,0,213,25.48%
681,0,213,25.48%
682,0,213,25.48%
683,0,213,25.48%
684,0,213,25.48%
685,0,213,25.48%
686,1,214,25.6%
687,0,214,25.6%
688,1,215,25.72%
689,0,215,25.72%
690,0,215,25.72%
691,1,216,25.84%
692,0,216,25.84%
693,0,216,25.84%
694,1,217,25.96%
695,0,217,25.96%
696,0,217,25.96%
697,0,217,25.96%
698,0,217,25.96%
699,0,217,25.96%
700,0,217,25.96%
701,0,217,25.96%
702,0,217,25.96%
703,0,217,25.96%
704,0,217,25.96%
705,0,217,25.96%
706,1,218,26.08%
707,0,218,26.08%
708,0,218,26.08%
709,0,218,26.08%
710,0,218,26.08%
711,0,218,26.08%
712,0,218,26.08%
713,0,218,26.08%
714,0,218,26.08%
715,0,218,26.08%
716,0,218,26.08%
717,0,218,26.08%
718,0,218,26.08%
719,1,219,26.2%
720,0,219,26.2%
721,0,219,26.2%
722,0,219,26.2%
723,0,219,26.2%
724,0,219,26.2%
725,0,219,26.2%
726,0,219,26.2%
727,0,219,26.2%
728,0,219,26.2%
729,0,219,26.2%
730,0,219,26.2%
731,0,219,26.2%
732,0,219,26.2%
733,0,219,26.2%
734,0,219,26.2%
735,1,220,26.32%
736,0,220,26.32%
737,0,220,26.32%
738,0,220,26.32%
739,0,220,26.32%
740,1,221,26.44%
741,0,221,26.44%
742,0,221,26.44%
743,0,221,26.44%
744,1,222,26.56%
745,1,223,26.67%
746,0,223,26.67%
747,0,223,26.67%
748,1,224,26.79%
749,0,224,26.79%
750,0,224,26.79%
751,0,224,26.79%
752,0,224,26.79%
753,1,225,26.91%
754,1,226,27.03%
755,0,226,27.03%
756,1,227,27.15%
757,0,227,27.15%
758,0,227,27.15%
759,1,228,27.27%
760,0,228,27.27%
761,0,228,27.27%
762,0,228,27.27%
763,0,228,27.27%
764,0,228,27.27%
765,0,228,27.27%
766,0,228,27.27%
767,0,228,27.27%
768,0,228,27.27%
769,1,229,27.39%
770,0,229,27.39%
771,0,229,27.39%
772,0,229,27.39%
773,0,229,27.39%
774,1,230,27.51%
775,0,230,27.51%
776,0,230,27.51%
777,0,230,27.51%
778,1,231,27.63%
779,0,231,27.63%
780,0,231,27.63%
781,0,231,27.63%
782,0,231,27.63%
783,0,231,27.63%
784,1,232,27.75%
785,0,232,27.75%
786,0,232,27.75%
787,0,232,27.75%
788,0,232,27.75%
789,0,232,27.75%
790,0,232,27.75%
791,1,233,27.87%
792,0,233,27.87%
793,1,234,27.99%
794,0,234,27.99%
795,2,236,28.23%
796,0,236,28.23%
797,0,236,28.23%
798,2,238,28.47%
799,0,238,28.47%
800,1,239,28.59%
801,0,239,28.59%
802,0,239,28.59%
803,1,240,28.71%
804,0,240,28.71%
805,1,241,28.83%
806,0,241,28.83%
807,0,241,28.83%
808,0,241,28.83%
809,0,241,28.83%
810,0,241,28.83%
811,0,241,28.83%
812,1,242,28.95%
813,0,242,28.95%
814,0,242,28.95%
815,0,242,28.95%
816,1,243,29.07%
817,2,245,29.31%
818,1,246,29.43%
819,0,246,29.43%
820,0,246,29.43%
821,0,246,29.43%
822,0,246,29.43%
823,0,246,29.43%
824,0,246,29.43%
825,0,246,29.43%
826,0,246,29.43%
827,0,246,29.43%
828,0,246,29.43%
829,0,246,29.43%
830,0,246,29.43%
831,0,246,29.43%
832,0,246,29.43%
833,0,246,29.43%
834,0,246,29.43%
835,0,246,29.43%
836,0,246,29.43%
837,1,247,29.55%
838,1,248,29.67%
839,0,248,29.67%
840,0,248,29.67%
841,1,249,29.78%
842,0,249,29.78%
843,0,249,29.78%
844,0,249,29.78%
845,0,249,29.78%
846,1,250,29.9%
847,0,250,29.9%
848,0,250,29.9%
849,1,251,30.02%
850,2,253,30.26%
851,0,253,30.26%
852,0,253,30.26%
853,0,253,30.26%
854,0,253,30.26%
855,0,253,30.26%
856,0,253,30.26%
857,2,255,30.5%
858,0,255,30.5%
859,0,255,30.5%
860,0,255,30.5%
861,2,257,30.74%
862,0,257,30.74%
863,0,257,30.74%
864,0,257,30.74%
865,0,257,30.74%
866,0,257,30.74%
867,0,257,30.74%
868,2,259,30.98%
869,1,260,31.1%
870,1,261,31.22%
871,0,261,31.22%
872,0,261,31.22%
873,0,261,31.22%
874,0,261,31.22%
875,0,261,31.22%
876,0,261,31.22%
877,0,261,31.22%
878,0,261,31.22%
879,0,261,31.22%
880,0,261,31.22%
881,1,262,31.34%
882,0,262,31.34%
883,0,262,31.34%
884,2,264,31.58%
885,0,264,31.58%
886,0,264,31.58%
887,0,264,31.58%
888,0,264,31.58%
889,0,264,31.58%
890,0,264,31.58%
891,0,264,31.58%
892,0,264,31.58%
893,0,264,31.58%
894,0,264,31.58%
895,0,264,31.58%
896,0,264,31.58%
897,0,264,31.58%
898,0,264,31.58%
899,1,265,31.7%
900,0,265,31.7%
901,1,266,31.82%
902,0,266,31.82%
903,1,267,31.94%
904,0,267,31.94%
905,0,267,31.94%
906,0,267,31.94%
907,2,269,32.18%
908,0,269,32.18%
909,0,269,32.18%
910,0,269,32.18%
911,0,269,32.18%
912,0,269,32.18%
913,0,269,32.18%
914,0,269,32.18%
915,0,269,32.18%
916,0,269,32.18%
917,0,269,32.18%
918,1,270,32.3%
919,0,270,32.3%
920,0,270,32.3%
921,0,270,32.3%
922,0,270,32.3%
923,0,270,32.3%
924,0,270,32.3%
925,0,270,32.3%
926,0,270,32.3%
927,1,271,32.42%
928,0,271,32.42%
929,0,271,32.42%
930,1,272,32.54%
931,0,272,32.54%
932,1,273,32.66%
933,0,273,32.66%
934,1,274,32.78%
935,0,274,32.78%
936,1,275,32.89%
937,0,275,32.89%
938,0,275,32.89%
939,0,275,32.89%
940,0,275,32.89%
941,0,275,32.89%
942,0,275,32.89%
943,0,275,32.89%
944,0,275,32.89%
945,0,275,32.89%
946,0,275,32.89%
947,0,275,32.89%
948,0,275,32.89%
949,0,275,32.89%
950,0,275,32.89%
951,0,275,32.89%
952,0,275,32.89%
953,0,275,32.89%
954,0,275,32.89%
955,0,275,32.89%
956,0,275,32.89%
957,0,275,32.89%
958,0,275,32.89%
959,0,275,32.89%
960,0,275,32.89%
961,0,275,32.89%
962,0,275,32.89%
963,0,275,32.89%
964,0,275,32.89%
965,0,275,32.89%
966,0,275,32.89%
967,0,275,32.89%
968,0,275,32.89%
969,1,276,33.01%
970,1,277,33.13%
971,0,277,33.13%
972,0,277,33.13%
973,1,278,33.25%
974,0,278,33.25%
975,0,278,33.25%
976,0,278,33.25%
977,0,278,33.25%
978,0,278,33.25%
979,0,278,33.25%
980,0,278,33.25%
981,0,278,33.25%
982,1,279,33.37%
983,0,279,33.37%
984,1,280,33.49%
985,0,280,33.49%
986,1,281,33.61%
987,1,282,33.73%
988,1,283,33.85%
989,0,283,33.85%
990,0,283,33.85%
991,0,283,33.85%
992,1,284,33.97%
993,0,284,33.97%
994,0,284,33.97%
995,0,284,33.97%
996,0,284,33.97%
997,0,284,33.97%
998,0,284,33.97%
999,0,284,33.97%
1000,0,284,33.97%
1001,0,284,33.97%
1002,0,284,33.97%
1003,0,284,33.97%
1004,0,284,33.97%
1005,0,284,33.97%
1006,0,284,33.97%
1007,0,284,33.97%
1008,0,284,33.97%
1009,0,284,33.97%
1010,0,284,33.97%
1011,0,284,33.97%
1012,0,284,33.97%
1013,0,284,33.97%
1014,1,285,34.09%
1015,0,285,34.09%
1016,1,286,34.21%
1017,0,286,34.21%
1018,0,286,34.21%
1019,0,286,34.21%
1020,0,286,34.21%
1021,0,286,34.21%
1022,1,287,34.33%
1023,0,287,34.33%
1024,1,288,34.45%
1025,0,288,34.45%
1026,0,288,34.45%
1027,0,288,34.45%
1028,2,290,34.69%
1029,0,290,34.69%
1030,0,290,34.69%
1031,0,290,34.69%
1032,0,290,34.69%
1033,0,290,34.69%
1034,0,290,34.69%
1035,2,292,34.93%
1036,0,292,34.93%
1037,0,292,34.93%
1038,0,292,34.93%
1039,0,292,34.93%
1040,0,292,34.93%
1041,0,292,34.93%
1042,0,292,34.93%
1043,0,292,34.93%
1044,0,292,34.93%
1045,1,293,35.05%
1046,1,294,35.17%
1047,0,294,35.17%
1048,0,294,35.17%
1049,0,294,35.17%
1050,0,294,35.17%
1051,0,294,35.17%
1052,0,294,35.17%
1053,0,294,35.17%
1054,0,294,35.17%
1055,0,294,35.17%
1056,0,294,35.17%
1057,1,295,35.29%
1058,0,295,35.29%
1059,0,295,35.29%
1060,0,295,35.29%
1061,0,295,35.29%
1062,0,295,35.29%
1063,2,297,35.53%
1064,0,297,35.53%
1065,0,297,35.53%
1066,0,297,35.53%
1067,0,297,35.53%
1068,1,298,35.65%
1069,0,298,35.65%
1070,0,298,35.65%
1071,1,299,35.77%
1072,1,300,35.89%
1073,0,300,35.89%
1074,0,300,35.89%
1075,0,300,35.89%
1076,4,304,36.36%
1077,0,304,36.36%
1078,0,304,36.36%
1079,0,304,36.36%
1080,0,304,36.36%
1081,0,304,36.36%
1082,0,304,36.36%
1083,0,304,36.36%
1084,0,304,36.36%
1085,0,304,36.36%
1086,0,304,36.36%
1087,0,304,36.36%
1088,0,304,36.36%
1089,0,304,36.36%
1090,1,305,36.48%
1091,0,305,36.48%
1092,0,305,36.48%
1093,0,305,36.48%
1094,1,306,36.6%
1095,0,306,36.6%
1096,0,306,36.6%
1097,0,306,36.6%
1098,0,306,36.6%
1099,1,307,36.72%
1100,1,308,36.84%
1101,1,309,36.96%
1102,1,310,37.08%
1103,1,311,37.2%
1104,1,312,37.32%
1105,2,314,37.56%
1106,1,315,37.68%
1107,0,315,37.68%
1108,1,316,37.8%
1109,1,317,37.92%
1110,2,319,38.16%
1111,2,321,38.4%
1112,0,321,38.4%
1113,1,322,38.52%
1114,1,323,38.64%
1115,3,326,39.0%
1116,5,331,39.59%
1117,0,331,39.59%
1118,1,332,39.71%
1119,3,335,40.07%
1120,501,836,100.0%
