Length, Count, Sum (Counts <= Length), Percent of Nonzero Data, Nonzero Data Count = 802, Zero Data Count = 1042
1,0,0,0.0%
2,1,1,0.12%
3,0,1,0.12%
4,0,1,0.12%
5,0,1,0.12%
6,0,1,0.12%
7,0,1,0.12%
8,0,1,0.12%
9,0,1,0.12%
10,0,1,0.12%
11,0,1,0.12%
12,0,1,0.12%
13,0,1,0.12%
14,0,1,0.12%
15,0,1,0.12%
16,1,2,0.25%
17,0,2,0.25%
18,0,2,0.25%
19,1,3,0.37%
20,0,3,0.37%
21,0,3,0.37%
22,0,3,0.37%
23,0,3,0.37%
24,1,4,0.5%
25,0,4,0.5%
26,0,4,0.5%
27,0,4,0.5%
28,0,4,0.5%
29,0,4,0.5%
30,0,4,0.5%
31,0,4,0.5%
32,0,4,0.5%
33,0,4,0.5%
34,0,4,0.5%
35,0,4,0.5%
36,0,4,0.5%
37,0,4,0.5%
38,0,4,0.5%
39,0,4,0.5%
40,0,4,0.5%
41,0,4,0.5%
42,0,4,0.5%
43,0,4,0.5%
44,0,4,0.5%
45,0,4,0.5%
46,0,4,0.5%
47,1,5,0.62%
48,0,5,0.62%
49,0,5,0.62%
50,0,5,0.62%
51,0,5,0.62%
52,0,5,0.62%
53,1,6,0.75%
54,0,6,0.75%
55,0,6,0.75%
56,0,6,0.75%
57,0,6,0.75%
58,0,6,0.75%
59,0,6,0.75%
60,0,6,0.75%
61,1,7,0.87%
62,0,7,0.87%
63,0,7,0.87%
64,0,7,0.87%
65,0,7,0.87%
66,0,7,0.87%
67,0,7,0.87%
68,0,7,0.87%
69,0,7,0.87%
70,0,7,0.87%
71,0,7,0.87%
72,0,7,0.87%
73,0,7,0.87%
74,0,7,0.87%
75,0,7,0.87%
76,0,7,0.87%
77,0,7,0.87%
78,0,7,0.87%
79,0,7,0.87%
80,1,8,1.0%
81,0,8,1.0%
82,2,10,1.25%
83,0,10,1.25%
84,0,10,1.25%
85,0,10,1.25%
86,0,10,1.25%
87,1,11,1.37%
88,2,13,1.62%
89,0,13,1.62%
90,0,13,1.62%
91,0,13,1.62%
92,0,13,1.62%
93,0,13,1.62%
94,0,13,1.62%
95,0,13,1.62%
96,0,13,1.62%
97,0,13,1.62%
98,0,13,1.62%
99,0,13,1.62%
100,0,13,1.62%
101,0,13,1.62%
102,0,13,1.62%
103,1,14,1.75%
104,0,14,1.75%
105,0,14,1.75%
106,2,16,2.0%
107,0,16,2.0%
108,0,16,2.0%
109,0,16,2.0%
110,1,17,2.12%
111,1,18,2.24%
112,0,18,2.24%
113,0,18,2.24%
114,0,18,2.24%
115,0,18,2.24%
116,0,18,2.24%
117,0,18,2.24%
118,0,18,2.24%
119,0,18,2.24%
120,1,19,2.37%
121,0,19,2.37%
122,0,19,2.37%
123,0,19,2.37%
124,1,20,2.49%
125,0,20,2.49%
126,1,21,2.62%
127,0,21,2.62%
128,1,22,2.74%
129,1,23,2.87%
130,0,23,2.87%
131,0,23,2.87%
132,0,23,2.87%
133,0,23,2.87%
134,0,23,2.87%
135,0,23,2.87%
136,0,23,2.87%
137,0,23,2.87%
138,0,23,2.87%
139,0,23,2.87%
140,1,24,2.99%
141,0,24,2.99%
142,8,32,3.99%
143,0,32,3.99%
144,0,32,3.99%
145,1,33,4.11%
146,0,33,4.11%
147,0,33,4.11%
148,0,33,4.11%
149,0,33,4.11%
150,0,33,4.11%
151,0,33,4.11%
152,1,34,4.24%
153,0,34,4.24%
154,0,34,4.24%
155,0,34,4.24%
156,0,34,4.24%
157,0,34,4.24%
158,0,34,4.24%
159,0,34,4.24%
160,0,34,4.24%
161,0,34,4.24%
162,0,34,4.24%
163,0,34,4.24%
164,0,34,4.24%
165,0,34,4.24%
166,0,34,4.24%
167,1,35,4.36%
168,0,35,4.36%
169,0,35,4.36%
170,0,35,4.36%
171,0,35,4.36%
172,0,35,4.36%
173,0,35,4.36%
174,0,35,4.36%
175,1,36,4.49%
176,0,36,4.49%
177,0,36,4.49%
178,0,36,4.49%
179,0,36,4.49%
180,0,36,4.49%
181,0,36,4.49%
182,0,36,4.49%
183,0,36,4.49%
184,1,37,4.61%
185,0,37,4.61%
186,0,37,4.61%
187,0,37,4.61%
188,0,37,4.61%
189,0,37,4.61%
190,0,37,4.61%
191,0,37,4.61%
192,0,37,4.61%
193,1,38,4.74%
194,0,38,4.74%
195,1,39,4.86%
196,0,39,4.86%
197,0,39,4.86%
198,0,39,4.86%
199,0,39,4.86%
200,0,39,4.86%
201,0,39,4.86%
202,0,39,4.86%
203,1,40,4.99%
204,0,40,4.99%
205,0,40,4.99%
206,0,40,4.99%
207,1,41,5.11%
208,1,42,5.24%
209,0,42,5.24%
210,0,42,5.24%
211,0,42,5.24%
212,0,42,5.24%
213,0,42,5.24%
214,0,42,5.24%
215,0,42,5.24%
216,1,43,5.36%
217,0,43,5.36%
218,1,44,5.49%
219,0,44,5.49%
220,0,44,5.49%
221,0,44,5.49%
222,0,44,5.49%
223,0,44,5.49%
224,0,44,5.49%
225,0,44,5.49%
226,0,44,5.49%
227,0,44,5.49%
228,0,44,5.49%
229,0,44,5.49%
230,0,44,5.49%
231,1,45,5.61%
232,0,45,5.61%
233,0,45,5.61%
234,1,46,5.74%
235,0,46,5.74%
236,0,46,5.74%
237,0,46,5.74%
238,0,46,5.74%
239,0,46,5.74%
240,0,46,5.74%
241,0,46,5.74%
242,0,46,5.74%
243,0,46,5.74%
244,0,46,5.74%
245,0,46,5.74%
246,0,46,5.74%
247,1,47,5.86%
248,0,47,5.86%
249,1,48,5.99%
250,0,48,5.99%
251,1,49,6.11%
252,0,49,6.11%
253,1,50,6.23%
254,0,50,6.23%
255,0,50,6.23%
256,0,50,6.23%
257,0,50,6.23%
258,0,50,6.23%
259,1,51,6.36%
260,0,51,6.36%
261,0,51,6.36%
262,1,52,6.48%
263,0,52,6.48%
264,0,52,6.48%
265,0,52,6.48%
266,0,52,6.48%
267,0,52,6.48%
268,15,67,8.35%
269,0,67,8.35%
270,0,67,8.35%
271,1,68,8.48%
272,1,69,8.6%
273,0,69,8.6%
274,1,70,8.73%
275,1,71,8.85%
276,0,71,8.85%
277,0,71,8.85%
278,1,72,8.98%
279,0,72,8.98%
280,1,73,9.1%
281,5,78,9.73%
282,0,78,9.73%
283,0,78,9.73%
284,0,78,9.73%
285,0,78,9.73%
286,0,78,9.73%
287,0,78,9.73%
288,1,79,9.85%
289,0,79,9.85%
290,0,79,9.85%
291,0,79,9.85%
292,0,79,9.85%
293,0,79,9.85%
294,0,79,9.85%
295,0,79,9.85%
296,0,79,9.85%
297,0,79,9.85%
298,0,79,9.85%
299,1,80,9.98%
300,0,80,9.98%
301,0,80,9.98%
302,1,81,10.1%
303,0,81,10.1%
304,0,81,10.1%
305,0,81,10.1%
306,0,81,10.1%
307,1,82,10.22%
308,1,83,10.35%
309,0,83,10.35%
310,15,98,12.22%
311,0,98,12.22%
312,2,100,12.47%
313,2,102,12.72%
314,0,102,12.72%
315,0,102,12.72%
316,0,102,12.72%
317,1,103,12.84%
318,0,103,12.84%
319,1,104,12.97%
320,1,105,13.09%
321,5,110,13.72%
322,0,110,13.72%
323,1,111,13.84%
324,0,111,13.84%
325,0,111,13.84%
326,1,112,13.97%
327,0,112,13.97%
328,0,112,13.97%
329,1,113,14.09%
330,0,113,14.09%
331,0,113,14.09%
332,0,113,14.09%
333,0,113,14.09%
334,0,113,14.09%
335,0,113,14.09%
336,0,113,14.09%
337,0,113,14.09%
338,1,114,14.21%
339,1,115,14.34%
340,1,116,14.46%
341,2,118,14.71%
342,0,118,14.71%
343,0,118,14.71%
344,0,118,14.71%
345,4,122,15.21%
346,1,123,15.34%
347,1,124,15.46%
348,1,125,15.59%
349,0,125,15.59%
350,2,127,15.84%
351,2,129,16.08%
352,1,130,16.21%
353,1,131,16.33%
354,0,131,16.33%
355,4,135,16.83%
356,3,138,17.21%
357,1,139,17.33%
358,1,140,17.46%
359,2,142,17.71%
360,660,802,100.0%
