Length, Count, Sum (Counts <= Length), Percent of Nonzero Data, Nonzero Data Count = 844, Zero Data Count = 1000
1,1,1,0.12%
2,1,2,0.24%
3,1,3,0.36%
4,0,3,0.36%
5,0,3,0.36%
6,0,3,0.36%
7,0,3,0.36%
8,0,3,0.36%
9,0,3,0.36%
10,0,3,0.36%
11,0,3,0.36%
12,0,3,0.36%
13,0,3,0.36%
14,0,3,0.36%
15,0,3,0.36%
16,0,3,0.36%
17,0,3,0.36%
18,0,3,0.36%
19,0,3,0.36%
20,0,3,0.36%
21,0,3,0.36%
22,1,4,0.47%
23,0,4,0.47%
24,0,4,0.47%
25,0,4,0.47%
26,0,4,0.47%
27,2,6,0.71%
28,0,6,0.71%
29,0,6,0.71%
30,0,6,0.71%
31,0,6,0.71%
32,0,6,0.71%
33,2,8,0.95%
34,0,8,0.95%
35,0,8,0.95%
36,0,8,0.95%
37,0,8,0.95%
38,0,8,0.95%
39,1,9,1.07%
40,0,9,1.07%
41,1,10,1.18%
42,0,10,1.18%
43,0,10,1.18%
44,0,10,1.18%
45,0,10,1.18%
46,0,10,1.18%
47,0,10,1.18%
48,0,10,1.18%
49,0,10,1.18%
50,0,10,1.18%
51,0,10,1.18%
52,1,11,1.3%
53,0,11,1.3%
54,0,11,1.3%
55,0,11,1.3%
56,0,11,1.3%
57,0,11,1.3%
58,0,11,1.3%
59,1,12,1.42%
60,0,12,1.42%
61,0,12,1.42%
62,0,12,1.42%
63,1,13,1.54%
64,0,13,1.54%
65,0,13,1.54%
66,0,13,1.54%
67,0,13,1.54%
68,0,13,1.54%
69,0,13,1.54%
70,0,13,1.54%
71,1,14,1.66%
72,1,15,1.78%
73,0,15,1.78%
74,0,15,1.78%
75,0,15,1.78%
76,0,15,1.78%
77,0,15,1.78%
78,0,15,1.78%
79,0,15,1.78%
80,0,15,1.78%
81,0,15,1.78%
82,0,15,1.78%
83,0,15,1.78%
84,0,15,1.78%
85,1,16,1.9%
86,0,16,1.9%
87,0,16,1.9%
88,1,17,2.01%
89,0,17,2.01%
90,0,17,2.01%
91,0,17,2.01%
92,1,18,2.13%
93,0,18,2.13%
94,0,18,2.13%
95,0,18,2.13%
96,2,20,2.37%
97,0,20,2.37%
98,0,20,2.37%
99,0,20,2.37%
100,0,20,2.37%
101,0,20,2.37%
102,0,20,2.37%
103,0,20,2.37%
104,0,20,2.37%
105,0,20,2.37%
106,1,21,2.49%
107,0,21,2.49%
108,0,21,2.49%
109,0,21,2.49%
110,0,21,2.49%
111,0,21,2.49%
112,0,21,2.49%
113,0,21,2.49%
114,0,21,2.49%
115,0,21,2.49%
116,0,21,2.49%
117,0,21,2.49%
118,0,21,2.49%
119,1,22,2.61%
120,0,22,2.61%
121,0,22,2.61%
122,0,22,2.61%
123,0,22,2.61%
124,0,22,2.61%
125,2,24,2.84%
126,0,24,2.84%
127,0,24,2.84%
128,1,25,2.96%
129,0,25,2.96%
130,0,25,2.96%
131,0,25,2.96%
132,0,25,2.96%
133,0,25,2.96%
134,0,25,2.96%
135,0,25,2.96%
136,0,25,2.96%
137,0,25,2.96%
138,0,25,2.96%
139,0,25,2.96%
140,0,25,2.96%
141,0,25,2.96%
142,0,25,2.96%
143,0,25,2.96%
144,0,25,2.96%
145,2,27,3.2%
146,0,27,3.2%
147,0,27,3.2%
148,0,27,3.2%
149,0,27,3.2%
150,1,28,3.32%
151,1,29,3.44%
152,0,29,3.44%
153,0,29,3.44%
154,1,30,3.55%
155,1,31,3.67%
156,0,31,3.67%
157,0,31,3.67%
158,0,31,3.67%
159,1,32,3.79%
160,2,34,4.03%
161,0,34,4.03%
162,0,34,4.03%
163,0,34,4.03%
164,0,34,4.03%
165,0,34,4.03%
166,0,34,4.03%
167,0,34,4.03%
168,0,34,4.03%
169,0,34,4.03%
170,0,34,4.03%
171,0,34,4.03%
172,0,34,4.03%
173,0,34,4.03%
174,0,34,4.03%
175,1,35,4.15%
176,0,35,4.15%
177,0,35,4.15%
178,0,35,4.15%
179,0,35,4.15%
180,0,35,4.15%
181,1,36,4.27%
182,1,37,4.38%
183,0,37,4.38%
184,1,38,4.5%
185,0,38,4.5%
186,0,38,4.5%
187,0,38,4.5%
188,0,38,4.5%
189,0,38,4.5%
190,0,38,4.5%
191,0,38,4.5%
192,1,39,4.62%
193,0,39,4.62%
194,0,39,4.62%
195,0,39,4.62%
196,1,40,4.74%
197,0,40,4.74%
198,0,40,4.74%
199,0,40,4.74%
200,2,42,4.98%
201,1,43,5.09%
202,1,44,5.21%
203,0,44,5.21%
204,0,44,5.21%
205,0,44,5.21%
206,0,44,5.21%
207,0,44,5.21%
208,0,44,5.21%
209,0,44,5.21%
210,0,44,5.21%
211,0,44,5.21%
212,2,46,5.45%
213,0,46,5.45%
214,4,50,5.92%
215,0,50,5.92%
216,0,50,5.92%
217,0,50,5.92%
218,0,50,5.92%
219,0,50,5.92%
220,0,50,5.92%
221,0,50,5.92%
222,0,50,5.92%
223,0,50,5.92%
224,0,50,5.92%
225,0,50,5.92%
226,0,50,5.92%
227,0,50,5.92%
228,0,50,5.92%
229,0,50,5.92%
230,0,50,5.92%
231,1,51,6.04%
232,0,51,6.04%
233,0,51,6.04%
234,0,51,6.04%
235,0,51,6.04%
236,0,51,6.04%
237,0,51,6.04%
238,0,51,6.04%
239,1,52,6.16%
240,0,52,6.16%
241,0,52,6.16%
242,0,52,6.16%
243,1,53,6.28%
244,0,53,6.28%
245,0,53,6.28%
246,0,53,6.28%
247,1,54,6.4%
248,0,54,6.4%
249,0,54,6.4%
250,0,54,6.4%
251,0,54,6.4%
252,1,55,6.52%
253,0,55,6.52%
254,0,55,6.52%
255,1,56,6.64%
256,1,57,6.75%
257,0,57,6.75%
258,0,57,6.75%
259,1,58,6.87%
260,0,58,6.87%
261,0,58,6.87%
262,0,58,6.87%
263,1,59,6.99%
264,0,59,6.99%
265,2,61,7.23%
266,0,61,7.23%
267,0,61,7.23%
268,0,61,7.23%
269,0,61,7.23%
270,1,62,7.35%
271,0,62,7.35%
272,0,62,7.35%
273,0,62,7.35%
274,1,63,7.46%
275,1,64,7.58%
276,0,64,7.58%
277,0,64,7.58%
278,0,64,7.58%
279,1,65,7.7%
280,1,66,7.82%
281,0,66,7.82%
282,0,66,7.82%
283,0,66,7.82%
284,0,66,7.82%
285,0,66,7.82%
286,0,66,7.82%
287,0,66,7.82%
288,1,67,7.94%
289,0,67,7.94%
290,1,68,8.06%
291,0,68,8.06%
292,0,68,8.06%
293,0,68,8.06%
294,0,68,8.06%
295,0,68,8.06%
296,0,68,8.06%
297,0,68,8.06%
298,0,68,8.06%
299,0,68,8.06%
300,0,68,8.06%
301,0,68,8.06%
302,0,68,8.06%
303,1,69,8.18%
304,0,69,8.18%
305,0,69,8.18%
306,1,70,8.29%
307,0,70,8.29%
308,0,70,8.29%
309,0,70,8.29%
310,0,70,8.29%
311,2,72,8.53%
312,0,72,8.53%
313,0,72,8.53%
314,0,72,8.53%
315,0,72,8.53%
316,0,72,8.53%
317,0,72,8.53%
318,0,72,8.53%
319,1,73,8.65%
320,0,73,8.65%
321,1,74,8.77%
322,0,74,8.77%
323,1,75,8.89%
324,0,75,8.89%
325,3,78,9.24%
326,0,78,9.24%
327,0,78,9.24%
328,0,78,9.24%
329,0,78,9.24%
330,0,78,9.24%
331,0,78,9.24%
332,0,78,9.24%
333,0,78,9.24%
334,1,79,9.36%
335,0,79,9.36%
336,0,79,9.36%
337,0,79,9.36%
338,0,79,9.36%
339,0,79,9.36%
340,15,94,11.14%
341,0,94,11.14%
342,0,94,11.14%
343,2,96,11.37%
344,0,96,11.37%
345,0,96,11.37%
346,1,97,11.49%
347,1,98,11.61%
348,0,98,11.61%
349,0,98,11.61%
350,2,100,11.85%
351,0,100,11.85%
352,11,111,13.15%
353,1,112,13.27%
354,0,112,13.27%
355,0,112,13.27%
356,0,112,13.27%
357,0,112,13.27%
358,5,117,13.86%
359,0,117,13.86%
360,3,120,14.22%
361,1,121,14.34%
362,0,121,14.34%
363,1,122,14.45%
364,0,122,14.45%
365,0,122,14.45%
366,0,122,14.45%
367,0,122,14.45%
368,0,122,14.45%
369,0,122,14.45%
370,0,122,14.45%
371,1,123,14.57%
372,1,124,14.69%
373,0,124,14.69%
374,0,124,14.69%
375,0,124,14.69%
376,0,124,14.69%
377,0,124,14.69%
378,0,124,14.69%
379,1,125,14.81%
380,1,126,14.93%
381,0,126,14.93%
382,0,126,14.93%
383,0,126,14.93%
384,1,127,15.05%
385,0,127,15.05%
386,0,127,15.05%
387,0,127,15.05%
388,0,127,15.05%
389,0,127,15.05%
390,0,127,15.05%
391,1,128,15.17%
392,0,128,15.17%
393,1,129,15.28%
394,0,129,15.28%
395,0,129,15.28%
396,0,129,15.28%
397,1,130,15.4%
398,1,131,15.52%
399,0,131,15.52%
400,0,131,15.52%
401,0,131,15.52%
402,0,131,15.52%
403,0,131,15.52%
404,0,131,15.52%
405,0,131,15.52%
406,2,133,15.76%
407,0,133,15.76%
408,0,133,15.76%
409,0,133,15.76%
410,0,133,15.76%
411,0,133,15.76%
412,2,135,16.0%
413,2,137,16.23%
414,0,137,16.23%
415,0,137,16.23%
416,0,137,16.23%
417,0,137,16.23%
418,0,137,16.23%
419,0,137,16.23%
420,0,137,16.23%
421,0,137,16.23%
422,1,138,16.35%
423,0,138,16.35%
424,0,138,16.35%
425,0,138,16.35%
426,0,138,16.35%
427,0,138,16.35%
428,1,139,16.47%
429,0,139,16.47%
430,0,139,16.47%
431,1,140,16.59%
432,0,140,16.59%
433,1,141,16.71%
434,0,141,16.71%
435,1,142,16.82%
436,0,142,16.82%
437,0,142,16.82%
438,0,142,16.82%
439,0,142,16.82%
440,0,142,16.82%
441,1,143,16.94%
442,0,143,16.94%
443,0,143,16.94%
444,0,143,16.94%
445,0,143,16.94%
446,1,144,17.06%
447,0,144,17.06%
448,0,144,17.06%
449,0,144,17.06%
450,0,144,17.06%
451,1,145,17.18%
452,0,145,17.18%
453,0,145,17.18%
454,0,145,17.18%
455,0,145,17.18%
456,0,145,17.18%
457,0,145,17.18%
458,0,145,17.18%
459,0,145,17.18%
460,0,145,17.18%
461,0,145,17.18%
462,0,145,17.18%
463,0,145,17.18%
464,1,146,17.3%
465,0,146,17.3%
466,0,146,17.3%
467,0,146,17.3%
468,0,146,17.3%
469,0,146,17.3%
470,0,146,17.3%
471,0,146,17.3%
472,0,146,17.3%
473,0,146,17.3%
474,0,146,17.3%
475,1,147,17.42%
476,0,147,17.42%
477,0,147,17.42%
478,0,147,17.42%
479,1,148,17.54%
480,0,148,17.54%
481,0,148,17.54%
482,1,149,17.65%
483,1,150,17.77%
484,1,151,17.89%
485,0,151,17.89%
486,0,151,17.89%
487,2,153,18.13%
488,0,153,18.13%
489,0,153,18.13%
490,1,154,18.25%
491,1,155,18.36%
492,0,155,18.36%
493,0,155,18.36%
494,0,155,18.36%
495,1,156,18.48%
496,1,157,18.6%
497,0,157,18.6%
498,0,157,18.6%
499,1,158,18.72%
500,0,158,18.72%
501,0,158,18.72%
502,0,158,18.72%
503,2,160,18.96%
504,0,160,18.96%
505,0,160,18.96%
506,0,160,18.96%
507,0,160,18.96%
508,0,160,18.96%
509,0,160,18.96%
510,1,161,19.08%
511,0,161,19.08%
512,0,161,19.08%
513,0,161,19.08%
514,0,161,19.08%
515,0,161,19.08%
516,0,161,19.08%
517,0,161,19.08%
518,0,161,19.08%
519,1,162,19.19%
520,0,162,19.19%
521,0,162,19.19%
522,1,163,19.31%
523,0,163,19.31%
524,0,163,19.31%
525,0,163,19.31%
526,0,163,19.31%
527,0,163,19.31%
528,0,163,19.31%
529,0,163,19.31%
530,0,163,19.31%
531,0,163,19.31%
532,0,163,19.31%
533,0,163,19.31%
534,0,163,19.31%
535,0,163,19.31%
536,0,163,19.31%
537,0,163,19.31%
538,0,163,19.31%
539,0,163,19.31%
540,0,163,19.31%
541,0,163,19.31%
542,1,164,19.43%
543,0,164,19.43%
544,0,164,19.43%
545,0,164,19.43%
546,1,165,19.55%
547,0,165,19.55%
548,0,165,19.55%
549,0,165,19.55%
550,0,165,19.55%
551,0,165,19.55%
552,0,165,19.55%
553,0,165,19.55%
554,0,165,19.55%
555,0,165,19.55%
556,1,166,19.67%
557,0,166,19.67%
558,0,166,19.67%
559,0,166,19.67%
560,0,166,19.67%
561,0,166,19.67%
562,0,166,19.67%
563,0,166,19.67%
564,1,167,19.79%
565,1,168,19.91%
566,0,168,19.91%
567,1,169,20.02%
568,0,169,20.02%
569,0,169,20.02%
570,0,169,20.02%
571,0,169,20.02%
572,0,169,20.02%
573,1,170,20.14%
574,0,170,20.14%
575,0,170,20.14%
576,8,178,21.09%
577,0,178,21.09%
578,0,178,21.09%
579,1,179,21.21%
580,0,179,21.21%
581,0,179,21.21%
582,0,179,21.21%
583,0,179,21.21%
584,0,179,21.21%
585,0,179,21.21%
586,0,179,21.21%
587,0,179,21.21%
588,0,179,21.21%
589,0,179,21.21%
590,0,179,21.21%
591,0,179,21.21%
592,0,179,21.21%
593,0,179,21.21%
594,0,179,21.21%
595,0,179,21.21%
596,0,179,21.21%
597,0,179,21.21%
598,0,179,21.21%
599,1,180,21.33%
600,0,180,21.33%
601,0,180,21.33%
602,0,180,21.33%
603,1,181,21.45%
604,1,182,21.56%
605,0,182,21.56%
606,1,183,21.68%
607,1,184,21.8%
608,0,184,21.8%
609,0,184,21.8%
610,0,184,21.8%
611,0,184,21.8%
612,0,184,21.8%
613,0,184,21.8%
614,0,184,21.8%
615,0,184,21.8%
616,1,185,21.92%
617,0,185,21.92%
618,0,185,21.92%
619,0,185,21.92%
620,1,186,22.04%
621,0,186,22.04%
622,1,187,22.16%
623,0,187,22.16%
624,0,187,22.16%
625,0,187,22.16%
626,1,188,22.27%
627,0,188,22.27%
628,0,188,22.27%
629,0,188,22.27%
630,0,188,22.27%
631,0,188,22.27%
632,1,189,22.39%
633,0,189,22.39%
634,0,189,22.39%
635,1,190,22.51%
636,0,190,22.51%
637,0,190,22.51%
638,0,190,22.51%
639,0,190,22.51%
640,0,190,22.51%
641,2,192,22.75%
642,0,192,22.75%
643,0,192,22.75%
644,0,192,22.75%
645,1,193,22.87%
646,0,193,22.87%
647,1,194,22.99%
648,0,194,22.99%
649,1,195,23.1%
650,0,195,23.1%
651,1,196,23.22%
652,0,196,23.22%
653,1,197,23.34%
654,1,198,23.46%
655,0,198,23.46%
656,0,198,23.46%
657,0,198,23.46%
658,5,203,24.05%
659,0,203,24.05%
660,0,203,24.05%
661,0,203,24.05%
662,0,203,24.05%
663,0,203,24.05%
664,0,203,24.05%
665,0,203,24.05%
666,0,203,24.05%
667,0,203,24.05%
668,0,203,24.05%
669,0,203,24.05%
670,0,203,24.05%
671,0,203,24.05%
672,1,204,24.17%
673,0,204,24.17%
674,1,205,24.29%
675,0,205,24.29%
676,0,205,24.29%
677,0,205,24.29%
678,0,205,24.29%
679,0,205,24.29%
680,0,205,24.29%
681,0,205,24.29%
682,0,205,24.29%
683,1,206,24.41%
684,0,206,24.41%
685,0,206,24.41%
686,0,206,24.41%
687,0,206,24.41%
688,0,206,24.41%
689,0,206,24.41%
690,0,206,24.41%
691,0,206,24.41%
692,0,206,24.41%
693,0,206,24.41%
694,0,206,24.41%
695,0,206,24.41%
696,0,206,24.41%
697,0,206,24.41%
698,0,206,24.41%
699,0,206,24.41%
700,0,206,24.41%
701,0,206,24.41%
702,0,206,24.41%
703,0,206,24.41%
704,1,207,24.53%
705,1,208,24.64%
706,0,208,24.64%
707,0,208,24.64%
708,0,208,24.64%
709,0,208,24.64%
710,0,208,24.64%
711,0,208,24.64%
712,0,208,24.64%
713,0,208,24.64%
714,0,208,24.64%
715,0,208,24.64%
716,1,209,24.76%
717,0,209,24.76%
718,0,209,24.76%
719,2,211,25.0%
720,0,211,25.0%
721,0,211,25.0%
722,0,211,25.0%
723,0,211,25.0%
724,0,211,25.0%
725,0,211,25.0%
726,0,211,25.0%
727,0,211,25.0%
728,0,211,25.0%
729,0,211,25.0%
730,1,212,25.12%
731,0,212,25.12%
732,0,212,25.12%
733,0,212,25.12%
734,0,212,25.12%
735,1,213,25.24%
736,0,213,25.24%
737,0,213,25.24%
738,0,213,25.24%
739,1,214,25.36%
740,0,214,25.36%
741,9,223,26.42%
742,0,223,26.42%
743,1,224,26.54%
744,1,225,26.66%
745,0,225,26.66%
746,0,225,26.66%
747,0,225,26.66%
748,0,225,26.66%
749,0,225,26.66%
750,0,225,26.66%
751,0,225,26.66%
752,0,225,26.66%
753,1,226,26.78%
754,1,227,26.9%
755,1,228,27.01%
756,0,228,27.01%
757,0,228,27.01%
758,1,229,27.13%
759,0,229,27.13%
760,0,229,27.13%
761,0,229,27.13%
762,0,229,27.13%
763,0,229,27.13%
764,0,229,27.13%
765,0,229,27.13%
766,0,229,27.13%
767,0,229,27.13%
768,0,229,27.13%
769,1,230,27.25%
770,0,230,27.25%
771,0,230,27.25%
772,0,230,27.25%
773,1,231,27.37%
774,1,232,27.49%
775,0,232,27.49%
776,0,232,27.49%
777,0,232,27.49%
778,1,233,27.61%
779,0,233,27.61%
780,0,233,27.61%
781,0,233,27.61%
782,0,233,27.61%
783,0,233,27.61%
784,0,233,27.61%
785,1,234,27.73%
786,0,234,27.73%
787,0,234,27.73%
788,0,234,27.73%
789,0,234,27.73%
790,0,234,27.73%
791,0,234,27.73%
792,0,234,27.73%
793,0,234,27.73%
794,0,234,27.73%
795,2,236,27.96%
796,0,236,27.96%
797,0,236,27.96%
798,0,236,27.96%
799,0,236,27.96%
800,0,236,27.96%
801,0,236,27.96%
802,0,236,27.96%
803,0,236,27.96%
804,0,236,27.96%
805,0,236,27.96%
806,0,236,27.96%
807,0,236,27.96%
808,0,236,27.96%
809,0,236,27.96%
810,0,236,27.96%
811,0,236,27.96%
812,1,237,28.08%
813,0,237,28.08%
814,0,237,28.08%
815,1,238,28.2%
816,2,240,28.44%
817,0,240,28.44%
818,0,240,28.44%
819,0,240,28.44%
820,1,241,28.55%
821,1,242,28.67%
822,0,242,28.67%
823,0,242,28.67%
824,0,242,28.67%
825,0,242,28.67%
826,1,243,28.79%
827,0,243,28.79%
828,0,243,28.79%
829,0,243,28.79%
830,0,243,28.79%
831,0,243,28.79%
832,0,243,28.79%
833,0,243,28.79%
834,0,243,28.79%
835,0,243,28.79%
836,0,243,28.79%
837,1,244,28.91%
838,0,244,28.91%
839,0,244,28.91%
840,1,245,29.03%
841,0,245,29.03%
842,0,245,29.03%
843,0,245,29.03%
844,0,245,29.03%
845,0,245,29.03%
846,0,245,29.03%
847,0,245,29.03%
848,0,245,29.03%
849,0,245,29.03%
850,0,245,29.03%
851,1,246,29.15%
852,0,246,29.15%
853,0,246,29.15%
854,0,246,29.15%
855,0,246,29.15%
856,1,247,29.27%
857,0,247,29.27%
858,1,248,29.38%
859,0,248,29.38%
860,1,249,29.5%
861,0,249,29.5%
862,0,249,29.5%
863,0,249,29.5%
864,0,249,29.5%
865,1,250,29.62%
866,0,250,29.62%
867,0,250,29.62%
868,0,250,29.62%
869,0,250,29.62%
870,1,251,29.74%
871,1,252,29.86%
872,1,253,29.98%
873,0,253,29.98%
874,0,253,29.98%
875,0,253,29.98%
876,1,254,30.09%
877,0,254,30.09%
878,0,254,30.09%
879,1,255,30.21%
880,0,255,30.21%
881,1,256,30.33%
882,0,256,30.33%
883,0,256,30.33%
884,2,258,30.57%
885,1,259,30.69%
886,0,259,30.69%
887,0,259,30.69%
888,0,259,30.69%
889,0,259,30.69%
890,0,259,30.69%
891,0,259,30.69%
892,0,259,30.69%
893,0,259,30.69%
894,0,259,30.69%
895,0,259,30.69%
896,0,259,30.69%
897,0,259,30.69%
898,0,259,30.69%
899,0,259,30.69%
900,0,259,30.69%
901,0,259,30.69%
902,0,259,30.69%
903,0,259,30.69%
904,1,260,30.81%
905,0,260,30.81%
906,0,260,30.81%
907,1,261,30.92%
908,1,262,31.04%
909,0,262,31.04%
910,0,262,31.04%
911,0,262,31.04%
912,0,262,31.04%
913,0,262,31.04%
914,0,262,31.04%
915,0,262,31.04%
916,1,263,31.16%
917,2,265,31.4%
918,0,265,31.4%
919,0,265,31.4%
920,0,265,31.4%
921,0,265,31.4%
922,0,265,31.4%
923,0,265,31.4%
924,2,267,31.64%
925,0,267,31.64%
926,0,267,31.64%
927,1,268,31.75%
928,3,271,32.11%
929,0,271,32.11%
930,0,271,32.11%
931,0,271,32.11%
932,0,271,32.11%
933,0,271,32.11%
934,0,271,32.11%
935,2,273,32.35%
936,1,274,32.46%
937,0,274,32.46%
938,0,274,32.46%
939,0,274,32.46%
940,0,274,32.46%
941,0,274,32.46%
942,1,275,32.58%
943,0,275,32.58%
944,0,275,32.58%
945,0,275,32.58%
946,0,275,32.58%
947,0,275,32.58%
948,0,275,32.58%
949,0,275,32.58%
950,0,275,32.58%
951,1,276,32.7%
952,0,276,32.7%
953,0,276,32.7%
954,0,276,32.7%
955,0,276,32.7%
956,0,276,32.7%
957,0,276,32.7%
958,0,276,32.7%
959,0,276,32.7%
960,0,276,32.7%
961,0,276,32.7%
962,0,276,32.7%
963,0,276,32.7%
964,0,276,32.7%
965,0,276,32.7%
966,0,276,32.7%
967,0,276,32.7%
968,0,276,32.7%
969,0,276,32.7%
970,1,277,32.82%
971,0,277,32.82%
972,0,277,32.82%
973,0,277,32.82%
974,1,278,32.94%
975,0,278,32.94%
976,0,278,32.94%
977,0,278,32.94%
978,0,278,32.94%
979,0,278,32.94%
980,0,278,32.94%
981,0,278,32.94%
982,0,278,32.94%
983,0,278,32.94%
984,0,278,32.94%
985,2,280,33.18%
986,0,280,33.18%
987,1,281,33.29%
988,0,281,33.29%
989,0,281,33.29%
990,0,281,33.29%
991,0,281,33.29%
992,0,281,33.29%
993,0,281,33.29%
994,0,281,33.29%
995,0,281,33.29%
996,0,281,33.29%
997,1,282,33.41%
998,0,282,33.41%
999,1,283,33.53%
1000,0,283,33.53%
1001,1,284,33.65%
1002,0,284,33.65%
1003,1,285,33.77%
1004,0,285,33.77%
1005,0,285,33.77%
1006,0,285,33.77%
1007,0,285,33.77%
1008,0,285,33.77%
1009,0,285,33.77%
1010,0,285,33.77%
1011,0,285,33.77%
1012,0,285,33.77%
1013,0,285,33.77%
1014,0,285,33.77%
1015,0,285,33.77%
1016,1,286,33.89%
1017,0,286,33.89%
1018,0,286,33.89%
1019,0,286,33.89%
1020,0,286,33.89%
1021,0,286,33.89%
1022,0,286,33.89%
1023,0,286,33.89%
1024,0,286,33.89%
1025,1,287,34.0%
1026,0,287,34.0%
1027,0,287,34.0%
1028,0,287,34.0%
1029,0,287,34.0%
1030,0,287,34.0%
1031,0,287,34.0%
1032,0,287,34.0%
1033,1,288,34.12%
1034,0,288,34.12%
1035,0,288,34.12%
1036,1,289,34.24%
1037,1,290,34.36%
1038,0,290,34.36%
1039,0,290,34.36%
1040,1,291,34.48%
1041,0,291,34.48%
1042,0,291,34.48%
1043,0,291,34.48%
1044,0,291,34.48%
1045,0,291,34.48%
1046,0,291,34.48%
1047,0,291,34.48%
1048,0,291,34.48%
1049,0,291,34.48%
1050,0,291,34.48%
1051,0,291,34.48%
1052,0,291,34.48%
1053,1,292,34.6%
1054,0,292,34.6%
1055,1,293,34.72%
1056,0,293,34.72%
1057,0,293,34.72%
1058,0,293,34.72%
1059,1,294,34.83%
1060,0,294,34.83%
1061,0,294,34.83%
1062,0,294,34.83%
1063,0,294,34.83%
1064,0,294,34.83%
1065,0,294,34.83%
1066,0,294,34.83%
1067,0,294,34.83%
1068,1,295,34.95%
1069,0,295,34.95%
1070,0,295,34.95%
1071,0,295,34.95%
1072,1,296,35.07%
1073,0,296,35.07%
1074,0,296,35.07%
1075,0,296,35.07%
1076,4,300,35.55%
1077,0,300,35.55%
1078,0,300,35.55%
1079,0,300,35.55%
1080,0,300,35.55%
1081,1,301,35.66%
1082,0,301,35.66%
1083,0,301,35.66%
1084,0,301,35.66%
1085,0,301,35.66%
1086,0,301,35.66%
1087,0,301,35.66%
1088,0,301,35.66%
1089,1,302,35.78%
1090,0,302,35.78%
1091,0,302,35.78%
1092,0,302,35.78%
1093,0,302,35.78%
1094,1,303,35.9%
1095,2,305,36.14%
1096,1,306,36.26%
1097,0,306,36.26%
1098,0,306,36.26%
1099,0,306,36.26%
1100,1,307,36.37%
1101,1,308,36.49%
1102,3,311,36.85%
1103,1,312,36.97%
1104,0,312,36.97%
1105,2,314,37.2%
1106,1,315,37.32%
1107,0,315,37.32%
1108,0,315,37.32%
1109,2,317,37.56%
1110,2,319,37.8%
1111,0,319,37.8%
1112,1,320,37.91%
1113,2,322,38.15%
1114,1,323,38.27%
1115,3,326,38.63%
1116,5,331,39.22%
1117,0,331,39.22%
1118,1,332,39.34%
1119,2,334,39.57%
1120,1,335,39.69%
1121,1,336,39.81%
1122,0,336,39.81%
1123,0,336,39.81%
1124,2,338,40.05%
1125,4,342,40.52%
1126,2,344,40.76%
1127,0,344,40.76%
1128,1,345,40.88%
1129,1,346,41.0%
1130,2,348,41.23%
1131,2,350,41.47%
1132,0,350,41.47%
1133,2,352,41.71%
1134,2,354,41.94%
1135,0,354,41.94%
1136,0,354,41.94%
1137,1,355,42.06%
1138,0,355,42.06%
1139,1,356,42.18%
1140,0,356,42.18%
1141,4,360,42.65%
1142,1,361,42.77%
1143,3,364,43.13%
1144,2,366,43.36%
1145,3,369,43.72%
1146,1,370,43.84%
1147,1,371,43.96%
1148,2,373,44.19%
1149,6,379,44.91%
1150,0,379,44.91%
1151,0,379,44.91%
1152,0,379,44.91%
1153,0,379,44.91%
1154,1,380,45.02%
1155,1,381,45.14%
1156,0,381,45.14%
1157,2,383,45.38%
1158,4,387,45.85%
1159,2,389,46.09%
1160,2,391,46.33%
1161,0,391,46.33%
1162,3,394,46.68%
1163,2,396,46.92%
1164,0,396,46.92%
1165,0,396,46.92%
1166,0,396,46.92%
1167,0,396,46.92%
1168,4,400,47.39%
1169,3,403,47.75%
1170,1,404,47.87%
1171,0,404,47.87%
1172,0,404,47.87%
1173,6,410,48.58%
1174,3,413,48.93%
1175,0,413,48.93%
1176,1,414,49.05%
1177,0,414,49.05%
1178,3,417,49.41%
1179,1,418,49.53%
1180,1,419,49.64%
1181,0,419,49.64%
1182,1,420,49.76%
1183,6,426,50.47%
1184,10,436,51.66%
1185,1,437,51.78%
1186,3,440,52.13%
1187,404,844,100.0%
