Length, Count, Sum (Counts <= Length), Percent of Nonzero Data, Nonzero Data Count = 827, Zero Data Count = 1017
1,0,0,0.0%
2,0,0,0.0%
3,0,0,0.0%
4,1,1,0.12%
5,0,1,0.12%
6,0,1,0.12%
7,0,1,0.12%
8,0,1,0.12%
9,0,1,0.12%
10,0,1,0.12%
11,0,1,0.12%
12,0,1,0.12%
13,0,1,0.12%
14,0,1,0.12%
15,0,1,0.12%
16,0,1,0.12%
17,0,1,0.12%
18,0,1,0.12%
19,0,1,0.12%
20,0,1,0.12%
21,1,2,0.24%
22,1,3,0.36%
23,0,3,0.36%
24,0,3,0.36%
25,0,3,0.36%
26,0,3,0.36%
27,0,3,0.36%
28,1,4,0.48%
29,1,5,0.6%
30,0,5,0.6%
31,0,5,0.6%
32,0,5,0.6%
33,0,5,0.6%
34,1,6,0.73%
35,0,6,0.73%
36,0,6,0.73%
37,0,6,0.73%
38,0,6,0.73%
39,1,7,0.85%
40,0,7,0.85%
41,0,7,0.85%
42,0,7,0.85%
43,0,7,0.85%
44,1,8,0.97%
45,0,8,0.97%
46,1,9,1.09%
47,0,9,1.09%
48,0,9,1.09%
49,0,9,1.09%
50,0,9,1.09%
51,1,10,1.21%
52,1,11,1.33%
53,0,11,1.33%
54,0,11,1.33%
55,0,11,1.33%
56,0,11,1.33%
57,0,11,1.33%
58,0,11,1.33%
59,0,11,1.33%
60,0,11,1.33%
61,0,11,1.33%
62,0,11,1.33%
63,0,11,1.33%
64,0,11,1.33%
65,0,11,1.33%
66,0,11,1.33%
67,0,11,1.33%
68,0,11,1.33%
69,0,11,1.33%
70,0,11,1.33%
71,0,11,1.33%
72,0,11,1.33%
73,0,11,1.33%
74,0,11,1.33%
75,1,12,1.45%
76,0,12,1.45%
77,0,12,1.45%
78,0,12,1.45%
79,0,12,1.45%
80,2,14,1.69%
81,0,14,1.69%
82,0,14,1.69%
83,0,14,1.69%
84,0,14,1.69%
85,0,14,1.69%
86,2,16,1.93%
87,0,16,1.93%
88,1,17,2.06%
89,1,18,2.18%
90,0,18,2.18%
91,0,18,2.18%
92,0,18,2.18%
93,0,18,2.18%
94,1,19,2.3%
95,0,19,2.3%
96,0,19,2.3%
97,0,19,2.3%
98,0,19,2.3%
99,0,19,2.3%
100,0,19,2.3%
101,0,19,2.3%
102,0,19,2.3%
103,0,19,2.3%
104,0,19,2.3%
105,0,19,2.3%
106,0,19,2.3%
107,1,20,2.42%
108,0,20,2.42%
109,0,20,2.42%
110,0,20,2.42%
111,0,20,2.42%
112,1,21,2.54%
113,0,21,2.54%
114,0,21,2.54%
115,0,21,2.54%
116,0,21,2.54%
117,0,21,2.54%
118,0,21,2.54%
119,0,21,2.54%
120,0,21,2.54%
121,0,21,2.54%
122,0,21,2.54%
123,0,21,2.54%
124,1,22,2.66%
125,1,23,2.78%
126,0,23,2.78%
127,0,23,2.78%
128,0,23,2.78%
129,0,23,2.78%
130,0,23,2.78%
131,0,23,2.78%
132,0,23,2.78%
133,0,23,2.78%
134,0,23,2.78%
135,0,23,2.78%
136,0,23,2.78%
137,0,23,2.78%
138,1,24,2.9%
139,0,24,2.9%
140,0,24,2.9%
141,1,25,3.02%
142,0,25,3.02%
143,0,25,3.02%
144,0,25,3.02%
145,2,27,3.26%
146,0,27,3.26%
147,0,27,3.26%
148,0,27,3.26%
149,1,28,3.39%
150,0,28,3.39%
151,0,28,3.39%
152,0,28,3.39%
153,0,28,3.39%
154,0,28,3.39%
155,1,29,3.51%
156,0,29,3.51%
157,0,29,3.51%
158,0,29,3.51%
159,0,29,3.51%
160,0,29,3.51%
161,0,29,3.51%
162,0,29,3.51%
163,0,29,3.51%
164,0,29,3.51%
165,0,29,3.51%
166,0,29,3.51%
167,0,29,3.51%
168,0,29,3.51%
169,0,29,3.51%
170,1,30,3.63%
171,0,30,3.63%
172,1,31,3.75%
173,0,31,3.75%
174,0,31,3.75%
175,0,31,3.75%
176,0,31,3.75%
177,0,31,3.75%
178,1,32,3.87%
179,0,32,3.87%
180,0,32,3.87%
181,1,33,3.99%
182,0,33,3.99%
183,0,33,3.99%
184,0,33,3.99%
185,0,33,3.99%
186,0,33,3.99%
187,0,33,3.99%
188,0,33,3.99%
189,0,33,3.99%
190,0,33,3.99%
191,0,33,3.99%
192,0,33,3.99%
193,0,33,3.99%
194,0,33,3.99%
195,0,33,3.99%
196,0,33,3.99%
197,0,33,3.99%
198,0,33,3.99%
199,0,33,3.99%
200,1,34,4.11%
201,1,35,4.23%
202,1,36,4.35%
203,0,36,4.35%
204,1,37,4.47%
205,0,37,4.47%
206,0,37,4.47%
207,1,38,4.59%
208,0,38,4.59%
209,0,38,4.59%
210,0,38,4.59%
211,0,38,4.59%
212,0,38,4.59%
213,2,40,4.84%
214,0,40,4.84%
215,1,41,4.96%
216,0,41,4.96%
217,0,41,4.96%
218,0,41,4.96%
219,0,41,4.96%
220,1,42,5.08%
221,0,42,5.08%
222,0,42,5.08%
223,0,42,5.08%
224,0,42,5.08%
225,0,42,5.08%
226,0,42,5.08%
227,0,42,5.08%
228,1,43,5.2%
229,0,43,5.2%
230,0,43,5.2%
231,0,43,5.2%
232,0,43,5.2%
233,0,43,5.2%
234,0,43,5.2%
235,1,44,5.32%
236,1,45,5.44%
237,0,45,5.44%
238,0,45,5.44%
239,0,45,5.44%
240,0,45,5.44%
241,0,45,5.44%
242,0,45,5.44%
243,0,45,5.44%
244,1,46,5.56%
245,1,47,5.68%
246,0,47,5.68%
247,0,47,5.68%
248,0,47,5.68%
249,0,47,5.68%
250,0,47,5.68%
251,0,47,5.68%
252,0,47,5.68%
253,1,48,5.8%
254,0,48,5.8%
255,0,48,5.8%
256,0,48,5.8%
257,0,48,5.8%
258,0,48,5.8%
259,2,50,6.05%
260,0,50,6.05%
261,0,50,6.05%
262,0,50,6.05%
263,1,51,6.17%
264,0,51,6.17%
265,1,52,6.29%
266,0,52,6.29%
267,2,54,6.53%
268,0,54,6.53%
269,0,54,6.53%
270,0,54,6.53%
271,0,54,6.53%
272,0,54,6.53%
273,0,54,6.53%
274,0,54,6.53%
275,0,54,6.53%
276,0,54,6.53%
277,0,54,6.53%
278,0,54,6.53%
279,0,54,6.53%
280,0,54,6.53%
281,0,54,6.53%
282,0,54,6.53%
283,0,54,6.53%
284,0,54,6.53%
285,0,54,6.53%
286,0,54,6.53%
287,0,54,6.53%
288,0,54,6.53%
289,0,54,6.53%
290,0,54,6.53%
291,0,54,6.53%
292,1,55,6.65%
293,0,55,6.65%
294,0,55,6.65%
295,0,55,6.65%
296,0,55,6.65%
297,0,55,6.65%
298,0,55,6.65%
299,0,55,6.65%
300,1,56,6.77%
301,1,57,6.89%
302,0,57,6.89%
303,0,57,6.89%
304,0,57,6.89%
305,0,57,6.89%
306,0,57,6.89%
307,0,57,6.89%
308,0,57,6.89%
309,1,58,7.01%
310,0,58,7.01%
311,2,60,7.26%
312,0,60,7.26%
313,0,60,7.26%
314,0,60,7.26%
315,0,60,7.26%
316,0,60,7.26%
317,0,60,7.26%
318,1,61,7.38%
319,0,61,7.38%
320,1,62,7.5%
321,0,62,7.5%
322,1,63,7.62%
323,0,63,7.62%
324,0,63,7.62%
325,2,65,7.86%
326,0,65,7.86%
327,0,65,7.86%
328,1,66,7.98%
329,0,66,7.98%
330,0,66,7.98%
331,0,66,7.98%
332,1,67,8.1%
333,1,68,8.22%
334,0,68,8.22%
335,0,68,8.22%
336,0,68,8.22%
337,0,68,8.22%
338,0,68,8.22%
339,0,68,8.22%
340,0,68,8.22%
341,1,69,8.34%
342,0,69,8.34%
343,2,71,8.59%
344,0,71,8.59%
345,0,71,8.59%
346,0,71,8.59%
347,0,71,8.59%
348,0,71,8.59%
349,0,71,8.59%
350,1,72,8.71%
351,16,88,10.64%
352,10,98,11.85%
353,0,98,11.85%
354,0,98,11.85%
355,0,98,11.85%
356,1,99,11.97%
357,0,99,11.97%
358,5,104,12.58%
359,1,105,12.7%
360,2,107,12.94%
361,0,107,12.94%
362,0,107,12.94%
363,1,108,13.06%
364,0,108,13.06%
365,0,108,13.06%
366,2,110,13.3%
367,0,110,13.3%
368,0,110,13.3%
369,1,111,13.42%
370,0,111,13.42%
371,0,111,13.42%
372,2,113,13.66%
373,0,113,13.66%
374,1,114,13.78%
375,0,114,13.78%
376,1,115,13.91%
377,0,115,13.91%
378,1,116,14.03%
379,0,116,14.03%
380,0,116,14.03%
381,0,116,14.03%
382,1,117,14.15%
383,0,117,14.15%
384,0,117,14.15%
385,0,117,14.15%
386,0,117,14.15%
387,1,118,14.27%
388,0,118,14.27%
389,0,118,14.27%
390,0,118,14.27%
391,0,118,14.27%
392,1,119,14.39%
393,1,120,14.51%
394,0,120,14.51%
395,0,120,14.51%
396,0,120,14.51%
397,1,121,14.63%
398,0,121,14.63%
399,1,122,14.75%
400,1,123,14.87%
401,0,123,14.87%
402,0,123,14.87%
403,0,123,14.87%
404,0,123,14.87%
405,0,123,14.87%
406,3,126,15.24%
407,0,126,15.24%
408,0,126,15.24%
409,0,126,15.24%
410,0,126,15.24%
411,0,126,15.24%
412,1,127,15.36%
413,1,128,15.48%
414,0,128,15.48%
415,0,128,15.48%
416,0,128,15.48%
417,0,128,15.48%
418,0,128,15.48%
419,0,128,15.48%
420,0,128,15.48%
421,0,128,15.48%
422,1,129,15.6%
423,0,129,15.6%
424,1,130,15.72%
425,0,130,15.72%
426,0,130,15.72%
427,0,130,15.72%
428,0,130,15.72%
429,0,130,15.72%
430,0,130,15.72%
431,0,130,15.72%
432,1,131,15.84%
433,1,132,15.96%
434,0,132,15.96%
435,1,133,16.08%
436,0,133,16.08%
437,1,134,16.2%
438,0,134,16.2%
439,0,134,16.2%
440,0,134,16.2%
441,1,135,16.32%
442,0,135,16.32%
443,0,135,16.32%
444,1,136,16.44%
445,0,136,16.44%
446,1,137,16.57%
447,0,137,16.57%
448,0,137,16.57%
449,0,137,16.57%
450,0,137,16.57%
451,1,138,16.69%
452,0,138,16.69%
453,0,138,16.69%
454,0,138,16.69%
455,0,138,16.69%
456,0,138,16.69%
457,0,138,16.69%
458,0,138,16.69%
459,0,138,16.69%
460,0,138,16.69%
461,0,138,16.69%
462,0,138,16.69%
463,0,138,16.69%
464,0,138,16.69%
465,1,139,16.81%
466,2,141,17.05%
467,0,141,17.05%
468,0,141,17.05%
469,0,141,17.05%
470,0,141,17.05%
471,0,141,17.05%
472,0,141,17.05%
473,0,141,17.05%
474,0,141,17.05%
475,0,141,17.05%
476,0,141,17.05%
477,0,141,17.05%
478,0,141,17.05%
479,0,141,17.05%
480,0,141,17.05%
481,1,142,17.17%
482,1,143,17.29%
483,0,143,17.29%
484,1,144,17.41%
485,0,144,17.41%
486,1,145,17.53%
487,0,145,17.53%
488,0,145,17.53%
489,0,145,17.53%
490,0,145,17.53%
491,0,145,17.53%
492,0,145,17.53%
493,0,145,17.53%
494,0,145,17.53%
495,1,146,17.65%
496,1,147,17.78%
497,0,147,17.78%
498,0,147,17.78%
499,0,147,17.78%
500,0,147,17.78%
501,0,147,17.78%
502,0,147,17.78%
503,1,148,17.9%
504,1,149,18.02%
505,0,149,18.02%
506,0,149,18.02%
507,0,149,18.02%
508,0,149,18.02%
509,0,149,18.02%
510,0,149,18.02%
511,0,149,18.02%
512,1,150,18.14%
513,0,150,18.14%
514,0,150,18.14%
515,0,150,18.14%
516,0,150,18.14%
517,1,151,18.26%
518,0,151,18.26%
519,0,151,18.26%
520,0,151,18.26%
521,0,151,18.26%
522,0,151,18.26%
523,0,151,18.26%
524,0,151,18.26%
525,0,151,18.26%
526,0,151,18.26%
527,0,151,18.26%
528,1,152,18.38%
529,1,153,18.5%
530,0,153,18.5%
531,0,153,18.5%
532,0,153,18.5%
533,0,153,18.5%
534,0,153,18.5%
535,0,153,18.5%
536,1,154,18.62%
537,1,155,18.74%
538,0,155,18.74%
539,0,155,18.74%
540,2,157,18.98%
541,0,157,18.98%
542,0,157,18.98%
543,0,157,18.98%
544,1,158,19.11%
545,0,158,19.11%
546,1,159,19.23%
547,0,159,19.23%
548,0,159,19.23%
549,0,159,19.23%
550,0,159,19.23%
551,0,159,19.23%
552,1,160,19.35%
553,2,162,19.59%
554,0,162,19.59%
555,0,162,19.59%
556,1,163,19.71%
557,1,164,19.83%
558,0,164,19.83%
559,0,164,19.83%
560,0,164,19.83%
561,4,168,20.31%
562,0,168,20.31%
563,2,170,20.56%
564,1,171,20.68%
565,0,171,20.68%
566,0,171,20.68%
567,0,171,20.68%
568,0,171,20.68%
569,1,172,20.8%
570,0,172,20.8%
571,0,172,20.8%
572,0,172,20.8%
573,2,174,21.04%
574,0,174,21.04%
575,1,175,21.16%
576,8,183,22.13%
577,0,183,22.13%
578,0,183,22.13%
579,2,185,22.37%
580,0,185,22.37%
581,0,185,22.37%
582,0,185,22.37%
583,0,185,22.37%
584,0,185,22.37%
585,4,189,22.85%
586,1,190,22.97%
587,1,191,23.1%
588,1,192,23.22%
589,0,192,23.22%
590,2,194,23.46%
591,1,195,23.58%
592,0,195,23.58%
593,0,195,23.58%
594,1,196,23.7%
595,3,199,24.06%
596,1,200,24.18%
597,0,200,24.18%
598,1,201,24.3%
599,2,203,24.55%
600,3,206,24.91%
601,5,211,25.51%
602,0,211,25.51%
603,1,212,25.63%
604,2,214,25.88%
605,1,215,26.0%
606,3,218,26.36%
607,0,218,26.36%
608,0,218,26.36%
609,1,219,26.48%
610,5,224,27.09%
611,2,226,27.33%
612,0,226,27.33%
613,1,227,27.45%
614,1,228,27.57%
615,1,229,27.69%
616,2,231,27.93%
617,0,231,27.93%
618,2,233,28.17%
619,3,236,28.54%
620,1,237,28.66%
621,0,237,28.66%
622,1,238,28.78%
623,1,239,28.9%
624,2,241,29.14%
625,0,241,29.14%
626,5,246,29.75%
627,0,246,29.75%
628,3,249,30.11%
629,2,251,30.35%
630,5,256,30.96%
631,1,257,31.08%
632,2,259,31.32%
633,2,261,31.56%
634,7,268,32.41%
635,0,268,32.41%
636,0,268,32.41%
637,0,268,32.41%
638,0,268,32.41%
639,1,269,32.53%
640,1,270,32.65%
641,0,270,32.65%
642,1,271,32.77%
643,6,277,33.49%
644,3,280,33.86%
645,3,283,34.22%
646,1,284,34.34%
647,3,287,34.7%
648,2,289,34.95%
649,1,290,35.07%
650,0,290,35.07%
651,0,290,35.07%
652,0,290,35.07%
653,4,294,35.55%
654,3,297,35.91%
655,1,298,36.03%
656,1,299,36.15%
657,0,299,36.15%
658,6,305,36.88%
659,4,309,37.36%
660,1,310,37.48%
661,1,311,37.61%
662,0,311,37.61%
663,2,313,37.85%
664,2,315,38.09%
665,1,316,38.21%
666,0,316,38.21%
667,2,318,38.45%
668,6,324,39.18%
669,11,335,40.51%
670,1,336,40.63%
671,2,338,40.87%
672,7,345,41.72%
673,1,346,41.84%
674,0,346,41.84%
675,0,346,41.84%
676,4,350,42.32%
677,2,352,42.56%
678,0,352,42.56%
679,3,355,42.93%
680,0,355,42.93%
681,3,358,43.29%
682,3,361,43.65%
683,3,364,44.01%
684,2,366,44.26%
685,0,366,44.26%
686,1,367,44.38%
687,0,367,44.38%
688,4,371,44.86%
689,2,373,45.1%
690,0,373,45.1%
691,0,373,45.1%
692,2,375,45.34%
693,5,380,45.95%
694,4,384,46.43%
695,0,384,46.43%
696,1,385,46.55%
697,1,386,46.67%
698,1,387,46.8%
699,0,387,46.8%
700,1,388,46.92%
701,0,388,46.92%
702,2,390,47.16%
703,0,390,47.16%
704,0,390,47.16%
705,0,390,47.16%
706,1,391,47.28%
707,5,396,47.88%
708,1,397,48.0%
709,0,397,48.0%
710,1,398,48.13%
711,1,399,48.25%
712,0,399,48.25%
713,1,400,48.37%
714,0,400,48.37%
715,3,403,48.73%
716,3,406,49.09%
717,3,409,49.46%
718,2,411,49.7%
719,0,411,49.7%
720,2,413,49.94%
721,4,417,50.42%
722,2,419,50.67%
723,2,421,50.91%
724,0,421,50.91%
725,406,827,100.0%
