Length, Count, Sum (Counts <= Length), Percent of Nonzero Data, Nonzero Data Count = 858, Zero Data Count = 986
1,1,1,0.12%
2,0,1,0.12%
3,1,2,0.23%
4,0,2,0.23%
5,0,2,0.23%
6,0,2,0.23%
7,0,2,0.23%
8,0,2,0.23%
9,0,2,0.23%
10,0,2,0.23%
11,1,3,0.35%
12,0,3,0.35%
13,0,3,0.35%
14,0,3,0.35%
15,0,3,0.35%
16,0,3,0.35%
17,0,3,0.35%
18,0,3,0.35%
19,0,3,0.35%
20,0,3,0.35%
21,1,4,0.47%
22,0,4,0.47%
23,0,4,0.47%
24,0,4,0.47%
25,1,5,0.58%
26,0,5,0.58%
27,0,5,0.58%
28,1,6,0.7%
29,1,7,0.82%
30,0,7,0.82%
31,0,7,0.82%
32,0,7,0.82%
33,0,7,0.82%
34,0,7,0.82%
35,0,7,0.82%
36,0,7,0.82%
37,0,7,0.82%
38,1,8,0.93%
39,2,10,1.17%
40,0,10,1.17%
41,0,10,1.17%
42,0,10,1.17%
43,0,10,1.17%
44,0,10,1.17%
45,0,10,1.17%
46,0,10,1.17%
47,0,10,1.17%
48,0,10,1.17%
49,0,10,1.17%
50,0,10,1.17%
51,0,10,1.17%
52,2,12,1.4%
53,0,12,1.4%
54,0,12,1.4%
55,0,12,1.4%
56,0,12,1.4%
57,0,12,1.4%
58,0,12,1.4%
59,0,12,1.4%
60,0,12,1.4%
61,0,12,1.4%
62,0,12,1.4%
63,1,13,1.52%
64,0,13,1.52%
65,0,13,1.52%
66,0,13,1.52%
67,0,13,1.52%
68,1,14,1.63%
69,0,14,1.63%
70,0,14,1.63%
71,0,14,1.63%
72,0,14,1.63%
73,0,14,1.63%
74,0,14,1.63%
75,0,14,1.63%
76,0,14,1.63%
77,0,14,1.63%
78,0,14,1.63%
79,0,14,1.63%
80,0,14,1.63%
81,0,14,1.63%
82,0,14,1.63%
83,0,14,1.63%
84,0,14,1.63%
85,1,15,1.75%
86,0,15,1.75%
87,0,15,1.75%
88,0,15,1.75%
89,1,16,1.86%
90,0,16,1.86%
91,0,16,1.86%
92,1,17,1.98%
93,0,17,1.98%
94,0,17,1.98%
95,0,17,1.98%
96,1,18,2.1%
97,1,19,2.21%
98,0,19,2.21%
99,0,19,2.21%
100,0,19,2.21%
101,0,19,2.21%
102,1,20,2.33%
103,0,20,2.33%
104,0,20,2.33%
105,0,20,2.33%
106,1,21,2.45%
107,0,21,2.45%
108,0,21,2.45%
109,0,21,2.45%
110,0,21,2.45%
111,0,21,2.45%
112,1,22,2.56%
113,0,22,2.56%
114,1,23,2.68%
115,0,23,2.68%
116,0,23,2.68%
117,0,23,2.68%
118,0,23,2.68%
119,1,24,2.8%
120,0,24,2.8%
121,0,24,2.8%
122,0,24,2.8%
123,0,24,2.8%
124,0,24,2.8%
125,1,25,2.91%
126,0,25,2.91%
127,0,25,2.91%
128,1,26,3.03%
129,0,26,3.03%
130,0,26,3.03%
131,0,26,3.03%
132,0,26,3.03%
133,0,26,3.03%
134,0,26,3.03%
135,0,26,3.03%
136,0,26,3.03%
137,0,26,3.03%
138,0,26,3.03%
139,0,26,3.03%
140,0,26,3.03%
141,0,26,3.03%
142,0,26,3.03%
143,1,27,3.15%
144,0,27,3.15%
145,2,29,3.38%
146,0,29,3.38%
147,0,29,3.38%
148,2,31,3.61%
149,0,31,3.61%
150,1,32,3.73%
151,1,33,3.85%
152,0,33,3.85%
153,0,33,3.85%
154,2,35,4.08%
155,1,36,4.2%
156,0,36,4.2%
157,0,36,4.2%
158,0,36,4.2%
159,0,36,4.2%
160,0,36,4.2%
161,0,36,4.2%
162,1,37,4.31%
163,0,37,4.31%
164,0,37,4.31%
165,0,37,4.31%
166,0,37,4.31%
167,0,37,4.31%
168,0,37,4.31%
169,0,37,4.31%
170,1,38,4.43%
171,0,38,4.43%
172,0,38,4.43%
173,0,38,4.43%
174,0,38,4.43%
175,0,38,4.43%
176,0,38,4.43%
177,0,38,4.43%
178,0,38,4.43%
179,0,38,4.43%
180,1,39,4.55%
181,1,40,4.66%
182,0,40,4.66%
183,0,40,4.66%
184,1,41,4.78%
185,0,41,4.78%
186,0,41,4.78%
187,0,41,4.78%
188,0,41,4.78%
189,0,41,4.78%
190,0,41,4.78%
191,0,41,4.78%
192,1,42,4.9%
193,1,43,5.01%
194,0,43,5.01%
195,0,43,5.01%
196,0,43,5.01%
197,0,43,5.01%
198,0,43,5.01%
199,0,43,5.01%
200,2,45,5.24%
201,1,46,5.36%
202,1,47,5.48%
203,0,47,5.48%
204,0,47,5.48%
205,0,47,5.48%
206,0,47,5.48%
207,0,47,5.48%
208,0,47,5.48%
209,0,47,5.48%
210,0,47,5.48%
211,0,47,5.48%
212,1,48,5.59%
213,1,49,5.71%
214,0,49,5.71%
215,1,50,5.83%
216,0,50,5.83%
217,1,51,5.94%
218,0,51,5.94%
219,0,51,5.94%
220,0,51,5.94%
221,0,51,5.94%
222,0,51,5.94%
223,0,51,5.94%
224,0,51,5.94%
225,0,51,5.94%
226,0,51,5.94%
227,0,51,5.94%
228,0,51,5.94%
229,0,51,5.94%
230,0,51,5.94%
231,1,52,6.06%
232,0,52,6.06%
233,0,52,6.06%
234,0,52,6.06%
235,0,52,6.06%
236,1,53,6.18%
237,0,53,6.18%
238,0,53,6.18%
239,0,53,6.18%
240,1,54,6.29%
241,0,54,6.29%
242,0,54,6.29%
243,1,55,6.41%
244,1,56,6.53%
245,0,56,6.53%
246,0,56,6.53%
247,0,56,6.53%
248,0,56,6.53%
249,0,56,6.53%
250,0,56,6.53%
251,0,56,6.53%
252,1,57,6.64%
253,0,57,6.64%
254,0,57,6.64%
255,1,58,6.76%
256,0,58,6.76%
257,0,58,6.76%
258,0,58,6.76%
259,1,59,6.88%
260,0,59,6.88%
261,0,59,6.88%
262,0,59,6.88%
263,1,60,6.99%
264,0,60,6.99%
265,1,61,7.11%
266,0,61,7.11%
267,0,61,7.11%
268,0,61,7.11%
269,0,61,7.11%
270,3,64,7.46%
271,0,64,7.46%
272,0,64,7.46%
273,0,64,7.46%
274,1,65,7.58%
275,1,66,7.69%
276,0,66,7.69%
277,0,66,7.69%
278,0,66,7.69%
279,0,66,7.69%
280,0,66,7.69%
281,2,68,7.93%
282,0,68,7.93%
283,0,68,7.93%
284,0,68,7.93%
285,0,68,7.93%
286,0,68,7.93%
287,0,68,7.93%
288,0,68,7.93%
289,0,68,7.93%
290,0,68,7.93%
291,0,68,7.93%
292,0,68,7.93%
293,0,68,7.93%
294,0,68,7.93%
295,0,68,7.93%
296,1,69,8.04%
297,0,69,8.04%
298,0,69,8.04%
299,0,69,8.04%
300,0,69,8.04%
301,0,69,8.04%
302,0,69,8.04%
303,3,72,8.39%
304,0,72,8.39%
305,0,72,8.39%
306,0,72,8.39%
307,0,72,8.39%
308,0,72,8.39%
309,0,72,8.39%
310,0,72,8.39%
311,2,74,8.62%
312,0,74,8.62%
313,1,75,8.74%
314,0,75,8.74%
315,0,75,8.74%
316,0,75,8.74%
317,0,75,8.74%
318,0,75,8.74%
319,0,75,8.74%
320,0,75,8.74%
321,1,76,8.86%
322,0,76,8.86%
323,0,76,8.86%
324,0,76,8.86%
325,2,78,9.09%
326,0,78,9.09%
327,0,78,9.09%
328,0,78,9.09%
329,0,78,9.09%
330,0,78,9.09%
331,0,78,9.09%
332,0,78,9.09%
333,1,79,9.21%
334,0,79,9.21%
335,0,79,9.21%
336,0,79,9.21%
337,0,79,9.21%
338,0,79,9.21%
339,0,79,9.21%
340,0,79,9.21%
341,0,79,9.21%
342,0,79,9.21%
343,1,80,9.32%
344,0,80,9.32%
345,0,80,9.32%
346,0,80,9.32%
347,0,80,9.32%
348,0,80,9.32%
349,1,81,9.44%
350,1,82,9.56%
351,15,97,11.31%
352,10,107,12.47%
353,0,107,12.47%
354,0,107,12.47%
355,0,107,12.47%
356,0,107,12.47%
357,0,107,12.47%
358,5,112,13.05%
359,0,112,13.05%
360,3,115,13.4%
361,1,116,13.52%
362,0,116,13.52%
363,1,117,13.64%
364,0,117,13.64%
365,0,117,13.64%
366,1,118,13.75%
367,0,118,13.75%
368,0,118,13.75%
369,0,118,13.75%
370,0,118,13.75%
371,0,118,13.75%
372,2,120,13.99%
373,0,120,13.99%
374,0,120,13.99%
375,0,120,13.99%
376,0,120,13.99%
377,1,121,14.1%
378,0,121,14.1%
379,0,121,14.1%
380,0,121,14.1%
381,0,121,14.1%
382,1,122,14.22%
383,0,122,14.22%
384,0,122,14.22%
385,0,122,14.22%
386,1,123,14.34%
387,0,123,14.34%
388,0,123,14.34%
389,0,123,14.34%
390,0,123,14.34%
391,0,123,14.34%
392,0,123,14.34%
393,1,124,14.45%
394,0,124,14.45%
395,0,124,14.45%
396,1,125,14.57%
397,1,126,14.69%
398,0,126,14.69%
399,0,126,14.69%
400,0,126,14.69%
401,0,126,14.69%
402,0,126,14.69%
403,0,126,14.69%
404,0,126,14.69%
405,0,126,14.69%
406,2,128,14.92%
407,0,128,14.92%
408,0,128,14.92%
409,1,129,15.03%
410,0,129,15.03%
411,1,130,15.15%
412,1,131,15.27%
413,0,131,15.27%
414,0,131,15.27%
415,0,131,15.27%
416,0,131,15.27%
417,0,131,15.27%
418,0,131,15.27%
419,0,131,15.27%
420,0,131,15.27%
421,0,131,15.27%
422,1,132,15.38%
423,0,132,15.38%
424,1,133,15.5%
425,0,133,15.5%
426,0,133,15.5%
427,1,134,15.62%
428,0,134,15.62%
429,0,134,15.62%
430,0,134,15.62%
431,0,134,15.62%
432,0,134,15.62%
433,0,134,15.62%
434,0,134,15.62%
435,1,135,15.73%
436,0,135,15.73%
437,0,135,15.73%
438,0,135,15.73%
439,0,135,15.73%
440,1,136,15.85%
441,1,137,15.97%
442,1,138,16.08%
443,0,138,16.08%
444,1,139,16.2%
445,0,139,16.2%
446,2,141,16.43%
447,0,141,16.43%
448,0,141,16.43%
449,0,141,16.43%
450,0,141,16.43%
451,0,141,16.43%
452,0,141,16.43%
453,1,142,16.55%
454,0,142,16.55%
455,1,143,16.67%
456,0,143,16.67%
457,0,143,16.67%
458,0,143,16.67%
459,0,143,16.67%
460,0,143,16.67%
461,0,143,16.67%
462,0,143,16.67%
463,0,143,16.67%
464,0,143,16.67%
465,1,144,16.78%
466,0,144,16.78%
467,1,145,16.9%
468,1,146,17.02%
469,0,146,17.02%
470,0,146,17.02%
471,0,146,17.02%
472,0,146,17.02%
473,0,146,17.02%
474,1,147,17.13%
475,0,147,17.13%
476,0,147,17.13%
477,0,147,17.13%
478,0,147,17.13%
479,1,148,17.25%
480,0,148,17.25%
481,1,149,17.37%
482,1,150,17.48%
483,0,150,17.48%
484,0,150,17.48%
485,0,150,17.48%
486,0,150,17.48%
487,1,151,17.6%
488,0,151,17.6%
489,0,151,17.6%
490,1,152,17.72%
491,1,153,17.83%
492,0,153,17.83%
493,0,153,17.83%
494,0,153,17.83%
495,1,154,17.95%
496,1,155,18.07%
497,0,155,18.07%
498,0,155,18.07%
499,0,155,18.07%
500,0,155,18.07%
501,0,155,18.07%
502,0,155,18.07%
503,1,156,18.18%
504,0,156,18.18%
505,0,156,18.18%
506,0,156,18.18%
507,0,156,18.18%
508,0,156,18.18%
509,0,156,18.18%
510,0,156,18.18%
511,0,156,18.18%
512,1,157,18.3%
513,0,157,18.3%
514,0,157,18.3%
515,0,157,18.3%
516,1,158,18.41%
517,0,158,18.41%
518,0,158,18.41%
519,2,160,18.65%
520,0,160,18.65%
521,0,160,18.65%
522,0,160,18.65%
523,0,160,18.65%
524,0,160,18.65%
525,0,160,18.65%
526,0,160,18.65%
527,0,160,18.65%
528,1,161,18.76%
529,1,162,18.88%
530,0,162,18.88%
531,0,162,18.88%
532,0,162,18.88%
533,1,163,19.0%
534,1,164,19.11%
535,0,164,19.11%
536,0,164,19.11%
537,0,164,19.11%
538,0,164,19.11%
539,0,164,19.11%
540,0,164,19.11%
541,0,164,19.11%
542,0,164,19.11%
543,0,164,19.11%
544,0,164,19.11%
545,0,164,19.11%
546,1,165,19.23%
547,0,165,19.23%
548,0,165,19.23%
549,1,166,19.35%
550,0,166,19.35%
551,0,166,19.35%
552,0,166,19.35%
553,0,166,19.35%
554,1,167,19.46%
555,0,167,19.46%
556,0,167,19.46%
557,0,167,19.46%
558,0,167,19.46%
559,0,167,19.46%
560,0,167,19.46%
561,0,167,19.46%
562,0,167,19.46%
563,0,167,19.46%
564,1,168,19.58%
565,0,168,19.58%
566,0,168,19.58%
567,1,169,19.7%
568,0,169,19.7%
569,0,169,19.7%
570,0,169,19.7%
571,1,170,19.81%
572,1,171,19.93%
573,2,173,20.16%
574,0,173,20.16%
575,0,173,20.16%
576,8,181,21.1%
577,0,181,21.1%
578,0,181,21.1%
579,1,182,21.21%
580,0,182,21.21%
581,0,182,21.21%
582,0,182,21.21%
583,0,182,21.21%
584,0,182,21.21%
585,1,183,21.33%
586,0,183,21.33%
587,0,183,21.33%
588,0,183,21.33%
589,0,183,21.33%
590,1,184,21.45%
591,0,184,21.45%
592,0,184,21.45%
593,0,184,21.45%
594,0,184,21.45%
595,0,184,21.45%
596,1,185,21.56%
597,0,185,21.56%
598,0,185,21.56%
599,1,186,21.68%
600,0,186,21.68%
601,0,186,21.68%
602,0,186,21.68%
603,1,187,21.79%
604,1,188,21.91%
605,0,188,21.91%
606,0,188,21.91%
607,0,188,21.91%
608,2,190,22.14%
609,0,190,22.14%
610,0,190,22.14%
611,0,190,22.14%
612,1,191,22.26%
613,0,191,22.26%
614,0,191,22.26%
615,0,191,22.26%
616,0,191,22.26%
617,0,191,22.26%
618,0,191,22.26%
619,0,191,22.26%
620,0,191,22.26%
621,0,191,22.26%
622,1,192,22.38%
623,0,192,22.38%
624,1,193,22.49%
625,0,193,22.49%
626,2,195,22.73%
627,0,195,22.73%
628,0,195,22.73%
629,0,195,22.73%
630,0,195,22.73%
631,0,195,22.73%
632,1,196,22.84%
633,0,196,22.84%
634,0,196,22.84%
635,1,197,22.96%
636,0,197,22.96%
637,0,197,22.96%
638,0,197,22.96%
639,0,197,22.96%
640,0,197,22.96%
641,0,197,22.96%
642,0,197,22.96%
643,1,198,23.08%
644,0,198,23.08%
645,0,198,23.08%
646,0,198,23.08%
647,1,199,23.19%
648,0,199,23.19%
649,1,200,23.31%
650,0,200,23.31%
651,0,200,23.31%
652,0,200,23.31%
653,1,201,23.43%
654,0,201,23.43%
655,0,201,23.43%
656,0,201,23.43%
657,0,201,23.43%
658,0,201,23.43%
659,0,201,23.43%
660,0,201,23.43%
661,0,201,23.43%
662,0,201,23.43%
663,1,202,23.54%
664,0,202,23.54%
665,0,202,23.54%
666,0,202,23.54%
667,0,202,23.54%
668,0,202,23.54%
669,0,202,23.54%
670,0,202,23.54%
671,0,202,23.54%
672,0,202,23.54%
673,0,202,23.54%
674,0,202,23.54%
675,0,202,23.54%
676,0,202,23.54%
677,1,203,23.66%
678,0,203,23.66%
679,0,203,23.66%
680,0,203,23.66%
681,0,203,23.66%
682,0,203,23.66%
683,1,204,23.78%
684,0,204,23.78%
685,0,204,23.78%
686,0,204,23.78%
687,0,204,23.78%
688,0,204,23.78%
689,0,204,23.78%
690,0,204,23.78%
691,0,204,23.78%
692,0,204,23.78%
693,5,209,24.36%
694,0,209,24.36%
695,0,209,24.36%
696,0,209,24.36%
697,0,209,24.36%
698,0,209,24.36%
699,0,209,24.36%
700,0,209,24.36%
701,0,209,24.36%
702,0,209,24.36%
703,0,209,24.36%
704,1,210,24.48%
705,1,211,24.59%
706,0,211,24.59%
707,0,211,24.59%
708,0,211,24.59%
709,0,211,24.59%
710,0,211,24.59%
711,0,211,24.59%
712,0,211,24.59%
713,0,211,24.59%
714,0,211,24.59%
715,0,211,24.59%
716,0,211,24.59%
717,0,211,24.59%
718,0,211,24.59%
719,1,212,24.71%
720,0,212,24.71%
721,0,212,24.71%
722,0,212,24.71%
723,0,212,24.71%
724,0,212,24.71%
725,1,213,24.83%
726,0,213,24.83%
727,1,214,24.94%
728,1,215,25.06%
729,0,215,25.06%
730,0,215,25.06%
731,0,215,25.06%
732,0,215,25.06%
733,0,215,25.06%
734,0,215,25.06%
735,1,216,25.17%
736,0,216,25.17%
737,1,217,25.29%
738,0,217,25.29%
739,1,218,25.41%
740,0,218,25.41%
741,1,219,25.52%
742,0,219,25.52%
743,0,219,25.52%
744,1,220,25.64%
745,0,220,25.64%
746,0,220,25.64%
747,0,220,25.64%
748,0,220,25.64%
749,0,220,25.64%
750,0,220,25.64%
751,0,220,25.64%
752,0,220,25.64%
753,1,221,25.76%
754,1,222,25.87%
755,0,222,25.87%
756,0,222,25.87%
757,0,222,25.87%
758,0,222,25.87%
759,0,222,25.87%
760,0,222,25.87%
761,0,222,25.87%
762,2,224,26.11%
763,0,224,26.11%
764,0,224,26.11%
765,0,224,26.11%
766,1,225,26.22%
767,0,225,26.22%
768,0,225,26.22%
769,1,226,26.34%
770,0,226,26.34%
771,0,226,26.34%
772,0,226,26.34%
773,0,226,26.34%
774,1,227,26.46%
775,1,228,26.57%
776,0,228,26.57%
777,0,228,26.57%
778,1,229,26.69%
779,0,229,26.69%
780,0,229,26.69%
781,0,229,26.69%
782,0,229,26.69%
783,0,229,26.69%
784,0,229,26.69%
785,1,230,26.81%
786,0,230,26.81%
787,0,230,26.81%
788,0,230,26.81%
789,0,230,26.81%
790,0,230,26.81%
791,0,230,26.81%
792,1,231,26.92%
793,0,231,26.92%
794,0,231,26.92%
795,3,234,27.27%
796,0,234,27.27%
797,0,234,27.27%
798,0,234,27.27%
799,0,234,27.27%
800,0,234,27.27%
801,0,234,27.27%
802,0,234,27.27%
803,0,234,27.27%
804,1,235,27.39%
805,0,235,27.39%
806,0,235,27.39%
807,0,235,27.39%
808,1,236,27.51%
809,0,236,27.51%
810,0,236,27.51%
811,0,236,27.51%
812,0,236,27.51%
813,0,236,27.51%
814,0,236,27.51%
815,0,236,27.51%
816,2,238,27.74%
817,0,238,27.74%
818,0,238,27.74%
819,0,238,27.74%
820,0,238,27.74%
821,0,238,27.74%
822,0,238,27.74%
823,0,238,27.74%
824,0,238,27.74%
825,0,238,27.74%
826,0,238,27.74%
827,0,238,27.74%
828,0,238,27.74%
829,0,238,27.74%
830,0,238,27.74%
831,0,238,27.74%
832,0,238,27.74%
833,0,238,27.74%
834,0,238,27.74%
835,0,238,27.74%
836,0,238,27.74%
837,1,239,27.86%
838,0,239,27.86%
839,0,239,27.86%
840,2,241,28.09%
841,0,241,28.09%
842,0,241,28.09%
843,0,241,28.09%
844,1,242,28.21%
845,0,242,28.21%
846,0,242,28.21%
847,0,242,28.21%
848,0,242,28.21%
849,0,242,28.21%
850,0,242,28.21%
851,0,242,28.21%
852,0,242,28.21%
853,0,242,28.21%
854,0,242,28.21%
855,0,242,28.21%
856,1,243,28.32%
857,0,243,28.32%
858,0,243,28.32%
859,0,243,28.32%
860,0,243,28.32%
861,0,243,28.32%
862,9,252,29.37%
863,0,252,29.37%
864,1,253,29.49%
865,0,253,29.49%
866,0,253,29.49%
867,0,253,29.49%
868,0,253,29.49%
869,0,253,29.49%
870,0,253,29.49%
871,1,254,29.6%
872,0,254,29.6%
873,0,254,29.6%
874,0,254,29.6%
875,0,254,29.6%
876,1,255,29.72%
877,0,255,29.72%
878,0,255,29.72%
879,1,256,29.84%
880,0,256,29.84%
881,1,257,29.95%
882,0,257,29.95%
883,0,257,29.95%
884,1,258,30.07%
885,0,258,30.07%
886,0,258,30.07%
887,0,258,30.07%
888,0,258,30.07%
889,0,258,30.07%
890,0,258,30.07%
891,0,258,30.07%
892,0,258,30.07%
893,0,258,30.07%
894,1,259,30.19%
895,0,259,30.19%
896,1,260,30.3%
897,0,260,30.3%
898,0,260,30.3%
899,0,260,30.3%
900,0,260,30.3%
901,1,261,30.42%
902,0,261,30.42%
903,0,261,30.42%
904,1,262,30.54%
905,0,262,30.54%
906,1,263,30.65%
907,1,264,30.77%
908,0,264,30.77%
909,0,264,30.77%
910,0,264,30.77%
911,0,264,30.77%
912,0,264,30.77%
913,0,264,30.77%
914,0,264,30.77%
915,0,264,30.77%
916,0,264,30.77%
917,0,264,30.77%
918,0,264,30.77%
919,0,264,30.77%
920,0,264,30.77%
921,0,264,30.77%
922,0,264,30.77%
923,0,264,30.77%
924,0,264,30.77%
925,0,264,30.77%
926,0,264,30.77%
927,1,265,30.89%
928,2,267,31.12%
929,0,267,31.12%
930,0,267,31.12%
931,1,268,31.24%
932,0,268,31.24%
933,1,269,31.35%
934,0,269,31.35%
935,1,270,31.47%
936,0,270,31.47%
937,0,270,31.47%
938,0,270,31.47%
939,0,270,31.47%
940,0,270,31.47%
941,1,271,31.59%
942,1,272,31.7%
943,0,272,31.7%
944,0,272,31.7%
945,0,272,31.7%
946,1,273,31.82%
947,1,274,31.93%
948,0,274,31.93%
949,0,274,31.93%
950,0,274,31.93%
951,0,274,31.93%
952,0,274,31.93%
953,0,274,31.93%
954,0,274,31.93%
955,0,274,31.93%
956,1,275,32.05%
957,0,275,32.05%
958,0,275,32.05%
959,0,275,32.05%
960,1,276,32.17%
961,0,276,32.17%
962,0,276,32.17%
963,0,276,32.17%
964,1,277,32.28%
965,0,277,32.28%
966,0,277,32.28%
967,0,277,32.28%
968,0,277,32.28%
969,0,277,32.28%
970,0,277,32.28%
971,0,277,32.28%
972,0,277,32.28%
973,0,277,32.28%
974,0,277,32.28%
975,0,277,32.28%
976,0,277,32.28%
977,0,277,32.28%
978,0,277,32.28%
979,1,278,32.4%
980,0,278,32.4%
981,0,278,32.4%
982,0,278,32.4%
983,0,278,32.4%
984,0,278,32.4%
985,1,279,32.52%
986,0,279,32.52%
987,1,280,32.63%
988,0,280,32.63%
989,1,281,32.75%
990,0,281,32.75%
991,2,283,32.98%
992,0,283,32.98%
993,1,284,33.1%
994,1,285,33.22%
995,0,285,33.22%
996,0,285,33.22%
997,0,285,33.22%
998,1,286,33.33%
999,1,287,33.45%
1000,1,288,33.57%
1001,0,288,33.57%
1002,0,288,33.57%
1003,0,288,33.57%
1004,0,288,33.57%
1005,0,288,33.57%
1006,0,288,33.57%
1007,0,288,33.57%
1008,0,288,33.57%
1009,0,288,33.57%
1010,0,288,33.57%
1011,0,288,33.57%
1012,0,288,33.57%
1013,0,288,33.57%
1014,0,288,33.57%
1015,0,288,33.57%
1016,1,289,33.68%
1017,0,289,33.68%
1018,0,289,33.68%
1019,0,289,33.68%
1020,0,289,33.68%
1021,0,289,33.68%
1022,0,289,33.68%
1023,0,289,33.68%
1024,0,289,33.68%
1025,1,290,33.8%
1026,0,290,33.8%
1027,0,290,33.8%
1028,0,290,33.8%
1029,1,291,33.92%
1030,0,291,33.92%
1031,1,292,34.03%
1032,0,292,34.03%
1033,1,293,34.15%
1034,0,293,34.15%
1035,0,293,34.15%
1036,0,293,34.15%
1037,0,293,34.15%
1038,1,294,34.27%
1039,0,294,34.27%
1040,0,294,34.27%
1041,0,294,34.27%
1042,0,294,34.27%
1043,0,294,34.27%
1044,0,294,34.27%
1045,0,294,34.27%
1046,0,294,34.27%
1047,0,294,34.27%
1048,0,294,34.27%
1049,0,294,34.27%
1050,0,294,34.27%
1051,0,294,34.27%
1052,0,294,34.27%
1053,0,294,34.27%
1054,0,294,34.27%
1055,0,294,34.27%
1056,1,295,34.38%
1057,1,296,34.5%
1058,1,297,34.62%
1059,0,297,34.62%
1060,0,297,34.62%
1061,0,297,34.62%
1062,0,297,34.62%
1063,0,297,34.62%
1064,0,297,34.62%
1065,0,297,34.62%
1066,0,297,34.62%
1067,0,297,34.62%
1068,1,298,34.73%
1069,0,298,34.73%
1070,0,298,34.73%
1071,0,298,34.73%
1072,1,299,34.85%
1073,0,299,34.85%
1074,0,299,34.85%
1075,0,299,34.85%
1076,4,303,35.31%
1077,0,303,35.31%
1078,0,303,35.31%
1079,0,303,35.31%
1080,0,303,35.31%
1081,0,303,35.31%
1082,0,303,35.31%
1083,1,304,35.43%
1084,0,304,35.43%
1085,0,304,35.43%
1086,0,304,35.43%
1087,0,304,35.43%
1088,0,304,35.43%
1089,0,304,35.43%
1090,0,304,35.43%
1091,1,305,35.55%
1092,0,305,35.55%
1093,0,305,35.55%
1094,1,306,35.66%
1095,1,307,35.78%
1096,1,308,35.9%
1097,0,308,35.9%
1098,0,308,35.9%
1099,0,308,35.9%
1100,1,309,36.01%
1101,1,310,36.13%
1102,1,311,36.25%
1103,1,312,36.36%
1104,0,312,36.36%
1105,2,314,36.6%
1106,1,315,36.71%
1107,0,315,36.71%
1108,0,315,36.71%
1109,2,317,36.95%
1110,2,319,37.18%
1111,0,319,37.18%
1112,0,319,37.18%
1113,1,320,37.3%
1114,1,321,37.41%
1115,3,324,37.76%
1116,5,329,38.34%
1117,0,329,38.34%
1118,1,330,38.46%
1119,2,332,38.69%
1120,2,334,38.93%
1121,1,335,39.04%
1122,0,335,39.04%
1123,0,335,39.04%
1124,2,337,39.28%
1125,4,341,39.74%
1126,2,343,39.98%
1127,0,343,39.98%
1128,1,344,40.09%
1129,1,345,40.21%
1130,0,345,40.21%
1131,2,347,40.44%
1132,0,347,40.44%
1133,2,349,40.68%
1134,2,351,40.91%
1135,0,351,40.91%
1136,0,351,40.91%
1137,1,352,41.03%
1138,0,352,41.03%
1139,1,353,41.14%
1140,1,354,41.26%
1141,5,359,41.84%
1142,1,360,41.96%
1143,4,364,42.42%
1144,2,366,42.66%
1145,3,369,43.01%
1146,1,370,43.12%
1147,1,371,43.24%
1148,3,374,43.59%
1149,6,380,44.29%
1150,0,380,44.29%
1151,1,381,44.41%
1152,0,381,44.41%
1153,0,381,44.41%
1154,1,382,44.52%
1155,1,383,44.64%
1156,0,383,44.64%
1157,3,386,44.99%
1158,5,391,45.57%
1159,2,393,45.8%
1160,3,396,46.15%
1161,0,396,46.15%
1162,3,399,46.5%
1163,2,401,46.74%
1164,0,401,46.74%
1165,0,401,46.74%
1166,0,401,46.74%
1167,0,401,46.74%
1168,4,405,47.2%
1169,3,408,47.55%
1170,1,409,47.67%
1171,0,409,47.67%
1172,0,409,47.67%
1173,7,416,48.48%
1174,3,419,48.83%
1175,0,419,48.83%
1176,2,421,49.07%
1177,0,421,49.07%
1178,1,422,49.18%
1179,1,423,49.3%
1180,2,425,49.53%
1181,0,425,49.53%
1182,1,426,49.65%
1183,6,432,50.35%
1184,10,442,51.52%
1185,2,444,51.75%
1186,2,446,51.98%
1187,6,452,52.68%
1188,0,452,52.68%
1189,0,452,52.68%
1190,0,452,52.68%
1191,4,456,53.15%
1192,2,458,53.38%
1193,0,458,53.38%
1194,2,460,53.61%
1195,0,460,53.61%
1196,2,462,53.85%
1197,3,465,54.2%
1198,2,467,54.43%
1199,3,470,54.78%
1200,0,470,54.78%
1201,1,471,54.9%
1202,0,471,54.9%
1203,4,475,55.36%
1204,2,477,55.59%
1205,0,477,55.59%
1206,0,477,55.59%
1207,2,479,55.83%
1208,0,479,55.83%
1209,0,479,55.83%
1210,0,479,55.83%
1211,1,480,55.94%
1212,1,481,56.06%
1213,0,481,56.06%
1214,0,481,56.06%
1215,0,481,56.06%
1216,2,483,56.29%
1217,2,485,56.53%
1218,0,485,56.53%
1219,0,485,56.53%
1220,0,485,56.53%
1221,1,486,56.64%
1222,4,490,57.11%
1223,0,490,57.11%
1224,0,490,57.11%
1225,1,491,57.23%
1226,1,492,57.34%
1227,0,492,57.34%
1228,0,492,57.34%
1229,0,492,57.34%
1230,2,494,57.58%
1231,3,497,57.93%
1232,3,500,58.28%
1233,1,501,58.39%
1234,0,501,58.39%
1235,1,502,58.51%
1236,2,504,58.74%
1237,2,506,58.97%
1238,1,507,59.09%
1239,0,507,59.09%
1240,4,511,59.56%
1241,7,518,60.37%
1242,4,522,60.84%
1243,1,523,60.96%
1244,0,523,60.96%
1245,0,523,60.96%
1246,3,526,61.31%
1247,1,527,61.42%
1248,0,527,61.42%
1249,1,528,61.54%
1250,3,531,61.89%
1251,2,533,62.12%
1252,0,533,62.12%
1253,0,533,62.12%
1254,0,533,62.12%
1255,0,533,62.12%
1256,2,535,62.35%
1257,3,538,62.7%
1258,0,538,62.7%
1259,0,538,62.7%
1260,0,538,62.7%
1261,0,538,62.7%
1262,0,538,62.7%
1263,0,538,62.7%
1264,2,540,62.94%
1265,1,541,63.05%
1266,1,542,63.17%
1267,2,544,63.4%
1268,1,545,63.52%
1269,2,547,63.75%
1270,5,552,64.34%
1271,0,552,64.34%
1272,0,552,64.34%
1273,2,554,64.57%
1274,4,558,65.03%
1275,8,566,65.97%
1276,1,567,66.08%
1277,0,567,66.08%
1278,2,569,66.32%
1279,4,573,66.78%
1280,1,574,66.9%
1281,0,574,66.9%
1282,0,574,66.9%
1283,1,575,67.02%
1284,4,579,67.48%
1285,2,581,67.72%
1286,0,581,67.72%
1287,0,581,67.72%
1288,2,583,67.95%
1289,2,585,68.18%
1290,0,585,68.18%
1291,0,585,68.18%
1292,0,585,68.18%
1293,2,587,68.41%
1294,3,590,68.76%
1295,0,590,68.76%
1296,0,590,68.76%
1297,4,594,69.23%
1298,2,596,69.46%
1299,2,598,69.7%
1300,2,600,69.93%
1301,2,602,70.16%
1302,2,604,70.4%
1303,2,606,70.63%
1304,3,609,70.98%
1305,2,611,71.21%
1306,1,612,71.33%
1307,2,614,71.56%
1308,244,858,100.0%
