Length, Count, Sum (Counts <= Length), Percent of Nonzero Data, Nonzero Data Count = 579, Zero Data Count = 1265
1,1,1,0.17%
2,0,1,0.17%
3,0,1,0.17%
4,0,1,0.17%
5,0,1,0.17%
6,3,4,0.69%
7,0,4,0.69%
8,0,4,0.69%
9,0,4,0.69%
10,0,4,0.69%
11,0,4,0.69%
12,0,4,0.69%
13,0,4,0.69%
14,1,5,0.86%
15,0,5,0.86%
16,0,5,0.86%
17,0,5,0.86%
18,0,5,0.86%
19,0,5,0.86%
20,0,5,0.86%
21,0,5,0.86%
22,0,5,0.86%
23,0,5,0.86%
24,0,5,0.86%
25,0,5,0.86%
26,0,5,0.86%
27,0,5,0.86%
28,0,5,0.86%
29,0,5,0.86%
30,0,5,0.86%
31,0,5,0.86%
32,0,5,0.86%
33,1,6,1.04%
34,0,6,1.04%
35,0,6,1.04%
36,0,6,1.04%
37,0,6,1.04%
38,0,6,1.04%
39,0,6,1.04%
40,0,6,1.04%
41,0,6,1.04%
42,1,7,1.21%
43,0,7,1.21%
44,0,7,1.21%
45,0,7,1.21%
46,0,7,1.21%
47,1,8,1.38%
48,0,8,1.38%
49,0,8,1.38%
50,0,8,1.38%
51,0,8,1.38%
52,2,10,1.73%
53,0,10,1.73%
54,2,12,2.07%
55,0,12,2.07%
56,0,12,2.07%
57,0,12,2.07%
58,0,12,2.07%
59,0,12,2.07%
60,0,12,2.07%
61,0,12,2.07%
62,1,13,2.25%
63,566,579,100.0%
