Length, Count, Sum (Counts <= Length), Percent of Nonzero Data, Nonzero Data Count = 852, Zero Data Count = 992
1,2,2,0.23%
2,0,2,0.23%
3,1,3,0.35%
4,0,3,0.35%
5,0,3,0.35%
6,0,3,0.35%
7,0,3,0.35%
8,0,3,0.35%
9,0,3,0.35%
10,0,3,0.35%
11,0,3,0.35%
12,0,3,0.35%
13,0,3,0.35%
14,0,3,0.35%
15,0,3,0.35%
16,0,3,0.35%
17,0,3,0.35%
18,0,3,0.35%
19,0,3,0.35%
20,0,3,0.35%
21,0,3,0.35%
22,1,4,0.47%
23,1,5,0.59%
24,0,5,0.59%
25,0,5,0.59%
26,0,5,0.59%
27,0,5,0.59%
28,1,6,0.7%
29,0,6,0.7%
30,1,7,0.82%
31,0,7,0.82%
32,0,7,0.82%
33,0,7,0.82%
34,0,7,0.82%
35,1,8,0.94%
36,0,8,0.94%
37,0,8,0.94%
38,0,8,0.94%
39,1,9,1.06%
40,0,9,1.06%
41,0,9,1.06%
42,0,9,1.06%
43,0,9,1.06%
44,0,9,1.06%
45,1,10,1.17%
46,0,10,1.17%
47,1,11,1.29%
48,0,11,1.29%
49,0,11,1.29%
50,0,11,1.29%
51,0,11,1.29%
52,2,13,1.53%
53,0,13,1.53%
54,0,13,1.53%
55,0,13,1.53%
56,0,13,1.53%
57,0,13,1.53%
58,0,13,1.53%
59,0,13,1.53%
60,0,13,1.53%
61,0,13,1.53%
62,0,13,1.53%
63,1,14,1.64%
64,0,14,1.64%
65,0,14,1.64%
66,0,14,1.64%
67,0,14,1.64%
68,0,14,1.64%
69,0,14,1.64%
70,0,14,1.64%
71,0,14,1.64%
72,0,14,1.64%
73,0,14,1.64%
74,0,14,1.64%
75,0,14,1.64%
76,1,15,1.76%
77,0,15,1.76%
78,0,15,1.76%
79,0,15,1.76%
80,0,15,1.76%
81,2,17,2.0%
82,0,17,2.0%
83,0,17,2.0%
84,0,17,2.0%
85,1,18,2.11%
86,0,18,2.11%
87,2,20,2.35%
88,0,20,2.35%
89,0,20,2.35%
90,0,20,2.35%
91,0,20,2.35%
92,1,21,2.46%
93,0,21,2.46%
94,0,21,2.46%
95,1,22,2.58%
96,1,23,2.7%
97,0,23,2.7%
98,0,23,2.7%
99,0,23,2.7%
100,0,23,2.7%
101,0,23,2.7%
102,0,23,2.7%
103,0,23,2.7%
104,0,23,2.7%
105,0,23,2.7%
106,1,24,2.82%
107,0,24,2.82%
108,0,24,2.82%
109,0,24,2.82%
110,0,24,2.82%
111,0,24,2.82%
112,0,24,2.82%
113,1,25,2.93%
114,0,25,2.93%
115,0,25,2.93%
116,0,25,2.93%
117,0,25,2.93%
118,0,25,2.93%
119,0,25,2.93%
120,0,25,2.93%
121,0,25,2.93%
122,0,25,2.93%
123,0,25,2.93%
124,0,25,2.93%
125,2,27,3.17%
126,1,28,3.29%
127,0,28,3.29%
128,1,29,3.4%
129,0,29,3.4%
130,0,29,3.4%
131,0,29,3.4%
132,0,29,3.4%
133,0,29,3.4%
134,0,29,3.4%
135,0,29,3.4%
136,0,29,3.4%
137,0,29,3.4%
138,0,29,3.4%
139,0,29,3.4%
140,0,29,3.4%
141,0,29,3.4%
142,1,30,3.52%
143,0,30,3.52%
144,0,30,3.52%
145,2,32,3.76%
146,0,32,3.76%
147,0,32,3.76%
148,0,32,3.76%
149,0,32,3.76%
150,2,34,3.99%
151,1,35,4.11%
152,0,35,4.11%
153,0,35,4.11%
154,0,35,4.11%
155,1,36,4.23%
156,0,36,4.23%
157,0,36,4.23%
158,0,36,4.23%
159,0,36,4.23%
160,0,36,4.23%
161,0,36,4.23%
162,0,36,4.23%
163,0,36,4.23%
164,0,36,4.23%
165,0,36,4.23%
166,0,36,4.23%
167,0,36,4.23%
168,0,36,4.23%
169,0,36,4.23%
170,1,37,4.34%
171,0,37,4.34%
172,0,37,4.34%
173,1,38,4.46%
174,0,38,4.46%
175,0,38,4.46%
176,0,38,4.46%
177,0,38,4.46%
178,0,38,4.46%
179,1,39,4.58%
180,0,39,4.58%
181,1,40,4.69%
182,0,40,4.69%
183,0,40,4.69%
184,1,41,4.81%
185,0,41,4.81%
186,0,41,4.81%
187,0,41,4.81%
188,0,41,4.81%
189,0,41,4.81%
190,0,41,4.81%
191,0,41,4.81%
192,0,41,4.81%
193,0,41,4.81%
194,0,41,4.81%
195,0,41,4.81%
196,0,41,4.81%
197,0,41,4.81%
198,0,41,4.81%
199,0,41,4.81%
200,1,42,4.93%
201,1,43,5.05%
202,1,44,5.16%
203,0,44,5.16%
204,0,44,5.16%
205,0,44,5.16%
206,0,44,5.16%
207,0,44,5.16%
208,1,45,5.28%
209,0,45,5.28%
210,0,45,5.28%
211,0,45,5.28%
212,1,46,5.4%
213,0,46,5.4%
214,2,48,5.63%
215,1,49,5.75%
216,0,49,5.75%
217,0,49,5.75%
218,0,49,5.75%
219,0,49,5.75%
220,0,49,5.75%
221,0,49,5.75%
222,0,49,5.75%
223,0,49,5.75%
224,0,49,5.75%
225,0,49,5.75%
226,0,49,5.75%
227,0,49,5.75%
228,0,49,5.75%
229,1,50,5.87%
230,0,50,5.87%
231,1,51,5.99%
232,0,51,5.99%
233,0,51,5.99%
234,0,51,5.99%
235,0,51,5.99%
236,2,53,6.22%
237,0,53,6.22%
238,0,53,6.22%
239,0,53,6.22%
240,0,53,6.22%
241,0,53,6.22%
242,0,53,6.22%
243,1,54,6.34%
244,1,55,6.46%
245,0,55,6.46%
246,1,56,6.57%
247,0,56,6.57%
248,0,56,6.57%
249,0,56,6.57%
250,0,56,6.57%
251,0,56,6.57%
252,1,57,6.69%
253,0,57,6.69%
254,1,58,6.81%
255,1,59,6.92%
256,0,59,6.92%
257,0,59,6.92%
258,0,59,6.92%
259,1,60,7.04%
260,0,60,7.04%
261,0,60,7.04%
262,0,60,7.04%
263,1,61,7.16%
264,0,61,7.16%
265,1,62,7.28%
266,1,63,7.39%
267,0,63,7.39%
268,2,65,7.63%
269,0,65,7.63%
270,1,66,7.75%
271,0,66,7.75%
272,0,66,7.75%
273,0,66,7.75%
274,1,67,7.86%
275,0,67,7.86%
276,0,67,7.86%
277,0,67,7.86%
278,0,67,7.86%
279,0,67,7.86%
280,0,67,7.86%
281,0,67,7.86%
282,0,67,7.86%
283,0,67,7.86%
284,0,67,7.86%
285,0,67,7.86%
286,0,67,7.86%
287,0,67,7.86%
288,0,67,7.86%
289,0,67,7.86%
290,0,67,7.86%
291,0,67,7.86%
292,0,67,7.86%
293,1,68,7.98%
294,0,68,7.98%
295,0,68,7.98%
296,0,68,7.98%
297,0,68,7.98%
298,0,68,7.98%
299,0,68,7.98%
300,0,68,7.98%
301,1,69,8.1%
302,0,69,8.1%
303,0,69,8.1%
304,0,69,8.1%
305,0,69,8.1%
306,0,69,8.1%
307,0,69,8.1%
308,0,69,8.1%
309,0,69,8.1%
310,1,70,8.22%
311,2,72,8.45%
312,0,72,8.45%
313,0,72,8.45%
314,0,72,8.45%
315,0,72,8.45%
316,0,72,8.45%
317,0,72,8.45%
318,0,72,8.45%
319,1,73,8.57%
320,0,73,8.57%
321,0,73,8.57%
322,0,73,8.57%
323,0,73,8.57%
324,0,73,8.57%
325,2,75,8.8%
326,0,75,8.8%
327,0,75,8.8%
328,0,75,8.8%
329,1,76,8.92%
330,0,76,8.92%
331,0,76,8.92%
332,0,76,8.92%
333,1,77,9.04%
334,1,78,9.15%
335,0,78,9.15%
336,0,78,9.15%
337,0,78,9.15%
338,0,78,9.15%
339,0,78,9.15%
340,0,78,9.15%
341,0,78,9.15%
342,1,79,9.27%
343,1,80,9.39%
344,1,81,9.51%
345,0,81,9.51%
346,0,81,9.51%
347,0,81,9.51%
348,0,81,9.51%
349,0,81,9.51%
350,1,82,9.62%
351,15,97,11.38%
352,10,107,12.56%
353,0,107,12.56%
354,0,107,12.56%
355,0,107,12.56%
356,0,107,12.56%
357,1,108,12.68%
358,5,113,13.26%
359,0,113,13.26%
360,3,116,13.62%
361,1,117,13.73%
362,0,117,13.73%
363,1,118,13.85%
364,0,118,13.85%
365,0,118,13.85%
366,1,119,13.97%
367,0,119,13.97%
368,0,119,13.97%
369,0,119,13.97%
370,0,119,13.97%
371,0,119,13.97%
372,2,121,14.2%
373,1,122,14.32%
374,0,122,14.32%
375,1,123,14.44%
376,0,123,14.44%
377,1,124,14.55%
378,0,124,14.55%
379,1,125,14.67%
380,0,125,14.67%
381,0,125,14.67%
382,1,126,14.79%
383,0,126,14.79%
384,0,126,14.79%
385,0,126,14.79%
386,0,126,14.79%
387,0,126,14.79%
388,1,127,14.91%
389,0,127,14.91%
390,0,127,14.91%
391,0,127,14.91%
392,0,127,14.91%
393,1,128,15.02%
394,0,128,15.02%
395,0,128,15.02%
396,0,128,15.02%
397,1,129,15.14%
398,0,129,15.14%
399,0,129,15.14%
400,1,130,15.26%
401,1,131,15.38%
402,0,131,15.38%
403,0,131,15.38%
404,0,131,15.38%
405,0,131,15.38%
406,2,133,15.61%
407,1,134,15.73%
408,0,134,15.73%
409,0,134,15.73%
410,0,134,15.73%
411,0,134,15.73%
412,1,135,15.85%
413,0,135,15.85%
414,1,136,15.96%
415,0,136,15.96%
416,0,136,15.96%
417,0,136,15.96%
418,0,136,15.96%
419,0,136,15.96%
420,0,136,15.96%
421,0,136,15.96%
422,1,137,16.08%
423,0,137,16.08%
424,0,137,16.08%
425,1,138,16.2%
426,0,138,16.2%
427,0,138,16.2%
428,0,138,16.2%
429,0,138,16.2%
430,0,138,16.2%
431,0,138,16.2%
432,0,138,16.2%
433,1,139,16.31%
434,1,140,16.43%
435,1,141,16.55%
436,0,141,16.55%
437,0,141,16.55%
438,1,142,16.67%
439,0,142,16.67%
440,0,142,16.67%
441,1,143,16.78%
442,0,143,16.78%
443,0,143,16.78%
444,0,143,16.78%
445,1,144,16.9%
446,1,145,17.02%
447,0,145,17.02%
448,0,145,17.02%
449,0,145,17.02%
450,0,145,17.02%
451,0,145,17.02%
452,1,146,17.14%
453,0,146,17.14%
454,0,146,17.14%
455,0,146,17.14%
456,0,146,17.14%
457,0,146,17.14%
458,0,146,17.14%
459,0,146,17.14%
460,0,146,17.14%
461,0,146,17.14%
462,0,146,17.14%
463,0,146,17.14%
464,0,146,17.14%
465,0,146,17.14%
466,1,147,17.25%
467,2,149,17.49%
468,0,149,17.49%
469,0,149,17.49%
470,0,149,17.49%
471,0,149,17.49%
472,0,149,17.49%
473,0,149,17.49%
474,0,149,17.49%
475,0,149,17.49%
476,0,149,17.49%
477,0,149,17.49%
478,0,149,17.49%
479,0,149,17.49%
480,0,149,17.49%
481,0,149,17.49%
482,2,151,17.72%
483,0,151,17.72%
484,0,151,17.72%
485,1,152,17.84%
486,0,152,17.84%
487,1,153,17.96%
488,0,153,17.96%
489,0,153,17.96%
490,1,154,18.08%
491,0,154,18.08%
492,0,154,18.08%
493,0,154,18.08%
494,0,154,18.08%
495,1,155,18.19%
496,1,156,18.31%
497,0,156,18.31%
498,0,156,18.31%
499,0,156,18.31%
500,0,156,18.31%
501,0,156,18.31%
502,0,156,18.31%
503,1,157,18.43%
504,0,157,18.43%
505,1,158,18.54%
506,0,158,18.54%
507,0,158,18.54%
508,0,158,18.54%
509,0,158,18.54%
510,0,158,18.54%
511,0,158,18.54%
512,0,158,18.54%
513,0,158,18.54%
514,0,158,18.54%
515,0,158,18.54%
516,0,158,18.54%
517,0,158,18.54%
518,1,159,18.66%
519,1,160,18.78%
520,0,160,18.78%
521,0,160,18.78%
522,0,160,18.78%
523,0,160,18.78%
524,0,160,18.78%
525,0,160,18.78%
526,0,160,18.78%
527,0,160,18.78%
528,1,161,18.9%
529,1,162,19.01%
530,0,162,19.01%
531,0,162,19.01%
532,0,162,19.01%
533,0,162,19.01%
534,0,162,19.01%
535,0,162,19.01%
536,0,162,19.01%
537,1,163,19.13%
538,1,164,19.25%
539,0,164,19.25%
540,0,164,19.25%
541,2,166,19.48%
542,0,166,19.48%
543,0,166,19.48%
544,0,166,19.48%
545,1,167,19.6%
546,1,168,19.72%
547,0,168,19.72%
548,0,168,19.72%
549,0,168,19.72%
550,0,168,19.72%
551,0,168,19.72%
552,0,168,19.72%
553,1,169,19.84%
554,0,169,19.84%
555,0,169,19.84%
556,0,169,19.84%
557,1,170,19.95%
558,0,170,19.95%
559,0,170,19.95%
560,0,170,19.95%
561,0,170,19.95%
562,0,170,19.95%
563,0,170,19.95%
564,2,172,20.19%
565,0,172,20.19%
566,0,172,20.19%
567,1,173,20.31%
568,0,173,20.31%
569,0,173,20.31%
570,0,173,20.31%
571,0,173,20.31%
572,0,173,20.31%
573,2,175,20.54%
574,0,175,20.54%
575,0,175,20.54%
576,9,184,21.6%
577,0,184,21.6%
578,0,184,21.6%
579,1,185,21.71%
580,0,185,21.71%
581,0,185,21.71%
582,0,185,21.71%
583,0,185,21.71%
584,0,185,21.71%
585,0,185,21.71%
586,0,185,21.71%
587,0,185,21.71%
588,0,185,21.71%
589,0,185,21.71%
590,0,185,21.71%
591,0,185,21.71%
592,0,185,21.71%
593,0,185,21.71%
594,0,185,21.71%
595,0,185,21.71%
596,1,186,21.83%
597,0,186,21.83%
598,0,186,21.83%
599,1,187,21.95%
600,0,187,21.95%
601,0,187,21.95%
602,0,187,21.95%
603,1,188,22.07%
604,1,189,22.18%
605,0,189,22.18%
606,0,189,22.18%
607,0,189,22.18%
608,0,189,22.18%
609,0,189,22.18%
610,1,190,22.3%
611,0,190,22.3%
612,0,190,22.3%
613,0,190,22.3%
614,0,190,22.3%
615,0,190,22.3%
616,0,190,22.3%
617,0,190,22.3%
618,0,190,22.3%
619,0,190,22.3%
620,0,190,22.3%
621,0,190,22.3%
622,1,191,22.42%
623,0,191,22.42%
624,0,191,22.42%
625,0,191,22.42%
626,1,192,22.54%
627,0,192,22.54%
628,0,192,22.54%
629,0,192,22.54%
630,0,192,22.54%
631,0,192,22.54%
632,1,193,22.65%
633,0,193,22.65%
634,0,193,22.65%
635,1,194,22.77%
636,0,194,22.77%
637,0,194,22.77%
638,0,194,22.77%
639,0,194,22.77%
640,0,194,22.77%
641,0,194,22.77%
642,0,194,22.77%
643,0,194,22.77%
644,0,194,22.77%
645,0,194,22.77%
646,0,194,22.77%
647,1,195,22.89%
648,0,195,22.89%
649,1,196,23.0%
650,0,196,23.0%
651,0,196,23.0%
652,0,196,23.0%
653,1,197,23.12%
654,0,197,23.12%
655,0,197,23.12%
656,0,197,23.12%
657,0,197,23.12%
658,0,197,23.12%
659,0,197,23.12%
660,1,198,23.24%
661,1,199,23.36%
662,0,199,23.36%
663,0,199,23.36%
664,0,199,23.36%
665,0,199,23.36%
666,0,199,23.36%
667,0,199,23.36%
668,0,199,23.36%
669,0,199,23.36%
670,1,200,23.47%
671,0,200,23.47%
672,0,200,23.47%
673,0,200,23.47%
674,1,201,23.59%
675,0,201,23.59%
676,0,201,23.59%
677,0,201,23.59%
678,0,201,23.59%
679,0,201,23.59%
680,0,201,23.59%
681,0,201,23.59%
682,0,201,23.59%
683,1,202,23.71%
684,0,202,23.71%
685,0,202,23.71%
686,0,202,23.71%
687,0,202,23.71%
688,0,202,23.71%
689,0,202,23.71%
690,0,202,23.71%
691,0,202,23.71%
692,0,202,23.71%
693,5,207,24.3%
694,0,207,24.3%
695,2,209,24.53%
696,0,209,24.53%
697,0,209,24.53%
698,0,209,24.53%
699,1,210,24.65%
700,0,210,24.65%
701,0,210,24.65%
702,0,210,24.65%
703,0,210,24.65%
704,1,211,24.77%
705,1,212,24.88%
706,0,212,24.88%
707,0,212,24.88%
708,1,213,25.0%
709,0,213,25.0%
710,0,213,25.0%
711,0,213,25.0%
712,0,213,25.0%
713,0,213,25.0%
714,0,213,25.0%
715,0,213,25.0%
716,0,213,25.0%
717,0,213,25.0%
718,0,213,25.0%
719,1,214,25.12%
720,0,214,25.12%
721,0,214,25.12%
722,0,214,25.12%
723,0,214,25.12%
724,0,214,25.12%
725,1,215,25.23%
726,0,215,25.23%
727,0,215,25.23%
728,1,216,25.35%
729,0,216,25.35%
730,0,216,25.35%
731,0,216,25.35%
732,0,216,25.35%
733,0,216,25.35%
734,0,216,25.35%
735,1,217,25.47%
736,0,217,25.47%
737,1,218,25.59%
738,0,218,25.59%
739,0,218,25.59%
740,0,218,25.59%
741,0,218,25.59%
742,0,218,25.59%
743,0,218,25.59%
744,1,219,25.7%
745,0,219,25.7%
746,0,219,25.7%
747,0,219,25.7%
748,0,219,25.7%
749,0,219,25.7%
750,0,219,25.7%
751,0,219,25.7%
752,0,219,25.7%
753,1,220,25.82%
754,1,221,25.94%
755,0,221,25.94%
756,0,221,25.94%
757,0,221,25.94%
758,0,221,25.94%
759,0,221,25.94%
760,0,221,25.94%
761,0,221,25.94%
762,0,221,25.94%
763,0,221,25.94%
764,0,221,25.94%
765,0,221,25.94%
766,0,221,25.94%
767,0,221,25.94%
768,0,221,25.94%
769,1,222,26.06%
770,1,223,26.17%
771,0,223,26.17%
772,0,223,26.17%
773,1,224,26.29%
774,1,225,26.41%
775,0,225,26.41%
776,0,225,26.41%
777,0,225,26.41%
778,1,226,26.53%
779,0,226,26.53%
780,0,226,26.53%
781,0,226,26.53%
782,0,226,26.53%
783,0,226,26.53%
784,1,227,26.64%
785,1,228,26.76%
786,0,228,26.76%
787,0,228,26.76%
788,0,228,26.76%
789,0,228,26.76%
790,0,228,26.76%
791,0,228,26.76%
792,1,229,26.88%
793,0,229,26.88%
794,0,229,26.88%
795,11,240,28.17%
796,0,240,28.17%
797,1,241,28.29%
798,0,241,28.29%
799,0,241,28.29%
800,0,241,28.29%
801,0,241,28.29%
802,0,241,28.29%
803,0,241,28.29%
804,1,242,28.4%
805,0,242,28.4%
806,0,242,28.4%
807,0,242,28.4%
808,0,242,28.4%
809,0,242,28.4%
810,0,242,28.4%
811,0,242,28.4%
812,1,243,28.52%
813,0,243,28.52%
814,0,243,28.52%
815,0,243,28.52%
816,2,245,28.76%
817,0,245,28.76%
818,0,245,28.76%
819,0,245,28.76%
820,0,245,28.76%
821,0,245,28.76%
822,0,245,28.76%
823,0,245,28.76%
824,0,245,28.76%
825,0,245,28.76%
826,0,245,28.76%
827,1,246,28.87%
828,0,246,28.87%
829,0,246,28.87%
830,0,246,28.87%
831,0,246,28.87%
832,0,246,28.87%
833,0,246,28.87%
834,0,246,28.87%
835,0,246,28.87%
836,0,246,28.87%
837,1,247,28.99%
838,0,247,28.99%
839,0,247,28.99%
840,1,248,29.11%
841,0,248,29.11%
842,0,248,29.11%
843,0,248,29.11%
844,0,248,29.11%
845,0,248,29.11%
846,0,248,29.11%
847,0,248,29.11%
848,0,248,29.11%
849,0,248,29.11%
850,0,248,29.11%
851,0,248,29.11%
852,0,248,29.11%
853,0,248,29.11%
854,0,248,29.11%
855,0,248,29.11%
856,1,249,29.23%
857,0,249,29.23%
858,0,249,29.23%
859,0,249,29.23%
860,0,249,29.23%
861,0,249,29.23%
862,0,249,29.23%
863,0,249,29.23%
864,0,249,29.23%
865,0,249,29.23%
866,1,250,29.34%
867,0,250,29.34%
868,0,250,29.34%
869,1,251,29.46%
870,0,251,29.46%
871,1,252,29.58%
872,0,252,29.58%
873,0,252,29.58%
874,1,253,29.69%
875,1,254,29.81%
876,1,255,29.93%
877,0,255,29.93%
878,0,255,29.93%
879,0,255,29.93%
880,1,256,30.05%
881,1,257,30.16%
882,0,257,30.16%
883,0,257,30.16%
884,1,258,30.28%
885,0,258,30.28%
886,0,258,30.28%
887,0,258,30.28%
888,0,258,30.28%
889,0,258,30.28%
890,0,258,30.28%
891,0,258,30.28%
892,0,258,30.28%
893,0,258,30.28%
894,0,258,30.28%
895,0,258,30.28%
896,0,258,30.28%
897,0,258,30.28%
898,0,258,30.28%
899,0,258,30.28%
900,0,258,30.28%
901,1,259,30.4%
902,0,259,30.4%
903,0,259,30.4%
904,1,260,30.52%
905,1,261,30.63%
906,1,262,30.75%
907,1,263,30.87%
908,0,263,30.87%
909,0,263,30.87%
910,0,263,30.87%
911,0,263,30.87%
912,0,263,30.87%
913,0,263,30.87%
914,1,264,30.99%
915,0,264,30.99%
916,0,264,30.99%
917,0,264,30.99%
918,0,264,30.99%
919,1,265,31.1%
920,0,265,31.1%
921,0,265,31.1%
922,0,265,31.1%
923,0,265,31.1%
924,1,266,31.22%
925,0,266,31.22%
926,1,267,31.34%
927,1,268,31.46%
928,1,269,31.57%
929,0,269,31.57%
930,0,269,31.57%
931,1,270,31.69%
932,0,270,31.69%
933,1,271,31.81%
934,0,271,31.81%
935,0,271,31.81%
936,0,271,31.81%
937,0,271,31.81%
938,0,271,31.81%
939,1,272,31.92%
940,0,272,31.92%
941,0,272,31.92%
942,1,273,32.04%
943,0,273,32.04%
944,0,273,32.04%
945,0,273,32.04%
946,1,274,32.16%
947,0,274,32.16%
948,0,274,32.16%
949,0,274,32.16%
950,0,274,32.16%
951,0,274,32.16%
952,0,274,32.16%
953,0,274,32.16%
954,0,274,32.16%
955,0,274,32.16%
956,0,274,32.16%
957,0,274,32.16%
958,0,274,32.16%
959,0,274,32.16%
960,0,274,32.16%
961,0,274,32.16%
962,1,275,32.28%
963,0,275,32.28%
964,1,276,32.39%
965,0,276,32.39%
966,0,276,32.39%
967,0,276,32.39%
968,0,276,32.39%
969,0,276,32.39%
970,1,277,32.51%
971,2,279,32.75%
972,0,279,32.75%
973,0,279,32.75%
974,0,279,32.75%
975,0,279,32.75%
976,0,279,32.75%
977,0,279,32.75%
978,0,279,32.75%
979,1,280,32.86%
980,0,280,32.86%
981,0,280,32.86%
982,0,280,32.86%
983,0,280,32.86%
984,0,280,32.86%
985,1,281,32.98%
986,0,281,32.98%
987,1,282,33.1%
988,0,282,33.1%
989,2,284,33.33%
990,1,285,33.45%
991,0,285,33.45%
992,0,285,33.45%
993,0,285,33.45%
994,1,286,33.57%
995,0,286,33.57%
996,0,286,33.57%
997,0,286,33.57%
998,0,286,33.57%
999,0,286,33.57%
1000,0,286,33.57%
1001,0,286,33.57%
1002,0,286,33.57%
1003,0,286,33.57%
1004,0,286,33.57%
1005,1,287,33.69%
1006,0,287,33.69%
1007,0,287,33.69%
1008,0,287,33.69%
1009,0,287,33.69%
1010,0,287,33.69%
1011,0,287,33.69%
1012,0,287,33.69%
1013,0,287,33.69%
1014,0,287,33.69%
1015,0,287,33.69%
1016,1,288,33.8%
1017,0,288,33.8%
1018,0,288,33.8%
1019,0,288,33.8%
1020,0,288,33.8%
1021,0,288,33.8%
1022,0,288,33.8%
1023,0,288,33.8%
1024,1,289,33.92%
1025,1,290,34.04%
1026,0,290,34.04%
1027,0,290,34.04%
1028,1,291,34.15%
1029,1,292,34.27%
1030,0,292,34.27%
1031,0,292,34.27%
1032,0,292,34.27%
1033,1,293,34.39%
1034,0,293,34.39%
1035,0,293,34.39%
1036,0,293,34.39%
1037,0,293,34.39%
1038,0,293,34.39%
1039,0,293,34.39%
1040,0,293,34.39%
1041,0,293,34.39%
1042,0,293,34.39%
1043,0,293,34.39%
1044,0,293,34.39%
1045,0,293,34.39%
1046,0,293,34.39%
1047,0,293,34.39%
1048,0,293,34.39%
1049,0,293,34.39%
1050,0,293,34.39%
1051,1,294,34.51%
1052,0,294,34.51%
1053,1,295,34.62%
1054,0,295,34.62%
1055,0,295,34.62%
1056,0,295,34.62%
1057,1,296,34.74%
1058,0,296,34.74%
1059,0,296,34.74%
1060,0,296,34.74%
1061,0,296,34.74%
1062,0,296,34.74%
1063,0,296,34.74%
1064,0,296,34.74%
1065,0,296,34.74%
1066,0,296,34.74%
1067,0,296,34.74%
1068,1,297,34.86%
1069,0,297,34.86%
1070,0,297,34.86%
1071,0,297,34.86%
1072,1,298,34.98%
1073,0,298,34.98%
1074,0,298,34.98%
1075,0,298,34.98%
1076,4,302,35.45%
1077,0,302,35.45%
1078,0,302,35.45%
1079,0,302,35.45%
1080,0,302,35.45%
1081,0,302,35.45%
1082,0,302,35.45%
1083,0,302,35.45%
1084,0,302,35.45%
1085,0,302,35.45%
1086,0,302,35.45%
1087,0,302,35.45%
1088,0,302,35.45%
1089,0,302,35.45%
1090,1,303,35.56%
1091,1,304,35.68%
1092,0,304,35.68%
1093,0,304,35.68%
1094,2,306,35.92%
1095,0,306,35.92%
1096,1,307,36.03%
1097,0,307,36.03%
1098,0,307,36.03%
1099,0,307,36.03%
1100,1,308,36.15%
1101,1,309,36.27%
1102,1,310,36.38%
1103,1,311,36.5%
1104,0,311,36.5%
1105,2,313,36.74%
1106,1,314,36.85%
1107,1,315,36.97%
1108,0,315,36.97%
1109,3,318,37.32%
1110,2,320,37.56%
1111,0,320,37.56%
1112,0,320,37.56%
1113,2,322,37.79%
1114,1,323,37.91%
1115,3,326,38.26%
1116,5,331,38.85%
1117,0,331,38.85%
1118,1,332,38.97%
1119,2,334,39.2%
1120,1,335,39.32%
1121,1,336,39.44%
1122,0,336,39.44%
1123,0,336,39.44%
1124,1,337,39.55%
1125,4,341,40.02%
1126,2,343,40.26%
1127,0,343,40.26%
1128,1,344,40.38%
1129,1,345,40.49%
1130,0,345,40.49%
1131,2,347,40.73%
1132,0,347,40.73%
1133,2,349,40.96%
1134,2,351,41.2%
1135,1,352,41.31%
1136,0,352,41.31%
1137,1,353,41.43%
1138,0,353,41.43%
1139,1,354,41.55%
1140,0,354,41.55%
1141,4,358,42.02%
1142,1,359,42.14%
1143,5,364,42.72%
1144,2,366,42.96%
1145,3,369,43.31%
1146,1,370,43.43%
1147,1,371,43.54%
1148,3,374,43.9%
1149,8,382,44.84%
1150,0,382,44.84%
1151,0,382,44.84%
1152,0,382,44.84%
1153,0,382,44.84%
1154,1,383,44.95%
1155,1,384,45.07%
1156,0,384,45.07%
1157,2,386,45.31%
1158,4,390,45.77%
1159,2,392,46.01%
1160,3,395,46.36%
1161,0,395,46.36%
1162,3,398,46.71%
1163,2,400,46.95%
1164,0,400,46.95%
1165,0,400,46.95%
1166,0,400,46.95%
1167,1,401,47.07%
1168,4,405,47.54%
1169,3,408,47.89%
1170,1,409,48.0%
1171,0,409,48.0%
1172,0,409,48.0%
1173,7,416,48.83%
1174,3,419,49.18%
1175,0,419,49.18%
1176,1,420,49.3%
1177,0,420,49.3%
1178,1,421,49.41%
1179,1,422,49.53%
1180,1,423,49.65%
1181,0,423,49.65%
1182,1,424,49.77%
1183,6,430,50.47%
1184,12,442,51.88%
1185,1,443,52.0%
1186,2,445,52.23%
1187,6,451,52.93%
1188,0,451,52.93%
1189,0,451,52.93%
1190,0,451,52.93%
1191,4,455,53.4%
1192,2,457,53.64%
1193,0,457,53.64%
1194,2,459,53.87%
1195,0,459,53.87%
1196,2,461,54.11%
1197,3,464,54.46%
1198,2,466,54.69%
1199,2,468,54.93%
1200,0,468,54.93%
1201,1,469,55.05%
1202,0,469,55.05%
1203,4,473,55.52%
1204,2,475,55.75%
1205,0,475,55.75%
1206,0,475,55.75%
1207,2,477,55.99%
1208,0,477,55.99%
1209,0,477,55.99%
1210,0,477,55.99%
1211,1,478,56.1%
1212,1,479,56.22%
1213,0,479,56.22%
1214,0,479,56.22%
1215,0,479,56.22%
1216,0,479,56.22%
1217,2,481,56.46%
1218,0,481,56.46%
1219,0,481,56.46%
1220,0,481,56.46%
1221,1,482,56.57%
1222,4,486,57.04%
1223,0,486,57.04%
1224,0,486,57.04%
1225,1,487,57.16%
1226,1,488,57.28%
1227,0,488,57.28%
1228,0,488,57.28%
1229,0,488,57.28%
1230,2,490,57.51%
1231,3,493,57.86%
1232,5,498,58.45%
1233,1,499,58.57%
1234,0,499,58.57%
1235,1,500,58.69%
1236,2,502,58.92%
1237,2,504,59.15%
1238,1,505,59.27%
1239,0,505,59.27%
1240,5,510,59.86%
1241,342,852,100.0%
