Ticker,Degree
AAC,0
AADR,1
AAII,0
AAN,1
AAT,1
ABAC,1
ABCS,0
ABH,0
ABUS,1
ACEL,0
ACET,1
ACMP,1
ACNB,1
ACO,1
ACP,1
ACRX,1
ACTV,0
ACUR,1
ADG,0
ADM,1
ADPT,0
ADX,1
AEGR,1
AEPI,1
AERL,0
AFT,1
AG,1
AGII,1
AGLS,1
AGOL,1
AGRG,0
AGRO,1
AIM,0
AIN,1
AIRM,1
AIRT,1
AKRX,1
AL,1
ALAN,0
ALCO,1
ALD,1
ALEX,0
ALRN,0
ALTA,0
ALUM,0
AMAG,1
AMAP,1
AMBO,0
AMBT,1
AMCE,0
AMCX,1
AMFI,0
AMID,1
AMLP,1
AMPE,1
AMRC,1
AMRS,1
AMTG,1
AMWD,1
ANAC,1
ANCB,1
AND,1
APO,1
APPA,0
APTS,1
ARCO,1
ARGT,1
ARX,1
ASBI,1
ASEA,1
ASMB,1
ASMI,1
ASTE,1
AT,1
ATNY,1
ATRI,1
ATU,1
AVAN,0
AVD,1
AVL,1
AWAY,1
AXB,0
AXDI,1
AXEN,1
AXGN,1
AXHE,1
AXID,1
AXIT,1
AXMT,1
AXSL,1
AXTE,1
AXUT,1
AYE,0
BABZ,1
BAH,1
BARN,0
BBN,1
BBRG,1
BC,1
BCDS,0
BCPC,1
BCX,1
BEAM,1
BGMD,1
BGX,1
BITA,1
BKLN,1
BKSC,1
BKU,1
BLRX,1
BMC,0
BNHNA,0
BNT,0
BODY,1
BONA,1
BONE,1
BONO,0
BOX,0
BRAF,1
BRAQ,1
BRL,0
BRLI,1
BRP,1
BRY,0
BSJC,0
BSJD,0
BSJE,1
BSJF,1
BTFG,0
BWC,1
BWINB,1
BWS,1
BWXT,1
CADA,0
CAL,1
CAMD,0
CARB,1
CARZ,1
CATO,1
CAU,0
CAZA,0
CBM,1
CBND,1
CBP,0
CBRX,1
CCC,1
CCG,1
CCIH,1
CCLP,1
CCSC,1
CCX,1
CDM,0
CDNS,1
CDR,1
CEBK,0
CECE,1
CELG,1
CERN,1
CFD,1
CFNB,1
CGEI,0
CHCO,1
CHEF,1
CHFC,1
CHKM,0
CHTR,1
CIS,1
CJES,1
CLDX,1
CLFD,1
CLH,1
CLHB,0
CLZR,0
CMRE,1
CMRG,0
CMVT,0
CNBKA,1
CNMD,1
CNPF,1
CNTR,0
COKE,1
COLX,1
CONG,0
COR,1
CORP,1
COWL,0
COWS,0
CPF,1
CPGI,1
CPSH,1
CRK,1
CRMB,1
CRMT,1
CROP,1
CRUD,1
CSBR,1
CSOD,1
CSRE,1
CTBI,1
CTE,0
CTEK,0
CTP,1
CTR,0
CURE,1
CVRT,0
CY,1
CYAN,1
CYBE,1
CYTO,0
CYTR,1
DANG,1
DATE,1
DBBR,1
DBCN,0
DBEF,1
DBEM,1
DBGR,1
DBJP,1
DCIX,1
DD,1
DELL,0
DGC,0
DGICB,1
DGSE,1
DINE,0
DISK,0
DJCO,1
DLHC,1
DMC,0
DMD,1
DMED,0
DNKN,1
DPG,1
DQ,1
DRJ,0
DRL,1
DSS,1
DTE,1
DUST,1
DXLG,1
DXYN,1
DY,1
DYSL,1
EAGL,0
EAPS,1
EAR,0
EATX,0
EBIX,1
EBND,1
ECNS,1
ECOL,1
ECON,1
ECT,1
ECYT,1
ED,1
EDCI,0
EDF,1
EDIV,1
EEMS,1
EFC,1
EGAS,1
EK,0
ELD,1
ELLI,1
ELMD,1
ELT,0
EMAG,1
EMC,1
EMER,0
EMG,1
EMGX,0
EMLC,1
EMO,1
EMVX,0
ENT,1
ENV,1
ENZL,1
EOX,1
EPG,0
EPHE,1
EPOC,0
EQIN,0
ERUS,2
ESBK,1
ETN,1
EWAC,0
EWEF,0
EWEM,1
EWMD,0
EWRI,1
EWRM,1
EWRS,1
EWSM,0
EWST,0
EWZS,1
EXAM,1
FAST,1
FBHS,1
FBM,0
FBNC,1
FBNK,1
FBP,1
FBZ,1
FCA,1
FCD,0
FCGL,0
FCGS,0
FCL,0
FCM,0
FCNCA,1
FCQ,0
FCTR,0
FDT,1
FDUS,1
FEG,0
FEM,1
FENG,1
FEP,1
FES,1
FF,1
FFHS,0
FFKT,1
FFKY,1
FFL,0
FFN,0
FHC,0
FIC,0
FICO,1
FIF,1
FIL,0
FIO,1
FISN,0
FISV,1
FJP,1
FKO,1
FLDM,1
FLG,0
FLIC,1
FLN,1
FLOT,1
FLT,1
FLTR,1
FLYX,0
FMK,1
FMM,0
FMU,0
FNB,1
FNK,1
FNY,2
FO,0
FOL,0
FONE,1
FOS,0
FPA,1
FPB,0
FRAN,1
FRBK,1
FRC,1
FRF,1
FRL,0
FRNK,1
FRP,1
FRPH,1
FSA,0
FSBI,0
FSD,1
FSE,0
FSG,0
FSL,1
FSM,1
FSU,0
FSYS,1
FTQ,0
FUI,0
FULL,1
FUND,1
FWDB,1
FWDD,1
FWDI,1
FXCM,1
FYC,1
FYT,1
GAGA,1
GAN,0
GASL,1
GASX,1
GBAB,1
GCAP,1
GD,1
GDOT,1
GE,1
GEDU,0
GENZ,0
GERJ,1
GEVO,1
GGEM,0
GGGG,1
GLBS,1
GLDX,1
GLK,0
GLTR,1
GLYT,0
GM,1
GMAN,1
GMLP,1
GMT,1
GNC,1
GNCMA,1
GNI,1
GNOM,0
GNR,2
GNT,1
GORO,1
GPL,1
GR,0
GRFS,1
GRPC,0
GRV,0
GSJK,1
GSVC,1
GTAA,1
GTIP,1
GUNR,2
HARL,0
HBM,1
HBNC,1
HBP,0
HBTA,0
HCA,1
HCHC,1
HCOM,1
HDG,1
HDGE,1
HDV,1
HEQ,1
HFBL,1
HGEM,0
HGIC,0
HGR,1
HGSH,1
HHC,1
HIFS,1
HII,1
HILO,1
HKK,0
HLS,1
HMTM,0
HNBC,0
HOMF,0
HON,1
HRH,0
HRTX,1
HRZB,0
HRZN,1
HTLD,1
HVOL,0
HVT,1
HYI,1
HYLD,1
HYMB,1
HYS,1
HZNP,1
IBIO,1
IBM,1
ICCC,1
IFT,1
IGEM,0
IGS,1
IGU,1
IHD,1
IIVI,1
IKGH,1
IL,1
ILX,0
IMKTA,1
IMRS,1
INCB,0
INCO,1
INDB,1
INF,1
INFU,1
INN,1
INXN,1
INXX,1
IOIL,1
IPAR,1
IPHI,1
IR,1
IRN,0
IROQ,1
ISS,1
ITIC,1
ITIP,1
ITT,1
IVOG,4
IVOO,3
IVOV,1
JAVA,0
JEN,0
JJSF,1
JMF,1
JNP,1
JOUT,1
JSD,1
JTPY,1
JUNR,1
JVI,0
KBWD,1
KBWP,1
KBWX,1
KBWY,1
KDE,0
KEYP,0
KEYW,1
KH,0
KIOR,1
KIPS,1
KKR,1
KMF,1
KMI,1
KO,1
KOOL,1
KOS,1
KSU,1
LABL,1
LAKE,1
LAS,1
LBTA,0
LEDS,1
LENS,0
LG,1
LGEM,0
LH,1
LIT,1
LLTC,1
LNKD,1
LNN,1
LODE,1
LOGC,0
LON,1
LPH,0
LPLA,1
LPR,0
LSBG,1
LSBX,0
LSG,1
LVOL,0
LWAY,1
LWPE,0
LYB,1
LZEN,0
MANA,0
MASB,0
MATH,1
MATL,1
MATS,0
MATX,1
MCC,1
MCHI,1
MCOX,1
MCP,1
MDCI,1
MDGN,1
MDMD,0
MEAS,1
MEDH,0
MESA,0
MEXS,0
MFLR,0
MGM,1
MGPI,1
MITK,1
MITT,1
MKL,1
MKTG,1
MMI,0
MMYT,1
MNEL,0
MNGL,0
MOBI,1
MODL,0
MORT,1
MPC,1
MPP,0
MSFT,1
MTGE,1
MTSI,0
MX,1
MXIM,1
MY,1
NAGS,1
NAII,1
NAV,1
NAVG,1
NBD,1
NETE,1
NEWN,0
NFEC,1
NGL,1
NHLD,1
NHTB,1
NKY,1
NLN,0
NLSN,1
NMAR,0
NMFC,1
NOAH,1
NOIZ,0
NORW,1
NOVN,0
NPTN,1
NQ,1
NTG,1
NTSP,0
NUGT,1
NVLS,0
NWK,0
NXPI,1
NXXI,0
OCRX,1
OFED,1
OFG,1
OILT,1
OINK,1
ONB,1
ORCL,1
OSIP,0
OSN,1
OSUR,1
OXF,1
OXLC,1
P,1
PACB,1
PACQ,0
PAGI,0
PARD,0
PARL,0
PATH,1
PATR,1
PBCT,1
PBKS,0
PCOM,1
PCRX,1
PCYG,1
PDE,0
PDEX,1
PEK,1
PEOP,1
PER,1
PFDC,0
PFLT,1
PGV,0
PHYS,1
PKY,1
PLAB,1
PLE,0
PLMT,1
PLXS,1
PMD,1
PME,1
PPHM,1
PPP,1
PRIS,1
PRMW,1
PSF,1
PSLV,1
PSTB,1
PTA,0
PTEC,0
PTGI,0
PTSI,1
PWX,1
PXLG,1
PXLV,1
QADA,1
QGEM,0
QIHU,1
QLIK,1
QRE,1
QRM,1
QUAD,1
QUIP,0
RALS,1
RATE,1
RBPAA,1
RDA,1
RDTA,0
REE,1
REFR,1
REMX,1
RENN,1
RENT,1
RESP,0
RETL,1
RETS,0
RFP,1
RGEN,1
RLD,1
RLJ,1
RMB,0
RMCF,1
RNET,1
RNO,1
RNT,0
ROOF,1
RP,1
RPXC,1
RRF,1
RSUN,0
RSXJ,1
RUSL,2
RUSS,1
RVM,1
RWC,1
SAFM,1
SAGG,1
SARA,1
SAVE,1
SCHH,1
SCHM,3
SCHO,1
SCHP,1
SCHR,1
SCHZ,1
SCIF,1
SCIN,1
SDIV,1
SDT,1
SED,0
SEMG,1
SERV,0
SFUN,1
SGNT,1
SGOC,1
SHBT,0
SHMO,0
SHP,0
SHRP,0
SHVY,0
SIBC,1
SICK,0
SIG,1
SIGM,1
SIVB,1
SIXD,1
SJB,1
SKS,0
SKUL,1
SKYW,1
SKYY,1
SLBT,0
SLVY,0
SMF,1
SMFG,1
SMT,1
SNFCA,1
SODA,1
SOIL,1
SOV,0
SPBC,1
SPHB,1
SPLV,1
SQI,1
SQNS,1
SREV,1
STAG,1
STBZ,1
STIP,1
STIR,0
STND,0
STSA,1
SUNH,0
SUNS,1
SUR,0
SVVC,1
SWFT,1
SWSH,1
SWTX,0
SXC,1
SXCL,1
SYNO,0
SYRG,1
SYSW,0
SZYM,1
TAOM,1
TBET,0
TBOW,1
TBX,1
TBZ,1
TCB,1
TDTF,1
TDTT,1
TEA,0
TEAM,0
TECD,1
TEU,1
TFM,1
TGEM,0
TGX,0
THER,0
THR,1
THTI,1
TIGR,1
TILT,1
TKLC,0
TKMR,1
TKS,0
TLLP,1
TMP,1
TMS,0
TNGO,1
TORM,1
TOTS,1
TOWR,1
TPLM,1
TPS,1
TRGP,1
TRNX,1
TROW,1
TRSY,1
TSFG,0
TSRX,0
TSTF,0
TSU,1
TSXV,0
TTTM,0
TUDO,0
TWMC,1
TYBS,1
TYNS,1
TZW,1
TZY,1
TZYM,0
UAM,1
UAN,1
UBPS,0
UBSI,1
UGEM,0
UIS,1
UJB,1
UNIB,0
UNXL,1
URA,1
USCI,1
USCR,1
VELT,0
VGEM,0
VHS,0
VIOG,2
VIOO,3
VIOV,1
VIVO,1
VIXM,1
VIXY,1
VNET,1
VNQI,1
VOC,1
VOG,0
VONE,6
VONG,4
VONV,4
VOO,6
VOOG,4
VOOV,4
VRA,1
VRNG,1
VROM,0
VTHR,1
VTUS,1
VTWG,2
VTWO,3
VTWV,1
VXUS,1
WAIN,0
WAIR,1
WASH,1
WBKC,1
WBS,1
WD,1
WDTI,1
WERN,1
WIFI,1
WILN,1
WITE,1
WM,1
WMGI,1
WMI,0
WMLP,1
WPPGY,1
WPZ,1
WRN,1
WSB,0
WSBC,1
WSFS,1
WSR,1
WSTE,0
WTS,1
XETA,0
XG,0
XHE,1
XMPT,1
XNY,1
XOIL,0
XOM,1
XOMA,1
XRAY,1
XRIT,0
XRS,1
XTL,1
XTN,1
XTNT,1
XUE,1
YNDX,1
YOKU,1
Z,1
ZA,1
ZG,1
ZGNX,1
ZIP,0
ZOO,0
ZOOG,0
ZX,1
