Ticker,Degree
AAC,0
AADR,1
AAII,0
AAN,1
AAT,4
ABAC,1
ABCS,0
ABH,0
ABUS,1
ACEL,0
ACET,1
ACMP,1
ACNB,1
ACO,1
ACP,1
ACRX,1
ACTV,0
ACUR,1
ADG,0
ADM,1
ADPT,0
ADX,42
AEGR,1
AEPI,1
AERL,0
AFT,1
AG,5
AGII,1
AGLS,1
AGOL,3
AGRG,0
AGRO,1
AIM,0
AIN,5
AIRM,1
AIRT,1
AKRX,1
AL,1
ALAN,0
ALCO,1
ALD,1
ALEX,0
ALRN,0
ALTA,0
ALUM,0
AMAG,1
AMAP,1
AMBO,0
AMBT,1
AMCE,0
AMCX,1
AMFI,0
AMID,1
AMLP,3
AMPE,1
AMRC,1
AMRS,1
AMTG,3
AMWD,1
ANAC,1
ANCB,1
AND,1
APO,1
APPA,0
APTS,1
ARCO,1
ARGT,1
ARX,1
ASBI,1
ASEA,6
ASMB,1
ASMI,1
ASTE,1
AT,1
ATNY,1
ATRI,1
ATU,3
AVAN,0
AVD,1
AVL,1
AWAY,1
AXB,0
AXDI,1
AXEN,1
AXGN,1
AXHE,1
AXID,3
AXIT,1
AXMT,2
AXSL,1
AXTE,1
AXUT,1
AYE,0
BABZ,2
BAH,1
BARN,0
BBN,1
BBRG,1
BC,13
BCDS,0
BCPC,1
BCX,3
BEAM,1
BGMD,1
BGX,1
BITA,1
BKLN,1
BKSC,1
BKU,3
BLRX,1
BMC,0
BNHNA,0
BNT,0
BODY,1
BONA,1
BONE,1
BONO,0
BOX,0
BRAF,2
BRAQ,4
BRL,0
BRLI,1
BRP,1
BRY,0
BSJC,0
BSJD,0
BSJE,1
BSJF,1
BTFG,0
BWC,2
BWINB,1
BWS,1
BWXT,1
CADA,0
CAL,1
CAMD,0
CARB,1
CARZ,22
CATO,1
CAU,0
CAZA,0
CBM,1
CBND,1
CBP,0
CBRX,1
CCC,1
CCG,1
CCIH,1
CCLP,1
CCSC,1
CCX,1
CDM,0
CDNS,1
CDR,2
CEBK,0
CECE,1
CELG,2
CERN,1
CFD,1
CFNB,1
CGEI,0
CHCO,10
CHEF,1
CHFC,12
CHKM,0
CHTR,1
CIS,1
CJES,1
CLDX,1
CLFD,1
CLH,1
CLHB,0
CLZR,0
CMRE,1
CMRG,0
CMVT,0
CNBKA,1
CNMD,1
CNPF,1
CNTR,0
COKE,1
COLX,1
CONG,0
COR,1
CORP,4
COWL,0
COWS,0
CPF,1
CPGI,1
CPSH,1
CRK,2
CRMB,1
CRMT,1
CROP,3
CRUD,1
CSBR,1
CSOD,1
CSRE,1
CTBI,5
CTE,0
CTEK,0
CTP,1
CTR,0
CURE,33
CVRT,0
CY,1
CYAN,1
CYBE,1
CYTO,0
CYTR,1
DANG,1
DATE,1
DBBR,1
DBCN,0
DBEF,38
DBEM,7
DBGR,5
DBJP,7
DCIX,1
DD,1
DELL,0
DGC,0
DGICB,1
DGSE,1
DINE,0
DISK,0
DJCO,1
DLHC,1
DMC,0
DMD,1
DMED,0
DNKN,1
DPG,1
DQ,1
DRJ,0
DRL,1
DSS,1
DTE,2
DUST,1
DXLG,1
DXYN,1
DY,1
DYSL,1
EAGL,0
EAPS,57
EAR,0
EATX,0
EBIX,1
EBND,4
ECNS,1
ECOL,1
ECON,17
ECT,1
ECYT,1
ED,2
EDCI,0
EDF,1
EDIV,19
EEMS,8
EFC,1
EGAS,1
EK,0
ELD,5
ELLI,1
ELMD,1
ELT,0
EMAG,1
EMC,1
EMER,0
EMG,1
EMGX,0
EMLC,4
EMO,5
EMVX,0
ENT,1
ENV,1
ENZL,1
EOX,1
EPG,0
EPHE,1
EPOC,0
EQIN,0
ERUS,3
ESBK,1
ETN,15
EWAC,0
EWEF,0
EWEM,6
EWMD,0
EWRI,56
EWRM,57
EWRS,32
EWSM,0
EWST,0
EWZS,5
EXAM,1
FAST,1
FBHS,1
FBM,0
FBNC,1
FBNK,1
FBP,1
FBZ,5
FCA,2
FCD,0
FCGL,0
FCGS,0
FCL,0
FCM,0
FCNCA,1
FCQ,0
FCTR,0
FDT,38
FDUS,1
FEG,0
FEM,18
FENG,1
FEP,23
FES,1
FF,1
FFHS,0
FFKT,1
FFKY,1
FFL,0
FFN,0
FHC,0
FIC,0
FICO,1
FIF,1
FIL,0
FIO,1
FISN,0
FISV,13
FJP,5
FKO,1
FLDM,1
FLG,0
FLIC,1
FLN,5
FLOT,1
FLT,1
FLTR,1
FLYX,0
FMK,41
FMM,0
FMU,0
FNB,14
FNK,49
FNY,52
FO,0
FOL,0
FONE,1
FOS,0
FPA,7
FPB,0
FRAN,1
FRBK,1
FRC,4
FRF,1
FRL,0
FRNK,1
FRP,1
FRPH,1
FSA,0
FSBI,0
FSD,1
FSE,0
FSG,0
FSL,2
FSM,5
FSU,0
FSYS,1
FTQ,0
FUI,0
FULL,1
FUND,13
FWDB,1
FWDD,11
FWDI,3
FXCM,1
FYC,40
FYT,36
GAGA,1
GAN,0
GASL,5
GASX,1
GBAB,1
GCAP,1
GD,4
GDOT,1
GE,6
GEDU,0
GENZ,0
GERJ,1
GEVO,1
GGEM,0
GGGG,3
GLBS,1
GLDX,9
GLK,0
GLTR,7
GLYT,0
GM,1
GMAN,1
GMLP,1
GMT,1
GNC,1
GNCMA,2
GNI,1
GNOM,0
GNR,33
GNT,1
GORO,2
GPL,2
GR,0
GRFS,1
GRPC,0
GRV,0
GSJK,1
GSVC,1
GTAA,7
GTIP,1
GUNR,25
HARL,0
HBM,1
HBNC,1
HBP,0
HBTA,0
HCA,1
HCHC,1
HCOM,1
HDG,32
HDGE,2
HDV,31
HEQ,2
HFBL,1
HGEM,0
HGIC,0
HGR,1
HGSH,1
HHC,1
HIFS,1
HII,1
HILO,12
HKK,0
HLS,1
HMTM,0
HNBC,0
HOMF,0
HON,24
HRH,0
HRTX,1
HRZB,0
HRZN,1
HTLD,3
HVOL,0
HVT,1
HYI,1
HYLD,1
HYMB,1
HYS,2
HZNP,1
IBIO,1
IBM,2
ICCC,1
IFT,1
IGEM,0
IGS,1
IGU,2
IHD,5
IIVI,1
IKGH,1
IL,1
ILX,0
IMKTA,1
IMRS,1
INCB,0
INCO,4
INDB,13
INF,1
INFU,1
INN,1
INXN,1
INXX,5
IOIL,3
IPAR,1
IPHI,1
IR,15
IRN,0
IROQ,1
ISS,1
ITIC,1
ITIP,1
ITT,10
IVOG,57
IVOO,60
IVOV,58
JAVA,0
JEN,0
JJSF,2
JMF,3
JNP,1
JOUT,1
JSD,1
JTPY,1
JUNR,4
JVI,0
KBWD,27
KBWP,2
KBWX,75
KBWY,8
KDE,0
KEYP,0
KEYW,1
KH,0
KIOR,1
KIPS,1
KKR,1
KMF,3
KMI,1
KO,1
KOOL,1
KOS,2
KSU,1
LABL,1
LAKE,1
LAS,1
LBTA,0
LEDS,1
LENS,0
LG,1
LGEM,0
LH,1
LIT,1
LLTC,1
LNKD,1
LNN,1
LODE,1
LOGC,0
LON,1
LPH,0
LPLA,1
LPR,0
LSBG,1
LSBX,0
LSG,2
LVOL,0
LWAY,1
LWPE,0
LYB,1
LZEN,0
MANA,0
MASB,0
MATH,21
MATL,15
MATS,0
MATX,1
MCC,1
MCHI,8
MCOX,1
MCP,1
MDCI,1
MDGN,1
MDMD,0
MEAS,1
MEDH,0
MESA,0
MEXS,0
MFLR,0
MGM,1
MGPI,1
MITK,1
MITT,2
MKL,2
MKTG,1
MMI,0
MMYT,1
MNEL,0
MNGL,0
MOBI,1
MODL,0
MORT,2
MPC,1
MPP,0
MSFT,1
MTGE,3
MTSI,0
MX,1
MXIM,1
MY,1
NAGS,1
NAII,1
NAV,2
NAVG,1
NBD,1
NETE,1
NEWN,0
NFEC,1
NGL,1
NHLD,1
NHTB,1
NKY,10
NLN,0
NLSN,1
NMAR,0
NMFC,1
NOAH,1
NOIZ,0
NORW,5
NOVN,0
NPTN,1
NQ,1
NTG,2
NTSP,0
NUGT,11
NVLS,0
NWK,0
NXPI,2
NXXI,0
OCRX,1
OFED,1
OFG,1
OILT,1
OINK,1
ONB,14
ORCL,4
OSIP,0
OSN,1
OSUR,1
OXF,1
OXLC,1
P,1
PACB,1
PACQ,0
PAGI,0
PARD,0
PARL,0
PATH,1
PATR,1
PBCT,8
PBKS,0
PCOM,1
PCRX,1
PCYG,1
PDE,0
PDEX,1
PEK,1
PEOP,1
PER,1
PFDC,0
PFLT,1
PGV,0
PHYS,6
PKY,3
PLAB,1
PLE,0
PLMT,1
PLXS,7
PMD,1
PME,1
PPHM,1
PPP,4
PRIS,1
PRMW,1
PSF,1
PSLV,4
PSTB,1
PTA,0
PTEC,0
PTGI,0
PTSI,1
PWX,1
PXLG,37
PXLV,29
QADA,1
QGEM,0
QIHU,1
QLIK,2
QRE,1
QRM,1
QUAD,1
QUIP,0
RALS,1
RATE,1
RBPAA,1
RDA,1
RDTA,0
REE,1
REFR,1
REMX,1
RENN,1
RENT,1
RESP,0
RETL,11
RETS,0
RFP,1
RGEN,1
RLD,1
RLJ,4
RMB,0
RMCF,1
RNET,1
RNO,1
RNT,0
ROOF,12
RP,1
RPXC,1
RRF,1
RSUN,0
RSXJ,3
RUSL,4
RUSS,1
RVM,1
RWC,1
SAFM,1
SAGG,1
SARA,1
SAVE,1
SCHH,6
SCHM,63
SCHO,2
SCHP,7
SCHR,7
SCHZ,4
SCIF,4
SCIN,4
SDIV,39
SDT,1
SED,0
SEMG,1
SERV,0
SFUN,1
SGNT,1
SGOC,1
SHBT,0
SHMO,0
SHP,0
SHRP,0
SHVY,0
SIBC,1
SICK,0
SIG,1
SIGM,1
SIVB,7
SIXD,1
SJB,1
SKS,0
SKUL,1
SKYW,1
SKYY,38
SLBT,0
SLVY,0
SMF,1
SMFG,1
SMT,1
SNFCA,1
SODA,1
SOIL,3
SOV,0
SPBC,1
SPHB,59
SPLV,36
SQI,1
SQNS,1
SREV,1
STAG,2
STBZ,3
STIP,5
STIR,0
STND,0
STSA,3
SUNH,0
SUNS,1
SUR,0
SVVC,1
SWFT,2
SWSH,1
SWTX,0
SXC,1
SXCL,1
SYNO,0
SYRG,1
SYSW,0
SZYM,1
TAOM,1
TBET,0
TBOW,1
TBX,3
TBZ,1
TCB,8
TDTF,6
TDTT,3
TEA,0
TEAM,0
TECD,1
TEU,1
TFM,1
TGEM,0
TGX,0
THER,0
THR,1
THTI,1
TIGR,1
TILT,61
TKLC,0
TKMR,1
TKS,0
TLLP,1
TMP,9
TMS,0
TNGO,1
TORM,1
TOTS,1
TOWR,1
TPLM,2
TPS,1
TRGP,2
TRNX,1
TROW,26
TRSY,7
TSFG,0
TSRX,0
TSTF,0
TSU,1
TSXV,0
TTTM,0
TUDO,0
TWMC,1
TYBS,3
TYNS,3
TZW,49
TZY,53
TZYM,0
UAM,1
UAN,1
UBPS,0
UBSI,15
UGEM,0
UIS,1
UJB,1
UNIB,0
UNXL,1
URA,1
USCI,1
USCR,1
VELT,0
VGEM,0
VHS,0
VIOG,44
VIOO,58
VIOV,45
VIVO,1
VIXM,2
VIXY,3
VNET,1
VNQI,23
VOC,1
VOG,0
VONE,60
VONG,54
VONV,61
VOO,62
VOOG,56
VOOV,58
VRA,1
VRNG,1
VROM,0
VTHR,53
VTUS,1
VTWG,40
VTWO,47
VTWV,40
VXUS,51
WAIN,0
WAIR,1
WASH,7
WBKC,1
WBS,17
WD,1
WDTI,1
WERN,3
WIFI,1
WILN,1
WITE,4
WM,1
WMGI,1
WMI,0
WMLP,1
WPPGY,3
WPZ,1
WRN,1
WSB,0
WSBC,13
WSFS,1
WSR,3
WSTE,0
WTS,12
XETA,0
XG,0
XHE,8
XMPT,1
XNY,1
XOIL,0
XOM,6
XOMA,1
XRAY,1
XRIT,0
XRS,1
XTL,27
XTN,30
XTNT,1
XUE,1
YNDX,2
YOKU,1
Z,1
ZA,1
ZG,1
ZGNX,1
ZIP,0
ZOO,0
ZOOG,0
ZX,1
