Interval,Num Edges
"(-0.7, -0.6)",0
"(-0.3, -0.2)",0
"(0.9, 1.0)",887
"(-0.5, -0.4)",0
"(-0.2, -0.1)",0
"(-0.1, 0.0)",838231
"(0.1, 0.2)",0
"(-0.9, -0.8)",0
"(0.3, 0.4)",0
"(-0.6, -0.5)",0
"(0.0, 0.1)",838231
"(0.6, 0.7)",2672
"(0.4, 0.5)",0
"(0.8, 0.9)",346
"(-0.8, -0.7)",0
"(0.2, 0.3)",0
"(0.7, 0.8)",710
"(0.5, 0.6)",7310
"(-1.0, -0.9)",0
"(-0.4, -0.3)",0
