Symbol,AAT,ACNB,ADX,AGII,ALEX,AMTG,ANCB,APO,APTS,BKSC,BKU,BWINB,CDR,CFNB,CHCO,CHFC,CNBKA,COR,CPF,CTBI,DGICB,EFC,ESBK,EXAM,FBNC,FBNK,FBP,FCNCA,FDUS,FFKT,FLIC,FNB,FRBK,FRC,FRPH,FULL,FXCM,GCAP,GDOT,GSVC,HARL,HBNC,HFBL,HGSH,HHC,HIFS,HRZN,INDB,INN,IROQ,ITIC,KKR,LPLA,LSBG,MCC,MITT,MKL,MMI,MTGE,NAVG,NHLD,NMFC,NOAH,OFED,OFG,ONB,PBCT,PFLT,PKY,PSTB,RBPAA,RLJ,SIVB,SMFG,SNFCA,STAG,STBZ,STND,SUNS,SVVC,TCB,TMP,TROW,UBSI,WASH,WBKC,WBS,WD,WSBC,WSFS,WSR,Z,ZG
AAT,1,0.0759613415,0.434739652,0.3554516553,0,0.4088754839,0.018819858,0.2136437435,0.2824851937,0.031507494,0.2566683959,0.3128073338,0.6453154439,0.0804508686,0.3087772885,0.3069054242,0.2843856085,0.5493490423,0.2306086999,0.3070289929,0.0390729669,0.2600460854,-0.0066074268,0.2078387131,0.2835397623,0.2223427565,0.1698476169,0.2700098706,0.0830006323,0.0352333368,0.2431186459,0.2867093278,0.1359963654,0.2547964165,-0.03483646,-0.0115531445,-0.007831065,0.1954817842,0.2173213602,0.1753653231,0,0.246984015,-0.0419491432,0.0576970317,0.3823033725,0.0293490481,0.1652463351,0.2770070337,0.5201841235,-0.0321988484,0.0850334648,0.2304536593,0.2968919272,0.0237939173,0.1171862516,0.4141362369,0.3610438327,0,0.3996491851,0.3577891934,-0.0400181898,0.251655994,0.1548255041,0.0316365042,0.1554933562,0.2434974326,0.315300352,0.0581539703,0.6191140207,0.2417666315,0.0827416331,0.5832412282,0.1811492997,0.2511176031,0.109691885,0.5465353264,0.222566763,0,0.1316006237,0.1398502596,0.2426249449,0.3038306017,0.4090436838,0.2947181178,0.3614501168,-0.0588356114,0.2606586394,0.2138789563,0.2852417146,0.3302874277,0.5812484423,0.2120932408,-0.1357624155
ACNB,0,1,0.0886734034,0.0646349208,0,0.0130241845,0.0487166249,-0.0100176739,-0.0226460065,0.0558430257,0.0610984174,0.0313136538,0.0768986841,0.0830368997,0.0775765981,0.0372893684,0.0580115531,0.1078263593,0.0131936218,0.0569459978,0.0271847864,0.0224722158,0.1164909086,0.0245110215,0.0246434418,-0.0019480395,0.004466082,0.0330146895,0.0759678624,-0.0186023048,0.0430578049,0.0113707929,-0.0317839982,0.1324515898,0.0052943199,-0.0415004086,-0.0224215786,0.0042804927,0.0207702835,-0.0080256494,0,0.0552267909,0.04127007,0.0457082807,0.1191439835,0.0486750294,0.0921598466,0.0271667078,0.0647941592,0.0182064501,0.0282778978,-0.0342171391,0.0815201462,-0.0829059598,0.0400773357,-0.0267091524,0.1292014199,0,0.0205165656,0.1088739981,-0.0012201449,0.0047403565,-0.0197738214,-0.0438639404,0.0166273442,0.0313947122,0.0544150504,0.0204965648,0.0538294058,0.0282309517,0.0034643146,0.0203928263,0.0139419953,0.0714874946,-0.1003765553,0.0455639937,0.0464569201,0,0.0926499881,0.0381334397,0.0422897106,0.0290905674,0.068812441,0.0458856802,0.0207668123,0.1224834407,0.0198266964,0.0705460398,0.0597257962,0.040923207,0.0600770986,-0.0060702652,-0.0293325599
ADX,0,0,1,0.4686732845,0,0.3906818057,-0.0048540452,0.4609712536,0.1911413991,0.0470992254,0.5413892594,0.448111404,0.4251161662,0.1057938179,0.4920291846,0.4912288531,0.4184963004,0.3828223245,0.3958090947,0.4531754755,0.0817824188,0.2557960322,0.0512974294,0.3579746711,0.4580979968,0.4221203604,0.3885948543,0.4776390397,0.2478564275,0.1029370409,0.4445255867,0.5180458415,0.2637255377,0.53767383,-0.0289161183,0.1373619939,0.1399197518,0.2588040067,0.4363493639,0.383083782,0,0.3744197903,0.0350457693,0.1471512041,0.5382788297,0.1475708603,0.2698700135,0.5023322592,0.5128109647,0.0054354327,0.2599733025,0.5113673319,0.5459965835,0.011608948,0.3831131784,0.4364612924,0.5403356111,0,0.320016276,0.4438926188,0.0262284035,0.4311001747,0.3462618346,0.0071542816,0.3329692366,0.4995672311,0.5648806999,0.2121380008,0.4858458551,0.453461427,0.0950998993,0.5470843968,0.5243786319,0.4817701716,0.0941698994,0.410331143,0.4256041361,0,0.261161855,0.3925682329,0.5655677134,0.4991109003,0.7305550491,0.5273332934,0.5246834189,0.0422036971,0.5456798268,0.3338715765,0.5006215622,0.4958768677,0.4419497574,0.3780254817,-0.2013581839
AGII,0,0,0,1,0,0.281085841,0.0288283981,0.2373064419,0.1093171054,0.0223855127,0.4406584188,0.5178035903,0.3946664955,0.145050749,0.499124989,0.5695805532,0.3941771631,0.3480327503,0.4329736172,0.5076749392,-0.005136064,0.2415058327,-0.014374583,0.2763907141,0.527565512,0.4004055622,0.3389051486,0.4720601513,0.2270653129,0.1734391773,0.512692771,0.5059758338,0.2504289487,0.4569186075,-0.0912936946,0.0307358399,0.1151566736,0.2313860135,0.3320443049,0.311830435,0,0.4354303661,-0.0142192879,0.1090786359,0.3241299686,0.0757544968,0.1888833954,0.5658925161,0.4145202885,0.0314880341,0.1863656259,0.2913797777,0.3840593863,-0.0050360229,0.1951318873,0.3252775233,0.4343854031,0,0.2467558355,0.5571909782,-0.1052911421,0.2805814503,0.2740109098,-0.0188469877,0.3155201903,0.4961227841,0.5170233383,0.1474684836,0.3959977054,0.4606678886,0.1358605226,0.4387441647,0.4264234996,0.2955272837,0.072327039,0.3247324114,0.4638347331,0,0.1357873157,0.1762980711,0.4478353098,0.5125624097,0.4738720209,0.5151238442,0.556857574,0.0195207487,0.5012855586,0.3481222638,0.5372294055,0.5133892174,0.4162910356,0.2160120345,-0.1829399302
ALEX,0,0,0,0,0,0,0,0,0,0,0,0,0,0,0,0,0,0,0,0,0,0,0,0,0,0,0,0,0,0,0,0,0,0,0,0,0,0,0,0,0,0,0,0,0,0,0,0,0,0,0,0,0,0,0,0,0,0,0,0,0,0,0,0,0,0,0,0,0,0,0,0,0,0,0,0,0,0,0,0,0,0,0,0,0,0,0,0,0,0,0,0,0
AMTG,0,0,0,0,0,1,0.0560005131,0.23544829,0.2896172078,0.0892674326,0.2526566821,0.26971034,0.3911589188,0.0650933099,0.2666916277,0.293963356,0.2133723056,0.3349539126,0.2115952114,0.2540350315,-0.0083548001,0.3945420811,-0.0434285013,0.1847089702,0.2851594705,0.2216344197,0.2349382467,0.2690481972,0.1895256028,0.0497052348,0.2697949761,0.2425226822,0.1792037091,0.2344453793,0.0072892548,0.1083534111,0.1324303624,0.2062971652,0.2404172447,0.245552189,0,0.2056526532,-0.0316199792,0.022536721,0.340633705,0.0795173088,0.2099144665,0.2713240617,0.3775863552,0.0041334664,0.1262392387,0.2812371147,0.2274906577,-0.0870799126,0.2300080942,0.7128284529,0.2629839093,0,0.7259686755,0.2469136418,0.0219815525,0.2904171724,0.192525236,0.0521119147,0.1745748691,0.228126096,0.2545340825,0.1860663038,0.3854075162,0.2486126303,-0.0177764944,0.420748225,0.2103539575,0.1817256414,0.1236016858,0.3995650959,0.2562652905,0,0.2276962192,0.1285978542,0.2563756479,0.2897162399,0.3214604563,0.2537486878,0.3063094012,0.0090540348,0.237616968,0.188359188,0.2872369845,0.2741670111,0.4837793059,0.1641274625,0.1319610877
ANCB,0,0,0,0,0,0,1,-0.0269504271,0.027254064,-0.0594068716,0.0076812575,0.015226648,0.0687919109,0.0667427345,-0.0209727491,-0.0105422076,-0.0012245959,0.0481147001,0.0012997932,-0.0244407985,-0.0224905945,0.0207220687,-0.0288047565,-0.0058910667,0.0457141624,0.0480010263,0.0328804315,0.0432085702,-0.0386865736,0.0576758653,0.0038400661,0.017098934,-0.0151478472,-0.0266286275,0.0366601056,-0.0030582695,0.0797839831,-0.0135509509,0.0187417342,-0.0026989192,0,0.0230704787,0.0670353244,-0.0104411925,0.0089711122,0.027099036,-0.0006596257,0.0109021886,-0.034314045,-0.0705251173,-0.0296332775,-0.0306331062,-0.0163312631,0.0661501957,-0.0423529257,-0.0057232072,0.038812044,0,0.015305281,-0.0273348723,-0.0012512597,0.0183953561,0.0568731088,-0.0083412587,0.0302848084,0.0101213868,-0.0097472027,-0.0714768922,0.0283075448,0.0181644084,0.0434783639,0.0395562903,0.0017570946,-0.0500621395,0.0300838949,-0.0365665928,-0.0271848638,0,-0.0441448219,-0.0225188622,-0.0159870962,-0.0036098052,0.0083928173,0.0049371146,0.0254903137,0.0068226496,0.0190808439,-0.0459919167,0.0171328995,0.0134327216,0.0275431161,0.0702595376,0.0145721617
APO,0,0,0,0,0,0,0,1,0.0953844901,0.0420359338,0.3257798183,0.2152562018,0.1890217599,-0.0168339508,0.2406022062,0.2152194271,0.2176090556,0.1632557964,0.2622595833,0.1892215183,0.0668290941,0.1974184696,0.0478689294,0.1959852909,0.2395383076,0.1880381534,0.2670368514,0.2702409386,0.1785537246,0.0917682952,0.2013959472,0.2767674861,0.2162251184,0.3047834966,-0.0560840232,0.1731686837,0.1538035315,0.2456055053,0.2452918364,0.3147610346,0,0.1941048817,0.0185873059,0.0500210184,0.3818174516,0.0586090615,0.246864043,0.2739949539,0.2919293975,-0.0409297414,0.1104776835,0.5518927012,0.3537034136,-0.0438623003,0.310178899,0.263353382,0.2783328816,0,0.2157059861,0.2504950936,0.0288244987,0.3025946833,0.275385857,-0.0087902564,0.1852768514,0.2990845606,0.322103869,0.1917998912,0.2833106017,0.20840926,0.0792307347,0.2652758202,0.3516210051,0.3160643691,0.1457846486,0.2523760983,0.2703863358,0,0.1880552639,0.2902133481,0.3375008912,0.2298443392,0.4435935762,0.2842535971,0.2688742152,0.0447938808,0.3358254411,0.2367322206,0.2987457288,0.2219510059,0.1899955175,0.2236497838,-0.239264719
APTS,0,0,0,0,0,0,0,0,1,0.0638994626,0.1291195788,0.1359333169,0.3081365147,0.07166908,0.1784363358,0.1415978112,0.1381871939,0.2073907366,0.0810618321,0.1871871975,-0.0296997501,0.182797329,0.0112724757,0.1558978578,0.110621232,0.0687283307,0.0783673216,0.1188478102,0.0895929523,0.0828171967,0.1628872973,0.0828826114,0.0823806596,0.1411604193,0.0700496013,0.0249711872,0.0426415407,0.0731526073,0.1631828129,0.0899836668,0,0.1117089109,-0.0130335147,0.0037371324,0.1928600376,0.0437361707,0.048694704,0.1414860723,0.3146390594,0.1001153523,-0.0804072329,0.1331681793,0.1163962161,-0.1021077065,0.0906723823,0.28514694,0.1666094148,0,0.2578022221,0.1028317972,0.0843641935,0.1948532153,0.0660395054,-0.06730099,0.0477257682,0.0632707819,0.0805869877,0.0966907279,0.2695009776,0.1034546511,-0.0743685302,0.2852779266,0.093600469,0.0725037049,0.0768414225,0.2800458099,0.1061505427,0,0.0915105552,0.068699244,0.0954440189,0.0682388378,0.1116779255,0.1115670472,0.195027109,0.0688009833,0.1228193283,0.0906424425,0.1091193319,0.1590218437,0.3538304896,0.0192191531,-0.2047980145
BKSC,0,0,0,0,0,0,0,0,0,1,0.0582661211,0.0323395516,-0.0130345685,0.0491136266,0.0801368679,0.0368307451,0.0629143834,0.0690573876,0.018234901,0.0428538046,-0.0504480497,0.0500419965,0.0787088411,0.0415851466,0.0431680455,0.0586625672,0.1158460984,0.0125887083,0.0503972965,-0.0444087409,0.0226306405,0.0861561484,0.0317344838,0.0464242857,-0.0164133335,0.0247469323,0.0680224583,0.0463347215,0.0991862204,0.0436899968,0,0.056888693,0.0246311866,0.0059428968,0.0767123021,0.0038827906,0.0537347325,0.037770378,0.0602897408,-0.002285074,-0.0277975227,0.0970498725,0.0299894104,0.0825244907,0.0838795027,0.0305647646,0.0136323001,0,0.0432855285,-0.0261732807,-0.01610293,0.1103996202,0.0601006502,-0.0899452873,0.0499098532,0.0777345336,0.0085793295,0.117633104,0.0474758341,0.0027812258,0.0856336906,0.0610960942,0.0445916838,0.0602432972,0.1046454311,0.0430652857,0.0644782061,0,0.092685385,-0.0009577729,0.1001751855,0.0447340306,0.0275578965,0.0838992128,0.0647181357,-0.0149132347,0.0802620602,0.0493984795,0.0816781742,0.0215183523,-0.0053896013,0.0369417093,-0.1128801582
BKU,0,0,0,0,0,0,0,0,0,0,1,0.3692917339,0.2870861907,0.0408367405,0.6434024376,0.6395737278,0.3756205701,0.2481913556,0.5691552513,0.5566068944,-0.0339939593,0.2356299578,0.1107002796,0.2574684931,0.5065287869,0.4276611393,0.5432619886,0.5650718306,0.2820163094,0.2059127455,0.4524677707,0.7393425362,0.2729698772,0.6482628047,-0.1179219773,0.136434736,0.1798833565,0.2797464286,0.3333095262,0.3453033768,0,0.3240134377,-0.009942732,0.0975030256,0.3361189019,0.1295462814,0.2220275518,0.6795606551,0.392386936,0.0360580608,0.1971987416,0.3833557967,0.5692398922,0.0620379081,0.3501198296,0.28617965,0.4636040109,0,0.1695784496,0.4036082101,-0.0552062735,0.3795844985,0.2622858551,-0.0177562596,0.5250536612,0.6971207342,0.6597061787,0.2086696003,0.3501541869,0.4481434682,0.1067102349,0.4053262628,0.7044289414,0.3706329151,-0.0179505886,0.2957179737,0.5794686794,0,0.2615748386,0.2286467294,0.6989243661,0.6016065994,0.5425407534,0.6962380234,0.6032621465,0.0437199321,0.6966782901,0.3592413015,0.6448917208,0.5450747498,0.3015167902,0.1598372775,-0.2185401808
BWINB,0,0,0,0,0,0,0,0,0,0,0,1,0.3141930228,0.123512776,0.5048775054,0.53494602,0.4174926122,0.2920823194,0.3889026457,0.5101658641,0.018267384,0.1427822243,0.0369978516,0.3474734877,0.5201054588,0.4407610546,0.3765767821,0.4334774687,0.2299686158,0.135291799,0.5044093998,0.4916356382,0.2631835651,0.3834813181,-0.0918589686,-0.0525983687,0.1037563193,0.2923093459,0.3820773353,0.2224806861,0,0.4304730416,-0.0515943187,0.0629616897,0.3024735477,0.0371727257,0.1830878468,0.5091279834,0.3418857123,0.0412925762,0.1887404238,0.2455365331,0.339442298,0.0775996252,0.1738983827,0.3092971927,0.354511039,0,0.1759292029,0.4345651272,-0.058367919,0.2431428398,0.1861555136,0.0089779006,0.3097362463,0.5005161603,0.3894867225,0.0843474474,0.3318161559,0.536684685,0.1055955742,0.4067179771,0.4104546295,0.2335158312,0.0113985502,0.2987310116,0.4456603501,0,0.1210849654,0.2388021374,0.4085598862,0.5402649215,0.4396580756,0.5032705665,0.5508959844,-0.0270332549,0.4742969286,0.3143535126,0.5475903642,0.4937139777,0.3780942108,0.238419431,-0.0471760786
CDR,0,0,0,0,0,0,0,0,0,0,0,0,1,0.1057164055,0.3479588074,0.3953831859,0.2715214017,0.4612894657,0.2433664531,0.3436233348,0.0349748705,0.2941795629,0.0137329953,0.2366981894,0.2986371077,0.2572942271,0.169989793,0.3277693273,0.1662992906,0.1224515765,0.2997783525,0.3187571139,0.1405620784,0.2604533896,0.0410423179,-0.0033625846,0.0291971823,0.2056910072,0.2461196998,0.1443191632,0,0.281577631,0.0129147821,0.0658997283,0.3642838533,0.0739338567,0.1701874709,0.3440883915,0.5136181012,-0.0007710523,0.0955350733,0.2316700443,0.2873439063,0.0515394779,0.1269731918,0.4101747236,0.356817375,0,0.361374572,0.4183796263,-0.0244603933,0.2673000621,0.1433580594,0.0039087731,0.1696521423,0.2928337743,0.3372536625,0.0784347598,0.570736978,0.265636074,0.0980201471,0.5854343936,0.2214705674,0.2464118574,0.0763186824,0.5160196716,0.2946224007,0,0.1973385166,0.1643089817,0.2626330539,0.3629386009,0.3664975831,0.32101321,0.4034311412,0.0088715139,0.3147845393,0.2176886599,0.3561567703,0.3596950252,0.627823543,0.125593863,-0.20038093
CFNB,0,0,0,0,0,0,0,0,0,0,0,0,0,1,0.1241838786,0.1031275288,0.0926014084,0.0794166207,0.0307415701,0.1034858886,-0.0192831732,0.0368350341,0.0597358011,0.1129680798,0.0555683245,0.052224425,0.0295826452,0.1142192196,0.0806586464,0.0525185862,0.0777598607,0.0903587041,0.0039884495,0.0733521144,-0.0396236155,0.0204439592,0.0460029847,0.042896072,0.1419306388,0.0820344859,0,0.1419968954,-0.0723206654,0.0400699247,0.0400570478,0.0785915385,0.0502680766,0.1070109649,0.1167430783,-0.0040547118,0.0764632515,0.0390613405,0.0652716708,-0.0918329952,0.0557279303,0.0788842544,0.0756537916,0,0.0231908663,0.1264507247,0.0289049502,0.0621294955,0.0972149255,-0.0485049043,0.0229196681,0.0987804428,0.0443197984,0.0588065239,0.0949068497,0.1013679922,0.0853601071,0.1009530542,0.0668160332,0.1082072698,-0.0348603742,0.0044838473,0.071328062,0,-0.0042037282,0.0228100509,0.1124804617,0.1118077229,0.1034438193,0.0818070297,0.1168257592,0.0243687875,0.0682514388,0.1143308952,0.0905348069,0.0826619172,0.1023522858,0.1444761336,0.001566873
CHCO,0,0,0,0,0,0,0,0,0,0,0,0,0,0,1,0.746733644,0.4382322737,0.2806719737,0.6458594684,0.7196846287,-0.0809843964,0.1785175925,0.0931226812,0.2586167977,0.6029431542,0.5192281624,0.5491223904,0.6215786877,0.239256956,0.1911705695,0.5607001185,0.7717675042,0.3628162721,0.6074603376,-0.1155658732,0.0632122766,0.1947143795,0.2996481981,0.3564301444,0.3264298714,0,0.4666336309,-0.0609569511,0.0360476173,0.3510931359,0.1568577526,0.1753794616,0.7379016354,0.4563911196,0.0653475878,0.1887496369,0.2958606446,0.5463573134,0.0470167326,0.2182048275,0.3240098736,0.4307391793,0,0.1776052805,0.5215606724,-0.0245317398,0.3561309465,0.2402030222,-0.0387324591,0.5449139095,0.7699897053,0.6749485879,0.2131843209,0.3609144764,0.5626166952,0.109308492,0.4515728087,0.6522070987,0.3290620053,-0.0039907262,0.3086054672,0.6507368515,0,0.2258938851,0.1928424527,0.6910929282,0.7167789722,0.547961881,0.7929081538,0.6848062507,0.0238054669,0.7382330176,0.4159625252,0.7461558328,0.664655432,0.3923950539,0.2340574601,-0.113947659
CHFC,0,0,0,0,0,0,0,0,0,0,0,0,0,0,0,1,0.4341859354,0.3257053879,0.6360856455,0.7048898954,-0.0616423607,0.1781467696,0.0592761873,0.2724519066,0.6158375438,0.5386075466,0.561660962,0.6010809578,0.278742936,0.1967746986,0.5681501828,0.7761491182,0.355167614,0.620019468,-0.0581113349,0.1123201826,0.1566016333,0.3108481959,0.3916842243,0.3482236192,0,0.5452996727,-0.0772277069,0.1364947794,0.3251501235,0.1682236965,0.1919882529,0.7535419816,0.4517495346,0.0787688294,0.2350455079,0.2896979579,0.5309671337,0.1018202853,0.2547291523,0.3148586455,0.4625829074,0,0.1928637849,0.5070223809,-0.06492599,0.3527907946,0.2787827133,-0.0763630798,0.5409849899,0.7631309059,0.6967251458,0.166568836,0.3734659743,0.5495822823,0.1558211827,0.4757537426,0.6679497526,0.3223004103,0.0205127507,0.3080067623,0.6801697709,0,0.2426030085,0.2085874423,0.6589776214,0.7320464978,0.5424542554,0.7630820363,0.7622691376,0.0242764449,0.7402452098,0.3990068981,0.755952412,0.6429990408,0.4000891451,0.1894966974,-0.134865168
CNBKA,0,0,0,0,0,0,0,0,0,0,0,0,0,0,0,0,1,0.2412166905,0.347534757,0.4065108026,-0.0410841718,0.1830642158,0.0615542701,0.2635945926,0.3934563982,0.4100502019,0.3024977875,0.395619096,0.1131945317,0.1214116719,0.4225801348,0.3898281421,0.2099255151,0.3459985721,0.0461794634,0.0552959533,0.1148063347,0.2262955588,0.2845606558,0.1956548909,0,0.3511080139,0.0304091329,0.1175736668,0.2960177985,0.0949516646,0.1880702488,0.4091982903,0.315257499,-0.0087910619,0.1977393042,0.3054586832,0.3877493482,-0.0296102685,0.214830266,0.2343156313,0.2901628432,0,0.1504830884,0.3192772698,-0.1044479826,0.2751866916,0.1991006236,0.0214289728,0.2856123888,0.4250645342,0.3977458744,0.1199762171,0.2717191034,0.357758691,0.0679774458,0.3212253468,0.3918435538,0.2776711924,0.0112175485,0.1988796384,0.4060986113,0,0.161119028,0.2724946877,0.3907938345,0.4644026714,0.4178587541,0.4169489533,0.4788396508,-0.0015906056,0.4310657057,0.3089602549,0.4235474927,0.3961290788,0.3214659376,0.1227990224,-0.2436074199
COR,0,0,0,0,0,0,0,0,0,0,0,0,0,0,0,0,0,1,0.2604763226,0.3127867124,0.0288973458,0.2094580906,0.0387222228,0.2027260751,0.3057524603,0.2707338798,0.1810685529,0.2758130503,0.1479663771,0.0856323469,0.2382208985,0.2855232969,0.135662914,0.2487244564,0.0296895369,-0.0282325747,-0.0068259935,0.0821155842,0.2405196998,0.1758685618,0,0.2393637429,-0.03257593,0.0642599875,0.3086885848,0.0139230904,0.1564933689,0.336766906,0.4253066182,-0.0219523162,0.154720632,0.2399639075,0.2620751587,-0.1347363195,0.1473582336,0.3337244969,0.3490664658,0,0.3068641331,0.3235250792,-0.0482569998,0.2426093039,0.1797957222,0.0556960732,0.125255887,0.2797729629,0.3178105271,0.0620661317,0.4714880522,0.2799686429,0.0397707164,0.4878199439,0.2142263161,0.2443618083,0.0482279013,0.460852097,0.2357223573,0,0.1389829843,0.1249441022,0.2626571634,0.315358547,0.3426474522,0.283992109,0.3666034807,0.0036741182,0.2472788015,0.2523466427,0.3045220493,0.3161785444,0.461016653,0.1159799887,-0.0164524352
CPF,0,0,0,0,0,0,0,0,0,0,0,0,0,0,0,0,0,0,1,0.5484378755,-0.0360978141,0.078373787,0.0403338517,0.1949244666,0.490499881,0.387614514,0.4900432589,0.5228658748,0.222233453,0.1708141348,0.4780401621,0.6697451257,0.3571896602,0.5244202293,-0.0906955289,0.0770296636,0.1330223228,0.250305095,0.2950209957,0.2863668579,0,0.3752670533,-0.067594387,0.0757670939,0.2878391702,0.0532571338,0.1311108849,0.6262522106,0.3325749634,0.0393777689,0.0785342632,0.2379100706,0.5323014049,0.0658231292,0.2211184646,0.2399390436,0.3735126593,0,0.1450451784,0.3992953359,0.0192242306,0.2995996136,0.202149053,-0.0542328898,0.5190808293,0.6513208069,0.5851357481,0.1476168637,0.2851217261,0.4160456537,0.0946576052,0.3668917308,0.5855141639,0.3255787341,0.0597137346,0.2310962955,0.5601503991,0,0.1734804028,0.1358960478,0.581224691,0.569972395,0.4342923925,0.6409993798,0.5801908239,0.004703928,0.613319791,0.3731029064,0.6537972847,0.4846206733,0.2754232697,0.1008822148,-0.0231640242
CTBI,0,0,0,0,0,0,0,0,0,0,0,0,0,0,0,0,0,0,0,1,-0.065118409,0.1535147924,0.0508299399,0.2884728322,0.6022062259,0.4896049827,0.4823661363,0.5774101692,0.2665817938,0.2565132296,0.5017119899,0.6888588847,0.3398411173,0.5529015499,-0.1212404545,0.0128816427,0.1450647008,0.32399768,0.3723702678,0.2776696478,0,0.4645884738,-0.0194025489,0.1186780123,0.2710667351,0.1368103512,0.1668641485,0.7190617453,0.4308983209,0.0846708276,0.1730089408,0.2308055612,0.4890645252,0.1230457745,0.207790136,0.2807123696,0.3912080312,0,0.1407658315,0.4923104005,-0.1011630271,0.3167150765,0.220223434,-0.0390374354,0.4455238611,0.6826288014,0.6267888123,0.1301431816,0.3465243393,0.5099001934,0.122753667,0.4171958215,0.5516143022,0.2772397502,0.0688290488,0.2746200015,0.6136446359,0,0.2009945519,0.2067062557,0.6124487949,0.6276006873,0.5007032829,0.7202096407,0.6888922246,0.0581233386,0.6557456451,0.3956409172,0.6887625853,0.6030761674,0.3857552088,0.1475328317,-0.1010727981
DGICB,0,0,0,0,0,0,0,0,0,0,0,0,0,0,0,0,0,0,0,0,1,-0.0162201137,-0.0035760141,-0.0493562689,-0.051052956,-0.0793416007,-0.0275546387,-0.0473586842,0.0431582873,-0.0675205367,-0.0389172317,-0.0721581322,-0.0244787325,-0.0058045168,0.0172534153,-0.0473098776,-0.0456650908,-0.0029809848,-0.0098905107,-0.0200460759,0,-0.0035291069,0.146858911,0.0236575434,0.0453649105,0.0062004804,0.0316094375,-0.0605243481,-0.0180379495,0.0154901719,0.0092598821,0.0650575475,-0.0506697909,-0.2641862996,0.0440616872,-0.0087835114,0.0273316104,0,0.0398402539,-0.0063634561,0.1375551903,0.0019226141,-0.0444133514,0.0489931905,-0.0260357681,-0.0737587597,-0.0516160662,-0.0545924822,0.0754309462,0.009357802,-0.0672911658,0.0173525876,-0.0304541541,0.0700588564,0.0130664252,0.0225676306,-0.0768643048,0,0.0370717821,0.0310644764,0.0254368096,-0.082634167,0.0241509841,-0.046435325,-0.0558790858,-0.0395631344,-0.0823057585,0.0253277844,-0.085644468,-0.0906891845,-0.0142110707,-0.0025456117,-0.1006050108
EFC,0,0,0,0,0,0,0,0,0,0,0,0,0,0,0,0,0,0,0,0,0,1,0.0624953544,0.1304475884,0.1820829644,0.1638729095,0.142421221,0.1779282259,0.1826939112,0.0913712831,0.1458973794,0.197751577,0.1359405194,0.2065546245,-0.0498063294,0.1712330347,0.0899161756,0.1853624947,0.1859664722,0.1533703422,0,0.1276585202,-0.019237039,0.0415667573,0.2806845606,0.0924073643,0.1686647683,0.1814857047,0.2667647286,-0.0028073567,0.0925482184,0.2185146766,0.2077338642,0.0873753331,0.1272214208,0.4169252895,0.2241080271,0,0.3914635466,0.2178674239,0.0057991208,0.2413289617,0.2060612989,0.0529754661,0.1212130067,0.1782971638,0.2053982156,0.1672290544,0.2837399871,0.161695719,0.0636696689,0.305314612,0.1727903546,0.1631188246,0.0362580955,0.3170710572,0.136496472,0,0.1639234596,0.0338512461,0.1727630922,0.2004,0.2937346374,0.1786498786,0.1984633474,0.0005786396,0.2152300851,0.2159858499,0.1777513706,0.1951460261,0.3190515877,0.1696628085,0.0483571325
ESBK,0,0,0,0,0,0,0,0,0,0,0,0,0,0,0,0,0,0,0,0,0,0,1,0.0137661372,0.0627815073,0.0924377967,0.0708191186,0.0666281157,-0.0022209991,0.0179486225,0.1160960196,0.1323417562,-0.0607832181,0.0530429905,0.0451432484,0.0575837567,0.0281192604,-0.0023946197,-0.0216938259,-0.0424889579,0,0.0568412593,0.0145668426,-0.026939834,0.0417088519,0.0001605048,0.0199022405,0.0531330466,0.0141224951,0.1099495921,0.0403788011,0.0077650663,0.0836053924,-0.0868444969,0.033958063,-0.0076074446,0.019115249,0,-0.0325743605,0.0377282958,-0.0619094618,0.0513121474,0.0471603679,-0.0620483164,0.0593275868,0.0998080256,0.0860786023,0.0272944795,0.0079198435,0.095656519,-0.001576391,0.058644298,0.0519197963,0.0590294984,0.0021604503,-0.0067382024,0.0935223666,0,0.0252557505,0.0114528493,0.0880841211,0.0924588703,0.0567056359,0.0694015873,0.0510093211,0.0889922329,0.0891194182,0.1086557282,0.035158012,0.0625655247,0.1141831336,0.0683484469,-0.0406887394
EXAM,0,0,0,0,0,0,0,0,0,0,0,0,0,0,0,0,0,0,0,0,0,0,0,1,0.2760842762,0.2593756679,0.2009834461,0.256989587,0.1489998005,0.1658054396,0.2373441245,0.2756519795,0.153168066,0.2286539955,0.0145029961,0.0478380553,0.0334582171,0.2419849778,0.262323085,0.2510346212,0,0.2079382454,-0.0922894397,0.1080404202,0.2546390862,0.0869634475,0.1046474847,0.2937854293,0.2372940304,0.0053426642,0.1694417219,0.2375377128,0.2727651616,0.0175146635,0.1814565578,0.1595449008,0.1990807024,0,0.1365215262,0.2610998264,0.011364118,0.2422763605,0.2403248619,0.050515483,0.1212730982,0.2964197053,0.2316485771,0.0643794387,0.2082545366,0.2806977509,0.0534709009,0.2973310255,0.2766738486,0.1982359258,0.0230171874,0.1939634041,0.2547470307,0,0.0690651188,0.2360471438,0.285975017,0.3012271888,0.3038130608,0.280574691,0.3201943027,0.0311754448,0.3386759918,0.2209130212,0.3288272949,0.3073006364,0.2197126936,0.23535136,0.0300505094
FBNC,0,0,0,0,0,0,0,0,0,0,0,0,0,0,0,0,0,0,0,0,0,0,0,0,1,0.5441884498,0.4139357626,0.5265114683,0.2486323832,0.2266556401,0.5118781623,0.6148281146,0.3005459197,0.4685053143,-0.1142985325,0.0331103237,0.1548155427,0.2639053375,0.3704600702,0.3249417273,0,0.4677551151,0.0111832989,0.0682866737,0.3308441399,0.1338547679,0.1887408908,0.6363246842,0.3707507049,0.1249306043,0.1117588705,0.2522243375,0.4084511882,-0.0315496985,0.1847769914,0.3223931097,0.3681195141,0,0.1954265723,0.4363739326,-0.0907772033,0.258289631,0.2482853225,-0.0143304373,0.4060187987,0.5867039316,0.5635868751,0.1283514865,0.3323117089,0.5247707345,0.0919016725,0.4047048574,0.4793463756,0.2850859653,0.0375948721,0.3136861272,0.5515784571,0,0.1496537536,0.2101548316,0.5214911047,0.6334999705,0.4635103916,0.6052216125,0.6690711597,0.0100245949,0.5815903794,0.3413744976,0.6191395676,0.5752947009,0.3488200142,0.2017418833,-0.0610545791
FBNK,0,0,0,0,0,0,0,0,0,0,0,0,0,0,0,0,0,0,0,0,0,0,0,0,0,1,0.3865041165,0.429932594,0.1382572872,0.2284780615,0.448783497,0.5208635209,0.3197289029,0.3960109289,-0.0192835888,0.0082328342,0.1032226099,0.2654527215,0.3487306122,0.2212687141,0,0.4627135362,-0.0768786286,0.0860368275,0.2520930091,0.0763807256,0.1763528337,0.5354833589,0.2808275663,0.0369695206,0.1951175017,0.2356710595,0.4411222546,0.0564388791,0.2165346634,0.2689399951,0.3085230564,0,0.1317569893,0.4183746013,0.0203013997,0.2619397768,0.2194970722,0.0181945558,0.3365186568,0.5485868911,0.4894204676,0.1096573492,0.2686362037,0.490917847,0.1331186508,0.365184471,0.4693628663,0.2750725985,0.0343448303,0.244611962,0.500963711,0,0.187101675,0.228197869,0.4510686508,0.5747239125,0.4203397618,0.5363518325,0.5699950491,0.0878627808,0.5328847444,0.3194314872,0.5316698039,0.5438376659,0.2897383517,0.2316326547,0.0138611202
FBP,0,0,0,0,0,0,0,0,0,0,0,0,0,0,0,0,0,0,0,0,0,0,0,0,0,0,1,0.4627360737,0.1960922011,0.1520577054,0.3946909515,0.6395746485,0.2222860507,0.5082745133,-0.1204273114,0.1306817453,0.1911749424,0.2393455797,0.3245118708,0.284286261,0,0.3308016631,-0.0186582832,0.0903367795,0.3362062794,0.0600614028,0.1902235782,0.5894342076,0.2582137873,0.0987342319,0.154702144,0.2977050919,0.4331052593,0.1589609599,0.2206044539,0.2241681577,0.3580424593,0,0.1150138484,0.318987111,-0.0383011863,0.2607277993,0.2732879858,-0.0158034486,0.6086821296,0.6216695521,0.5662467555,0.1404652456,0.2256459267,0.3950167019,0.0928635687,0.3297766669,0.5581198912,0.267808589,0.0835483556,0.1395395342,0.5304207114,0,0.1164510859,0.1519384623,0.5747309928,0.4948536571,0.4337711152,0.6070478633,0.4820632772,0.0570977552,0.5834026123,0.2955309009,0.5685212714,0.4477581225,0.2292223154,0.1659548485,-0.0331773753
FCNCA,0,0,0,0,0,0,0,0,0,0,0,0,0,0,0,0,0,0,0,0,0,0,0,0,0,0,0,1,0.1817468257,0.1667038983,0.4304084322,0.6191576355,0.3134927055,0.5317774312,-0.0866053144,0.0978099859,0.2015932212,0.2811518893,0.3782756276,0.3127161805,0,0.3825009762,-0.0222738297,0.0589677256,0.3464917275,0.136215528,0.1959892227,0.6203729627,0.3652603372,0.0279152889,0.1750789065,0.3265828215,0.4843570412,0.0513679946,0.2169452808,0.3377115252,0.4398166355,0,0.14228862,0.4500877368,-0.0282465018,0.3268674781,0.27821886,0.0118234429,0.4002836922,0.6330755103,0.6017740023,0.2034927644,0.3454944209,0.4624264479,0.1145534485,0.3967065351,0.572265739,0.3095179406,0.0120921099,0.2844408968,0.5402075825,0,0.179448286,0.2059466481,0.5983023831,0.5394873926,0.4968596459,0.659497995,0.5783678855,0.0623109648,0.6239904733,0.3670211345,0.5815497369,0.5186459771,0.3339670488,0.1885039947,-0.1896839844
FDUS,0,0,0,0,0,0,0,0,0,0,0,0,0,0,0,0,0,0,0,0,0,0,0,0,0,0,0,0,1,0.1073232359,0.2136566365,0.2483689483,0.1198370545,0.2553839707,-0.0762971452,0.1232715737,0.098927927,0.1132997897,0.1903202729,0.2106992356,0,0.2061538518,0.0263725569,0.0382114629,0.1770339533,0.1255634459,0.2169916936,0.2733692382,0.2176679744,0.049486125,-0.009679132,0.1964395762,0.2667087631,0.0517882982,0.2437885429,0.1559213135,0.2265264448,0,0.1109513211,0.1983841867,-0.0298043547,0.3126169912,0.1443087883,0.0121605804,0.2187381132,0.2582259088,0.2586922405,0.2287330865,0.2332724335,0.2521776262,0.1084641096,0.2419045056,0.2507910195,0.1771886612,-0.0162714251,0.2021075104,0.2547037686,0,0.2075441338,0.1344409553,0.2629042531,0.2976134558,0.2709651499,0.2355316749,0.2787721697,0.0491389107,0.2969908701,0.1925420403,0.2881804659,0.2471303593,0.196196143,0.074783874,0.0881800006
FFKT,0,0,0,0,0,0,0,0,0,0,0,0,0,0,0,0,0,0,0,0,0,0,0,0,0,0,0,0,0,1,0.1875752639,0.2200739897,0.1004188285,0.1658746271,0.0075226438,0.0056467573,0.0409346599,0.0846840272,0.0878235626,0.1174007633,0,0.1690406871,-0.0645500254,0.0728937179,0.1065091877,0.0706262824,0.1162923087,0.2418070185,0.1597985264,0.0019708415,0.0674970231,0.0361638162,0.1335395195,0.0725708651,0.0395209814,0.0514754892,0.1439258684,0,0.0061286976,0.1910818089,-0.0539001124,0.0845263409,0.1181570294,-0.012658314,0.118431226,0.2442383737,0.1906856843,0.0359689706,0.0952530037,0.1949996906,0.0186452789,0.1308001979,0.1654472096,0.1333853921,0.0169105181,0.1067206607,0.2668945651,0,0.0172228988,0.0787406425,0.1439920878,0.21586284,0.0902847875,0.2233451851,0.2264599679,0.0958351362,0.207753253,0.1603761234,0.2680985618,0.2117343632,0.0847351056,0.041705843,-0.0721255707
FLIC,0,0,0,0,0,0,0,0,0,0,0,0,0,0,0,0,0,0,0,0,0,0,0,0,0,0,0,0,0,0,1,0.5581106314,0.2770723747,0.4412934403,-0.0661624634,0.0426956338,0.0930793022,0.2451076407,0.3434761466,0.2534689417,0,0.4303921538,0.0111992868,0.0511559833,0.2998752585,0.1152240564,0.1259553551,0.5412126814,0.3506066729,0.014889381,0.1199865362,0.2775664628,0.4107230641,0.0242443029,0.2010135569,0.2937756177,0.3274010672,0,0.2026834469,0.4116925478,0.0565077961,0.2434673433,0.2431005999,-0.0601741241,0.3636397098,0.5219567761,0.5125745398,0.1062710115,0.3093452256,0.4799613722,0.0372364828,0.3326733506,0.4509823581,0.3337171496,0.0329224103,0.2780077106,0.5103705901,0,0.0946155511,0.1402460135,0.4669994015,0.5468669904,0.3839809594,0.5086510323,0.5755318883,0.0486876813,0.5317772147,0.3236518343,0.5613385196,0.5474962299,0.3634513252,0.2048568982,-0.1248843663
FNB,0,0,0,0,0,0,0,0,0,0,0,0,0,0,0,0,0,0,0,0,0,0,0,0,0,0,0,0,0,0,0,1,0.3350745938,0.6966012372,-0.1955420228,0.0925616907,0.185124372,0.3231139259,0.3484829013,0.3674302648,0,0.4769253142,-0.0585456235,0.089043524,0.3337688313,0.1692011762,0.220009661,0.7990863204,0.3809123595,0.0585707441,0.1862681099,0.3350185886,0.6081209105,0.1526040363,0.3029143758,0.2749632115,0.47920997,0,0.1490560694,0.4825699725,-0.1443456226,0.3871812197,0.2787003315,-0.0295801579,0.5754431746,0.8505219723,0.7530849248,0.2088294761,0.3778352384,0.533727057,0.1474520812,0.4604727886,0.7442452205,0.3326775707,0.0011982199,0.2744282987,0.6844768517,0,0.2080242484,0.2034389064,0.7932155754,0.7343675577,0.581930719,0.8253569482,0.6901908178,0.0078445843,0.8117352277,0.4102009898,0.7689576987,0.6661102154,0.3352011004,0.2235606642,-0.1232646891
FRBK,0,0,0,0,0,0,0,0,0,0,0,0,0,0,0,0,0,0,0,0,0,0,0,0,0,0,0,0,0,0,0,0,1,0.280707008,0.0010690558,0.0715050956,0.0531659048,0.2531429069,0.2094325539,0.2243686805,0,0.2940055584,0.0022374626,0.0319568244,0.2594780555,0.0036314888,0.1070966836,0.3560525813,0.2659365649,-0.0006627173,0.1111125573,0.1870328664,0.3277597138,0.0346537144,0.1392529863,0.2279234168,0.1695945288,0,0.1583831393,0.2580839776,-0.05113085,0.1635281772,0.1593875422,-0.0336093904,0.2840572813,0.3789302573,0.3237440972,0.1367608504,0.1593015905,0.2161715733,0.0137933247,0.2497030821,0.3307827721,0.1156926906,0.0019825365,0.1152323599,0.2730121814,0,0.0454033481,0.0708699127,0.3257090793,0.3790066338,0.3599332663,0.3746261613,0.3881578294,0.0279431611,0.3451781445,0.1796180183,0.3179555786,0.3279819067,0.2133776309,0.1129521457,0.1066349829
FRC,0,0,0,0,0,0,0,0,0,0,0,0,0,0,0,0,0,0,0,0,0,0,0,0,0,0,0,0,0,0,0,0,0,1,-0.0822328539,0.1757317674,0.1782042299,0.2544765827,0.3555799328,0.3866728743,0,0.3884851685,-0.0686564371,0.1469251453,0.4151383681,0.1105145491,0.2478581983,0.6338001994,0.3529591717,0.0059022799,0.1461486114,0.3813763596,0.5868236375,0.085159355,0.3478476193,0.2524269233,0.526740753,0,0.1364147713,0.432767416,-0.0190606709,0.3750219704,0.2860050414,-0.0394228096,0.4981562629,0.6684503745,0.7015989368,0.2237276933,0.3263854484,0.4693340733,0.1141018061,0.3924395788,0.6873722199,0.3765909077,0.0208726276,0.2365171431,0.5490644026,0,0.2494409952,0.2557548177,0.6967956308,0.5542054654,0.5692066757,0.6653357756,0.5376356904,0.0325707319,0.7024419792,0.3504275753,0.6063883056,0.49689582,0.3047989159,0.2358962862,-0.0810909672
FRPH,0,0,0,0,0,0,0,0,0,0,0,0,0,0,0,0,0,0,0,0,0,0,0,0,0,0,0,0,0,0,0,0,0,0,1,-0.0634403769,-0.0688893047,-0.0318932956,-0.0617358364,-0.028307121,0,-0.0838844086,-0.0420378182,0.0001569707,0.0035826961,0.0213071536,-0.0453148574,-0.1475695112,-0.0533999019,-0.0492785487,0.0196728304,-0.0154481948,-0.057468986,0.1140226602,0.017329534,0.0313504569,-0.2098968403,0,0.0532552428,-0.1131668687,0.1237865649,0.0260050963,-0.0557912026,0.0672466943,-0.0856537354,-0.0750135872,-0.0895186239,-0.0914266432,0.0112186207,-0.0337643526,-0.0069785454,-0.0536405816,-0.1886038521,0.0404546895,-0.0245967891,0.0082861151,-0.1277261782,0,0.0528775742,-0.0010213473,-0.0998974807,-0.0862162005,-0.0007332634,-0.1326378922,-0.0423157515,-0.0044239689,-0.13900021,-0.0386838452,-0.1038353688,-0.0913750921,-0.038121565,0.0027544805,-0.0890901495
FULL,0,0,0,0,0,0,0,0,0,0,0,0,0,0,0,0,0,0,0,0,0,0,0,0,0,0,0,0,0,0,0,0,0,0,0,1,0.0460504784,0.053627077,0.1582294526,0.167327887,0,0.0317325693,0.0140274528,0.0502830792,0.162088018,0.0114849733,0.0838815036,0.1172061888,0.0306029337,-0.0694408641,0.0467696587,0.1192432956,0.1561759474,-0.0080401136,0.128726799,0.0750091749,0.0807335839,0,0.0904744811,0.0103094993,0.0132838612,0.1540765591,0.1067333567,-0.0222989075,0.079109405,0.0987469652,0.1668572478,0.1433459804,0.0975064799,0.0220913627,0.0789633263,0.070620617,0.1783276965,0.1100966644,0.0236713009,-0.0057662334,0.1035401767,0,0.141441087,0.1005664142,0.1448939892,0.0655844547,0.0635519481,0.0464548181,0.0691570212,-0.0894760334,0.1508704812,0.0107788731,0.0901020416,0.043313759,0.0290764686,0.0882854398,0.0991921219
FXCM,0,0,0,0,0,0,0,0,0,0,0,0,0,0,0,0,0,0,0,0,0,0,0,0,0,0,0,0,0,0,0,0,0,0,0,0,1,0.1827911472,0.1782089302,0.0909863145,0,0.159682782,0.0349430554,-0.0331365492,0.0736749509,0.0546821452,0.1046037643,0.1550281518,0.0502696735,0.0353260019,0.0948795005,0.1247445778,0.1847710258,-0.0014131527,0.1583330188,0.1065844849,0.0547055735,0,0.0486136762,0.1594451045,-0.0938343702,0.1069458765,0.1474535375,0.0214035261,0.1276542438,0.1878008828,0.1540853696,0.1218954028,0.0449896763,0.1639833464,0.033219177,0.0633395863,0.2116358929,0.10072287,0.0895613254,0.0363539621,0.1747256917,0,0.1326580173,0.1798341385,0.2041318883,0.1962878717,0.1695473147,0.1915258372,0.1185943824,0.0292728779,0.1583654969,0.1137569939,0.1937374591,0.1676258888,0.0529843244,0.139648034,0.0165782557
GCAP,0,0,0,0,0,0,0,0,0,0,0,0,0,0,0,0,0,0,0,0,0,0,0,0,0,0,0,0,0,0,0,0,0,0,0,0,0,1,0.2601921924,0.1737444877,0,0.2128444743,0.0040509084,0.0869394863,0.2091911176,0.0271171212,0.1742602552,0.2884485662,0.2244465671,0.0015972904,0.1059191458,0.2449902363,0.2708281647,0.0244995272,0.2003774102,0.1716876835,0.1607003686,0,0.1319498595,0.2520667497,-0.0530464674,0.2438484038,0.2410186516,-0.0204543709,0.2033350972,0.3044829111,0.2474166129,0.0805906797,0.2190413172,0.2502507498,0.1025245354,0.227682705,0.2814056914,0.1503764398,0.0278208487,0.174608702,0.2905072112,0,0.1722913474,0.2107458019,0.291626856,0.2680679842,0.291635835,0.3075140764,0.3191529911,0.0382395571,0.3308261864,0.2078400854,0.3134019274,0.2917160296,0.2271075055,0.2223454816,-0.0751316839
GDOT,0,0,0,0,0,0,0,0,0,0,0,0,0,0,0,0,0,0,0,0,0,0,0,0,0,0,0,0,0,0,0,0,0,0,0,0,0,0,1,0.3004979609,0,0.2797975097,-0.0033550152,0.0171349731,0.2456822423,0.1398598656,0.1372851271,0.3850142088,0.3136883961,0.0096569968,0.1513043424,0.3016421085,0.3371004502,0.0029543772,0.1943810123,0.2540851508,0.3217435263,0,0.1873998545,0.3047652393,-0.017296686,0.1851733179,0.2996695198,0.000596401,0.217028088,0.4093182076,0.3866121188,0.106702953,0.2407750814,0.3230868747,0.1164924963,0.2573661343,0.3801316346,0.3165319728,0.0921491255,0.1455471812,0.3868104405,0,0.1110591216,0.2359115031,0.3288444658,0.3925879603,0.3686462814,0.4259239844,0.4034758246,0.0399392803,0.3956528507,0.3134058269,0.3984051795,0.3916501837,0.2347850358,0.2806595379,0.0311084943
GSVC,0,0,0,0,0,0,0,0,0,0,0,0,0,0,0,0,0,0,0,0,0,0,0,0,0,0,0,0,0,0,0,0,0,0,0,0,0,0,0,1,0,0.2492261153,-0.0357189789,0.0601178129,0.2739266697,0.0989592258,0.1503307795,0.3509071222,0.2307027488,0.0383693225,0.1973641874,0.3422235283,0.340415854,0.0732322888,0.31583684,0.2385936463,0.2652320148,0,0.2026461189,0.2489712151,-0.0296082266,0.2621495014,0.2812023099,0.0514995394,0.2287632939,0.3515250872,0.3634214089,0.2377032163,0.1974240421,0.2827975878,0.135683408,0.237104808,0.3999578206,0.2114103823,0.0829566303,0.1795960067,0.3123146579,0,0.1804225802,0.3349993588,0.3810349007,0.3230028838,0.3616239571,0.3702754467,0.3044897354,-0.0487585093,0.3730804587,0.2223529167,0.3329811412,0.2988862487,0.1781327696,0.2055833647,-0.0950732595
HARL,0,0,0,0,0,0,0,0,0,0,0,0,0,0,0,0,0,0,0,0,0,0,0,0,0,0,0,0,0,0,0,0,0,0,0,0,0,0,0,0,0,0,0,0,0,0,0,0,0,0,0,0,0,0,0,0,0,0,0,0,0,0,0,0,0,0,0,0,0,0,0,0,0,0,0,0,0,0,0,0,0,0,0,0,0,0,0,0,0,0,0,0,0
HBNC,0,0,0,0,0,0,0,0,0,0,0,0,0,0,0,0,0,0,0,0,0,0,0,0,0,0,0,0,0,0,0,0,0,0,0,0,0,0,0,0,0,1,-0.0491548538,0.1802917509,0.2281900386,0.1271304181,0.1246682763,0.4803235744,0.3393230828,0.1309250021,0.1714903676,0.1701655136,0.3455046638,0.0413543002,0.1918013537,0.2340274877,0.3211299684,0,0.1080130462,0.3586202835,-0.0651497156,0.248131805,0.2459723657,-0.043620493,0.3200667859,0.5119395539,0.4298279473,0.1399155843,0.2733169185,0.4124000877,0.1406202256,0.3183396636,0.41365705,0.2578429793,0.0364126954,0.1835795809,0.4540215629,0,0.1518592441,0.185198241,0.3898694268,0.5061021935,0.3775925679,0.474001949,0.5057763697,0.012477151,0.4541511822,0.2889886437,0.5014136108,0.4340686246,0.3289702712,0.1599161515,-0.120465762
HFBL,0,0,0,0,0,0,0,0,0,0,0,0,0,0,0,0,0,0,0,0,0,0,0,0,0,0,0,0,0,0,0,0,0,0,0,0,0,0,0,0,0,0,1,0.0335073611,-0.0933221139,-0.0439244039,-0.0050038335,-0.078383854,0.0035210689,0.0397313531,-0.0316630469,0.0396725542,-0.0399180202,-0.1255028333,0.0232425527,-0.0420335839,-0.0238746687,0,-0.0103439532,-0.0016905921,-0.064440414,-0.0074091878,-0.0528075256,0.0724385658,0.0094029098,-0.0731297476,-0.0186920731,0.0312087487,0.058392899,-0.0263154047,-0.0074788183,-0.0021040633,-0.046438601,0.0060636322,0.031649189,-0.027755175,-0.049623915,0,-0.018514105,0.0131879394,-0.0623406433,-0.0410222335,-0.04759774,-0.0459643102,-0.0659711909,0.0450224208,-0.0747321842,0.0656274151,-0.0837721183,-0.0513188377,0.0147615831,0.0028379336,-0.1998210132
HGSH,0,0,0,0,0,0,0,0,0,0,0,0,0,0,0,0,0,0,0,0,0,0,0,0,0,0,0,0,0,0,0,0,0,0,0,0,0,0,0,0,0,0,0,1,0.0341784514,0.05243064,0.0623585265,0.1421854272,0.0661662106,-0.0403656304,0.0879378904,0.0675395768,0.106435541,0.0369304862,0.0488804656,0.0185940894,0.0622937493,0,-0.079404041,0.0658271702,-0.0094557637,0.0692324132,0.1535191933,-0.0449860832,0.1024792635,0.0706071951,0.0795642939,-0.0061138664,0.0735628889,0.0797804762,-0.0273351454,0.0549544643,0.125616005,0.0732727575,0.0693296265,0.0533785019,0.0642048788,0,-0.0177868769,0.1244167006,0.1031620711,0.0685867586,0.1292396217,0.0914529412,0.1215979846,0.0828043183,0.1066961356,0.0876767196,0.1339190842,0.0981193117,0.0432251418,0.0971935588,0.0459813051
HHC,0,0,0,0,0,0,0,0,0,0,0,0,0,0,0,0,0,0,0,0,0,0,0,0,0,0,0,0,0,0,0,0,0,0,0,0,0,0,0,0,0,0,0,0,1,-0.0056339794,0.2731148075,0.3176017546,0.4835163108,-0.0576636416,0.1226931531,0.3506398105,0.3283448059,-0.1346427749,0.3141705052,0.3718949938,0.392883491,0,0.3340200382,0.34139896,0.0340334797,0.3663245469,0.2592334895,-0.0582786321,0.2760575091,0.3453546074,0.426956647,0.1434306324,0.4329118003,0.2402784429,0.0384816611,0.4558742651,0.3407305297,0.3434751716,0.0663071485,0.3726915011,0.3230246095,0,0.1564714766,0.2584828805,0.4184087996,0.278747465,0.4861227722,0.3297977209,0.3474466769,0.0828294593,0.385639381,0.1927141654,0.3440305582,0.3378840706,0.3992716879,0.2289785097,-0.0979827519
HIFS,0,0,0,0,0,0,0,0,0,0,0,0,0,0,0,0,0,0,0,0,0,0,0,0,0,0,0,0,0,0,0,0,0,0,0,0,0,0,0,0,0,0,0,0,0,1,0.0179652164,0.1359648025,0.0376838799,0.0465782036,0.1084291915,0.102877335,0.1036594417,0.0477251052,0.1397282966,0.0835745406,0.0777499793,0,-0.0136396879,0.072926537,0.0107177081,0.1632568013,0.1331730053,-0.0155145935,0.045045281,0.1466379775,0.1003070362,0.0416350811,0.0327892687,0.1174062187,-0.0451507035,0.0786566379,0.1352932576,0.1768336304,0.0075262815,-0.0261574582,0.1314205788,0,0.0981959476,0.0714976268,0.1422474701,0.1770382127,0.1495654564,0.1307094273,0.1349921791,0.004733287,0.1702024475,0.0527770002,0.1503179916,0.1613567489,0.0271102297,0.0496499044,-0.0596605165
HRZN,0,0,0,0,0,0,0,0,0,0,0,0,0,0,0,0,0,0,0,0,0,0,0,0,0,0,0,0,0,0,0,0,0,0,0,0,0,0,0,0,0,0,0,0,0,0,1,0.2077672656,0.2143361352,-0.1055714425,0.1018801726,0.2333864231,0.2142069326,-0.0734636242,0.2362705942,0.2301561128,0.1511678623,0,0.1421366023,0.1617567652,-0.0310910005,0.231625107,0.1631000444,-0.04735812,0.136723894,0.2204674263,0.2184228184,0.1231588217,0.212209317,0.1981556624,0.0567103055,0.2543125068,0.2302676308,0.2076430766,0.0273726804,0.2116647581,0.1694820072,0,0.2867152995,0.2321388574,0.2439802004,0.231615713,0.2863954619,0.2249635372,0.1987627458,0.1177104167,0.2626280216,0.1103372396,0.2062388314,0.2230112683,0.1411875374,0.0716123092,-0.149574415
INDB,0,0,0,0,0,0,0,0,0,0,0,0,0,0,0,0,0,0,0,0,0,0,0,0,0,0,0,0,0,0,0,0,0,0,0,0,0,0,0,0,0,0,0,0,0,0,0,1,0.4117773389,0.0724139965,0.2163432133,0.3283903197,0.5784665842,0.0732577632,0.2540832525,0.2739054771,0.4683799751,0,0.1374063836,0.505999517,-0.0799398496,0.363054928,0.2894525272,-0.0324133123,0.5352387945,0.7867690273,0.7018980176,0.1654749736,0.4037723077,0.5274838532,0.1421722027,0.4535347751,0.6972699949,0.3617731685,0.0213480093,0.3270298162,0.6801592578,0,0.2476410051,0.2116671661,0.7225247535,0.7134102492,0.5667640172,0.7987456596,0.6994377211,0.0529796272,0.7438310485,0.3953338665,0.7684441005,0.6516279219,0.3605944614,0.2283829387,-0.0808838889
INN,0,0,0,0,0,0,0,0,0,0,0,0,0,0,0,0,0,0,0,0,0,0,0,0,0,0,0,0,0,0,0,0,0,0,0,0,0,0,0,0,0,0,0,0,0,0,0,0,1,-0.0234215974,0.1599903882,0.3618112638,0.3831903493,-0.0769367496,0.2210077112,0.3973440336,0.4223561465,0,0.3571205736,0.4140369822,-0.0549031983,0.2951704948,0.2276529954,-0.0672380693,0.2629313634,0.3717604328,0.3962818249,0.1435293019,0.5401697058,0.3253726539,0.0409352429,0.596368069,0.3609685007,0.3464744458,0.0413523676,0.4726362036,0.3826688416,0,0.1725456492,0.194349686,0.3630933038,0.4021458924,0.4762598772,0.431186317,0.4375880359,0.0911113814,0.4071614191,0.3123656168,0.4354240646,0.4445393292,0.5524954441,0.2179099676,-0.2480729594
IROQ,0,0,0,0,0,0,0,0,0,0,0,0,0,0,0,0,0,0,0,0,0,0,0,0,0,0,0,0,0,0,0,0,0,0,0,0,0,0,0,0,0,0,0,0,0,0,0,0,0,1,-0.0694824086,-0.0770088171,-0.0073725455,0.0132229496,0.0221300705,-0.0039713864,0.0175112311,0,-0.0662223144,0.0086013134,-0.0241908892,-0.0080896919,-0.0854826759,0.0985953182,0.0637943274,0.0921062394,0.0533603122,-0.026362115,-0.0402624727,0.0382718506,0.0285507385,0.0385563672,0.0090811692,0.0510759398,-0.0676868426,-0.0240374679,0.0821406123,0,-0.0325119071,-0.0422774922,0.0285210214,0.1137349703,-0.0173015798,0.1005120962,0.0728458059,0.0633995997,0.0552035511,0.0064982683,0.0742631002,0.1018483128,0.052126598,-0.0079821683,0.0398321155
ITIC,0,0,0,0,0,0,0,0,0,0,0,0,0,0,0,0,0,0,0,0,0,0,0,0,0,0,0,0,0,0,0,0,0,0,0,0,0,0,0,0,0,0,0,0,0,0,0,0,0,0,1,0.1567991343,0.1677075563,0.099358679,0.2098650364,0.0985644341,0.103873363,0,0.0067824245,0.2091245511,-0.0579596037,0.0914944284,0.1220875442,0.0702360619,0.0886583526,0.1975243312,0.1423186062,0.0387217399,0.0965984258,0.1931203011,0.090280745,0.1457765216,0.1760972516,0.1245066178,-0.1100146737,0.0552681029,0.1436019546,0,0.0859617224,0.1736458353,0.178321815,0.2648845676,0.2572656973,0.1741037758,0.202740231,0.0349007152,0.1751643732,0.1479659092,0.2061057169,0.1646786671,0.0866977569,0.2046143735,-0.0519290646
KKR,0,0,0,0,0,0,0,0,0,0,0,0,0,0,0,0,0,0,0,0,0,0,0,0,0,0,0,0,0,0,0,0,0,0,0,0,0,0,0,0,0,0,0,0,0,0,0,0,0,0,0,1,0.3828575727,-0.0587361915,0.3714736405,0.3015282826,0.3086158597,0,0.2442551682,0.2589794234,-0.0054107937,0.3399170749,0.3214583355,0.0016699928,0.2597236593,0.330463232,0.3340433842,0.1640293941,0.3133813216,0.2558115957,0.0744112376,0.3523699648,0.4077433513,0.3085877956,0.1160975727,0.2597561383,0.2688800319,0,0.2142469513,0.2786660741,0.3859847342,0.2696530203,0.5163785031,0.3477758754,0.3182717444,0.0571944723,0.3672088565,0.2641911795,0.3316809853,0.2854324554,0.2632371109,0.3070615229,-0.167510924
LPLA,0,0,0,0,0,0,0,0,0,0,0,0,0,0,0,0,0,0,0,0,0,0,0,0,0,0,0,0,0,0,0,0,0,0,0,0,0,0,0,0,0,0,0,0,0,0,0,0,0,0,0,0,1,0.0895716925,0.2903924102,0.2479758598,0.4152772389,0,0.1753868145,0.4048055119,-0.055265713,0.3728868278,0.2761217167,-0.0278708508,0.4010953236,0.5772904467,0.5646780062,0.2075190744,0.3519654124,0.4216058527,0.1002139888,0.3896291505,0.6287548605,0.3211407674,0.020285541,0.3012488475,0.5038024631,0,0.2387829777,0.2358591267,0.6201583259,0.5247116827,0.5804843077,0.605014078,0.5112513966,0.0456386715,0.5895715578,0.3426175967,0.5611236266,0.5425556909,0.2908680174,0.2513904168,-0.1214377369
LSBG,0,0,0,0,0,0,0,0,0,0,0,0,0,0,0,0,0,0,0,0,0,0,0,0,0,0,0,0,0,0,0,0,0,0,0,0,0,0,0,0,0,0,0,0,0,0,0,0,0,0,0,0,0,1,-0.0444046797,-0.0419184461,0.036536667,0,0.0355260523,0.0696612541,-0.0627659481,0.0214452035,0.0240302885,0.0270488495,0.0697646339,0.1004883793,0.0158918443,0.062103803,-0.0578009637,0.0407143867,0.155572306,-0.0192439925,0.0377380588,-3.77777018568E-006,0.1494004023,-0.0640425672,0.0396277179,0,0.0178683117,-0.0145566239,0.0282721189,0.1608305633,0.031869712,0.057271638,0.1158096361,-0.1445499688,0.1360255088,0.0290657272,0.1218384784,0.0928009744,-0.0719528954,-0.0199854171,-0.0076396822
MCC,0,0,0,0,0,0,0,0,0,0,0,0,0,0,0,0,0,0,0,0,0,0,0,0,0,0,0,0,0,0,0,0,0,0,0,0,0,0,0,0,0,0,0,0,0,0,0,0,0,0,0,0,0,0,1,0.2495612238,0.2148905706,0,0.1830586501,0.1898889088,0.0109407713,0.397451371,0.2382533142,0.0196400724,0.249100671,0.2677845532,0.3193896938,0.2193462073,0.1954015073,0.1898586541,0.0967589176,0.2390333251,0.3423092727,0.2013099222,0.1119528062,0.1296932224,0.2210649355,0,0.2941699184,0.30470558,0.394455069,0.242123836,0.3611375655,0.2650763259,0.2338941621,-0.0119970721,0.3456078579,0.1435742488,0.2297426019,0.2411203204,0.1880399635,0.2678117008,-0.139225019
MITT,0,0,0,0,0,0,0,0,0,0,0,0,0,0,0,0,0,0,0,0,0,0,0,0,0,0,0,0,0,0,0,0,0,0,0,0,0,0,0,0,0,0,0,0,0,0,0,0,0,0,0,0,0,0,0,1,0.2610373971,0,0.6704241343,0.3064637278,-0.0432572558,0.3338204093,0.1720766739,0.0217720003,0.1884445579,0.2512818657,0.3218654451,0.158665138,0.4167785206,0.2544689083,0.0471810204,0.4419560791,0.2319160011,0.1877039425,0.1201482225,0.4088349449,0.2525198179,0,0.2151161747,0.1565105489,0.2792828753,0.3216445083,0.389646289,0.3059641428,0.357649036,-0.0470791707,0.2825371601,0.2141113656,0.3223752379,0.3247886853,0.4967261981,0.2126513108,0.1689765308
MKL,0,0,0,0,0,0,0,0,0,0,0,0,0,0,0,0,0,0,0,0,0,0,0,0,0,0,0,0,0,0,0,0,0,0,0,0,0,0,0,0,0,0,0,0,0,0,0,0,0,0,0,0,0,0,0,0,1,0,0.1835453122,0.3949966996,-0.0917831316,0.2975628034,0.2243998629,-0.019809384,0.3415784734,0.4349673497,0.5052263609,0.1060754312,0.3838563187,0.3474049545,0.0644062746,0.4125455431,0.4524615782,0.3501987282,0.0515844767,0.3232342155,0.452829657,0,0.1919844029,0.1967616341,0.4505172437,0.4327360578,0.5044378224,0.4678968497,0.4054341996,0.0527420067,0.4736718692,0.2716104082,0.4621894936,0.399311614,0.3649918416,0.1730835587,-0.1073975709
MMI,0,0,0,0,0,0,0,0,0,0,0,0,0,0,0,0,0,0,0,0,0,0,0,0,0,0,0,0,0,0,0,0,0,0,0,0,0,0,0,0,0,0,0,0,0,0,0,0,0,0,0,0,0,0,0,0,0,0,0,0,0,0,0,0,0,0,0,0,0,0,0,0,0,0,0,0,0,0,0,0,0,0,0,0,0,0,0,0,0,0,0,0,0
MTGE,0,0,0,0,0,0,0,0,0,0,0,0,0,0,0,0,0,0,0,0,0,0,0,0,0,0,0,0,0,0,0,0,0,0,0,0,0,0,0,0,0,0,0,0,0,0,0,0,0,0,0,0,0,0,0,0,0,0,1,0.1919933495,-0.0011557031,0.2683294051,0.1492833473,0.0424696809,0.1274151668,0.1201704621,0.1945431702,0.1037722014,0.3797522409,0.1906658767,-0.0006856158,0.4038262751,0.0919299367,0.1136451848,0.1057290024,0.3814527461,0.1509041425,0,0.1945407976,0.1000363622,0.1553905333,0.199520597,0.2481123577,0.1588115146,0.202485831,-0.0580802353,0.1315232015,0.0873527146,0.1985461974,0.2016618259,0.4070053348,0.177684001,0.1403320863
NAVG,0,0,0,0,0,0,0,0,0,0,0,0,0,0,0,0,0,0,0,0,0,0,0,0,0,0,0,0,0,0,0,0,0,0,0,0,0,0,0,0,0,0,0,0,0,0,0,0,0,0,0,0,0,0,0,0,0,0,0,1,-0.0889297032,0.2651146038,0.2513922711,0.0198642306,0.2662191757,0.4512660818,0.4550336479,0.0965328028,0.3652548382,0.4026813976,0.0903853683,0.4381155092,0.4081883108,0.3353527272,0.032758501,0.3440822534,0.4433826877,0,0.1844571098,0.2633492726,0.4269452446,0.5037171333,0.4923770827,0.4857841893,0.5254743156,0.0421114633,0.4599754165,0.3852257731,0.5102100851,0.5119328781,0.391820601,0.2439676949,-0.0845427838
NHLD,0,0,0,0,0,0,0,0,0,0,0,0,0,0,0,0,0,0,0,0,0,0,0,0,0,0,0,0,0,0,0,0,0,0,0,0,0,0,0,0,0,0,0,0,0,0,0,0,0,0,0,0,0,0,0,0,0,0,0,0,1,-0.018908623,0.0414716646,0.0136453899,-0.0305288635,0.0068078868,-0.0230263052,0.0182859863,-0.0140761916,-0.0086084576,0.0290117275,-0.0461949547,-0.0593154911,0.15167203,0.0940971858,0.0702591462,-0.1424416749,0,0.0563449319,0.0144411152,0.0161302246,-0.0917383512,-0.0395710898,-0.0640979584,-0.0530623747,0.0960586618,0.0037135492,-0.0061467641,-0.0900146415,-0.0796429593,-0.0087821954,-0.0268860612,0.067765471
NMFC,0,0,0,0,0,0,0,0,0,0,0,0,0,0,0,0,0,0,0,0,0,0,0,0,0,0,0,0,0,0,0,0,0,0,0,0,0,0,0,0,0,0,0,0,0,0,0,0,0,0,0,0,0,0,0,0,0,0,0,0,0,1,0.2278000988,-0.0197622699,0.245448691,0.3750329246,0.3640961016,0.2640807168,0.2918000989,0.2792667972,0.09765966,0.3644290143,0.3520466396,0.2669602648,0.0489379642,0.2959575246,0.3074493031,0,0.3901517553,0.2498154426,0.3822247947,0.3397185066,0.4241338002,0.3626035306,0.3632816915,-0.0003676197,0.4113558979,0.1977350929,0.3691971213,0.3285893555,0.2666944652,0.297216054,0.0817460211
NOAH,0,0,0,0,0,0,0,0,0,0,0,0,0,0,0,0,0,0,0,0,0,0,0,0,0,0,0,0,0,0,0,0,0,0,0,0,0,0,0,0,0,0,0,0,0,0,0,0,0,0,0,0,0,0,0,0,0,0,0,0,0,0,1,0.0284121549,0.2145516795,0.2954276711,0.2829512022,0.1358401034,0.1925775828,0.2116367518,0.0118645713,0.2084426083,0.3207901705,0.252289899,0.10004272,0.1771288652,0.2340611369,0,0.1299072519,0.2598826015,0.2715676455,0.3093731981,0.3423719154,0.2855137498,0.2897675703,-0.0962545825,0.3102821645,0.2175043178,0.241931497,0.2638691857,0.1789828473,0.310428214,-0.0425233505
OFED,0,0,0,0,0,0,0,0,0,0,0,0,0,0,0,0,0,0,0,0,0,0,0,0,0,0,0,0,0,0,0,0,0,0,0,0,0,0,0,0,0,0,0,0,0,0,0,0,0,0,0,0,0,0,0,0,0,0,0,0,0,0,0,1,0.0270253342,-0.0468783678,-0.0091170762,0.0146303536,-0.0182820303,0.0173136684,-0.0099317435,-0.0081974003,-0.0540246043,-0.0426493281,-0.0208528009,0.0503289206,-0.0309682711,0,0.0051482873,-0.0415602108,-0.0303497723,0.0353111419,-0.0207393241,-0.0235033219,-0.019786744,-0.0307592374,-0.021462045,0.0106585057,-0.0326759148,0.013359301,0.0074714928,0.0547312555,0.0143372137
OFG,0,0,0,0,0,0,0,0,0,0,0,0,0,0,0,0,0,0,0,0,0,0,0,0,0,0,0,0,0,0,0,0,0,0,0,0,0,0,0,0,0,0,0,0,0,0,0,0,0,0,0,0,0,0,0,0,0,0,0,0,0,0,0,0,1,0.5766501159,0.5503364148,0.1320173069,0.2003925884,0.3787993122,0.0794022361,0.3112245497,0.5522240156,0.216851247,0.0562869111,0.1561387305,0.4564371356,0,0.138599297,0.1733801982,0.5656257401,0.487290032,0.4089670543,0.5399703148,0.4580898628,0.0644616056,0.538429042,0.2491988871,0.5145108434,0.4074941827,0.2138714201,0.1542777784,-0.0816609719
ONB,0,0,0,0,0,0,0,0,0,0,0,0,0,0,0,0,0,0,0,0,0,0,0,0,0,0,0,0,0,0,0,0,0,0,0,0,0,0,0,0,0,0,0,0,0,0,0,0,0,0,0,0,0,0,0,0,0,0,0,0,0,0,0,0,0,1,0.7416983237,0.1852013498,0.3422546112,0.5604813752,0.1744678278,0.4130066071,0.7476666683,0.3702909488,0.0118368827,0.249068159,0.7024801554,0,0.1953500001,0.2223086254,0.764478613,0.7232025911,0.558867408,0.8342843997,0.6825287985,0.0717395581,0.8132558763,0.4241550031,0.7688871149,0.6487687613,0.3085836767,0.1946306274,-0.0754528364
PBCT,0,0,0,0,0,0,0,0,0,0,0,0,0,0,0,0,0,0,0,0,0,0,0,0,0,0,0,0,0,0,0,0,0,0,0,0,0,0,0,0,0,0,0,0,0,0,0,0,0,0,0,0,0,0,0,0,0,0,0,0,0,0,0,0,0,0,1,0.1961807958,0.3790051959,0.4823053017,0.1029481012,0.4368962534,0.6720657905,0.3950903838,0.0916081936,0.2902052557,0.6044937412,0,0.1947859538,0.2190439396,0.7279650791,0.6282150315,0.5906156368,0.7409952857,0.6259643951,0.0468014216,0.7412082103,0.3658515825,0.684141481,0.5847224479,0.3720012671,0.2153258162,-0.0630999595
PFLT,0,0,0,0,0,0,0,0,0,0,0,0,0,0,0,0,0,0,0,0,0,0,0,0,0,0,0,0,0,0,0,0,0,0,0,0,0,0,0,0,0,0,0,0,0,0,0,0,0,0,0,0,0,0,0,0,0,0,0,0,0,0,0,0,0,0,0,1,0.0948217849,0.1481499836,0.1243215452,0.1543339251,0.2448220191,0.0847578466,0.0428608828,0.1543935854,0.1918190414,0,0.2164636974,0.1388131586,0.2384519636,0.1353600593,0.2690393651,0.1986837183,0.1726990558,0.0423269541,0.244311474,0.1214750518,0.1432191737,0.1812378413,0.1719986606,0.1084845563,0.0124735162
PKY,0,0,0,0,0,0,0,0,0,0,0,0,0,0,0,0,0,0,0,0,0,0,0,0,0,0,0,0,0,0,0,0,0,0,0,0,0,0,0,0,0,0,0,0,0,0,0,0,0,0,0,0,0,0,0,0,0,0,0,0,0,0,0,0,0,0,0,0,1,0.2913455063,0.0779241761,0.6262677989,0.3078582801,0.3193503438,0.1110055947,0.5634256181,0.2683426658,0,0.1621801552,0.151615407,0.3329528819,0.3445461453,0.4137815309,0.3747977595,0.3957893508,-0.0223905785,0.3461605041,0.2855297008,0.367976223,0.3601853444,0.5737866126,0.1766190623,0.0426608175
PSTB,0,0,0,0,0,0,0,0,0,0,0,0,0,0,0,0,0,0,0,0,0,0,0,0,0,0,0,0,0,0,0,0,0,0,0,0,0,0,0,0,0,0,0,0,0,0,0,0,0,0,0,0,0,0,0,0,0,0,0,0,0,0,0,0,0,0,0,0,0,1,0.1196924859,0.3352722504,0.4635773716,0.2797690042,0.0189753017,0.2544389813,0.4903277863,0,0.1472534572,0.2219470011,0.4829668818,0.5442709681,0.4236961484,0.5475834832,0.5394357279,0.065671338,0.5543187688,0.3290715996,0.572636913,0.5518224952,0.322866621,0.255963733,-0.0222068175
RBPAA,0,0,0,0,0,0,0,0,0,0,0,0,0,0,0,0,0,0,0,0,0,0,0,0,0,0,0,0,0,0,0,0,0,0,0,0,0,0,0,0,0,0,0,0,0,0,0,0,0,0,0,0,0,0,0,0,0,0,0,0,0,0,0,0,0,0,0,0,0,0,1,0.0795748827,0.1430916748,0.0968699006,0.0408789138,0.0080085946,0.1455513389,0,0.149671938,0.1265608807,0.138813022,0.1625570501,0.1068311497,0.0992101848,0.1331913236,-0.0709128275,0.1435673724,0.0961500949,0.115076094,0.0892791522,0.0304053746,-0.0744836151,-0.1018430907
RLJ,0,0,0,0,0,0,0,0,0,0,0,0,0,0,0,0,0,0,0,0,0,0,0,0,0,0,0,0,0,0,0,0,0,0,0,0,0,0,0,0,0,0,0,0,0,0,0,0,0,0,0,0,0,0,0,0,0,0,0,0,0,0,0,0,0,0,0,0,0,0,0,1,0.3995921988,0.2727202998,0.0968319654,0.5724852165,0.3573227781,0,0.2050828918,0.2354655876,0.3941262868,0.4104909246,0.5282397736,0.4756430957,0.4751162712,-0.013787789,0.4429891862,0.2911124782,0.469335277,0.4316594969,0.6010066315,0.2569854464,-0.0656053236
SIVB,0,0,0,0,0,0,0,0,0,0,0,0,0,0,0,0,0,0,0,0,0,0,0,0,0,0,0,0,0,0,0,0,0,0,0,0,0,0,0,0,0,0,0,0,0,0,0,0,0,0,0,0,0,0,0,0,0,0,0,0,0,0,0,0,0,0,0,0,0,0,0,0,1,0.3534807826,0.0001153741,0.2345412226,0.5982229575,0,0.2338234311,0.2540353427,0.7691254305,0.5900997712,0.5491656161,0.7258861226,0.5813915686,0.0001183481,0.7716824534,0.3544265752,0.6623263774,0.5646377073,0.2725330765,0.1991831988,0.0010444332
SMFG,0,0,0,0,0,0,0,0,0,0,0,0,0,0,0,0,0,0,0,0,0,0,0,0,0,0,0,0,0,0,0,0,0,0,0,0,0,0,0,0,0,0,0,0,0,0,0,0,0,0,0,0,0,0,0,0,0,0,0,0,0,0,0,0,0,0,0,0,0,0,0,0,0,1,0.1229365993,0.2483340442,0.2868058982,0,0.1773978095,0.2458474146,0.3707315963,0.3630331292,0.4384630062,0.3284641097,0.3685395782,0.1315802366,0.3469272082,0.2523333032,0.3570476512,0.3112317824,0.2475463788,0.2180828138,-0.1444563137
SNFCA,0,0,0,0,0,0,0,0,0,0,0,0,0,0,0,0,0,0,0,0,0,0,0,0,0,0,0,0,0,0,0,0,0,0,0,0,0,0,0,0,0,0,0,0,0,0,0,0,0,0,0,0,0,0,0,0,0,0,0,0,0,0,0,0,0,0,0,0,0,0,0,0,0,0,1,0.0652613974,-0.0339070116,0,0.0091389936,0.1010274834,0.0472741845,-0.0340418118,0.0970287977,0.0109089556,0.0721311793,0.0487121818,0.024470352,0.015909416,0.0098075976,0.05008344,0.0990808785,0.0547523705,0.0657652784
STAG,0,0,0,0,0,0,0,0,0,0,0,0,0,0,0,0,0,0,0,0,0,0,0,0,0,0,0,0,0,0,0,0,0,0,0,0,0,0,0,0,0,0,0,0,0,0,0,0,0,0,0,0,0,0,0,0,0,0,0,0,0,0,0,0,0,0,0,0,0,0,0,0,0,0,0,1,0.2466875588,0,0.1896533485,0.1884451239,0.2279672272,0.3097166864,0.3699108056,0.3064528761,0.3406342615,0.0192947427,0.2772654137,0.1623328859,0.3017205574,0.3291697547,0.5289694417,0.1860293453,-0.1799250392
STBZ,0,0,0,0,0,0,0,0,0,0,0,0,0,0,0,0,0,0,0,0,0,0,0,0,0,0,0,0,0,0,0,0,0,0,0,0,0,0,0,0,0,0,0,0,0,0,0,0,0,0,0,0,0,0,0,0,0,0,0,0,0,0,0,0,0,0,0,0,0,0,0,0,0,0,0,0,1,0,0.1819711366,0.1696855271,0.6092601855,0.6111493818,0.4477432269,0.7273010423,0.6346171293,0.0704450515,0.6515621059,0.3854158692,0.6961567387,0.5587198955,0.3024954915,0.1526986429,-0.1676465866
STND,0,0,0,0,0,0,0,0,0,0,0,0,0,0,0,0,0,0,0,0,0,0,0,0,0,0,0,0,0,0,0,0,0,0,0,0,0,0,0,0,0,0,0,0,0,0,0,0,0,0,0,0,0,0,0,0,0,0,0,0,0,0,0,0,0,0,0,0,0,0,0,0,0,0,0,0,0,0,0,0,0,0,0,0,0,0,0,0,0,0,0,0,0
SUNS,0,0,0,0,0,0,0,0,0,0,0,0,0,0,0,0,0,0,0,0,0,0,0,0,0,0,0,0,0,0,0,0,0,0,0,0,0,0,0,0,0,0,0,0,0,0,0,0,0,0,0,0,0,0,0,0,0,0,0,0,0,0,0,0,0,0,0,0,0,0,0,0,0,0,0,0,0,0,1,0.2135306545,0.2703307861,0.2179203273,0.2457081101,0.1618827596,0.2153384429,0.0019299506,0.2245112576,0.1311531202,0.205080063,0.2118906251,0.1522221585,0.1184308852,-0.1234796792
SVVC,0,0,0,0,0,0,0,0,0,0,0,0,0,0,0,0,0,0,0,0,0,0,0,0,0,0,0,0,0,0,0,0,0,0,0,0,0,0,0,0,0,0,0,0,0,0,0,0,0,0,0,0,0,0,0,0,0,0,0,0,0,0,0,0,0,0,0,0,0,0,0,0,0,0,0,0,0,0,0,1,0.2387864946,0.2302638467,0.3492791793,0.209632075,0.2473809047,-0.013485016,0.245741123,0.18500003,0.2004145209,0.209938137,0.1276520218,0.2363382659,-0.0604129987
TCB,0,0,0,0,0,0,0,0,0,0,0,0,0,0,0,0,0,0,0,0,0,0,0,0,0,0,0,0,0,0,0,0,0,0,0,0,0,0,0,0,0,0,0,0,0,0,0,0,0,0,0,0,0,0,0,0,0,0,0,0,0,0,0,0,0,0,0,0,0,0,0,0,0,0,0,0,0,0,0,0,1,0.6074177985,0.5977194731,0.7595318491,0.5944410794,0.0255114895,0.7711957161,0.3639331635,0.696247559,0.5903795342,0.3084426504,0.24555273,-0.2253946025
TMP,0,0,0,0,0,0,0,0,0,0,0,0,0,0,0,0,0,0,0,0,0,0,0,0,0,0,0,0,0,0,0,0,0,0,0,0,0,0,0,0,0,0,0,0,0,0,0,0,0,0,0,0,0,0,0,0,0,0,0,0,0,0,0,0,0,0,0,0,0,0,0,0,0,0,0,0,0,0,0,0,0,1,0.5146300959,0.7000599927,0.7231818128,0.0099612746,0.6745479328,0.4000516626,0.7031359854,0.64572836,0.3531093854,0.2297897387,-0.0907022446
TROW,0,0,0,0,0,0,0,0,0,0,0,0,0,0,0,0,0,0,0,0,0,0,0,0,0,0,0,0,0,0,0,0,0,0,0,0,0,0,0,0,0,0,0,0,0,0,0,0,0,0,0,0,0,0,0,0,0,0,0,0,0,0,0,0,0,0,0,0,0,0,0,0,0,0,0,0,0,0,0,0,0,0,1,0.5731787937,0.5572520062,0.0962094107,0.5863152087,0.355325019,0.5579610653,0.5003983728,0.3977410691,0.3179452965,-0.1620750485
UBSI,0,0,0,0,0,0,0,0,0,0,0,0,0,0,0,0,0,0,0,0,0,0,0,0,0,0,0,0,0,0,0,0,0,0,0,0,0,0,0,0,0,0,0,0,0,0,0,0,0,0,0,0,0,0,0,0,0,0,0,0,0,0,0,0,0,0,0,0,0,0,0,0,0,0,0,0,0,0,0,0,0,0,0,1,0.698352428,0.0340276527,0.7945998137,0.4338000054,0.7753920699,0.6661946819,0.3719024957,0.2306918463,-0.1140294975
WASH,0,0,0,0,0,0,0,0,0,0,0,0,0,0,0,0,0,0,0,0,0,0,0,0,0,0,0,0,0,0,0,0,0,0,0,0,0,0,0,0,0,0,0,0,0,0,0,0,0,0,0,0,0,0,0,0,0,0,0,0,0,0,0,0,0,0,0,0,0,0,0,0,0,0,0,0,0,0,0,0,0,0,0,0,1,0.0459442275,0.6688372561,0.3948664825,0.7122715469,0.6455547488,0.4498171011,0.2774571068,-0.1316731819
WBKC,0,0,0,0,0,0,0,0,0,0,0,0,0,0,0,0,0,0,0,0,0,0,0,0,0,0,0,0,0,0,0,0,0,0,0,0,0,0,0,0,0,0,0,0,0,0,0,0,0,0,0,0,0,0,0,0,0,0,0,0,0,0,0,0,0,0,0,0,0,0,0,0,0,0,0,0,0,0,0,0,0,0,0,0,0,1,0.0465686115,0.092588034,0.0536832557,0.0791500294,-0.0026282261,0.0555412375,0.0190490921
WBS,0,0,0,0,0,0,0,0,0,0,0,0,0,0,0,0,0,0,0,0,0,0,0,0,0,0,0,0,0,0,0,0,0,0,0,0,0,0,0,0,0,0,0,0,0,0,0,0,0,0,0,0,0,0,0,0,0,0,0,0,0,0,0,0,0,0,0,0,0,0,0,0,0,0,0,0,0,0,0,0,0,0,0,0,0,0,1,0.4071343518,0.7526393469,0.6413447625,0.3323268932,0.2351954232,-0.0751544269
WD,0,0,0,0,0,0,0,0,0,0,0,0,0,0,0,0,0,0,0,0,0,0,0,0,0,0,0,0,0,0,0,0,0,0,0,0,0,0,0,0,0,0,0,0,0,0,0,0,0,0,0,0,0,0,0,0,0,0,0,0,0,0,0,0,0,0,0,0,0,0,0,0,0,0,0,0,0,0,0,0,0,0,0,0,0,0,0,1,0.4027146632,0.3660440425,0.2997266651,0.1639398381,-0.0326332701
WSBC,0,0,0,0,0,0,0,0,0,0,0,0,0,0,0,0,0,0,0,0,0,0,0,0,0,0,0,0,0,0,0,0,0,0,0,0,0,0,0,0,0,0,0,0,0,0,0,0,0,0,0,0,0,0,0,0,0,0,0,0,0,0,0,0,0,0,0,0,0,0,0,0,0,0,0,0,0,0,0,0,0,0,0,0,0,0,0,0,1,0.6290120313,0.3772896163,0.2105666,-0.1502491719
WSFS,0,0,0,0,0,0,0,0,0,0,0,0,0,0,0,0,0,0,0,0,0,0,0,0,0,0,0,0,0,0,0,0,0,0,0,0,0,0,0,0,0,0,0,0,0,0,0,0,0,0,0,0,0,0,0,0,0,0,0,0,0,0,0,0,0,0,0,0,0,0,0,0,0,0,0,0,0,0,0,0,0,0,0,0,0,0,0,0,0,1,0.3726465165,0.2710699893,-0.1341649011
WSR,0,0,0,0,0,0,0,0,0,0,0,0,0,0,0,0,0,0,0,0,0,0,0,0,0,0,0,0,0,0,0,0,0,0,0,0,0,0,0,0,0,0,0,0,0,0,0,0,0,0,0,0,0,0,0,0,0,0,0,0,0,0,0,0,0,0,0,0,0,0,0,0,0,0,0,0,0,0,0,0,0,0,0,0,0,0,0,0,0,0,1,0.1609292357,0.0252896393
Z,0,0,0,0,0,0,0,0,0,0,0,0,0,0,0,0,0,0,0,0,0,0,0,0,0,0,0,0,0,0,0,0,0,0,0,0,0,0,0,0,0,0,0,0,0,0,0,0,0,0,0,0,0,0,0,0,0,0,0,0,0,0,0,0,0,0,0,0,0,0,0,0,0,0,0,0,0,0,0,0,0,0,0,0,0,0,0,0,0,0,0,1,0
ZG,0,0,0,0,0,0,0,0,0,0,0,0,0,0,0,0,0,0,0,0,0,0,0,0,0,0,0,0,0,0,0,0,0,0,0,0,0,0,0,0,0,0,0,0,0,0,0,0,0,0,0,0,0,0,0,0,0,0,0,0,0,0,0,0,0,0,0,0,0,0,0,0,0,0,0,0,0,0,0,0,0,0,0,0,0,0,0,0,0,0,0,0,1
