Years, Theta, Degeneracy, Stocks Count, Stocks 
2008-9,0.1,155,163,ACET ACO ADM ADPT ADX AEPI AGII AIN AIRM AKRX ALCO AMAG AMWD ASMI ASTE ATRI ATU AVD AYE BC BCPC BMC BNHNA BRL BRLI BRY BTFG BWINB BWS CAMD CBM CBRX CCC CDNS CDR CECE CELG CERN CHCO CHFC CLHB CMRG CNMD COKE CPF CRK CRMT CTBI CTR CY DD DELL DRL DTE DY EBIX ECOL ED EK EMC ETN FAST FBNC FBP FCNCA FFKT FIC FISV FNB FO FSYS FUND GD GE GENZ GMT GNCMA GNI GR HGIC HGR HLS HNBC HON HRH HRZB HTLD HVT IBM IIVI IMKTA INDB IPAR IR ITT JAVA JJSF KDE KO KSU LABL LG LH LLTC LNN LWAY MDCI MEAS MGM MGPI MKL MSFT NAVG NOVN NVLS NWK OFG ONB ORCL OSIP OSUR PATR PBCT PBKS PDE PKY PLAB PLXS PTEC RGEN RNT SAFM SIG SIGM SIVB SKS SKYW SOV STSA SUR SYNO TCB TECD TKLC TKS TMP TROW TSFG UBSI UIS VIVO WASH WBS WERN WMI WPPGY WSBC WSFS WTS XOM XOMA XRAY XRIT 
2008-9,0.2,146,151,ACET ACO ADM ADPT ADX AEPI AGII AIN AIRM AKRX ALCO AMAG AMWD ASMI ASTE ATRI ATU AVD AYE BC BCPC BMC BRL BRLI BRY BTFG BWINB BWS CBM CBRX CCC CDNS CDR CELG CERN CHCO CHFC CLHB CMRG CNMD COKE CPF CRK CRMT CTBI CTR CY DD DELL DTE DY EBIX ECOL ED EK EMC ETN FAST FBNC FBP FCNCA FFKT FIC FISV FNB FO FSYS FUND GD GE GENZ GMT GNCMA GR HGIC HGR HLS HNBC HON HTLD IBM IIVI IMKTA INDB IPAR IR ITT JAVA JJSF KO KSU LABL LG LH LLTC LNN LWAY MDCI MEAS MGM MKL MSFT NAVG NOVN NVLS NWK OFG ONB ORCL OSIP OSUR PATR PBCT PBKS PDE PKY PLAB PLXS PTEC RGEN SAFM SIG SIGM SIVB SKS SKYW SOV STSA SUR SYNO TCB TECD TKLC TKS TMP TROW TSFG UBSI UIS VIVO WASH WBS WERN WMI WPPGY WSBC WSFS WTS XOM XOMA XRAY 
2008-9,0.3,117,135,ACET ACO ADPT ADX AEPI AGII AIN AIRM AKRX ALCO AMWD ASTE ATRI ATU AVD AYE BC BCPC BMC BRL BRLI BRY BTFG BWINB BWS CBM CCC CDNS CDR CELG CERN CHCO CHFC CNMD COKE CPF CRK CRMT CTBI CTR CY DD DTE DY EBIX ECOL ED EK EMC ETN FAST FBNC FBP FCNCA FIC FISV FNB FO FUND GD GE GENZ GMT GNCMA GR HGIC HGR HLS HNBC HON HTLD IBM IIVI IMKTA INDB IPAR IR ITT JJSF KO KSU LABL LH LLTC LNN LWAY MDCI MEAS MGM MKL MSFT NAVG NOVN NVLS OFG ONB ORCL OSUR PATR PBCT PBKS PDE PKY PLXS PTEC RGEN SAFM SIG SIGM SIVB SKS SKYW SOV STSA SUR SYNO TCB TECD TKLC TKS TMP TROW TSFG UBSI VIVO WASH WBS WERN WMI WPPGY WSBC WSFS WTS XOM XRAY 
2008-9,0.4,76,84,ACET ACO ADX AGII AIN ALCO ASTE ATU BC BCPC BMC BWINB BWS CDNS CDR CHCO CHFC CNMD CTBI CTR DD DY EK EMC ETN FAST FBNC FBP FIC FISV FNB FO FUND GE GMT GNCMA GR HGIC HLS HNBC HON HTLD IBM IIVI IMKTA INDB IPAR IR ITT JJSF KSU LLTC MDCI MEAS MKL MSFT NAVG NVLS ONB ORCL OSUR PBCT PBKS PKY PLXS SIVB SKYW SOV SUR TCB TECD TKLC TMP TROW UBSI WASH WBS WERN WMI WPPGY WSBC WSFS WTS XRAY 
2008-9,0.5,39,54,ACO ADX AIN ASTE ATU BC BCPC BWINB BWS CHCO CHFC CNMD CTBI CTR DD ETN FAST FBNC FBP FIC FISV FNB FO GE GMT GNCMA HGIC HNBC HON HTLD IIVI IMKTA INDB ITT JJSF MDCI ONB ORCL OSUR PKY PLXS SIVB SKYW SOV SUR TKLC TMP TROW UBSI WASH WBS WSBC WSFS WTS 
2008-9,0.6,13,16,CHCO CHFC CTBI FBP FNB HNBC INDB ONB PBKS SIVB SOV TCB TROW UBSI WBS WSBC 
2008-9,0.7,6,7,CHFC CTBI FNB INDB ONB UBSI WSBC 
2008-9,0.8,1,6,CHFC CTBI HTLD ONB WERN WSBC 
2008-9,0.9,0,0,
2008-9,0.95,0,0,
2010-11,0.1,153,158,AAN ACET ACO ACUR ADM ADPT ADX AEPI AGII AIN AIRM AKRX ALCO ALEX AMAG AMWD ASMI ASTE ATRI ATU AVD AYE BC BCPC BMC BNHNA BRLI BRY BWINB BWS CATO CBM CCC CDNS CDR CELG CERN CFNB CHCO CHFC CLDX CLH CMRG CNBKA CNMD COKE CRK CRMT CTBI CY CYBE CYTR DD DELL DINE DRL DTE DY EBIX ECOL ED EK EMC ETN FAST FBNC FBP FCNCA FICO FISV FLIC FNB FO FSYS FUND GD GE GENZ GMT GNCMA GR HGIC HGR HLS HON HTLD HVT IBM IIVI IMKTA INDB IPAR IR ITT JJSF JOUT KO KSU LABL LG LH LLTC LNN LWAY MDCI MEAS MGM MGPI MKL MSFT MXIM NAV NAVG NVLS NWK OFG ONB ORCL OSUR PATR PBCT PDE PKY PLAB PLXS PPHM PTSI RENT SAFM SIG SIGM SIVB SKS SKYW STSA SUR SYNO TCB TECD TKLC TKS TMP TROW UBSI UIS VIVO WASH WBS WERN WM WPPGY WSBC WSFS WTS XOM XOMA XRAY XRIT 
2010-11,0.2,141,145,AAN ACET ACO ACUR ADM ADX AEPI AGII AIN AIRM AKRX ALCO ALEX AMAG AMWD ASMI ASTE ATRI ATU AVD BC BCPC BMC BRLI BRY BWINB BWS CATO CBM CCC CDNS CDR CELG CERN CFNB CHCO CHFC CLDX CLH CMRG CNBKA CNMD COKE CRK CRMT CTBI CY DD DELL DRL DTE DY EBIX ECOL ED EK EMC ETN FAST FBNC FCNCA FICO FISV FLIC FNB FO FSYS FUND GD GE GMT GNCMA GR HGIC HGR HLS HON HTLD HVT IBM IIVI IMKTA INDB IPAR IR ITT JJSF KO KSU LABL LG LH LLTC LNN LWAY MDCI MEAS MGM MGPI MKL MSFT MXIM NAV NAVG NVLS NWK OFG ONB ORCL OSUR PATR PBCT PDE PKY PLAB PLXS PPHM RENT SIG SIGM SIVB SKS SKYW SUR SYNO TCB TECD TKLC TKS TMP TROW UBSI UIS VIVO WASH WBS WERN WM WPPGY WSBC WSFS WTS XOM XRAY XRIT 
2010-11,0.3,132,135,AAN ACET ACO ADM ADX AEPI AGII AIN AIRM ALCO ALEX AMWD ASMI ASTE ATRI ATU AVD BC BCPC BMC BRLI BRY BWINB BWS CATO CBM CCC CDNS CDR CELG CERN CFNB CHCO CHFC CLDX CLH CMRG CNBKA CNMD COKE CRK CRMT CTBI CY DD DELL DTE DY EBIX ECOL EMC ETN FAST FBNC FCNCA FICO FISV FLIC FNB FO FSYS FUND GD GE GMT GNCMA GR HGIC HGR HLS HON HTLD HVT IBM IIVI IMKTA INDB IPAR IR ITT JJSF KO KSU LABL LG LH LLTC LNN LWAY MDCI MEAS MGM MGPI MKL MSFT MXIM NAV NAVG NVLS OFG ONB ORCL OSUR PATR PBCT PKY PLAB PLXS PPHM RENT SIG SIGM SIVB SKS SKYW SYNO TCB TECD TKLC TMP TROW UBSI UIS VIVO WASH WBS WERN WM WPPGY WSBC WSFS WTS XOM XRAY XRIT 
2010-11,0.4,106,116,ACET ACO ADM ADX AEPI AGII AIN AIRM ALCO ALEX AMWD ASMI ASTE ATRI ATU BC BCPC BMC BRY BWINB BWS CATO CCC CDNS CDR CERN CHCO CHFC CLH CNBKA CNMD CTBI CY DD DELL DTE DY ECOL EMC ETN FAST FBNC FCNCA FICO FISV FLIC FNB FO FUND GD GE GMT GNCMA HGIC HLS HON HTLD HVT IBM IIVI IMKTA INDB IPAR IR ITT JJSF KSU LABL LG LH LLTC LNN MDCI MEAS MGM MGPI MKL MSFT MXIM NAV NAVG NVLS OFG ONB ORCL OSUR PBCT PKY PLAB PLXS RENT SIG SIGM SIVB SKS SKYW SYNO TCB TECD TKLC TMP TROW UBSI UIS VIVO WASH WBS WERN WM WPPGY WSBC WSFS WTS XOM XRAY XRIT 
2010-11,0.5,63,74,ACO ADX AGII AIN ALEX AMWD ASTE ATU BC BCPC BMC BRY BWINB BWS CDNS CHCO CHFC CNMD CTBI DD DY EMC ETN FAST FCNCA FICO FISV FNB FO FUND GD GE GMT HLS HON HTLD IBM IIVI IMKTA INDB IR ITT JJSF KSU LG LLTC LNN MEAS MXIM NAVG NVLS ONB ORCL PKY PLXS SIG SIVB SKS TECD TKLC TMP TROW UBSI UIS VIVO WASH WBS WERN WM WPPGY WSBC WTS XOM XRAY 
2010-11,0.6,25,29,ACO ADX AIN ALEX ASTE ATU BC CHFC DD ETN FAST FICO FISV FNB FUND GE GMT HON IIVI IR ITT KSU SIVB TECD TROW UIS WBS WTS XRAY 
2010-11,0.7,9,11,FBM FCL FCQ FEG FHC FIL FLG FMM FMU FOS FTQ 
2010-11,0.8,6,21,HBTA HMTM IVOG IVOO IVOV LVOL SHBT SHMO SLBT SLVY VIOG VIOO VONE VONG VONV VOO VOOG VTHR VTWG VTWO VTWV 
2010-11,0.9,2,9,CNTR GRPC LWPE VONE VONG VONV VTHR VTWG VTWO 
2010-11,0.95,1,12,BWS CEBK HRZB ICCC MSFT RBPAA TGX TKS VTWG VTWO WPPGY WSB 
2012-13,0.1,455,527,AADR AAN AAT ABCS ABH ACET ACO ACP ACTV ACUR ADM ADX AEGR AEPI AG AGII AGLS AGRG AGRO AIN AIRM AKRX AL ALCO ALD ALEX ALUM AMAG AMCX AMLP AMRC AMRS AMTG AMWD ANAC AND APO ARCO ARGT ARX ASEA ASMI ASTE AT ATNY ATRI ATU AVD AVL AWAY AXDI AXEN AXHE AXID AXIT AXMT AXTE AXUT BAH BARN BBRG BC BCPC BCX BEAM BGMD BKLN BKU BMC BOX BRAF BRAQ BRLI BRP BRY BSJD BSJE BSJF BWC BWINB BWS CARB CARZ CATO CBM CCC CCG CCX CDNS CDR CECE CELG CERN CFD CFNB CHCO CHEF CHFC CHTR CJES CLDX CLFD CLH CMRE CMRG CMVT CNBKA CNMD CNPF CNTR COKE COLX CONG COR COWL CPF CRK CRMT CROP CRUD CSOD CSRE CTBI CURE CY DANG DBBR DBCN DBEF DBEM DBJP DCIX DD DELL DJCO DMD DNKN DPG DRL DTE DY EAPS EBIX EBND ECNS ECOL ECON ECYT ED EDIV EEMS EFC ELD ELLI ELT EMC EMER EMGX EMLC EMO EMVX ENV ENZL EPHE EPOC EQIN ERUS ETN EWAC EWEF EWEM EWMD EWRI EWRM EWRS EWSM EWZS EXAM FAST FBHS FBM FBNC FBNK FBP FBZ FCA FCD FCL FCNCA FCQ FDT FDUS FEG FEM FEP FF FFL FHC FICO FIF FIL FIO FISV FJP FKO FLDM FLG FLIC FLN FLT FMK FMM FMU FNB FNK FNY FONE FOS FPA FRAN FRC FRF FRL FRNK FRP FSD FSE FSL FSU FSYS FTQ FUI FUND FWDD FWDI FXCM FYC FYT GASL GD GDOT GE GERJ GEVO GGEM GLDX GM GMAN GMLP GMT GNC GNCMA GNR GNT GORO GR GRFS GRPC GTAA GUNR HBM HBNC HBTA HCA HCOM HDG HDV HEQ HGEM HGR HHC HII HILO HLS HMTM HON HRZN HTLD HVOL HVT HYLD HYS IBM IGEM IHD IIVI IL IMKTA INCB INCO INDB INF INN INXN INXX IOIL IPAR IPHI IR ISS ITIC ITIP ITT IVOG IVOO IVOV JJSF JMF JOUT KBWD KBWP KBWX KBWY KEYW KIOR KKR KMF KMI KO KOS KSU LABL LBTA LG LGEM LH LIT LLTC LNKD LNN LPLA LVOL LWAY LWPE LYB MATH MATL MCC MCHI MCP MDCI MEAS MGM MITT MKL MKTG MOBI MORT MPC MSFT MTGE MX MXIM NAV NAVG NKY NLSN NMFC NORW NPTN NQ NTG NTSP NVLS NXPI OFG ONB ORCL OSUR P PACB PATR PBCT PCOM PCRX PEK PEOP PER PKY PLAB PLXS PSTB PTGI PXLG PXLV QADA QGEM QIHU QLIK QRE QRM QUAD RATE REE REMX RENT RETL RGEN RLD RLJ RNET ROOF RP RPXC RSXJ RUSL RVM SAFM SARA SAVE SCHH SCHM SCIF SCIN SDIV SDT SEMG SFUN SGNT SHBT SHMO SHVY SIG SIGM SIVB SKS SKUL SKYW SKYY SLBT SLVY SMF SMFG SODA SOIL SPHB SPLV SQI SREV STAG STBZ STSA SUNH SUNS SWFT SWSH SXC SYRG SZYM TCB TEA TECD TFM TGEM THR TILT TMP TMS TNGO TOWR TPLM TRGP TRNX TROW TSRX TSU TSXV TUDO TZW TZY UAM UBSI UGEM UIS UJB URA USCI USCR VELT VGEM VHS VIOG VIOO VIOV VIVO VNET VNQI VOC VOG VONE VONG VONV VOO VOOG VOOV VRA VROM VTHR VTWG VTWO VTWV VXUS WAIR WASH WBS WD WERN WIFI WILN WITE WM WPPGY WSBC WSFS WSR WTS XHE XOM XOMA XRAY XRIT XTL XTN YNDX YOKU Z ZIP 
2012-13,0.2,331,364,AADR AAN AAT ABCS ACET ACO ADM ADX AGII AGRG AGRO AIN AL ALD ALEX ALUM AMLP AMWD AND ARCO ARGT ARX ASEA ASMI ASTE AT ATU AXDI AXEN AXHE AXID AXIT AXMT AXTE AXUT BC BCPC BCX BEAM BKU BMC BOX BRAF BRAQ BRP BRY BSJE BWC BWINB BWS CARZ CATO CCC CCG CCX CDNS CDR CELG CERN CFNB CHCO CHFC CHTR CLH CNBKA CNMD CNTR COKE CONG COR COWL CPF CRMT CROP CSOD CTBI CURE CY DBBR DBCN DBEF DBEM DBJP DD DNKN DPG DRL DTE DY EAPS EBIX EBND ECNS ECOL ECON EDIV EEMS ELD EMC EMER EMLC ENV ENZL EPHE EQIN ERUS ETN EWEF EWEM EWMD EWRI EWRM EWRS EWSM EWZS EXAM FAST FBHS FBM FBNC FBNK FBP FBZ FCA FCD FCL FCNCA FCQ FDT FDUS FEG FEM FEP FF FFL FHC FICO FIL FISV FJP FKO FLDM FLG FLIC FLN FLT FMK FMM FMU FNB FNK FNY FONE FOS FPA FRC FRF FRL FRNK FRP FSE FSL FSU FSYS FTQ FUND FWDD FWDI FYC FYT GASL GD GE GERJ GGEM GM GMT GNCMA GNR GNT GRPC GTAA GUNR HBTA HDG HDV HEQ HGEM HGR HHC HII HILO HLS HMTM HON HTLD HVOL HVT HYS IBM IGEM IIVI IL IMKTA INCB INCO INDB INF INN INXX IOIL IPAR IPHI IR ITT IVOG IVOO IVOV JJSF JOUT KBWD KBWP KBWX KBWY KKR KMF KMI KO KSU LABL LBTA LG LGEM LH LIT LLTC LNN LPLA LVOL LWPE LYB MATH MATL MCC MCHI MEAS MGM MKL MORT MPC MSFT MX MXIM NAV NAVG NKY NMFC NORW NVLS NXPI OFG ONB ORCL OSUR PATR PBCT PKY PLAB PLXS PSTB PXLG PXLV QADA QGEM QLIK QUAD REMX RENT RETL RLJ ROOF RP RSXJ RUSL SCHH SCHM SCIF SCIN SDIV SEMG SHBT SHMO SHVY SIG SIVB SKS SKYW SKYY SLBT SLVY SMFG SOIL SPHB SPLV STAG STBZ STSA SUNS SWFT SXC TCB TECD TGEM THR TILT TMP TMS TOWR TPLM TRGP TROW TSU TSXV TZW TZY UBSI UGEM UIS UJB URA VGEM VIOG VIOO VIOV VIVO VNQI VOG VONE VONG VONV VOO VOOG VOOV VROM VTHR VTWG VTWO VTWV VXUS WASH WBS WERN WM WPPGY WSBC WSFS WSR WTS XHE XOM XRAY XTL XTN YNDX 
2012-13,0.3,227,272,AADR AAN ABCS ACO ADM ADX AGII AGRG AIN ALEX ALUM AMLP AMWD AND ARGT ASEA ASTE ATU AXDI AXEN AXID AXIT AXMT AXTE BARN BC BCPC BCX BEAM BOX BRAF BRAQ BRY BWC BWINB BWS CARZ CATO CCC CCG CDNS CDR CERN CHCO CHFC CLH CNBKA CNMD CNTR COKE CONG COWL CROP CTBI CURE CY DBCN DBEF DBEM DBJP DD DY EAPS ECNS ECON EDIV EEMS ELD EMC EMER EMGX ENZL EPHE EQIN ERUS ETN EWEF EWEM EWMD EWRI EWRM EWRS EWSM EWZS FAST FBHS FBM FCA FCD FCL FCNCA FDT FEG FEM FEP FFL FHC FICO FIL FISV FJP FKO FLG FLIC FLN FMK FMM FMU FNB FNK FNY FONE FOS FPA FRC FRL FSE FSL FSU FSYS FTQ FUND FWDD FWDI FYC FYT GASL GD GE GERJ GGEM GM GMT GNR GRPC GTAA GUNR HBTA HDG HDV HEQ HGEM HHC HILO HLS HMTM HON HTLD HVOL HYS IBM IGEM IIVI INCB INDB INXX IOIL IR ITT IVOG IVOO IVOV JJSF KBWD KBWP KBWX KBWY KKR KSU LBTA LGEM LIT LLTC LNN LPLA LVOL LWPE LYB MATH MATL MCHI MEAS MGM MSFT MXIM NAV NKY NORW NVLS NXPI OFG ONB ORCL PATR PBCT PLAB PLXS PXLG PXLV QGEM REMX RETL RLJ ROOF RSXJ RUSL SCHH SCHM SCIF SCIN SDIV SHBT SHMO SHVY SIG SIVB SKS SKYY SLBT SLVY SMFG SOIL SPHB SPLV STSA SXC TCB TECD TGEM TILT TMS TPLM TRGP TROW TSXV TZW TZY UBSI UGEM UIS UJB URA VGEM VIOG VIOO VIOV VIVO VNQI VONE VONG VONV VOO VOOG VOOV VROM VTHR VTWG VTWO VTWV VXUS WASH WBS WM WPPGY WSBC WSFS WTS XHE XOM XRAY XTL XTN 
2012-13,0.4,154,180,AADR ABCS ACO ADX AGRG AIN ALUM ASEA ASTE ATU AXDI AXEN AXID AXMT BC BCX BWC CARZ CNTR CONG COWL CROP CURE CY DBCN DBEF DBEM DD EAPS ECON EDIV EEMS EMER EQIN ERUS ETN EWEF EWEM EWMD EWRI EWRM EWRS EWSM FBM FCD FCL FDT FEG FEM FEP FFL FHC FICO FIL FISV FLG FMK FMM FMU FNB FNK FNY FONE FOS FPA FRL FSE FSU FTQ FUND FWDD FWDI FYC FYT GASL GD GE GGEM GM GMT GNR GRPC GTAA GUNR HBTA HDG HDV HEQ HILO HMTM HON HVOL IBM IGEM IIVI INCB INDB IOIL IR ITT IVOG IVOO IVOV KBWD KBWP KBWX KBWY KSU LBTA LGEM LIT LLTC LVOL LWPE LYB MATH MATL MCHI MEAS MXIM NKY NORW NVLS ONB PLXS PXLG PXLV QGEM REMX RETL ROOF RSXJ RUSL SCHH SCHM SDIV SHBT SHMO SHVY SIVB SKYY SLBT SLVY SOIL SPHB SPLV TECD TGEM TILT TROW TZW TZY UGEM URA VGEM VIOG VIOO VIOV VNQI VONE VONG VONV VOO VOOG VOOV VROM VTHR VTWG VTWO VTWV VXUS WBS WM WPPGY WTS XHE XOM XRAY XTL XTN 
2012-13,0.5,109,128,AADR ABCS ADX AGRG ALUM ASEA AXDI AXEN AXID AXMT CARZ CNTR CONG COWL CROP CURE DBEM DD EAPS ECON EDIV EEMS EMER EQIN ERUS ETN EWEF EWMD EWRI EWRM EWRS EWSM FBM FCL FDT FEG FEM FEP FFL FHC FIL FISV FLG FMK FMM FMU FNK FNY FONE FOS FPA FRL FSE FSU FTQ FWDD FWDI FYC FYT GGEM GNR GRPC GTAA GUNR HBTA HDG HDV HILO HMTM HON HVOL IOIL IVOG IVOO IVOV KBWX LBTA LGEM LIT LLTC LVOL LWPE MATH MATL MCHI NORW PXLG PXLV QGEM REMX RSXJ RUSL SCHM SDIV SHBT SHMO SHVY SKYY SLBT SLVY SOIL SPHB SPLV TILT TROW TZW TZY VGEM VIOG VIOO VIOV VNQI VONE VONG VONV VOO VOOG VOOV VROM VTHR VTWG VTWO VTWV VXUS WPPGY XHE XRAY XTL 
2012-13,0.6,77,87,ABCS ADX AGRG AXDI AXID CARZ CNTR CONG COWL CROP ECON EDIV EQIN EWEF EWMD EWRI EWRM EWRS EWSM FBM FCL FDT FEG FEM FEP FFL FHC FIL FLG FMK FMM FMU FNK FNY FONE FOS FSU FTQ FWDD FYT GNR GRPC GTAA GUNR HBTA HDG HMTM HVOL IVOG IVOO IVOV KBWX LBTA LIT LVOL LWPE MATH MATL PXLG PXLV SCHM SDIV SHBT SHMO SHVY SLBT SLVY SOIL SPHB TILT TZW TZY VIOG VIOO VIOV VONE VONG VONV VOO VOOG VOOV VROM VTHR VTWG VTWO VTWV VXUS 
2012-13,0.7,45,60,ADX AGRG CNTR COWL EQIN EWMD EWRI EWRM EWRS FBM FCL FDT FFL FIL FLG FMK FMM FMU FNK FNY FOS FTQ FYT GNR GRPC GTAA GUNR HBTA HMTM HVOL IVOG IVOO IVOV LVOL LWPE MATL PXLG SCHM SDIV SHBT SHVY SLVY SPHB TILT TZW TZY VIOG VIOO VIOV VONE VONG VONV VOO VOOG VOOV VTHR VTWG VTWO VTWV VXUS 
2012-13,0.8,19,26,EWRI EWRM FMM FMU FNK FNY FOS HBTA HVOL IVOG IVOO LWPE SCHM SHBT SHVY SPHB TILT VIOO VONE VONG VONV VOO VOOG VOOV VTWG VTWO 
2012-13,0.9,4,7,EWRM FMU IVOO LWPE SCHM SPHB VOO 
2012-13,0.95,1,9,EK ERUS FMU IVOO PXLV QIHU RUSL SCHM VOO 
2014-15,0.1,381,437,AADR AAN AAT ACET ACMP ACP ACRX ADM ADX AEGR AEPI AGII AGLS AGRO AIN AIRM AKRX AL ALCO AMAG AMCX AMLP AMPE AMRC AMRS AMTG AMWD ANAC AND APO ARCO ARGT ARX ASEA ASMI ASTE AT ATRI ATU AVD AWAY AXDI AXEN AXID AXMT AXTE AXUT BAH BBRG BC BCPC BCX BGX BITA BKLN BKU BLRX BONA BRAF BRAQ BRLI BRP BSJF BWC BWINB BWS CARB CARZ CATO CBM CCC CCG CCIH CDNS CDR CECE CELG CERN CHCO CHEF CHFC CHTR CJES CLDX CLFD CLH CMRE CNBKA CNMD COKE COLX COR CPF CRK CRMT CROP CSOD CTBI CURE CY CYTR DANG DATE DBBR DBEF DBEM DBGR DBJP DD DJCO DMD DNKN DPG DQ DXLG DXYN DY EAPS EBIX EBND ECNS ECOL ECON ECYT EDF EDIV EEMS EFC ELD ELLI EMC EMLC EMO ENT ENV EOX EPHE ERUS ETN EWEM EWRI EWRM EWRS EWZS EXAM FAST FBHS FBNC FBNK FBP FBZ FCA FCNCA FDT FDUS FEM FENG FEP FF FICO FIF FIO FISV FJP FKO FLDM FLIC FLN FLT FMK FNB FNK FNY FONE FPA FRAN FRBK FRC FRNK FRP FSD FSL FSYS FUND FWDD FWDI FYC FYT GASL GCAP GD GDOT GE GERJ GM GMLP GMT GNC GNCMA GNR GNT GRFS GSVC GTAA GUNR HBM HBNC HCA HCOM HDG HDV HEQ HGR HHC HII HILO HLS HON HRZN HTLD HVT HYI HYLD HYS HZNP IBM IHD IIVI IL IMKTA INCO INDB INF INN INXN INXX IOIL IPAR IPHI IR ITT IVOG IVOO IVOV JJSF JMF JOUT KBWD KBWP KBWX KBWY KEYW KKR KMF KMI KO KOS KSU LABL LG LH LIT LLTC LNKD LNN LPLA LYB MATH MATL MATX MCC MCHI MEAS MGM MITK MITT MKL MMYT MOBI MORT MPC MSFT MTGE MX MXIM MY NAV NAVG NKY NLSN NMFC NOAH NORW NQ NTG NXPI OFG ONB ORCL OSUR OXLC P PACB PATR PBCT PCOM PCRX PCYG PEK PKY PLAB PLMT PLXS PPHM PSTB PTSI PXLG PXLV QADA QIHU QLIK QUAD RATE REMX RENN RENT RETL RFP RGEN RLD RLJ RNET ROOF RP RPXC RSXJ RUSL SAFM SAVE SCHH SCHM SCIF SCIN SDIV SEMG SFUN SGNT SIG SIGM SIVB SKUL SKYW SKYY SMFG SODA SOIL SPHB SPLV SQI SREV STAG STBZ STSA SVVC SWFT SXC SYRG SZYM TBX TCB TECD TFM THR TILT TLLP TMP TNGO TOWR TPLM TRGP TRNX TROW TSU TYBS TYNS TZW TZY UAM UAN UBSI UIS UJB URA USCR VIOG VIOO VIOV VIVO VNET VNQI VONE VONG VONV VOO VOOG VOOV VRA VRNG VTHR VTWG VTWO VTWV VXUS WAIR WASH WBS WD WERN WIFI WILN WM WPPGY WSBC WSFS WSR WTS XHE XOM XOMA XRAY XRS XTL XTN YNDX YOKU Z ZGNX 
2014-15,0.2,264,328,AADR AAN AAT ACET ADM ADX AEGR AGII AIN AIRM AKRX AL ALCO AMCX AMRC AMTG AMWD APO ARGT ASEA ASTE ATU AWAY AXEN AXID AXMT AXTE BAH BBRG BC BCPC BCX BKU BWC BWINB BWS CARB CARZ CATO CBM CCC CDNS CDR CECE CELG CERN CHCO CHEF CHFC CHTR CLDX CLFD CLH CMRE CNBKA CNMD CPF CRMT CROP CSOD CTBI CURE CY CYTR DANG DBEF DBEM DBGR DBJP DD DPG DXLG DY EAPS EBIX ECOL ECON ECYT EDIV EEMS ELLI EMC ENT ENV EPHE ETN EWEM EWRI EWRM EWRS EXAM FAST FBHS FBNC FBNK FBP FCA FCNCA FDT FEM FENG FEP FF FICO FIO FISV FJP FLDM FLIC FLT FMK FNB FNK FNY FONE FPA FRC FRNK FRP FSL FSYS FUND FWDD FWDI FYC FYT GASL GCAP GD GDOT GE GERJ GM GMT GNC GNCMA GNR GRFS GSVC GTAA GUNR HBNC HCOM HDG HDV HEQ HGR HHC HII HILO HLS HON HTLD HVT HYLD HYS IBM IHD IIVI IL IMKTA INCO INDB INF INN INXN INXX IOIL IPAR IPHI IR ITT IVOG IVOO IVOV JJSF KBWD KBWP KBWX KBWY KEYW KKR KMI KSU LABL LH LIT LLTC LNKD LNN LPLA LYB MATH MATL MATX MCC MCHI MEAS MGM MITT MKL MORT MPC MSFT MXIM NAV NAVG NKY NLSN NMFC NOAH NORW NXPI OFG ONB ORCL OSUR P PATR PBCT PCRX PCYG PKY PLAB PLMT PLXS PPHM PSTB PXLG PXLV QADA QIHU QLIK QUAD RATE REMX RENT RETL RFP RLD RLJ RNET ROOF RP RPXC RSXJ RUSL SAVE SCHH SCHM SCIF SCIN SDIV SEMG SIG SIVB SKUL SKYW SKYY SMFG SODA SOIL SPHB SPLV SQI SREV STAG STBZ STSA SWFT SXC SYRG SZYM TCB TECD TFM THR TILT TMP TNGO TOWR TPLM TRGP TRNX TROW TZW TZY UAM UBSI UIS UJB URA USCR VIOG VIOO VIOV VIVO VNQI VONE VONG VONV VOO VOOG VOOV VTHR VTWG VTWO VTWV VXUS WAIR WASH WBS WD WERN WM WPPGY WSBC WSFS WSR WTS XHE XOM XOMA XRAY XTL XTN YNDX Z 
2014-15,0.3,161,205,AADR ACET ADM ADX AGII AIN AL AMCX ARGT ASEA ASTE ATU AXID AXMT BAH BC BCPC BCX BKU BWINB CARZ CCC CDNS CECE CELG CERN CHCO CHFC CROP CTBI CURE CY DBEF DBEM DBGR DBJP DD DY EAPS ECON EDIV EEMS ELLI EMC ENT ENV EPHE ETN EWEM EWRI EWRM EWRS FAST FBHS FBNC FCNCA FDT FEM FEP FICO FISV FJP FLIC FLT FMK FNB FNK FNY FONE FPA FRC FRNK FSL FUND FWDD FWDI FYC FYT GD GE GM GMT GNR GTAA GUNR HDG HDV HEQ HGR HHC HII HILO HLS HON HTLD HYS IBM IHD IIVI IL INDB INN INXX IR ITT IVOG IVOO IVOV JJSF KBWD KBWP KBWX KBWY KKR KSU LH LIT LLTC LPLA LYB MATH MATL MATX MCHI MGM MKL MSFT MXIM NAVG NKY NLSN NORW NXPI ONB ORCL PATR PBCT PKY PLXS PXLG PXLV QLIK QUAD RATE RETL RLJ ROOF RPXC SCHM SCIF SDIV SEMG SIG SIVB SKYW SKYY SMFG SOIL SPHB SPLV SWFT TCB TECD THR TILT TMP TOWR TROW TZW TZY UBSI UIS UJB URA VIOG VIOO VIOV VIVO VNQI VONE VONG VONV VOO VOOG VOOV VTHR VTWG VTWO VTWV VXUS WASH WBS WERN WM WPPGY WSBC WSFS WSR WTS XHE XOM XRAY XTL XTN YNDX 
2014-15,0.4,101,147,AADR ADM ADX AIN AL ASEA ASTE ATU AXID AXMT BC BCX BKU CARZ CCC CDNS CERN CHFC CROP CURE DBEF DBEM DBGR DBJP EAPS ECON EDIV EEMS EMC EPHE ETN EWEM EWRI EWRM EWRS FAST FBHS FDT FEM FEP FICO FISV FJP FLT FMK FNB FNK FNY FONE FPA FRC FUND FWDD FWDI FYC FYT GD GE GMT GNR GTAA GUNR HDG HDV HEQ HHC HII HILO HON IBM IHD INDB IR ITT IVOG IVOO IVOV JJSF KBWD KBWP KBWX KSU LIT LLTC LPLA LYB MATH MATL MATX MCHI MGM NKY NLSN NORW ONB ORCL PBCT PLXS PXLG PXLV QLIK RETL RLJ ROOF SCHM SDIV SIVB SKYY SOIL SPHB SPLV TCB TECD TILT TMP TOWR TROW TZW TZY UBSI UIS VIOG VIOO VIOV VNQI VONE VONG VONV VOO VOOG VOOV VTHR VTWG VTWO VTWV VXUS WASH WBS WPPGY WSBC WSFS WTS XHE XOM XRAY XTL XTN 
2014-15,0.5,66,75,ADX CARZ CURE DBEF DBEM DBGR DBJP EAPS ECON ETN EWRI EWRM EWRS FDT FEM FEP FISV FMK FNK FNY FONE FUND FWDD FYC FYT GD GE GNR GTAA GUNR HDG HDV HEQ HON IBM IR IVOG IVOO IVOV KBWD KBWX MATH MATL NKY ORCL PXLG PXLV RETL SCHM SDIV SKYY SPHB SPLV TILT TROW TZW TZY VIOG VIOO VIOV VNQI VONE VONG VONV VOO VOOG VOOV VTHR VTWG VTWO VTWV VXUS WPPGY XTL XTN 
2014-15,0.6,43,54,ADX CARZ CURE DBEF EAPS ETN EWRI EWRM EWRS FDT FEP FMK FNK FNY FYC FYT GNR HDG HDV HON IVOG IVOO IVOV KBWD KBWX MATH MATL PXLG PXLV SCHM SDIV SKYY SPHB SPLV TILT TROW TZW TZY VIOG VIOO VIOV VONE VONG VONV VOO VOOG VOOV VTHR VTWG VTWO VTWV VXUS XTL XTN 
2014-15,0.7,29,34,ADX EAPS EWRI EWRM EWRS FMK FNK FNY FYC FYT IVOG IVOO IVOV KBWX PXLG SCHM SKYY SPHB TILT TZW TZY VIOG VIOO VIOV VONE VONG VONV VOO VOOG VOOV VTHR VTWG VTWO VTWV 
2014-15,0.8,18,25,EAPS EWRI EWRM FNK FNY IVOG IVOO IVOV SCHM SPHB TILT TZW TZY VIOG VIOO VIOV VONE VONG VONV VOO VOOG VOOV VTHR VTWO VTWV 
2014-15,0.9,5,11,IVOG IVOO SCHM TILT VIOO VONE VONG VONV VOO VOOG VTWO 
2014-15,0.95,3,6,VONE VONG VONV VOO VOOG VOOV 
2008-15,0.1,153,162,ACET ACO ADM ADPT ADX AEPI AGII AIN AIRM AKRX ALCO AMAG AMWD ASMI ASTE ATRI ATU AVD AYE BC BCPC BMC BNHNA BRLI BRY BTFG BWINB BWS CAMD CBM CBRX CCC CDNS CDR CECE CELG CERN CHCO CHFC CMRG CNBKA CNMD COKE CPF CRK CRMT CTBI CTR CY CYTR DD DELL DRL DTE DY EBIX ECOL ED EK EMC ETN FAST FBNC FBP FCNCA FFKT FIC FISV FLIC FNB FO FRBK FSYS FUND GD GE GENZ GMT GNCMA GR HGIC HGR HLS HNBC HON HRZB HTLD HVT IBM IIVI IMKTA INDB IPAR IR ITT JAVA JJSF KO KSU LABL LG LH LLTC LNN LWAY MDCI MEAS MGM MGPI MKL MSFT NAVG NOVN NVLS NWK OFG ONB ORCL OSIP OSUR PATR PBCT PBKS PDE PKY PLAB PLXS PTEC RENT RGEN RNT SAFM SIG SIGM SIVB SKS SKYW STSA SUR SYNO TCB TECD TKLC TKS TMP TROW TSFG UBSI UIS VIVO WASH WBS WERN WMI WPPGY WSBC WSFS WTS XOM XOMA XRAY XRIT 
2008-15,0.2,138,143,ACET ACO ADM ADPT ADX AEPI AGII AIN AIRM AKRX ALCO AMAG AMWD ASMI ASTE ATRI ATU AVD AYE BC BCPC BMC BRLI BRY BWINB BWS CBM CCC CDNS CDR CELG CERN CHCO CHFC CMRG CNMD COKE CPF CRK CRMT CTBI CTR CY DD DELL DRL DTE DY EBIX ECOL EK EMC ETN FAST FBNC FBP FCNCA FIC FISV FNB FO FSYS FUND GD GE GENZ GMT GNCMA GR HGIC HGR HLS HNBC HON HTLD HVT IBM IIVI IMKTA INDB IPAR IR ITT JAVA JJSF KO KSU LABL LG LH LLTC LNN LWAY MDCI MEAS MGM MKL MSFT NAVG NOVN NVLS NWK OFG ONB ORCL OSUR PATR PBCT PBKS PDE PKY PLAB PLXS PTEC SAFM SIG SIGM SIVB SKS SKYW STSA SUR SYNO TCB TECD TKLC TKS TMP TROW TSFG UBSI UIS VIVO WASH WBS WERN WMI WPPGY WSBC WSFS WTS XOM XRAY 
2008-15,0.3,110,122,ACET ACO ADPT ADX AEPI AGII AIN AIRM ALCO AMWD ASTE ATRI ATU AVD AYE BC BCPC BMC BRLI BRY BWINB BWS CBM CCC CDNS CDR CELG CERN CHCO CHFC CMRG CNMD COKE CRMT CTBI CTR CY DD DELL DY EBIX ECOL EK EMC ETN FAST FBNC FCNCA FIC FISV FNB FO FUND GD GE GMT GNCMA GR HGIC HGR HLS HNBC HON HTLD IBM IIVI IMKTA INDB IPAR IR ITT JJSF KSU LABL LG LLTC LNN MDCI MEAS MGM MKL MSFT NAVG NOVN NVLS OFG ONB ORCL OSUR PATR PBCT PBKS PDE PKY PLAB PLXS PTEC SIG SIVB SKS SKYW SUR SYNO TCB TECD TKLC TKS TMP TROW UBSI UIS VIVO WASH WBS WERN WMI WPPGY WSBC WSFS WTS XOM XRAY 
2008-15,0.4,68,77,ACET ACO ADX AGII AIN AMWD ASTE ATU BC BCPC BMC BWINB BWS CDNS CHCO CHFC CNMD CTBI CTR DD DY ETN FAST FBNC FCNCA FIC FISV FNB FO FUND GD GE GMT GNCMA GR HGIC HNBC HON HTLD IBM IIVI IMKTA INDB IR ITT JJSF KSU LLTC MEAS NAVG NVLS ONB ORCL PBCT PBKS PKY PLXS SIVB SKS SKYW SUR SYNO TCB TECD TKLC TMP TROW UBSI WASH WBS WERN WMI WPPGY WSBC WSFS WTS XRAY 
2008-15,0.5,28,42,ACO ADX AIN ASTE ATU BC CHCO CHFC CTBI CTR DD ETN FAST FIC FISV FNB FO FUND GE GMT HGIC HNBC HON IIVI INDB IR ITT KSU MEAS NVLS ONB PBKS PLXS SIVB SUR TKLC TROW UBSI WASH WBS WSBC WTS 
2008-15,0.6,12,13,FBM FCL FCQ FEG FFL FHC FIL FLG FMM FMU FOS FRL FTQ 
2008-15,0.7,8,9,IVOG IVOO IVOV VIOG VIOO VIOV VOO VOOG VOOV 
2008-15,0.8,5,16,IVOG IVOO IVOV VIOG VIOO VIOV VONE VONG VONV VOO VOOG VOOV VTHR VTWG VTWO VTWV 
2008-15,0.9,1,15,EWRI EWRM IVOG IVOO VIXM VIXY VONE VONG VONV VOO VOOG VOOV VTHR VTWG VTWO 
2008-15,0.95,1,2,VTWG VTWO 
