Time Interval,Remaining Stocks,Possible Edges,rho>0.5,%rho>0.5
2008-2009,278,38365,2904,7.56939919197185
2010-2011,831,328822,6342,1.92870306731301
2012-2013,798,317212,20801,6.55744423287896
2014-2015,668,221902,10611,4.78184063235122
2008-2015,835,307163,2993,0.974401213687846