PERMNO,date,SICCD,TICKER,COMNAM,NMSIND,BIDLO,ASKHI,PRC,VOL,RET,BID,ASK,SHROUT,OPENPRC,NUMTRD,RETX,vwretx,ewretx
11739,20080102,8730,ACEL,ALFACELL CORP,,1.69,1.742,1.7,10698,-0.011628,1.69,1.71,46845,1.742,21,-0.011628,-0.011965,-0.006655
11739,20080103,8730,ACEL,ALFACELL CORP,,1.66,1.72,1.7,30445,0,1.7,1.72,46845,1.66,50,0,-0.000957,-0.004569
11739,20080104,8730,ACEL,ALFACELL CORP,,1.65,1.74,1.69,46951,-0.005882,1.68,1.69,46845,1.65,109,-0.005882,-0.025651,-0.022428
11739,20080107,8730,ACEL,ALFACELL CORP,,1.67,1.7,1.69,7624,0,1.69,1.7,46845,1.67,24,0,0.000177,-0.001906
11739,20080108,8730,ACEL,ALFACELL CORP,,1.65,1.7,1.65,19486,-0.023669,1.65,1.66,46845,1.67,51,-0.023669,-0.017246,-0.014073
11739,20080109,8730,ACEL,ALFACELL CORP,,1.67,1.81,1.79,69657,0.084848,1.79,1.8,46845,1.68,115,0.084848,0.009933,-0.000568
11739,20080110,8730,ACEL,ALFACELL CORP,,1.76,1.87,1.84,84965,0.027933,1.84,1.85,46845,1.84,81,0.027933,0.008375,0.009638
11739,20080111,8730,ACEL,ALFACELL CORP,,1.84,1.89,1.88,70366,0.021739,1.86,1.88,46845,1.87,108,0.021739,-0.013966,-0.011448
11739,20080114,8730,ACEL,ALFACELL CORP,4,1.75,1.87,1.75,70580,-0.069149,1.75,1.77,46845,1.86,140,-0.069149,0.010449,0.007768
11739,20080115,8730,ACEL,ALFACELL CORP,4,1.85,2.15,2,442127,0.142857,1.97,2.01,46845,2,590,0.142857,-0.024743,-0.018449
11739,20080116,8730,ACEL,ALFACELL CORP,,1.95,2.07,2.01,190372,0.005,2.01,2.03,46845,2.04,394,0.005,-0.006756,-0.000147
11739,20080117,8730,ACEL,ALFACELL CORP,4,1.98,2.25,2.244,257621,0.116418,2.23,2.25,46845,2,383,0.116418,-0.027749,-0.021664
11739,20080118,8730,ACEL,ALFACELL CORP,,2.31,2.59,2.59,483264,0.154189,2.52,2.56,46845,2.5,844,0.154189,-0.005592,-0.007332
11739,20080122,8730,ACEL,ALFACELL CORP,4,2.43,2.69,2.57,430046,-0.007722,2.55,2.57,46845,2.69,711,-0.007722,-0.009456,-0.010386
11739,20080123,8730,ACEL,ALFACELL CORP,,2.15,2.61,2.2,532273,-0.143969,2.2,2.23,46845,2.61,1045,-0.143969,0.019772,0.018187
11739,20080124,8730,ACEL,ALFACELL CORP,,2.21,2.61,2.54,319294,0.154545,2.53,2.54,46845,2.21,644,0.154545,0.012535,0.011062
11739,20080125,8730,ACEL,ALFACELL CORP,,2.4,2.6,2.46,123010,-0.031496,2.46,2.47,46845,2.6,268,-0.031496,-0.013001,-0.001545
11739,20080128,8730,ACEL,ALFACELL CORP,,2.28,2.57,2.3001,156473,-0.065,2.3,2.33,46845,2.43,369,-0.065,0.017161,0.013493
11739,20080129,8730,ACEL,ALFACELL CORP,4,2.28,2.5,2.3,224021,-0.000044,2.29,2.3,46845,2.45,490,-0.000044,0.006287,0.007579
11739,20080130,8730,ACEL,ALFACELL CORP,4,2.3101,2.48,2.36,177436,0.026087,2.35,2.38,46845,2.35,351,0.026087,-0.005471,-0.002636
11739,20080131,8730,ACEL,ALFACELL CORP,4,2.33,2.48,2.43,176159,0.029661,2.42,2.43,46945,2.4,341,0.029661,0.014823,0.015102
11739,20080201,8730,ACEL,ALFACELL CORP,,2.39,2.6,2.57,323052,0.057613,2.56,2.57,46945,2.41,635,0.057613,0.015966,0.015673
11739,20080204,8730,ACEL,ALFACELL CORP,4,2.47,2.58,2.4999,74626,-0.027276,2.48,2.5,46945,2.54,145,-0.027276,-0.009007,-0.003053
11739,20080205,8730,ACEL,ALFACELL CORP,,2.4,2.5,2.4601,98498,-0.015921,2.44,2.48,46945,2.46,162,-0.015921,-0.030929,-0.021632
11739,20080206,8730,ACEL,ALFACELL CORP,4,2.35,2.52,2.35,115991,-0.044754,2.36,2.4,46945,2.52,140,-0.044754,-0.008268,-0.007339
11739,20080207,8730,ACEL,ALFACELL CORP,4,2.2,2.4,2.3199,218265,-0.012808,2.24,2.32,46945,2.32,503,-0.012808,0.007562,0.005105
11739,20080208,8730,ACEL,ALFACELL CORP,,2.11,2.3,2.11,124403,-0.090478,2.11,2.12,46945,2.3,239,-0.090478,-0.002103,-0.002793
11739,20080211,8730,ACEL,ALFACELL CORP,4,2.12,2.28,2.15,60015,0.018957,2.15,2.17,46945,2.12,132,0.018957,0.005764,0.002776
11739,20080212,8730,ACEL,ALFACELL CORP,4,2.12,2.19,2.15,90380,0,2.17,2.18,46945,2.12,212,0,0.00623,0.004074
11739,20080213,8730,ACEL,ALFACELL CORP,4,2.16,2.27,2.2399,32594,0.041814,2.22,2.24,46945,2.16,82,0.041814,0.014027,0.01276
11739,20080214,8730,ACEL,ALFACELL CORP,4,2.13,2.32,2.13,73332,-0.049065,2.13,2.16,46945,2.25,148,-0.049065,-0.013234,-0.013663
11739,20080215,8730,ACEL,ALFACELL CORP,,2.13,2.24,2.238,42646,0.050704,2.23,2.25,46945,2.13,109,0.050704,-0.000498,-0.004099
11739,20080219,8730,ACEL,ALFACELL CORP,,2.19,2.24,2.19,88730,-0.021448,2.19,2.21,46945,2.2,135,-0.021448,0.000535,0.002507
11739,20080220,8730,ACEL,ALFACELL CORP,,2.15,2.23,2.18,36010,-0.004566,2.16,2.17,46945,2.23,101,-0.004566,0.008783,0.00497
11739,20080221,8730,ACEL,ALFACELL CORP,,2.1,2.2,2.1299,149802,-0.022982,2.1,2.13,46945,2.2,710,-0.022982,-0.012067,-0.009713
11739,20080222,8730,ACEL,ALFACELL CORP,,2.11,2.15,2.14,69522,0.004742,2.13,2.15,46945,2.15,114,0.004742,0.006707,0.000367
11739,20080225,8730,ACEL,ALFACELL CORP,,2.1,2.17,2.11,67334,-0.014019,2.1,2.13,46945,2.17,77,-0.014019,0.015038,0.013319
11739,20080226,8730,ACEL,ALFACELL CORP,4,2.08,2.38,2.38,99238,0.127962,2.3,2.32,46945,2.11,136,0.127962,0.008214,0.009566
11739,20080227,8730,ACEL,ALFACELL CORP,,2.23,2.38,2.2999,73775,-0.033655,2.28,2.3,46945,2.34,109,-0.033655,-0.000963,-0.000165
11739,20080228,8730,ACEL,ALFACELL CORP,4,2.2,2.31,2.26,89284,-0.017349,2.2,2.22,46945,2.27,219,-0.017349,-0.007812,-0.008768
11739,20080229,8730,ACEL,ALFACELL CORP,,2.2,2.26,2.22,35802,-0.017699,2.2,2.22,46945,2.26,68,-0.017699,-0.026168,-0.020187
11739,20080303,8730,ACEL,ALFACELL CORP,,2.13,2.23,2.15,54839,-0.031532,2.15,2.16,46945,2.19,320,-0.031532,-0.000485,-0.005238
11739,20080304,8730,ACEL,ALFACELL CORP,,2.08,2.2,2.08,169044,-0.032558,2.08,2.09,46945,2.18,146,-0.032558,-0.004804,-0.006747
11739,20080305,8730,ACEL,ALFACELL CORP,4,2.08,2.1899,2.18,36760,0.048077,2.16,2.17,47067,2.14,76,0.048077,0.006594,0.003172
11739,20080306,8730,ACEL,ALFACELL CORP,,2.1,2.18,2.16,89698,-0.009174,2.14,2.18,47067,2.15,122,-0.009174,-0.022149,-0.021506
11739,20080307,8730,ACEL,ALFACELL CORP,4,2.12,2.2,2.1999,157757,0.018472,2.18,2.2,47067,2.15,174,0.018472,-0.008779,-0.007707
11739,20080310,8730,ACEL,ALFACELL CORP,4,2.2,2.39,2.3799,165588,0.081822,2.33,2.38,47067,2.25,434,0.081822,-0.01825,-0.020884
11739,20080311,8730,ACEL,ALFACELL CORP,4,2.15,2.39,2.32,152460,-0.025169,2.24,2.32,47067,2.39,380,-0.025169,0.035732,0.026985
11739,20080312,8730,ACEL,ALFACELL CORP,4,2.18,2.31,2.26,48518,-0.025862,2.26,2.29,47067,2.29,104,-0.025862,-0.00733,-0.00462
11739,20080313,8730,ACEL,ALFACELL CORP,,2.1,2.29,2.11,139628,-0.066372,2.1,2.13,47067,2.29,237,-0.066372,0.007226,0.007298
11739,20080314,8730,ACEL,ALFACELL CORP,,2.08,2.24,2.1392,124690,0.013839,2.11,2.13,47067,2.1,298,0.013839,-0.020023,-0.018222
11739,20080317,8730,ACEL,ALFACELL CORP,,1.96,2.12,1.9999,140329,-0.065118,1.99,2,47067,2.07,233,-0.065118,-0.015035,-0.020983
11739,20080318,8730,ACEL,ALFACELL CORP,4,2,2.25,2.17,96177,0.085054,2.12,2.17,47067,2.01,425,0.085054,0.039537,0.028376
11739,20080319,8730,ACEL,ALFACELL CORP,,2.15,2.25,2.22,117177,0.023041,2.2,2.22,47067,2.24,790,0.023041,-0.026107,-0.017168
11739,20080320,8730,ACEL,ALFACELL CORP,,2.16,2.3,2.29,115266,0.031532,2.28,2.29,47067,2.23,364,0.031532,0.021158,0.014501
11739,20080324,8730,ACEL,ALFACELL CORP,,2.25,2.44,2.44,270912,0.065502,2.43,2.44,47067,2.26,207,0.065502,0.017582,0.021668
11739,20080325,8730,ACEL,ALFACELL CORP,4,2.19,2.45,2.45,132138,0.004098,2.43,2.45,47067,2.4,520,0.004098,0.005698,0.010797
11739,20080326,8730,ACEL,ALFACELL CORP,,2.25,2.45,2.3,132620,-0.061225,2.31,2.34,47067,2.45,711,-0.061225,-0.006485,-0.002807
11739,20080327,8730,ACEL,ALFACELL CORP,,2.21,2.45,2.3899,152560,0.039087,2.36,2.39,47067,2.27,602,0.039087,-0.010373,-0.004944
11739,20080328,8730,ACEL,ALFACELL CORP,,2.38,2.45,2.38,60327,-0.004142,2.38,2.39,47067,2.41,116,-0.004142,-0.008038,-0.007315
11739,20080331,8730,ACEL,ALFACELL CORP,,2.37,2.4701,2.38,103545,0,2.38,2.39,47067,2.45,255,0,0.005286,0.005196
11739,20080401,8730,ACEL,ALFACELL CORP,4,2.37,2.45,2.4099,65232,0.012563,2.39,2.42,47067,2.37,153,0.012563,0.032086,0.020874
11739,20080402,8730,ACEL,ALFACELL CORP,4,1.7,2.44,2.18,614460,-0.095398,2.12,2.21,47067,2.41,1118,-0.095398,0.000222,0.003193
11739,20080403,8730,ACEL,ALFACELL CORP,4,2.0001,2.37,2.25,191880,0.03211,2.19,2.23,47067,2.19,488,0.03211,0.002665,0.001693
11739,20080404,8730,ACEL,ALFACELL CORP,4,2.18,2.25,2.1999,43107,-0.022267,2.18,2.2,47067,2.21,170,-0.022267,0.00195,0.002778
11739,20080407,8730,ACEL,ALFACELL CORP,4,2.1101,2.3,2.21,53018,0.004591,2.19,2.22,47067,2.27,174,0.004591,0.001712,0.0018
11739,20080408,8730,ACEL,ALFACELL CORP,4,2.08,2.25,2.1801,66877,-0.013529,2.18,2.21,47067,2.17,143,-0.013529,-0.003404,-0.002727
11739,20080409,8730,ACEL,ALFACELL CORP,4,2.11,2.23,2.18,64694,-0.000046,2.14,2.18,47067,2.15,218,-0.000046,-0.009046,-0.011542
11739,20080410,8730,ACEL,ALFACELL CORP,,2.04,2.24,2.08,173943,-0.045872,2.05,2.08,47067,2.15,452,-0.045872,0.005403,0.005008
11739,20080411,8730,ACEL,ALFACELL CORP,,2.0901,2.23,2.2,72050,0.057692,2.2,2.23,47067,2.0999,185,0.057692,-0.019628,-0.01591
11739,20080414,8730,ACEL,ALFACELL CORP,,2.1,2.25,2.15,75121,-0.022727,2.13,2.15,47067,2.25,183,-0.022727,-0.002586,-0.004434
11739,20080415,8730,ACEL,ALFACELL CORP,4,2.1,2.18,2.15,103345,0,2.13,2.15,47067,2.18,242,0,0.005073,0.002118
11739,20080416,8730,ACEL,ALFACELL CORP,4,2.05,2.17,2.11,79336,-0.018605,2.08,2.1,47067,2.15,185,-0.018605,0.024085,0.017852
11739,20080417,8730,ACEL,ALFACELL CORP,,1.98,2.14,2.03,139150,-0.037915,2.03,2.07,47067,2.14,190,-0.037915,-0.001228,-0.002075
11739,20080418,8730,ACEL,ALFACELL CORP,4,2.02,2.09,2.08,33401,0.024631,2.07,2.08,47067,2.08,71,0.024631,0.016548,0.012443
11739,20080421,8730,ACEL,ALFACELL CORP,4,2,2.1,2.05,40741,-0.014423,2,2.08,47067,2.05,88,-0.014423,-0.000578,-0.001629
11739,20080422,8730,ACEL,ALFACELL CORP,4,2.01,2.09,2.01,29869,-0.019512,2.04,2.08,47067,2.05,45,-0.019512,-0.009319,-0.01285
11739,20080423,8730,ACEL,ALFACELL CORP,,2.01,2.08,2.04,36076,0.014925,2.04,2.08,47067,2.01,69,0.014925,0.00111,0.002084
11739,20080424,8730,ACEL,ALFACELL CORP,4,1.97,2.08,2,86446,-0.019608,1.98,2,47067,2.08,119,-0.019608,0.005058,0.007845
11739,20080425,8730,ACEL,ALFACELL CORP,4,1.99,2.08,2.0001,39116,0.00005,2,2.02,47067,1.99,87,0.00005,0.006915,0.005692
11739,20080428,8730,ACEL,ALFACELL CORP,4,1.98,2.17,2.12,123535,0.059947,2.13,2.16,47067,2.08,149,0.059947,0.000154,0.003586
11739,20080429,8730,ACEL,ALFACELL CORP,4,2.09,2.2,2.2,107816,0.037736,2.17,2.2,47067,2.15,102,0.037736,-0.005712,-0.004917
11739,20080430,8730,ACEL,ALFACELL CORP,4,2,2.2,2.05,103414,-0.068182,2,2.01,47167,2.2,253,-0.068182,-0.001607,0.00166
11739,20080501,8730,ACEL,ALFACELL CORP,,2.02,2.09,2.0401,56132,-0.004829,2.04,2.05,47167,2.02,119,-0.004829,0.01437,0.010829
11739,20080502,8730,ACEL,ALFACELL CORP,,2.03,2.2,2.06,72715,0.009754,2.06,2.08,47167,2.2,133,0.009754,0.00324,0.000327
11739,20080505,8730,ACEL,ALFACELL CORP,4,2.06,2.17,2.17,106282,0.053398,2.08,2.17,47167,2.09,203,0.053398,-0.002711,-0.001239
11739,20080506,8730,ACEL,ALFACELL CORP,,2.02,2.15,2.13,127555,-0.018433,2.11,2.12,47167,2.13,297,-0.018433,0.008366,0.006164
11739,20080507,8730,ACEL,ALFACELL CORP,,2,2.08,2,175767,-0.061033,2,2.02,47167,2,419,-0.061033,-0.016185,-0.011755
11739,20080508,8730,ACEL,ALFACELL CORP,,2,2.12,2.12,81754,0.06,2.09,2.11,47167,2.04,247,0.06,0.004532,0.001917
11739,20080509,8730,ACEL,ALFACELL CORP,,1.95,2.12,2.02,153172,-0.04717,2.02,2.03,47167,2.08,321,-0.04717,-0.004717,-0.000676
11739,20080512,8730,ACEL,ALFACELL CORP,4,2.02,2.15,2.03,99525,0.00495,2,2.04,47167,2.1,224,0.00495,0.010944,0.010765
11739,20080513,8730,ACEL,ALFACELL CORP,,2,2.13,2.05,91568,0.009852,2.03,2.04,47167,2,278,0.009852,0.000545,0.002291
11739,20080514,8730,ACEL,ALFACELL CORP,,2,2.06,2.05,81253,0,2.04,2.06,47167,2.05,162,0,0.00289,0.00187
11739,20080515,8730,ACEL,ALFACELL CORP,4,1.98,2.07,2.03,59902,-0.009756,2.03,2.05,47167,2.01,153,-0.009756,0.011029,0.008057
11739,20080516,8730,ACEL,ALFACELL CORP,,1.99,2.08,1.99,100144,-0.019704,1.99,2,47167,2,223,-0.019704,0.002414,0.001076
11739,20080519,8730,ACEL,ALFACELL CORP,,1.95,2.03,2.03,84057,0.0201,2.01,2.03,47167,1.97,209,0.0201,-0.000322,-0.000502
11739,20080520,8730,ACEL,ALFACELL CORP,4,1.77,2.04,1.99,300357,-0.019704,1.87,1.88,47167,2,639,-0.019704,-0.005988,-0.003529
11739,20080521,8730,ACEL,ALFACELL CORP,,1.87,1.97,1.88,110513,-0.055276,1.88,1.89,47167,1.97,245,-0.055276,-0.015421,-0.009184
11739,20080522,8730,ACEL,ALFACELL CORP,4,1.8,1.95,1.85,94156,-0.015957,1.85,1.87,47167,1.85,314,-0.015957,0.002786,0.003248
11739,20080523,8730,ACEL,ALFACELL CORP,,1.61,1.87,1.7,293033,-0.081081,1.7,1.73,47167,1.87,640,-0.081081,-0.011557,-0.007309
11739,20080527,8730,ACEL,ALFACELL CORP,,1.62,1.75,1.65,175590,-0.029412,1.64,1.65,47167,1.75,276,-0.029412,0.004893,0.006116
11739,20080528,8730,ACEL,ALFACELL CORP,4,1.58,1.78,1.7,535576,0.030303,1.7,1.72,47167,1.68,780,0.030303,0.005529,0.003347
11739,20080529,8730,ACEL,ALFACELL CORP,4,0.7008,0.9999,0.96,3314477,-0.435294,0.92,0.93,47167,0.72,3083,-0.435294,0.004276,0.005167
11739,20080530,8730,ACEL,ALFACELL CORP,4,0.81,0.94,0.86,962591,-0.104167,0.84,0.85,47167,0.92,818,-0.104167,0.003063,0.004872
11739,20080602,8730,ACEL,ALFACELL CORP,,0.722,0.841,0.7901,517305,-0.081279,0.79,0.8,47167,0.82,718,-0.081279,-0.009077,-0.008391
11739,20080603,8730,ACEL,ALFACELL CORP,,0.74,0.78,0.74,225092,-0.06341,0.74,0.76,47167,0.75,331,-0.06341,-0.00488,-0.001854
11739,20080604,8730,ACEL,ALFACELL CORP,4,0.72,0.8499,0.78,417026,0.054054,0.78,0.79,47167,0.72,452,0.054054,-0.001235,0.001266
11739,20080605,8730,ACEL,ALFACELL CORP,4,0.72,0.7996,0.74,190177,-0.051282,0.74,0.75,47277,0.7996,335,-0.051282,0.020182,0.014676
11739,20080606,8730,ACEL,ALFACELL CORP,,0.61,0.7301,0.64,479437,-0.135135,0.64,0.65,47277,0.72,617,-0.135135,-0.026786,-0.019893
11739,20080609,8730,ACEL,ALFACELL CORP,,0.57,0.77,0.76,539700,0.1875,0.76,0.768,47277,0.65,546,0.1875,-0.000607,-0.007792
11739,20080610,8730,ACEL,ALFACELL CORP,,0.7,0.78,0.75,297309,-0.013158,0.74,0.75,47277,0.75,290,-0.013158,-0.005005,-0.005391
11739,20080611,8730,ACEL,ALFACELL CORP,,0.7,0.76,0.7,182534,-0.066667,0.7,0.71,47277,0.76,218,-0.066667,-0.015416,-0.0153
11739,20080612,8730,ACEL,ALFACELL CORP,,0.65,0.74,0.6601,107442,-0.057,0.66,0.67,47277,0.7199,105,-0.057,0.00133,0.000751
11739,20080613,8730,ACEL,ALFACELL CORP,,0.61,0.68,0.63,149058,-0.045599,0.62,0.63,47277,0.66,327,-0.045599,0.014676,0.012188
11739,20080616,8730,ACEL,ALFACELL CORP,4,0.6,0.65,0.63,74576,0,0.63,0.64,47277,0.65,208,0,0.00327,0.0054
11739,20080617,8730,ACEL,ALFACELL CORP,4,0.5908,0.65,0.6,242132,-0.047619,0.6,0.62,47277,0.65,287,-0.047619,-0.00395,-0.00434
11739,20080618,8730,ACEL,ALFACELL CORP,,0.589,0.62,0.589,145012,-0.018333,0.589,0.59,47277,0.62,157,-0.018333,-0.008296,-0.008457
11739,20080619,8730,ACEL,ALFACELL CORP,,0.53,0.6,0.53,146955,-0.10017,0.53,0.55,47277,0.59,195,-0.10017,0.002225,0.002649
11739,20080620,8730,ACEL,ALFACELL CORP,,0.49,0.56,0.56,143293,0.056604,0.55,0.56,47277,0.531,213,0.056604,-0.01753,-0.013931
11739,20080623,8730,ACEL,ALFACELL CORP,,0.54,0.59,0.57,48026,0.017857,0.57,0.58,47277,0.59,94,0.017857,-0.000866,-0.0091
11739,20080624,8730,ACEL,ALFACELL CORP,,0.5,0.565,0.52,148386,-0.087719,0.51,0.52,47277,0.565,238,-0.087719,-0.006253,-0.009897
11739,20080625,8730,ACEL,ALFACELL CORP,4,0.351,0.52,0.401,222702,-0.228846,0.401,0.4167,47277,0.52,233,-0.228846,0.006097,0.007233
11739,20080626,8730,ACEL,ALFACELL CORP,4,0.35,0.46,0.44,170521,0.097257,0.44,0.45,47277,0.35,187,0.097257,-0.026496,-0.019562
11739,20080627,8730,ACEL,ALFACELL CORP,,0.4,0.5,0.4,215705,-0.090909,0.45,0.46,47277,0.4,216,-0.090909,-0.002526,-0.005772
11739,20080630,8730,ACEL,ALFACELL CORP,,0.41,0.49,0.44,152796,0.1,0.44,0.45,47277,0.49,154,0.1,-0.00105,-0.005719
11739,20080701,8730,ACEL,ALFACELL CORP,4,0.42,0.47,0.45,82563,0.022727,0.45,0.4601,47277,0.432,185,0.022727,0.001689,-0.006391
11739,20080702,8730,ACEL,ALFACELL CORP,,0.44,0.48,0.4401,84220,-0.022,0.45,0.46,47277,0.46,107,-0.022,-0.021045,-0.018159
11739,20080703,8730,ACEL,ALFACELL CORP,,0.44,0.47,0.46,39148,0.045217,0.45,0.46,47277,0.47,50,0.045217,-0.002429,-0.006075
11739,20080707,8730,ACEL,ALFACELL CORP,,0.43,0.48,0.43,88562,-0.065217,0.43,0.44,47277,0.44,176,-0.065217,-0.008618,-0.011669
11739,20080708,8730,ACEL,ALFACELL CORP,,0.43,0.46,0.43,73142,0,0.43,0.44,47277,0.43,104,0,0.016773,0.018279
11739,20080709,8730,ACEL,ALFACELL CORP,,0.43,0.46,0.45,47165,0.046512,0.45,0.46,47277,0.45,101,0.046512,-0.019455,-0.01426
11739,20080710,8730,ACEL,ALFACELL CORP,,0.42,0.47,0.43,63759,-0.044444,0.42,0.45,47277,0.47,186,-0.044444,0.007645,0.002266
11739,20080711,8730,ACEL,ALFACELL CORP,,0.41,0.4425,0.42,80820,-0.023256,0.42,0.43,47277,0.42,146,-0.023256,-0.008381,-0.003414
11739,20080714,8730,ACEL,ALFACELL CORP,,0.4,0.48,0.42,113945,0,0.42,0.43,47277,0.42,241,0,-0.008219,-0.012361
11739,20080715,8730,ACEL,ALFACELL CORP,,0.42,0.47,0.42,70641,0,0.42,0.43,47277,0.45,58,0,-0.011511,-0.009229
11739,20080716,8730,ACEL,ALFACELL CORP,4,0.4,0.44,0.4199,97561,-0.000238,0.4,0.42,47277,0.44,123,-0.000238,0.023954,0.026472
11739,20080717,8730,ACEL,ALFACELL CORP,,0.42,0.43,0.42,51600,0.000238,0.42,0.43,47277,0.42,82,0.000238,0.009637,0.016398
11739,20080718,8730,ACEL,ALFACELL CORP,,0.42,0.43,0.42,45469,0,0.42,0.43,47277,0.42,138,0,0.000346,0.000861
11739,20080721,8730,ACEL,ALFACELL CORP,,0.42,0.44,0.43,28009,0.02381,0.43,0.44,47277,0.42,32,0.02381,0.003955,0.0069
11739,20080722,8730,ACEL,ALFACELL CORP,,0.42,0.44,0.43,151768,0,0.43,0.44,47277,0.421,214,0,0.011076,0.015126
11739,20080723,8730,ACEL,ALFACELL CORP,4,0.42,0.7,0.55,350309,0.27907,0.56,0.63,47277,0.425,466,0.27907,0.001821,0.006569
11739,20080724,8730,ACEL,ALFACELL CORP,,0.59,0.7699,0.6881,465491,0.251091,0.68,0.689,47277,0.6,241,0.251091,-0.024336,-0.018647
11739,20080725,8730,ACEL,ALFACELL CORP,,0.62,0.72,0.67,151215,-0.026304,0.67,0.68,47277,0.72,272,-0.026304,0.005536,0.006369
11739,20080728,8730,ACEL,ALFACELL CORP,,0.56,0.666,0.6,116086,-0.104478,0.6,0.61,47277,0.59,348,-0.104478,-0.016527,-0.013761
11739,20080729,8730,ACEL,ALFACELL CORP,,0.6,0.65,0.6,76759,0,0.6,0.62,47277,0.65,89,0,0.021117,0.016734
11739,20080730,8730,ACEL,ALFACELL CORP,,0.5801,0.61,0.6,55876,0,0.6,0.61,47277,0.59,118,0,0.016377,0.006677
11739,20080731,8730,ACEL,ALFACELL CORP,4,0.59,0.61,0.59,80162,-0.016667,0.59,0.6,47314,0.59,149,-0.016667,-0.011859,-0.002778
11739,20080801,8730,ACEL,ALFACELL CORP,,0.59,0.592,0.59,83910,0,0.59,0.6,47314,0.59,264,0,-0.005198,-0.000741
11739,20080804,8730,ACEL,ALFACELL CORP,,0.53,0.5937,0.58,375390,-0.016949,0.57,0.6,47314,0.59,763,-0.016949,-0.013405,-0.012228
11739,20080805,8730,ACEL,ALFACELL CORP,,0.56,0.59,0.59,106330,0.017241,0.5899,0.59,47314,0.59,50,0.017241,0.024378,0.013398
11739,20080806,8730,ACEL,ALFACELL CORP,,0.53,0.6,0.57,64248,-0.033898,0.56,0.57,47314,0.55,67,-0.033898,0.005406,0.006504
11739,20080807,8730,ACEL,ALFACELL CORP,4,0.5,0.5408,0.51,44381,-0.105263,0.51,0.5297,47314,0.5408,129,-0.105263,-0.016912,-0.012611
11739,20080808,8730,ACEL,ALFACELL CORP,,0.44,0.5398,0.45,133371,-0.117647,0.45,0.46,47314,0.51,169,-0.117647,0.019173,0.015813
11739,20080811,8730,ACEL,ALFACELL CORP,4,0.45,0.4601,0.45,129571,0,0.45,0.46,47314,0.45,186,0,0.006503,0.01065
11739,20080812,8730,ACEL,ALFACELL CORP,,0.45,0.55,0.51,149369,0.133333,0.51,0.53,47314,0.45,172,0.133333,-0.009666,-0.005693
11739,20080813,8730,ACEL,ALFACELL CORP,,0.48,0.51,0.48,15050,-0.058824,0.48,0.49,47314,0.51,34,-0.058824,-0.00044,0.002201
11739,20080814,8730,ACEL,ALFACELL CORP,,0.4611,0.51,0.4801,24874,0.000208,0.48,0.4801,47314,0.48,39,0.000208,0.00503,0.006533
11739,20080815,8730,ACEL,ALFACELL CORP,,0.4988,0.519,0.5,27065,0.04145,0.5,0.51,47314,0.4988,29,0.04145,0.001245,-0.000882
11739,20080818,8730,ACEL,ALFACELL CORP,,0.4902,0.534,0.5,61809,0,0.5,0.52,47314,0.5,50,0,-0.013473,-0.00993
11739,20080819,8730,ACEL,ALFACELL CORP,,0.5001,0.54,0.53,32800,0.06,0.53,0.54,47314,0.51,59,0.06,-0.008943,-0.011751
11739,20080820,8730,ACEL,ALFACELL CORP,,0.5001,0.53,0.51,22096,-0.037736,0.51,0.53,47314,0.52,21,-0.037736,0.006771,0.002565
11739,20080821,8730,ACEL,ALFACELL CORP,,0.5,0.52,0.51,67105,0,0.5,0.51,47314,0.51,54,0,0.00314,-0.00224
11739,20080822,8730,ACEL,ALFACELL CORP,,0.4999,0.53,0.51,61412,0,0.51,0.52,47314,0.5201,71,0,0.009437,0.009536
11739,20080825,8730,ACEL,ALFACELL CORP,,0.49,0.52,0.5,36826,-0.019608,0.5,0.51,47314,0.49,111,-0.019608,-0.01855,-0.015117
11739,20080826,8730,ACEL,ALFACELL CORP,,0.5,0.54,0.51,42283,0.02,0.5,0.51,47314,0.51,92,0.02,0.003549,0.00287
11739,20080827,8730,ACEL,ALFACELL CORP,,0.49,0.52,0.51,45778,0,0.51,0.52,47314,0.49,65,0,0.009412,0.00805
11739,20080828,8730,ACEL,ALFACELL CORP,,0.49,0.54,0.51,46105,0,0.51,0.52,47314,0.49,44,0,0.014185,0.013313
11739,20080829,8730,ACEL,ALFACELL CORP,,0.5,0.51,0.5,58879,-0.019608,0.5,0.51,47314,0.5,56,-0.019608,-0.011719,-0.003495
11739,20080902,8730,ACEL,ALFACELL CORP,4,0.5199,0.57,0.5201,20835,0.0402,0.52,0.53,47314,0.5199,49,0.0402,-0.007076,-0.003574
11739,20080903,8730,ACEL,ALFACELL CORP,,0.49,0.54,0.52,12851,-0.000192,0.52,0.54,47314,0.5,20,-0.000192,-0.003312,-0.000519
11739,20080904,8730,ACEL,ALFACELL CORP,,0.49,0.52,0.52,21832,0,0.51,0.52,47314,0.499,49,0,-0.028948,-0.021621
11739,20080905,8730,ACEL,ALFACELL CORP,,0.5,0.5588,0.53,29041,0.019231,0.53,0.54,47314,0.5,82,0.019231,0.003797,-0.000339
11739,20080908,8730,ACEL,ALFACELL CORP,,0.52,0.55,0.53,26683,0,0.53,0.55,47314,0.53,72,0,0.014721,0.007628
11739,20080909,8730,ACEL,ALFACELL CORP,,0.51,0.55,0.52,23900,-0.018868,0.52,0.53,47314,0.55,64,-0.018868,-0.034941,-0.028945
11739,20080910,8730,ACEL,ALFACELL CORP,,0.49,0.52,0.5,35449,-0.038462,0.49,0.5,47314,0.501,41,-0.038462,0.008484,0.003445
11739,20080911,8730,ACEL,ALFACELL CORP,,0.45,0.5,0.45,78006,-0.1,0.45,0.46,47314,0.5,99,-0.1,0.010642,-0.003328
11739,20080912,8730,ACEL,ALFACELL CORP,,0.46,0.49,0.46,46330,0.022222,0.46,0.47,47314,0.46,58,0.022222,0.005322,0.004843
11739,20080915,8730,ACEL,ALFACELL CORP,,0.45,0.48,0.451,77200,-0.019565,0.451,0.46,47314,0.45,131,-0.019565,-0.045674,-0.039367
11739,20080916,8730,ACEL,ALFACELL CORP,,0.45,0.49,0.49,110334,0.086475,0.49,0.5,47314,0.451,109,0.086475,0.015157,0.003354
11739,20080917,8730,ACEL,ALFACELL CORP,,0.48,0.62,0.5299,100073,0.081429,0.52,0.53,47314,0.5,145,0.081429,-0.045503,-0.040954
11739,20080918,8730,ACEL,ALFACELL CORP,,0.461,0.75,0.6,382108,0.132289,0.58,0.6,47314,0.5299,249,0.132289,0.043916,0.041432
11739,20080919,8730,ACEL,ALFACELL CORP,,0.54,0.71,0.66,122805,0.1,0.66,0.69,47314,0.58,247,0.1,0.04599,0.04939
11739,20080922,8730,ACEL,ALFACELL CORP,,0.56,0.7,0.598,40026,-0.093939,0.64,0.7,47314,0.56,198,-0.093939,-0.036817,-0.026898
11739,20080923,8730,ACEL,ALFACELL CORP,,0.57,0.67,0.62,57507,0.036789,0.62,0.65,47314,0.58,115,0.036789,-0.015644,-0.012863
11739,20080924,8730,ACEL,ALFACELL CORP,,0.6,0.72,0.71,50090,0.145161,0.71,0.72,47314,0.6,156,0.145161,-0.003315,-0.00926
11739,20080925,8730,ACEL,ALFACELL CORP,,0.7,0.77,0.75,89696,0.056338,0.74,0.75,47314,0.7,120,0.056338,0.016532,0.008804
11739,20080926,8730,ACEL,ALFACELL CORP,,0.6601,0.77,0.71,35257,-0.053333,0.69,0.72,47314,0.75,100,-0.053333,-0.002251,-0.008583
11739,20080929,8730,ACEL,ALFACELL CORP,,0.67,0.75,0.71,170279,0,0.66,0.77,47314,0.7,244,0,-0.082589,-0.061315
11739,20080930,8730,ACEL,ALFACELL CORP,,0.66,0.73,0.67,140274,-0.056338,0.67,0.69,47314,0.68,385,-0.056338,0.046616,0.027735
11739,20081001,8730,ACEL,ALFACELL CORP,,0.56,0.7,0.62,125808,-0.074627,0.62,0.65,47314,0.66,225,-0.074627,-0.005829,-0.004764
11739,20081002,8730,ACEL,ALFACELL CORP,,0.61,0.7,0.62,54260,0,0.62,0.64,47314,0.7,106,0,-0.045779,-0.039139
11739,20081003,8730,ACEL,ALFACELL CORP,,0.62,0.85,0.72,268427,0.16129,0.71,0.72,47314,0.62,460,0.16129,-0.014335,-0.016903
11739,20081006,8730,ACEL,ALFACELL CORP,,0.59,0.8288,0.66,68946,-0.083333,0.66,0.67,47314,0.74,130,-0.083333,-0.04243,-0.059337
11739,20081007,8730,ACEL,ALFACELL CORP,,0.54,0.8,0.63,120732,-0.045455,0.63,0.64,47314,0.561,95,-0.045455,-0.057914,-0.047041
11739,20081008,8730,ACEL,ALFACELL CORP,,0.56,0.64,0.58,92000,-0.079365,0.58,0.59,47314,0.56,169,-0.079365,-0.012011,-0.026977
11739,20081009,8730,ACEL,ALFACELL CORP,,0.56,0.63,0.6,22452,0.034483,0.56,0.6,47314,0.591,57,0.034483,-0.072775,-0.063757
11739,20081010,8730,ACEL,ALFACELL CORP,4,0.45,0.5612,0.47,121433,-0.216667,0.47,0.49,47314,0.56,138,-0.216667,-0.01221,-0.006893
11739,20081013,8730,ACEL,ALFACELL CORP,4,0.47,0.52,0.5101,50468,0.085319,0.5101,0.52,47314,0.47,42,0.085319,0.114836,0.107335
11739,20081014,8730,ACEL,ALFACELL CORP,4,0.4705,0.6288,0.53,21857,0.039012,0.51,0.53,47314,0.6288,36,0.039012,-0.009051,-0.001721
11739,20081015,8730,ACEL,ALFACELL CORP,4,0.4503,0.5101,0.5,34505,-0.056604,0.481,0.5,47314,0.48,59,-0.056604,-0.089842,-0.070866
11739,20081016,8730,ACEL,ALFACELL CORP,4,0.451,0.54,0.48,21457,-0.04,0.48,0.5,47314,0.52,34,-0.04,0.039611,0.02952
11739,20081017,8730,ACEL,ALFACELL CORP,,0.51,0.6,0.56,67531,0.166667,0.56,0.59,47314,0.519,127,0.166667,-0.002498,0.001614
11739,20081020,8730,ACEL,ALFACELL CORP,4,0.51,0.6,0.51,43184,-0.089286,0.48,0.51,47314,0.6,39,-0.089286,0.046506,0.035473
11739,20081021,8730,ACEL,ALFACELL CORP,4,0.48,0.52,0.51,67854,0,0.51,0.52,47314,0.48,37,0,-0.031481,-0.02072
11739,20081022,8730,ACEL,ALFACELL CORP,4,0.5,0.579,0.51,38240,0,0.51,0.52,47314,0.579,44,0,-0.059264,-0.048986
11739,20081023,8730,ACEL,ALFACELL CORP,4,0.49,0.51,0.4912,152788,-0.036863,0.49,0.5,47314,0.5,64,-0.036863,0.000813,-0.020324
11739,20081024,8730,ACEL,ALFACELL CORP,,0.45,0.49,0.47,63823,-0.04316,0.46,0.48,47314,0.49,73,-0.04316,-0.033449,-0.031311
11739,20081027,8730,ACEL,ALFACELL CORP,,0.4002,0.47,0.44,97815,-0.06383,0.41,0.44,47314,0.47,96,-0.06383,-0.036947,-0.035395
11739,20081028,8730,ACEL,ALFACELL CORP,4,0.43,0.46,0.46,88342,0.045455,0.45,0.46,47314,0.45,51,0.045455,0.095262,0.050347
11739,20081029,8730,ACEL,ALFACELL CORP,4,0.405,0.54,0.44,27865,-0.043478,0.42,0.44,47314,0.54,45,-0.043478,0.001199,0.021377
11739,20081030,8730,ACEL,ALFACELL CORP,,0.4,0.4699,0.44,62150,0,0.42,0.45,47314,0.4699,66,0,0.031799,0.03553
11739,20081031,8730,ACEL,ALFACELL CORP,4,0.4,0.44,0.41,39190,-0.068182,0.41,0.43,47314,0.44,27,-0.068182,0.018079,0.033871
11739,20081103,8730,ACEL,ALFACELL CORP,4,0.4,0.45,0.4101,17257,0.000244,0.41,0.44,47314,0.42,38,0.000244,-0.000679,0.008574
11739,20081104,8730,ACEL,ALFACELL CORP,,0.42,0.45,0.44,26511,0.072909,0.42,0.44,47314,0.42,35,0.072909,0.038976,0.026518
11739,20081105,8730,ACEL,ALFACELL CORP,,0.4,0.44,0.43,4353,-0.022727,0.41,0.43,47314,0.4,8,-0.022727,-0.051195,-0.03761
11739,20081106,8730,ACEL,ALFACELL CORP,,0.4,0.42,0.4,23910,-0.069767,0.4,0.41,47314,0.42,14,-0.069767,-0.049316,-0.038225
11739,20081107,8730,ACEL,ALFACELL CORP,,0.39,0.43,0.4,107206,0,0.39,0.4,47314,0.41,54,0,0.026164,0.014395
11739,20081110,8730,ACEL,ALFACELL CORP,,0.39,0.41,0.4,148167,0,0.4,0.41,47314,0.39,80,0,-0.013397,-0.019251
11739,20081111,8730,ACEL,ALFACELL CORP,,0.4,0.54,0.4,73874,0,0.4,0.41,47314,0.54,57,0,-0.024388,-0.028206
11739,20081112,8730,ACEL,ALFACELL CORP,,0.351,0.42,0.4,49728,0,0.4,0.41,47314,0.37,43,0,-0.053998,-0.054534
11739,20081113,8730,ACEL,ALFACELL CORP,4,0.35,0.41,0.4,93734,0,0.4,0.41,47314,0.35,117,0,0.067871,0.048289
11739,20081114,8730,ACEL,ALFACELL CORP,,0.37,0.4,0.37,32170,-0.075,0.37,0.39,47314,0.37,101,-0.075,-0.043809,-0.039664
11739,20081117,8730,ACEL,ALFACELL CORP,,0.33,0.3999,0.34,35824,-0.081081,0.32,0.35,47314,0.3999,52,-0.081081,-0.024027,-0.022115
11739,20081118,8730,ACEL,ALFACELL CORP,,0.33,0.4,0.35,106204,0.029412,0.34,0.37,47314,0.33,49,0.029412,0.005539,-0.010832
11739,20081119,8730,ACEL,ALFACELL CORP,,0.25,0.4,0.3,369444,-0.142857,0.3,0.33,47314,0.33,77,-0.142857,-0.064102,-0.064622
11739,20081120,8730,ACEL,ALFACELL CORP,,0.2098,0.29,0.25,215648,-0.166667,0.22,0.26,47314,0.29,124,-0.166667,-0.070146,-0.067122
11739,20081121,8730,ACEL,ALFACELL CORP,,0.1955,0.35,0.3001,61501,0.2004,0.3,0.35,47314,0.2497,67,0.2004,0.060934,0.033422
11739,20081124,8730,ACEL,ALFACELL CORP,,0.3001,0.36,0.32,21033,0.066311,0.32,0.36,47314,0.3001,33,0.066311,0.06607,0.063574
11739,20081125,8730,ACEL,ALFACELL CORP,,0.3,0.38,0.3,41536,-0.0625,0.31,0.35,47314,0.34,42,-0.0625,0.009516,0.015273
11739,20081126,8730,ACEL,ALFACELL CORP,,0.3,0.36,0.332,4675,0.106667,0.3,0.35,47314,0.3,9,0.106667,0.038034,0.051933
11739,20081128,8730,ACEL,ALFACELL CORP,,0.26,0.36,0.36,1100,0.084337,0.33,0.36,47314,0.31,4,0.084337,0.010075,0.019966
11739,20081201,8730,ACEL,ALFACELL CORP,,0.25,0.35,0.2866,41428,-0.203889,0.27,0.31,47314,0.2507,78,-0.203889,-0.089446,-0.078335
11739,20081202,8730,ACEL,ALFACELL CORP,,0.28,0.34,0.32,12441,0.116539,0.3,0.32,47314,0.29,11,0.116539,0.037575,0.035171
11739,20081203,8730,ACEL,ALFACELL CORP,,0.251,0.3,0.2722,15737,-0.149375,0.2722,0.28,47314,0.27,21,-0.149375,0.023612,0.014519
11739,20081204,8730,ACEL,ALFACELL CORP,,0.25,0.28,0.28,44250,0.028655,0.27,0.28,47314,0.25,44,0.028655,-0.030168,-0.021918
11739,20081205,8730,ACEL,ALFACELL CORP,,0.25,0.28,0.28,13396,0,0.26,0.28,47314,0.28,29,0,0.036081,0.025995
11739,20081208,8730,ACEL,ALFACELL CORP,4,0.25,0.32,0.3,27397,0.071429,0.251,0.31,47314,0.26,48,0.071429,0.040252,0.0378
11739,20081209,8730,ACEL,ALFACELL CORP,,0.25,0.2999,0.26,39919,-0.133333,0.2782,0.28,47314,0.2505,35,-0.133333,-0.02238,-0.014945
11739,20081210,8730,ACEL,ALFACELL CORP,,0.26,0.3,0.29,27399,0.115385,0.29,0.3,47314,0.3,43,0.115385,0.015014,0.021801
11739,20081211,8730,ACEL,ALFACELL CORP,4,0.22,0.3,0.25,100170,-0.137931,0.2202,0.26,47314,0.3,68,-0.137931,-0.030236,-0.027158
11739,20081212,8730,ACEL,ALFACELL CORP,,0.23,0.3,0.2481,86349,-0.0076,0.25,0.27,47314,0.2598,73,-0.0076,0.010463,0.017702
11739,20081215,8730,ACEL,ALFACELL CORP,,0.21,0.29,0.25,45138,0.007658,0.2115,0.26,47314,0.21,35,0.007658,-0.013903,-0.019502
11739,20081216,8730,ACEL,ALFACELL CORP,,0.211,0.2501,0.25,42695,0,0.24,0.25,47314,0.25,70,0,0.052815,0.046585
11739,20081217,8730,ACEL,ALFACELL CORP,,0.2207,0.24,0.24,32406,-0.04,0.23,0.24,47314,0.2299,42,-0.04,-0.004899,0.010663
11739,20081218,8730,ACEL,ALFACELL CORP,,0.19,0.235,0.195,107798,-0.1875,0.2,0.22,47314,0.22,269,-0.1875,-0.02057,-0.012006
11739,20081219,8730,ACEL,ALFACELL CORP,,0.2,0.25,0.2202,96575,0.129231,0.23,0.248,47314,0.2,70,0.129231,0.003762,0.003476
11739,20081222,8730,ACEL,ALFACELL CORP,,0.2002,0.24,0.21,70320,-0.046322,0.2,0.2199,47314,0.23,57,-0.046322,-0.019253,-0.013129
11739,20081223,8730,ACEL,ALFACELL CORP,4,0.2,0.24,0.24,81401,0.142857,0.23,0.24,47314,0.2,64,0.142857,-0.007876,-0.008267
11739,20081224,8730,ACEL,ALFACELL CORP,4,0.201,0.24,0.23,46600,-0.041667,0.23,0.24,47314,0.201,41,-0.041667,0.004067,0.004547
11739,20081226,8730,ACEL,ALFACELL CORP,,0.2,0.2295,0.2,90183,-0.130435,0.2,0.249,47314,0.21,59,-0.130435,0.007159,0.010885
11739,20081229,8730,ACEL,ALFACELL CORP,,0.21,0.24,0.22,98441,0.1,0.2102,0.227,47314,0.21,72,0.1,-0.004742,-0.015756
11739,20081230,8730,ACEL,ALFACELL CORP,,0.2,0.24,0.215,133389,-0.022727,0.215,0.23,47314,0.22,91,-0.022727,0.024607,0.021245
11739,20081231,8730,ACEL,ALFACELL CORP,,0.2,0.27,0.24,109014,0.116279,0.22,0.24,47314,0.2,105,0.116279,0.017386,0.034415
11739,20090102,8730,ACEL,ALFACELL CORP,,0.22,0.28,0.28,43001,0.166667,0.25,0.28,47314,0.24,51,0.166667,0.0303,0.038221
11739,20090105,8730,ACEL,ALFACELL CORP,4,0.21,0.29,0.24,121579,-0.142857,0.2222,0.2398,47314,0.29,268,-0.142857,-0.000602,0.016737
11739,20090106,8730,ACEL,ALFACELL CORP,4,,,,,,,,,,,,0.011287,0.03362
