PERMNO,date,SICCD,TICKER,COMNAM,NMSIND,BIDLO,ASKHI,PRC,VOL,RET,BID,ASK,SHROUT,OPENPRC,NUMTRD,RETX,vwretx,ewretx
12141,20131231,3622,ALTA,ALTAIR CORP,1,,,,,,,,,,,,0.004205,0.003752
12141,20141210,3622,ALTA,ALTAIR CORP,1,,,,,,,,,,,,-0.017499,-0.017051
12141,20151209,3622,ALTA,ALTAIR CORP,1,,,,,,,,,,,,-0.006675,-0.00448
