PERMNO,date,SICCD,TICKER,COMNAM,NMSIND,BIDLO,ASKHI,PRC,VOL,RET,BID,ASK,SHROUT,OPENPRC,NUMTRD,RETX,vwretx,ewretx
10785,20080102,3676,CAMD,CALIFORNIA MICRO DEVICES CORP,5,4.57,4.69,4.6,95795,-0.008621,4.59,4.6,23293,4.66,215,-0.008621,-0.011965,-0.006655
10785,20080103,3676,CAMD,CALIFORNIA MICRO DEVICES CORP,5,4.44,4.6,4.51,16579,-0.019565,4.49,4.52,23293,4.57,90,-0.019565,-0.000957,-0.004569
10785,20080104,3676,CAMD,CALIFORNIA MICRO DEVICES CORP,,4.13,4.39,4.22,61589,-0.064302,4.22,4.25,23293,4.35,245,-0.064302,-0.025651,-0.022428
10785,20080107,3676,CAMD,CALIFORNIA MICRO DEVICES CORP,,4.16,4.29,4.19,38833,-0.007109,4.16,4.19,23293,4.28,236,-0.007109,0.000177,-0.001906
10785,20080108,3676,CAMD,CALIFORNIA MICRO DEVICES CORP,,4.1,4.29,4.12,39461,-0.016706,4.12,4.14,23293,4.19,170,-0.016706,-0.017246,-0.014073
10785,20080109,3676,CAMD,CALIFORNIA MICRO DEVICES CORP,,4.02,4.2,4.09,43550,-0.007281,4.1,4.12,23293,4.1,213,-0.007281,0.009933,-0.000568
10785,20080110,3676,CAMD,CALIFORNIA MICRO DEVICES CORP,5,4.12,4.37,4.36,74130,0.066015,4.33,4.39,23293,4.15,416,0.066015,0.008375,0.009638
10785,20080111,3676,CAMD,CALIFORNIA MICRO DEVICES CORP,5,4.09,4.35,4.1,56763,-0.059633,4.15,4.21,23293,4.31,263,-0.059633,-0.013966,-0.011448
10785,20080114,3676,CAMD,CALIFORNIA MICRO DEVICES CORP,5,4.04,4.3,4.2,117102,0.02439,4.19,4.2,23293,4.15,157,0.02439,0.010449,0.007768
10785,20080115,3676,CAMD,CALIFORNIA MICRO DEVICES CORP,,3.9401,4.18,4.16,30791,-0.009524,4.1,4.14,23293,4.14,182,-0.009524,-0.024743,-0.018449
10785,20080116,3676,CAMD,CALIFORNIA MICRO DEVICES CORP,5,4.03,4.21,4.14,24459,-0.004808,4.13,4.14,23293,4.12,129,-0.004808,-0.006756,-0.000147
10785,20080117,3676,CAMD,CALIFORNIA MICRO DEVICES CORP,5,4,4.23,4.01,67700,-0.031401,4.01,4.05,23293,4.19,320,-0.031401,-0.027749,-0.021664
10785,20080118,3676,CAMD,CALIFORNIA MICRO DEVICES CORP,,3.83,4.04,3.9599,46521,-0.012494,3.9,3.95,23293,4.02,236,-0.012494,-0.005592,-0.007332
10785,20080122,3676,CAMD,CALIFORNIA MICRO DEVICES CORP,,3.6,3.99,3.82,154945,-0.035329,3.79,3.82,23293,3.68,769,-0.035329,-0.009456,-0.010386
10785,20080123,3676,CAMD,CALIFORNIA MICRO DEVICES CORP,,3.54,3.8,3.61,262921,-0.054974,3.63,3.67,23293,3.8,912,-0.054974,0.019772,0.018187
10785,20080124,3676,CAMD,CALIFORNIA MICRO DEVICES CORP,,3.3,3.6801,3.49,301992,-0.033241,3.56,3.6,23293,3.58,729,-0.033241,0.012535,0.011062
10785,20080125,3676,CAMD,CALIFORNIA MICRO DEVICES CORP,,3.29,3.83,3.38,164950,-0.031519,3.35,3.38,23293,3.44,423,-0.031519,-0.013001,-0.001545
10785,20080128,3676,CAMD,CALIFORNIA MICRO DEVICES CORP,5,3.27,3.55,3.47,122682,0.026627,3.45,3.47,23293,3.43,524,0.026627,0.017161,0.013493
10785,20080129,3676,CAMD,CALIFORNIA MICRO DEVICES CORP,,3.33,3.63,3.6,68568,0.037464,3.51,3.61,23293,3.33,224,0.037464,0.006287,0.007579
10785,20080130,3676,CAMD,CALIFORNIA MICRO DEVICES CORP,,3.33,3.67,3.48,145488,-0.033333,3.4,3.46,23293,3.55,471,-0.033333,-0.005471,-0.002636
10785,20080131,3676,CAMD,CALIFORNIA MICRO DEVICES CORP,5,3.34,3.64,3.61,55919,0.037356,3.53,3.57,23298,3.51,230,0.037356,0.014823,0.015102
10785,20080201,3676,CAMD,CALIFORNIA MICRO DEVICES CORP,,3.46,3.7,3.58,84111,-0.00831,3.58,3.61,23298,3.61,358,-0.00831,0.015966,0.015673
10785,20080204,3676,CAMD,CALIFORNIA MICRO DEVICES CORP,,3.56,3.68,3.6,49833,0.005587,3.59,3.62,23298,3.61,175,0.005587,-0.009007,-0.003053
10785,20080205,3676,CAMD,CALIFORNIA MICRO DEVICES CORP,,3.44,3.66,3.47,113011,-0.036111,3.43,3.45,23298,3.56,196,-0.036111,-0.030929,-0.021632
10785,20080206,3676,CAMD,CALIFORNIA MICRO DEVICES CORP,,3.3,3.52,3.3655,528210,-0.030115,3.34,3.37,23298,3.45,175,-0.030115,-0.008268,-0.007339
10785,20080207,3676,CAMD,CALIFORNIA MICRO DEVICES CORP,,3.23,3.38,3.36,69641,-0.001634,3.35,3.36,23298,3.33,341,-0.001634,0.007562,0.005105
10785,20080208,3676,CAMD,CALIFORNIA MICRO DEVICES CORP,,3.26,3.37,3.34,63972,-0.005952,3.32,3.34,23298,3.34,322,-0.005952,-0.002103,-0.002793
10785,20080211,3676,CAMD,CALIFORNIA MICRO DEVICES CORP,5,3.27,3.38,3.34,39272,0,3.33,3.38,23298,3.37,193,0,0.005764,0.002776
10785,20080212,3676,CAMD,CALIFORNIA MICRO DEVICES CORP,5,3.2912,3.435,3.32,58565,-0.005988,3.33,3.34,23298,3.37,170,-0.005988,0.00623,0.004074
10785,20080213,3676,CAMD,CALIFORNIA MICRO DEVICES CORP,,3.35,3.4,3.36,55300,0.012048,3.35,3.37,23298,3.39,138,0.012048,0.014027,0.01276
10785,20080214,3676,CAMD,CALIFORNIA MICRO DEVICES CORP,,3.3,3.57,3.32,92206,-0.011905,3.32,3.34,23298,3.57,423,-0.011905,-0.013234,-0.013663
10785,20080215,3676,CAMD,CALIFORNIA MICRO DEVICES CORP,,3.3,3.37,3.32,67349,0,3.31,3.32,23298,3.32,202,0,-0.000498,-0.004099
10785,20080219,3676,CAMD,CALIFORNIA MICRO DEVICES CORP,,3.21,3.42,3.27,40965,-0.01506,3.27,3.29,23298,3.42,169,-0.01506,0.000535,0.002507
10785,20080220,3676,CAMD,CALIFORNIA MICRO DEVICES CORP,,3.16,3.32,3.32,67529,0.015291,3.3,3.32,23298,3.28,289,0.015291,0.008783,0.00497
10785,20080221,3676,CAMD,CALIFORNIA MICRO DEVICES CORP,,3.3,3.44,3.31,49500,-0.003012,3.3,3.32,23298,3.36,175,-0.003012,-0.012067,-0.009713
10785,20080222,3676,CAMD,CALIFORNIA MICRO DEVICES CORP,,3.16,3.32,3.24,28413,-0.021148,3.2,3.21,23298,3.32,118,-0.021148,0.006707,0.000367
10785,20080225,3676,CAMD,CALIFORNIA MICRO DEVICES CORP,,3.2075,3.28,3.28,17350,0.012346,3.24,3.28,23298,3.22,68,0.012346,0.015038,0.013319
10785,20080226,3676,CAMD,CALIFORNIA MICRO DEVICES CORP,,3.24,3.42,3.42,43720,0.042683,3.37,3.38,23298,3.24,111,0.042683,0.008214,0.009566
10785,20080227,3676,CAMD,CALIFORNIA MICRO DEVICES CORP,,3.25,3.39,3.355,31443,-0.019006,3.35,3.36,23298,3.28,109,-0.019006,-0.000963,-0.000165
10785,20080228,3676,CAMD,CALIFORNIA MICRO DEVICES CORP,,3.29,3.39,3.29,22959,-0.019374,3.28,3.29,23298,3.35,122,-0.019374,-0.007812,-0.008768
10785,20080229,3676,CAMD,CALIFORNIA MICRO DEVICES CORP,,3.07,3.32,3.2,64906,-0.027356,3.14,3.15,23298,3.3,209,-0.027356,-0.026168,-0.020187
10785,20080303,3676,CAMD,CALIFORNIA MICRO DEVICES CORP,,3.02,3.22,3.08,56985,-0.0375,3.05,3.08,23298,3.22,247,-0.0375,-0.000485,-0.005238
10785,20080304,3676,CAMD,CALIFORNIA MICRO DEVICES CORP,,2.94,3.1,3.03,261208,-0.016234,3.01,3.03,23298,3.07,495,-0.016234,-0.004804,-0.006747
10785,20080305,3676,CAMD,CALIFORNIA MICRO DEVICES CORP,,2.9,3.1,2.9599,374617,-0.023135,2.94,2.96,23298,3.05,547,-0.023135,0.006594,0.003172
10785,20080306,3676,CAMD,CALIFORNIA MICRO DEVICES CORP,,2.92,3.15,3.07,172695,0.037197,2.98,3,23298,2.92,517,0.037197,-0.022149,-0.021506
10785,20080307,3676,CAMD,CALIFORNIA MICRO DEVICES CORP,5,2.96,3.05,3,56285,-0.022801,3,3.03,23298,3.03,221,-0.022801,-0.008779,-0.007707
10785,20080310,3676,CAMD,CALIFORNIA MICRO DEVICES CORP,5,2.95,3.05,2.98,30871,-0.006667,2.93,2.99,23298,3.03,143,-0.006667,-0.01825,-0.020884
10785,20080311,3676,CAMD,CALIFORNIA MICRO DEVICES CORP,,2.92,3.01,2.96,49762,-0.006711,2.96,2.99,23298,2.99,141,-0.006711,0.035732,0.026985
10785,20080312,3676,CAMD,CALIFORNIA MICRO DEVICES CORP,,2.95,3.02,3,45150,0.013514,3,3.01,23298,2.96,117,0.013514,-0.00733,-0.00462
10785,20080313,3676,CAMD,CALIFORNIA MICRO DEVICES CORP,,2.93,3.02,3.02,51980,0.006667,2.98,3.02,23298,2.93,125,0.006667,0.007226,0.007298
10785,20080314,3676,CAMD,CALIFORNIA MICRO DEVICES CORP,,2.92,3.01,2.93,20408,-0.029801,2.93,2.96,23298,2.99,93,-0.029801,-0.020023,-0.018222
10785,20080317,3676,CAMD,CALIFORNIA MICRO DEVICES CORP,,2.85,3.03,2.95,28583,0.006826,2.92,2.97,23298,3,134,0.006826,-0.015035,-0.020983
10785,20080318,3676,CAMD,CALIFORNIA MICRO DEVICES CORP,,2.87,3.03,3.03,64485,0.027119,3,3.03,23298,2.95,192,0.027119,0.039537,0.028376
10785,20080319,3676,CAMD,CALIFORNIA MICRO DEVICES CORP,,2.9301,3.49,2.96,172554,-0.023102,2.96,2.99,23298,3.0099,358,-0.023102,-0.026107,-0.017168
10785,20080320,3676,CAMD,CALIFORNIA MICRO DEVICES CORP,,2.95,3.04,3,43170,0.013514,2.99,3,23298,2.95,188,0.013514,0.021158,0.014501
10785,20080324,3676,CAMD,CALIFORNIA MICRO DEVICES CORP,,2.91,3.02,3.01,68977,0.003333,3,3.01,23298,3,320,0.003333,0.017582,0.021668
10785,20080325,3676,CAMD,CALIFORNIA MICRO DEVICES CORP,,3.04,3.1,3.09,73108,0.026578,3.04,3.05,23298,3.05,238,0.026578,0.005698,0.010797
10785,20080326,3676,CAMD,CALIFORNIA MICRO DEVICES CORP,,3,3.18,3.06,46371,-0.009709,3.04,3.06,23298,3.05,262,-0.009709,-0.006485,-0.002807
10785,20080327,3676,CAMD,CALIFORNIA MICRO DEVICES CORP,,3.03,3.16,3.04,29100,-0.006536,3.01,3.04,23298,3.06,158,-0.006536,-0.010373,-0.004944
10785,20080328,3676,CAMD,CALIFORNIA MICRO DEVICES CORP,,2.86,3.04,2.91,56000,-0.042763,2.91,2.93,23298,3.04,194,-0.042763,-0.008038,-0.007315
10785,20080331,3676,CAMD,CALIFORNIA MICRO DEVICES CORP,5,2.85,2.94,2.94,43028,0.010309,2.91,2.95,23302,2.91,153,0.010309,0.005286,0.005196
10785,20080401,3676,CAMD,CALIFORNIA MICRO DEVICES CORP,5,2.945,3,3,24830,0.020408,2.99,3,23302,2.945,106,0.020408,0.032086,0.020874
10785,20080402,3676,CAMD,CALIFORNIA MICRO DEVICES CORP,,2.98,3.06,3,159082,0,2.99,3,23302,3,246,0,0.000222,0.003193
10785,20080403,3676,CAMD,CALIFORNIA MICRO DEVICES CORP,,3,3.12,3.04,17000,0.013333,3,3.07,23302,3.05,121,0.013333,0.002665,0.001693
10785,20080404,3676,CAMD,CALIFORNIA MICRO DEVICES CORP,,3.04,3.1001,3.07,11800,0.009868,3.06,3.09,23302,3.05,71,0.009868,0.00195,0.002778
10785,20080407,3676,CAMD,CALIFORNIA MICRO DEVICES CORP,,3.03,3.25,3.12,94519,0.016287,3.08,3.1,23302,3.11,318,0.016287,0.001712,0.0018
10785,20080408,3676,CAMD,CALIFORNIA MICRO DEVICES CORP,,2.97,3.14,3.01,88500,-0.035256,3,3.02,23302,3.07,173,-0.035256,-0.003404,-0.002727
10785,20080409,3676,CAMD,CALIFORNIA MICRO DEVICES CORP,,2.94,3.17,3.11,151675,0.033223,3.08,3.11,23302,3.04,220,0.033223,-0.009046,-0.011542
10785,20080410,3676,CAMD,CALIFORNIA MICRO DEVICES CORP,,3.03,3.14,3.04,416945,-0.022508,3.04,3.05,23302,3.14,169,-0.022508,0.005403,0.005008
10785,20080411,3676,CAMD,CALIFORNIA MICRO DEVICES CORP,5,2.95,3.1,2.95,28202,-0.029605,2.95,2.97,23302,3.05,145,-0.029605,-0.019628,-0.01591
10785,20080414,3676,CAMD,CALIFORNIA MICRO DEVICES CORP,5,2.9,2.96,2.92,22669,-0.010169,2.91,2.94,23302,2.96,135,-0.010169,-0.002586,-0.004434
10785,20080415,3676,CAMD,CALIFORNIA MICRO DEVICES CORP,,2.85,3,2.85,35061,-0.023973,2.92,2.95,23302,2.9,147,-0.023973,0.005073,0.002118
10785,20080416,3676,CAMD,CALIFORNIA MICRO DEVICES CORP,,2.85,2.98,2.9,44454,0.017544,2.88,2.9,23302,2.86,157,0.017544,0.024085,0.017852
10785,20080417,3676,CAMD,CALIFORNIA MICRO DEVICES CORP,,2.74,2.92,2.86,66690,-0.013793,2.85,2.87,23302,2.89,374,-0.013793,-0.001228,-0.002075
10785,20080418,3676,CAMD,CALIFORNIA MICRO DEVICES CORP,,2.85,2.98,2.98,72838,0.041958,2.96,2.98,23302,2.86,120,0.041958,0.016548,0.012443
10785,20080421,3676,CAMD,CALIFORNIA MICRO DEVICES CORP,,2.82,2.9901,2.91,66784,-0.02349,2.9,2.93,23302,2.955,201,-0.02349,-0.000578,-0.001629
10785,20080422,3676,CAMD,CALIFORNIA MICRO DEVICES CORP,,2.85,2.93,2.91,52777,0,2.9,2.92,23302,2.88,115,0,-0.009319,-0.01285
10785,20080423,3676,CAMD,CALIFORNIA MICRO DEVICES CORP,5,2.89,3,3,27097,0.030928,2.98,3,23302,2.9,105,0.030928,0.00111,0.002084
10785,20080424,3676,CAMD,CALIFORNIA MICRO DEVICES CORP,5,2.96,3.13,3.13,55536,0.043333,3.04,3.09,23302,2.96,131,0.043333,0.005058,0.007845
10785,20080425,3676,CAMD,CALIFORNIA MICRO DEVICES CORP,5,3.02,3.1,3.08,30482,-0.015975,3.04,3.08,23302,3.1,128,-0.015975,0.006915,0.005692
10785,20080428,3676,CAMD,CALIFORNIA MICRO DEVICES CORP,5,2.98,3.18,3.05,82111,-0.00974,3.03,3.05,23302,3.04,185,-0.00974,0.000154,0.003586
10785,20080429,3676,CAMD,CALIFORNIA MICRO DEVICES CORP,,2.99,3.1,3.02,80539,-0.009836,3,3.02,23302,3.01,184,-0.009836,-0.005712,-0.004917
10785,20080430,3676,CAMD,CALIFORNIA MICRO DEVICES CORP,,2.98,3.15,3.07,94913,0.016556,3.05,3.07,23302,2.99,129,0.016556,-0.001607,0.00166
10785,20080501,3676,CAMD,CALIFORNIA MICRO DEVICES CORP,,3,3.12,3.05,44428,-0.006515,3.04,3.05,23302,3.02,117,-0.006515,0.01437,0.010829
10785,20080502,3676,CAMD,CALIFORNIA MICRO DEVICES CORP,5,2.95,3.05,2.98,80156,-0.022951,2.98,2.99,23302,2.96,426,-0.022951,0.00324,0.000327
10785,20080505,3676,CAMD,CALIFORNIA MICRO DEVICES CORP,,2.92,3.12,3.1,173355,0.040268,3.07,3.1,23302,2.99,372,0.040268,-0.002711,-0.001239
10785,20080506,3676,CAMD,CALIFORNIA MICRO DEVICES CORP,,3,3.12,3.12,91408,0.006452,3.09,3.12,23302,3.12,332,0.006452,0.008366,0.006164
10785,20080507,3676,CAMD,CALIFORNIA MICRO DEVICES CORP,5,3.02,3.115,3.05,65702,-0.022436,3.03,3.05,23302,3.08,268,-0.022436,-0.016185,-0.011755
10785,20080508,3676,CAMD,CALIFORNIA MICRO DEVICES CORP,5,2.92,3.03,3,92272,-0.016393,2.97,3,23302,3.01,290,-0.016393,0.004532,0.001917
10785,20080509,3676,CAMD,CALIFORNIA MICRO DEVICES CORP,,2.91,3.03,2.94,80915,-0.02,2.94,2.96,23302,2.94,166,-0.02,-0.004717,-0.000676
10785,20080512,3676,CAMD,CALIFORNIA MICRO DEVICES CORP,,2.89,3.03,3,28320,0.020408,2.99,3.03,23302,2.91,162,0.020408,0.010944,0.010765
10785,20080513,3676,CAMD,CALIFORNIA MICRO DEVICES CORP,,2.94,3.16,3.09,69933,0.03,3.07,3.09,23302,2.99,299,0.03,0.000545,0.002291
10785,20080514,3676,CAMD,CALIFORNIA MICRO DEVICES CORP,,3.05,3.33,3.22,88816,0.042071,3.22,3.23,23302,3.07,263,0.042071,0.00289,0.00187
10785,20080515,3676,CAMD,CALIFORNIA MICRO DEVICES CORP,,3.25,3.49,3.46,173621,0.074534,3.46,3.49,23302,3.25,581,0.074534,0.011029,0.008057
10785,20080516,3676,CAMD,CALIFORNIA MICRO DEVICES CORP,,3.33,3.55,3.55,149434,0.026012,3.55,3.57,23302,3.44,502,0.026012,0.002414,0.001076
10785,20080519,3676,CAMD,CALIFORNIA MICRO DEVICES CORP,5,3.32,3.6,3.4,125855,-0.042253,3.38,3.4,23302,3.6,604,-0.042253,-0.000322,-0.000502
10785,20080520,3676,CAMD,CALIFORNIA MICRO DEVICES CORP,5,3.25,3.39,3.34,44164,-0.017647,3.32,3.35,23302,3.36,241,-0.017647,-0.005988,-0.003529
10785,20080521,3676,CAMD,CALIFORNIA MICRO DEVICES CORP,,3.24,3.34,3.34,69723,0,3.33,3.34,23302,3.299,285,0,-0.015421,-0.009184
10785,20080522,3676,CAMD,CALIFORNIA MICRO DEVICES CORP,,3.28,3.35,3.31,37582,-0.008982,3.29,3.31,23302,3.32,115,-0.008982,0.002786,0.003248
10785,20080523,3676,CAMD,CALIFORNIA MICRO DEVICES CORP,5,3.25,3.33,3.31,38098,0,3.25,3.28,23302,3.33,100,0,-0.011557,-0.007309
10785,20080527,3676,CAMD,CALIFORNIA MICRO DEVICES CORP,5,3.28,3.36,3.3,43628,-0.003021,3.29,3.3,23302,3.36,138,-0.003021,0.004893,0.006116
10785,20080528,3676,CAMD,CALIFORNIA MICRO DEVICES CORP,,3.32,3.39,3.37,56996,0.021212,3.37,3.39,23302,3.34,192,0.021212,0.005529,0.003347
10785,20080529,3676,CAMD,CALIFORNIA MICRO DEVICES CORP,,3.37,3.45,3.4,72943,0.008902,3.38,3.4,23302,3.39,330,0.008902,0.004276,0.005167
10785,20080530,3676,CAMD,CALIFORNIA MICRO DEVICES CORP,5,3.4,3.57,3.57,80973,0.05,3.53,3.54,23409,3.49,244,0.05,0.003063,0.004872
10785,20080602,3676,CAMD,CALIFORNIA MICRO DEVICES CORP,,3.57,3.69,3.6,140983,0.008403,3.55,3.58,23409,3.61,527,0.008403,-0.009077,-0.008391
10785,20080603,3676,CAMD,CALIFORNIA MICRO DEVICES CORP,,3.43,3.63,3.58,82735,-0.005556,3.52,3.57,23409,3.6,316,-0.005556,-0.00488,-0.001854
10785,20080604,3676,CAMD,CALIFORNIA MICRO DEVICES CORP,,3.47,3.648,3.5,98602,-0.022346,3.46,3.48,23409,3.63,356,-0.022346,-0.001235,0.001266
10785,20080605,3676,CAMD,CALIFORNIA MICRO DEVICES CORP,5,3.5,3.59,3.55,64459,0.014286,3.53,3.55,23409,3.55,354,0.014286,0.020182,0.014676
10785,20080606,3676,CAMD,CALIFORNIA MICRO DEVICES CORP,5,3.482,3.64,3.53,29380,-0.005634,3.49,3.53,23409,3.508,149,-0.005634,-0.026786,-0.019893
10785,20080609,3676,CAMD,CALIFORNIA MICRO DEVICES CORP,5,3.25,3.64,3.47,61626,-0.016997,3.45,3.47,23409,3.57,268,-0.016997,-0.000607,-0.007792
10785,20080610,3676,CAMD,CALIFORNIA MICRO DEVICES CORP,,3.33,3.42,3.4,21177,-0.020173,3.36,3.4,23409,3.41,118,-0.020173,-0.005005,-0.005391
10785,20080611,3676,CAMD,CALIFORNIA MICRO DEVICES CORP,5,3.29,3.48,3.48,60941,0.023529,3.45,3.48,23409,3.35,259,0.023529,-0.015416,-0.0153
10785,20080612,3676,CAMD,CALIFORNIA MICRO DEVICES CORP,,3.36,3.46,3.41,20250,-0.020115,3.41,3.43,23409,3.46,132,-0.020115,0.00133,0.000751
10785,20080613,3676,CAMD,CALIFORNIA MICRO DEVICES CORP,,3.32,3.42,3.42,15721,0.002933,3.4,3.42,23409,3.37,120,0.002933,0.014676,0.012188
10785,20080616,3676,CAMD,CALIFORNIA MICRO DEVICES CORP,,3.3901,3.44,3.43,8800,0.002924,3.41,3.44,23409,3.41,58,0.002924,0.00327,0.0054
10785,20080617,3676,CAMD,CALIFORNIA MICRO DEVICES CORP,5,3.39,3.44,3.42,6412,-0.002915,3.42,3.43,23409,3.41,31,-0.002915,-0.00395,-0.00434
10785,20080618,3676,CAMD,CALIFORNIA MICRO DEVICES CORP,,3.19,3.4001,3.27,45443,-0.04386,3.26,3.27,23409,3.4001,155,-0.04386,-0.008296,-0.008457
10785,20080619,3676,CAMD,CALIFORNIA MICRO DEVICES CORP,5,3.24,3.3,3.25,22190,-0.006116,3.25,3.27,23409,3.24,173,-0.006116,0.002225,0.002649
10785,20080620,3676,CAMD,CALIFORNIA MICRO DEVICES CORP,,3.13,3.39,3.21,42653,-0.012308,3.2,3.21,23409,3.39,159,-0.012308,-0.01753,-0.013931
10785,20080623,3676,CAMD,CALIFORNIA MICRO DEVICES CORP,,3.02,3.21,3.14,27210,-0.021807,3.12,3.14,23409,3.19,131,-0.021807,-0.000866,-0.0091
10785,20080624,3676,CAMD,CALIFORNIA MICRO DEVICES CORP,,3.02,3.27,3.07,19155,-0.022293,3.03,3.06,23409,3.27,89,-0.022293,-0.006253,-0.009897
10785,20080625,3676,CAMD,CALIFORNIA MICRO DEVICES CORP,,3.01,3.19,3.11,12050,0.013029,3.11,3.14,23409,3.19,62,0.013029,0.006097,0.007233
10785,20080626,3676,CAMD,CALIFORNIA MICRO DEVICES CORP,5,2.88,3.13,3,48694,-0.03537,3,3.01,23409,3.13,160,-0.03537,-0.026496,-0.019562
10785,20080627,3676,CAMD,CALIFORNIA MICRO DEVICES CORP,5,2.88,3.04,3.04,54896,0.013333,2.99,3,23409,3.04,248,0.013333,-0.002526,-0.005772
10785,20080630,3676,CAMD,CALIFORNIA MICRO DEVICES CORP,5,2.9,3.15,3.11,38028,0.023026,3.04,3.11,23409,3,176,0.023026,-0.00105,-0.005719
10785,20080701,3676,CAMD,CALIFORNIA MICRO DEVICES CORP,,2.95,3.07,3.05,16061,-0.019293,3.05,3.08,23409,3,109,-0.019293,0.001689,-0.006391
10785,20080702,3676,CAMD,CALIFORNIA MICRO DEVICES CORP,5,3.05,3.14,3.08,22363,0.009836,3.08,3.09,23409,3.07,146,0.009836,-0.021045,-0.018159
10785,20080703,3676,CAMD,CALIFORNIA MICRO DEVICES CORP,5,3,3.04,3,5644,-0.025974,3,3.01,23409,3.04,33,-0.025974,-0.002429,-0.006075
10785,20080707,3676,CAMD,CALIFORNIA MICRO DEVICES CORP,,2.9,3.04,2.99,23055,-0.003333,2.98,3.04,23409,3,135,-0.003333,-0.008618,-0.011669
10785,20080708,3676,CAMD,CALIFORNIA MICRO DEVICES CORP,5,2.98,3.12,3.12,22166,0.043478,3.1,3.12,23409,3.08,126,0.043478,0.016773,0.018279
10785,20080709,3676,CAMD,CALIFORNIA MICRO DEVICES CORP,5,3.05,3.11,3.06,4422,-0.019231,3.06,3.07,23409,3.06,28,-0.019231,-0.019455,-0.01426
10785,20080710,3676,CAMD,CALIFORNIA MICRO DEVICES CORP,,3.02,3.11,3.03,28818,-0.009804,3.03,3.06,23409,3.11,133,-0.009804,0.007645,0.002266
10785,20080711,3676,CAMD,CALIFORNIA MICRO DEVICES CORP,,2.96,3.12,3.07,16776,0.013201,3.07,3.12,23409,2.96,136,0.013201,-0.008381,-0.003414
10785,20080714,3676,CAMD,CALIFORNIA MICRO DEVICES CORP,,2.97,3.03,2.97,10800,-0.032573,2.98,3.02,23409,3.03,45,-0.032573,-0.008219,-0.012361
10785,20080715,3676,CAMD,CALIFORNIA MICRO DEVICES CORP,,2.85,2.99,2.93,27378,-0.013468,2.95,2.97,23409,2.9,65,-0.013468,-0.011511,-0.009229
10785,20080716,3676,CAMD,CALIFORNIA MICRO DEVICES CORP,,2.94,3.1,3.1,15830,0.05802,3.1,3.12,23409,2.98,55,0.05802,0.023954,0.026472
10785,20080717,3676,CAMD,CALIFORNIA MICRO DEVICES CORP,5,3.03,3.2299,3.2,31538,0.032258,3.2,3.23,23409,3.05,222,0.032258,0.009637,0.016398
10785,20080718,3676,CAMD,CALIFORNIA MICRO DEVICES CORP,5,3.11,3.21,3.21,34297,0.003125,3.16,3.19,23409,3.2,127,0.003125,0.000346,0.000861
10785,20080721,3676,CAMD,CALIFORNIA MICRO DEVICES CORP,5,3.01,3.25,3.09,79494,-0.037383,3.06,3.09,23409,3.25,226,-0.037383,0.003955,0.0069
10785,20080722,3676,CAMD,CALIFORNIA MICRO DEVICES CORP,,2.88,3.1,3.04,158164,-0.016181,3.03,3.04,23409,2.88,760,-0.016181,0.011076,0.015126
10785,20080723,3676,CAMD,CALIFORNIA MICRO DEVICES CORP,,2.9,3.2,3.2,77525,0.052632,3.08,3.11,23409,2.94,413,0.052632,0.001821,0.006569
10785,20080724,3676,CAMD,CALIFORNIA MICRO DEVICES CORP,,2.98,3.2,3.07,60267,-0.040625,3.02,3.05,23409,3.2,361,-0.040625,-0.024336,-0.018647
10785,20080725,3676,CAMD,CALIFORNIA MICRO DEVICES CORP,,2.96,3.14,3.09,28201,0.006515,3,3.03,23409,3.12,127,0.006515,0.005536,0.006369
10785,20080728,3676,CAMD,CALIFORNIA MICRO DEVICES CORP,,2.87,3.05,2.94,50017,-0.048544,2.96,2.99,23409,3,258,-0.048544,-0.016527,-0.013761
10785,20080729,3676,CAMD,CALIFORNIA MICRO DEVICES CORP,,2.94,3.15,3,18903,0.020408,2.96,3.01,23409,2.94,58,0.020408,0.021117,0.016734
10785,20080730,3676,CAMD,CALIFORNIA MICRO DEVICES CORP,,2.94,3.1,2.96,24053,-0.013333,2.96,2.98,23409,3.1,58,-0.013333,0.016377,0.006677
10785,20080731,3676,CAMD,CALIFORNIA MICRO DEVICES CORP,5,2.94,3.15,3.15,65208,0.064189,3.07,3.15,23409,2.94,118,0.064189,-0.011859,-0.002778
10785,20080801,3676,CAMD,CALIFORNIA MICRO DEVICES CORP,,3,3.05,3.02,12552,-0.04127,3,3.02,23409,3.05,65,-0.04127,-0.005198,-0.000741
10785,20080804,3676,CAMD,CALIFORNIA MICRO DEVICES CORP,,2.9,3.08,3.08,35750,0.019868,3.07,3.08,23409,2.9,185,0.019868,-0.013405,-0.012228
10785,20080805,3676,CAMD,CALIFORNIA MICRO DEVICES CORP,,3.02,3.11,3.05,50120,-0.00974,3.04,3.05,23409,3.02,102,-0.00974,0.024378,0.013398
10785,20080806,3676,CAMD,CALIFORNIA MICRO DEVICES CORP,,3.06,3.15,3.06,9328,0.003279,3.05,3.07,23409,3.15,62,0.003279,0.005406,0.006504
10785,20080807,3676,CAMD,CALIFORNIA MICRO DEVICES CORP,,3.01,3.1337,3.13,47776,0.022876,3.11,3.13,23409,3.05,184,0.022876,-0.016912,-0.012611
10785,20080808,3676,CAMD,CALIFORNIA MICRO DEVICES CORP,,2.99,3.15,3.13,31202,0,3.12,3.13,23409,3.15,152,0,0.019173,0.015813
10785,20080811,3676,CAMD,CALIFORNIA MICRO DEVICES CORP,,3.01,3.1,3.06,69312,-0.022364,3.04,3.06,23409,3.09,327,-0.022364,0.006503,0.01065
10785,20080812,3676,CAMD,CALIFORNIA MICRO DEVICES CORP,,3.01,3.1,3.03,19670,-0.009804,3.02,3.04,23409,3.05,85,-0.009804,-0.009666,-0.005693
10785,20080813,3676,CAMD,CALIFORNIA MICRO DEVICES CORP,,2.98,3.14,3.0901,10350,0.019835,3.08,3.11,23409,2.98,78,0.019835,-0.00044,0.002201
10785,20080814,3676,CAMD,CALIFORNIA MICRO DEVICES CORP,,3.02,3.18,3.17,25868,0.025857,3.14,3.17,23409,3.02,112,0.025857,0.00503,0.006533
10785,20080815,3676,CAMD,CALIFORNIA MICRO DEVICES CORP,,3.03,3.19,3.18,46397,0.003155,3.13,3.18,23409,3.03,116,0.003155,0.001245,-0.000882
10785,20080818,3676,CAMD,CALIFORNIA MICRO DEVICES CORP,,3.1,3.19,3.14,17145,-0.012579,3.14,3.17,23409,3.19,48,-0.012579,-0.013473,-0.00993
10785,20080819,3676,CAMD,CALIFORNIA MICRO DEVICES CORP,,3.1,3.2,3.18,27689,0.012739,3.17,3.19,23409,3.1,73,0.012739,-0.008943,-0.011751
10785,20080820,3676,CAMD,CALIFORNIA MICRO DEVICES CORP,,3.1,3.2,3.1499,23018,-0.009465,3.13,3.18,23409,3.15,94,-0.009465,0.006771,0.002565
10785,20080821,3676,CAMD,CALIFORNIA MICRO DEVICES CORP,,3.08,3.14,3.12,18013,-0.009492,3.1,3.13,23409,3.1,45,-0.009492,0.00314,-0.00224
10785,20080822,3676,CAMD,CALIFORNIA MICRO DEVICES CORP,,3.15,3.24,3.21,244024,0.028846,3.21,3.22,23409,3.22,127,0.028846,0.009437,0.009536
10785,20080825,3676,CAMD,CALIFORNIA MICRO DEVICES CORP,,3.03,3.25,3.17,31539,-0.012461,3.15,3.17,23409,3.21,127,-0.012461,-0.01855,-0.015117
10785,20080826,3676,CAMD,CALIFORNIA MICRO DEVICES CORP,5,2.85,3.1,3.1,122459,-0.022082,3.02,3.05,23409,3.06,292,-0.022082,0.003549,0.00287
10785,20080827,3676,CAMD,CALIFORNIA MICRO DEVICES CORP,5,2.96,3.04,3.04,123614,-0.019355,3,3.08,23409,3.03,252,-0.019355,0.009412,0.00805
10785,20080828,3676,CAMD,CALIFORNIA MICRO DEVICES CORP,,2.95,3.04,3.04,17213,0,2.98,3.02,23409,2.98,82,0,0.014185,0.013313
10785,20080829,3676,CAMD,CALIFORNIA MICRO DEVICES CORP,,2.92,3.24,3.24,48119,0.065789,3.21,3.24,23409,3,136,0.065789,-0.011719,-0.003495
10785,20080902,3676,CAMD,CALIFORNIA MICRO DEVICES CORP,,3.09,3.2,3.2,55715,-0.012346,3.18,3.2,23409,3.14,138,-0.012346,-0.007076,-0.003574
10785,20080903,3676,CAMD,CALIFORNIA MICRO DEVICES CORP,,3.1,3.23,3.1,75745,-0.03125,3.11,3.14,23409,3.21,119,-0.03125,-0.003312,-0.000519
10785,20080904,3676,CAMD,CALIFORNIA MICRO DEVICES CORP,,3.09,3.16,3.14,66445,0.012903,3.12,3.15,23409,3.09,364,0.012903,-0.028948,-0.021621
10785,20080905,3676,CAMD,CALIFORNIA MICRO DEVICES CORP,,3.07,3.15,3.07,94318,-0.022293,3.08,3.1,23409,3.1,207,-0.022293,0.003797,-0.000339
10785,20080908,3676,CAMD,CALIFORNIA MICRO DEVICES CORP,,3.07,3.24,3.12,65152,0.016287,3.1,3.13,23409,3.15,179,0.016287,0.014721,0.007628
10785,20080909,3676,CAMD,CALIFORNIA MICRO DEVICES CORP,,3.05,3.12,3.07,124630,-0.016026,3.06,3.08,23409,3.07,456,-0.016026,-0.034941,-0.028945
10785,20080910,3676,CAMD,CALIFORNIA MICRO DEVICES CORP,,3,3.07,3.02,53456,-0.016287,3,3.03,23409,3.03,178,-0.016287,0.008484,0.003445
10785,20080911,3676,CAMD,CALIFORNIA MICRO DEVICES CORP,,2.9,3.03,3.03,228669,0.003311,3,3.03,23409,2.91,191,0.003311,0.010642,-0.003328
10785,20080912,3676,CAMD,CALIFORNIA MICRO DEVICES CORP,,3.02,3.1,3.05,77109,0.006601,3.02,3.05,23409,3.05,166,0.006601,0.005322,0.004843
10785,20080915,3676,CAMD,CALIFORNIA MICRO DEVICES CORP,5,2.85,3,2.9,54223,-0.04918,2.86,2.9,23409,2.979,189,-0.04918,-0.045674,-0.039367
10785,20080916,3676,CAMD,CALIFORNIA MICRO DEVICES CORP,5,2.61,3.07,3.07,78982,0.058621,2.78,2.89,23409,2.85,258,0.058621,0.015157,0.003354
10785,20080917,3676,CAMD,CALIFORNIA MICRO DEVICES CORP,5,2.74,2.99,2.97,58984,-0.032573,2.87,2.88,23409,2.95,182,-0.032573,-0.045503,-0.040954
10785,20080918,3676,CAMD,CALIFORNIA MICRO DEVICES CORP,5,2.74,3.06,2.9,66159,-0.023569,2.8,2.84,23409,2.94,272,-0.023569,0.043916,0.041432
10785,20080919,3676,CAMD,CALIFORNIA MICRO DEVICES CORP,5,2.91,3.15,3.15,69120,0.086207,3.07,3.1,23409,2.98,193,0.086207,0.04599,0.04939
10785,20080922,3676,CAMD,CALIFORNIA MICRO DEVICES CORP,,2.86,3.1,3.02,17176,-0.04127,3.02,3.05,23409,3.1,78,-0.04127,-0.036817,-0.026898
10785,20080923,3676,CAMD,CALIFORNIA MICRO DEVICES CORP,,2.87,3.05,3.05,58241,0.009934,3.01,3.05,23409,2.991,54,0.009934,-0.015644,-0.012863
10785,20080924,3676,CAMD,CALIFORNIA MICRO DEVICES CORP,,2.95,3.13,3.04,91534,-0.003279,3.01,3.04,23409,3.1,211,-0.003279,-0.003315,-0.00926
10785,20080925,3676,CAMD,CALIFORNIA MICRO DEVICES CORP,,3,3.14,3.02,19826,-0.006579,3,3.03,23409,3.11,71,-0.006579,0.016532,0.008804
10785,20080926,3676,CAMD,CALIFORNIA MICRO DEVICES CORP,,2.93,3.03,3.03,31184,0.003311,3.01,3.08,23409,2.99,90,0.003311,-0.002251,-0.008583
10785,20080929,3676,CAMD,CALIFORNIA MICRO DEVICES CORP,,2.56,3.06,3.03,47454,0,3,3.6,23409,2.95,277,0,-0.082589,-0.061315
10785,20080930,3676,CAMD,CALIFORNIA MICRO DEVICES CORP,5,2.85,3,2.99,36341,-0.013201,2.87,2.96,23312,2.99,178,-0.013201,0.046616,0.027735
10785,20081001,3676,CAMD,CALIFORNIA MICRO DEVICES CORP,,2.8,2.93,2.82,54106,-0.056856,2.85,2.91,23312,2.91,291,-0.056856,-0.005829,-0.004764
10785,20081002,3676,CAMD,CALIFORNIA MICRO DEVICES CORP,,2.75,3.01,2.874,59173,0.019149,2.85,2.88,23312,2.75,309,0.019149,-0.045779,-0.039139
10785,20081003,3676,CAMD,CALIFORNIA MICRO DEVICES CORP,,2.74,2.96,2.91,44745,0.012526,2.89,2.94,23312,2.94,224,0.012526,-0.014335,-0.016903
10785,20081006,3676,CAMD,CALIFORNIA MICRO DEVICES CORP,5,2.53,2.82,2.66,233271,-0.085911,2.63,2.64,23312,2.82,195,-0.085911,-0.04243,-0.059337
10785,20081007,3676,CAMD,CALIFORNIA MICRO DEVICES CORP,5,2.24,2.8,2.43,124232,-0.086466,2.31,2.44,23312,2.65,487,-0.086466,-0.057914,-0.047041
10785,20081008,3676,CAMD,CALIFORNIA MICRO DEVICES CORP,,2.03,2.39,2.3,214301,-0.053498,2.25,2.31,23312,2.32,209,-0.053498,-0.012011,-0.026977
10785,20081009,3676,CAMD,CALIFORNIA MICRO DEVICES CORP,5,2.1701,2.42,2.4,32191,0.043478,2.37,2.4,23312,2.24,143,0.043478,-0.072775,-0.063757
10785,20081010,3676,CAMD,CALIFORNIA MICRO DEVICES CORP,5,2.1,2.39,2.38,107563,-0.008333,2.3,2.35,23312,2.11,431,-0.008333,-0.01221,-0.006893
10785,20081013,3676,CAMD,CALIFORNIA MICRO DEVICES CORP,5,2.22,2.49,2.49,43909,0.046218,2.47,2.49,23312,2.25,118,0.046218,0.114836,0.107335
10785,20081014,3676,CAMD,CALIFORNIA MICRO DEVICES CORP,,2.47,2.57,2.53,99482,0.016064,2.48,2.5,23312,2.5,374,0.016064,-0.009051,-0.001721
10785,20081015,3676,CAMD,CALIFORNIA MICRO DEVICES CORP,,2.15,2.5,2.26,34725,-0.106719,2.21,2.29,23312,2.5,142,-0.106719,-0.089842,-0.070866
10785,20081016,3676,CAMD,CALIFORNIA MICRO DEVICES CORP,,2.16,2.5,2.35,146600,0.039823,2.27,2.36,23312,2.5,118,0.039823,0.039611,0.02952
10785,20081017,3676,CAMD,CALIFORNIA MICRO DEVICES CORP,,2.26,2.5,2.49,70005,0.059575,2.25,2.49,23312,2.4,114,0.059575,-0.002498,0.001614
10785,20081020,3676,CAMD,CALIFORNIA MICRO DEVICES CORP,,2.32,2.55,2.45,34478,-0.016064,2.44,2.48,23312,2.49,160,-0.016064,0.046506,0.035473
10785,20081021,3676,CAMD,CALIFORNIA MICRO DEVICES CORP,5,2.25,2.44,2.41,39300,-0.016327,2.37,2.44,23312,2.3,149,-0.016327,-0.031481,-0.02072
10785,20081022,3676,CAMD,CALIFORNIA MICRO DEVICES CORP,,2.23,2.36,2.36,28100,-0.020747,2.31,2.36,23312,2.23,124,-0.020747,-0.059264,-0.048986
10785,20081023,3676,CAMD,CALIFORNIA MICRO DEVICES CORP,5,2.25,2.48,2.34,13909,-0.008475,2.26,2.29,23312,2.3,55,-0.008475,0.000813,-0.020324
10785,20081024,3676,CAMD,CALIFORNIA MICRO DEVICES CORP,5,2.17,2.33,2.31,9800,-0.012821,2.27,2.29,23312,2.26,47,-0.012821,-0.033449,-0.031311
10785,20081027,3676,CAMD,CALIFORNIA MICRO DEVICES CORP,5,2.25,2.31,2.26,6130,-0.021645,2.24,2.25,23312,2.3,33,-0.021645,-0.036947,-0.035395
10785,20081028,3676,CAMD,CALIFORNIA MICRO DEVICES CORP,5,2.25,2.46,2.29,14200,0.013274,2.25,2.29,23312,2.31,53,0.013274,0.095262,0.050347
10785,20081029,3676,CAMD,CALIFORNIA MICRO DEVICES CORP,,2.04,2.3899,2.29,48202,0,2.22,2.28,23312,2.32,162,0,0.001199,0.021377
10785,20081030,3676,CAMD,CALIFORNIA MICRO DEVICES CORP,,2.1016,2.8,2.3,17532,0.004367,2.17,2.24,23312,2.6,63,0.004367,0.031799,0.03553
10785,20081031,3676,CAMD,CALIFORNIA MICRO DEVICES CORP,5,2.22,2.4,2.37,34569,0.030435,2.31,2.34,23259,2.28,108,0.030435,0.018079,0.033871
10785,20081103,3676,CAMD,CALIFORNIA MICRO DEVICES CORP,,2.17,2.37,2.37,62867,0,2.29,2.3,23259,2.31,230,0,-0.000679,0.008574
10785,20081104,3676,CAMD,CALIFORNIA MICRO DEVICES CORP,5,2.25,2.4,2.35,37172,-0.008439,2.28,2.33,23259,2.37,113,-0.008439,0.038976,0.026518
10785,20081105,3676,CAMD,CALIFORNIA MICRO DEVICES CORP,,2.25,2.34,2.34,23642,-0.004255,2.26,2.29,23259,2.27,109,-0.004255,-0.051195,-0.03761
10785,20081106,3676,CAMD,CALIFORNIA MICRO DEVICES CORP,,2.22,2.3,2.27,27041,-0.029915,2.25,2.26,23259,2.26,74,-0.029915,-0.049316,-0.038225
10785,20081107,3676,CAMD,CALIFORNIA MICRO DEVICES CORP,,2.07,2.26,2.13,46420,-0.061674,2.12,2.13,23259,2.26,153,-0.061674,0.026164,0.014395
10785,20081110,3676,CAMD,CALIFORNIA MICRO DEVICES CORP,5,1.85,2.14,1.97,106617,-0.075117,1.94,1.97,23259,2.09,375,-0.075117,-0.013397,-0.019251
10785,20081111,3676,CAMD,CALIFORNIA MICRO DEVICES CORP,5,1.87,1.98,1.92,25169,-0.025381,1.85,1.92,23259,1.89,96,-0.025381,-0.024388,-0.028206
10785,20081112,3676,CAMD,CALIFORNIA MICRO DEVICES CORP,5,1.65,1.92,1.7,48088,-0.114583,1.69,1.7,23259,1.83,208,-0.114583,-0.053998,-0.054534
10785,20081113,3676,CAMD,CALIFORNIA MICRO DEVICES CORP,5,1.68,1.85,1.83,115895,0.076471,1.72,1.83,23259,1.68,413,0.076471,0.067871,0.048289
10785,20081114,3676,CAMD,CALIFORNIA MICRO DEVICES CORP,,1.73,1.7801,1.75,31010,-0.043716,1.74,1.78,23259,1.7801,91,-0.043716,-0.043809,-0.039664
10785,20081117,3676,CAMD,CALIFORNIA MICRO DEVICES CORP,,1.71,1.8,1.76,26951,0.005714,1.72,1.76,23259,1.75,110,0.005714,-0.024027,-0.022115
10785,20081118,3676,CAMD,CALIFORNIA MICRO DEVICES CORP,,1.7,1.82,1.77,19440,0.005682,1.73,1.77,23259,1.82,86,0.005682,0.005539,-0.010832
10785,20081119,3676,CAMD,CALIFORNIA MICRO DEVICES CORP,,1.7,1.76,1.7,21500,-0.039548,1.68,1.72,23259,1.71,89,-0.039548,-0.064102,-0.064622
10785,20081120,3676,CAMD,CALIFORNIA MICRO DEVICES CORP,,1.51,1.7,1.58,40343,-0.070588,1.51,1.57,23259,1.63,152,-0.070588,-0.070146,-0.067122
10785,20081121,3676,CAMD,CALIFORNIA MICRO DEVICES CORP,5,1.5,1.6,1.54,21917,-0.025317,1.51,1.54,23259,1.57,98,-0.025317,0.060934,0.033422
10785,20081124,3676,CAMD,CALIFORNIA MICRO DEVICES CORP,,1.5,1.63,1.59,88885,0.032468,1.5,1.54,23259,1.56,102,0.032468,0.06607,0.063574
10785,20081125,3676,CAMD,CALIFORNIA MICRO DEVICES CORP,,1.54,1.61,1.58,28096,-0.006289,1.56,1.58,23259,1.6,119,-0.006289,0.009516,0.015273
10785,20081126,3676,CAMD,CALIFORNIA MICRO DEVICES CORP,,1.51,1.61,1.58,110537,0,1.55,1.58,23259,1.59,271,0,0.038034,0.051933
10785,20081128,3676,CAMD,CALIFORNIA MICRO DEVICES CORP,,1.61,1.74,1.74,40985,0.101266,1.67,1.68,23259,1.63,63,0.101266,0.010075,0.019966
10785,20081201,3676,CAMD,CALIFORNIA MICRO DEVICES CORP,,1.65,1.76,1.72,27946,-0.011494,1.66,1.73,23259,1.68,90,-0.011494,-0.089446,-0.078335
10785,20081202,3676,CAMD,CALIFORNIA MICRO DEVICES CORP,,1.695,1.75,1.74,20573,0.011628,1.71,1.75,23259,1.74,105,0.011628,0.037575,0.035171
10785,20081203,3676,CAMD,CALIFORNIA MICRO DEVICES CORP,,1.54,1.66,1.59,31776,-0.086207,1.55,1.59,23259,1.66,135,-0.086207,0.023612,0.014519
10785,20081204,3676,CAMD,CALIFORNIA MICRO DEVICES CORP,,1.47,1.59,1.48,65685,-0.069182,1.45,1.48,23259,1.53,196,-0.069182,-0.030168,-0.021918
10785,20081205,3676,CAMD,CALIFORNIA MICRO DEVICES CORP,,1.42,1.54,1.54,25525,0.040541,1.48,1.54,23259,1.48,126,0.040541,0.036081,0.025995
10785,20081208,3676,CAMD,CALIFORNIA MICRO DEVICES CORP,,1.51,1.64,1.61,31614,0.045455,1.6,1.63,23259,1.51,113,0.045455,0.040252,0.0378
10785,20081209,3676,CAMD,CALIFORNIA MICRO DEVICES CORP,,1.5701,1.62,1.6,22750,-0.006211,1.58,1.64,23259,1.61,66,-0.006211,-0.02238,-0.014945
10785,20081210,3676,CAMD,CALIFORNIA MICRO DEVICES CORP,,1.59,1.73,1.66,54896,0.0375,1.63,1.66,23259,1.66,115,0.0375,0.015014,0.021801
10785,20081211,3676,CAMD,CALIFORNIA MICRO DEVICES CORP,5,1.58,1.74,1.7,151446,0.024096,1.67,1.74,23259,1.67,746,0.024096,-0.030236,-0.027158
10785,20081212,3676,CAMD,CALIFORNIA MICRO DEVICES CORP,,1.66,1.78,1.78,45560,0.047059,1.7,1.73,23259,1.69,124,0.047059,0.010463,0.017702
10785,20081215,3676,CAMD,CALIFORNIA MICRO DEVICES CORP,,1.68,1.75,1.75,16070,-0.016854,1.69,1.75,23259,1.686,103,-0.016854,-0.013903,-0.019502
10785,20081216,3676,CAMD,CALIFORNIA MICRO DEVICES CORP,,1.67,1.76,1.7,212368,-0.028571,1.69,1.7,23259,1.75,182,-0.028571,0.052815,0.046585
10785,20081217,3676,CAMD,CALIFORNIA MICRO DEVICES CORP,,1.52,1.7,1.6,48484,-0.058824,1.57,1.6,23259,1.67,96,-0.058824,-0.004899,0.010663
10785,20081218,3676,CAMD,CALIFORNIA MICRO DEVICES CORP,,1.48,1.66,1.48,145725,-0.075,1.48,1.5,23259,1.66,248,-0.075,-0.02057,-0.012006
10785,20081219,3676,CAMD,CALIFORNIA MICRO DEVICES CORP,5,1.48,1.78,1.78,187329,0.202703,1.65,1.74,23259,1.48,380,0.202703,0.003762,0.003476
10785,20081222,3676,CAMD,CALIFORNIA MICRO DEVICES CORP,5,1.59,1.83,1.7,62872,-0.044944,1.68,1.7,23259,1.83,272,-0.044944,-0.019253,-0.013129
10785,20081223,3676,CAMD,CALIFORNIA MICRO DEVICES CORP,,1.66,1.81,1.74,66032,0.023529,1.71,1.77,23259,1.74,314,0.023529,-0.007876,-0.008267
10785,20081224,3676,CAMD,CALIFORNIA MICRO DEVICES CORP,,1.72,1.79,1.75,26874,0.005747,1.72,1.76,23259,1.72,127,0.005747,0.004067,0.004547
10785,20081226,3676,CAMD,CALIFORNIA MICRO DEVICES CORP,,1.67,1.79,1.77,94159,0.011429,1.73,1.76,23259,1.69,264,0.011429,0.007159,0.010885
10785,20081229,3676,CAMD,CALIFORNIA MICRO DEVICES CORP,,1.63,1.82,1.7,53925,-0.039548,1.63,1.68,23259,1.78,176,-0.039548,-0.004742,-0.015756
10785,20081230,3676,CAMD,CALIFORNIA MICRO DEVICES CORP,,1.6201,1.75,1.68,44229,-0.011765,1.6,1.68,23259,1.68,208,-0.011765,0.024607,0.021245
10785,20081231,3676,CAMD,CALIFORNIA MICRO DEVICES CORP,5,1.54,1.87,1.86,359060,0.107143,1.81,1.86,23098,1.68,855,0.107143,0.017386,0.034415
10785,20090102,3676,CAMD,CALIFORNIA MICRO DEVICES CORP,,1.74,1.92,1.89,40062,0.016129,1.91,1.92,23098,1.78,122,0.016129,0.0303,0.038221
10785,20090105,3676,CAMD,CALIFORNIA MICRO DEVICES CORP,,1.88,1.94,1.92,43999,0.015873,1.91,1.93,23098,1.94,214,0.015873,-0.000602,0.016737
10785,20090106,3676,CAMD,CALIFORNIA MICRO DEVICES CORP,,1.88,2.07,2.06,72034,0.072917,2.04,2.06,23098,1.88,331,0.072917,0.011287,0.03362
10785,20090107,3676,CAMD,CALIFORNIA MICRO DEVICES CORP,,1.97,2.12,2.12,54131,0.029126,2.1,2.12,23098,2.1,111,0.029126,-0.030862,-0.022326
10785,20090108,3676,CAMD,CALIFORNIA MICRO DEVICES CORP,,2.06,2.11,2.11,19335,-0.004717,2.1,2.13,23098,2.11,59,-0.004717,0.00625,0.011791
10785,20090109,3676,CAMD,CALIFORNIA MICRO DEVICES CORP,,2.1,2.1208,2.11,9300,0,2.1,2.15,23098,2.12,20,0,-0.02242,-0.018761
10785,20090112,3676,CAMD,CALIFORNIA MICRO DEVICES CORP,,2.13,2.2,2.1454,146857,0.016777,2.14,2.15,23098,2.16,224,0.016777,-0.025562,-0.026627
10785,20090113,3676,CAMD,CALIFORNIA MICRO DEVICES CORP,,2.13,2.16,2.16,39665,0.006805,2.15,2.16,23098,2.16,105,0.006805,0.00343,0.003321
10785,20090114,3676,CAMD,CALIFORNIA MICRO DEVICES CORP,,2.1,2.1201,2.11,36390,-0.023148,2.1,2.12,23098,2.12,74,-0.023148,-0.035271,-0.035146
10785,20090115,3676,CAMD,CALIFORNIA MICRO DEVICES CORP,,2.08,2.15,2.15,31352,0.018957,2.11,2.15,23098,2.11,175,0.018957,0.004583,0.00556
10785,20090116,3676,CAMD,CALIFORNIA MICRO DEVICES CORP,,2.09,2.18,2.1,19404,-0.023256,2.1,2.16,23098,2.12,38,-0.023256,0.008429,0.008781
10785,20090120,3676,CAMD,CALIFORNIA MICRO DEVICES CORP,5,2.08,2.13,2.13,4700,0.014286,2.11,2.13,23098,2.08,20,0.014286,-0.055283,-0.051546
10785,20090121,3676,CAMD,CALIFORNIA MICRO DEVICES CORP,5,2.09,2.19,2.19,21464,0.028169,2.12,2.19,23098,2.11,65,0.028169,0.043054,0.036035
10785,20090122,3676,CAMD,CALIFORNIA MICRO DEVICES CORP,,2.055,2.15,2.15,16239,-0.018265,2.1,2.13,23098,2.11,80,-0.018265,-0.018295,-0.021994
10785,20090123,3676,CAMD,CALIFORNIA MICRO DEVICES CORP,,2.0901,2.12,2.1,5666,-0.023256,2.1,2.13,23098,2.095,34,-0.023256,0.006841,0.003358
10785,20090126,3676,CAMD,CALIFORNIA MICRO DEVICES CORP,,2.095,2.16,2.1,14978,0,2.1,2.11,23098,2.1,67,0,0.006125,0.010055
10785,20090127,3676,CAMD,CALIFORNIA MICRO DEVICES CORP,,2.13,2.2,2.15,15525,0.02381,2.15,2.16,23098,2.14,52,0.02381,0.011294,0.010029
10785,20090128,3676,CAMD,CALIFORNIA MICRO DEVICES CORP,,2.12,2.24,2.24,22792,0.04186,2.21,2.22,23098,2.12,94,0.04186,0.033594,0.03037
10785,20090129,3676,CAMD,CALIFORNIA MICRO DEVICES CORP,,2.15,2.24,2.19,6800,-0.022321,2.16,2.2,23098,2.15,47,-0.022321,-0.032894,-0.028987
10785,20090130,3676,CAMD,CALIFORNIA MICRO DEVICES CORP,5,2.11,2.29,2.15,126826,-0.018265,2.08,2.15,23553,2.12,220,-0.018265,-0.02079,-0.012876
10785,20090202,3676,CAMD,CALIFORNIA MICRO DEVICES CORP,5,2.03,2.15,2.15,11889,0,2.12,2.14,23553,2.07,72,0,-0.001103,0.001473
10785,20090203,3676,CAMD,CALIFORNIA MICRO DEVICES CORP,5,2.08,2.15,2.08,13873,-0.032558,2.07,2.12,23553,2.15,70,-0.032558,0.01431,0.008913
10785,20090204,3676,CAMD,CALIFORNIA MICRO DEVICES CORP,,1.95,2.0701,1.99,14701,-0.043269,1.95,1.99,23553,2.07,87,-0.043269,-0.005041,-0.004255
10785,20090205,3676,CAMD,CALIFORNIA MICRO DEVICES CORP,,1.9,2.05,2.02,31120,0.015075,2,2.06,23553,1.93,111,0.015075,0.015462,0.011872
10785,20090206,3676,CAMD,CALIFORNIA MICRO DEVICES CORP,5,2.01,2.19,2.16,40323,0.069307,2.11,2.15,23553,2.03,135,0.069307,0.027644,0.026639
10785,20090209,3676,CAMD,CALIFORNIA MICRO DEVICES CORP,,2.0946,2.14,2.13,14648,-0.013889,2.11,2.14,23553,2.1,38,-0.013889,0.001197,0.000726
10785,20090210,3676,CAMD,CALIFORNIA MICRO DEVICES CORP,,1.96,2.2,2.13,41951,0,2.03,2.07,23553,2.12,143,0,-0.046047,-0.035136
10785,20090211,3676,CAMD,CALIFORNIA MICRO DEVICES CORP,,2.1,2.1901,2.18,29527,0.023474,2.14,2.18,23553,2.15,107,0.023474,0.006879,0.004182
10785,20090212,3676,CAMD,CALIFORNIA MICRO DEVICES CORP,,2.05,2.18,2.18,3955,0,2.14,2.18,23553,2.06,27,0,0.002453,-0.000841
10785,20090213,3676,CAMD,CALIFORNIA MICRO DEVICES CORP,,1.92,2.15,2.08,23533,-0.045872,1.99,2.06,23553,2.11,101,-0.045872,-0.008898,-0.002143
10785,20090217,3676,CAMD,CALIFORNIA MICRO DEVICES CORP,,1.94,2.1,2.04,2786,-0.019231,2.02,2.06,23553,1.97,26,-0.019231,-0.0454,-0.041936
10785,20090218,3676,CAMD,CALIFORNIA MICRO DEVICES CORP,,2.04,2.09,2.06,4514,0.009804,2.04,2.08,23553,2.05,31,0.009804,-0.003958,-0.011852
10785,20090219,3676,CAMD,CALIFORNIA MICRO DEVICES CORP,5,1.9,2.2,1.9,6844,-0.07767,1.9,1.92,23553,2.19,49,-0.07767,-0.011584,-0.015205
10785,20090220,3676,CAMD,CALIFORNIA MICRO DEVICES CORP,5,1.8352,1.93,1.9199,6600,0.010474,1.85,1.92,23553,1.89,43,0.010474,-0.011943,-0.020079
10785,20090223,3676,CAMD,CALIFORNIA MICRO DEVICES CORP,,1.81,1.9008,1.82,6959,-0.052034,1.79,1.83,23553,1.9,43,-0.052034,-0.036197,-0.030867
10785,20090224,3676,CAMD,CALIFORNIA MICRO DEVICES CORP,5,1.8,1.94,1.87,9017,0.027472,1.86,1.88,23553,1.88,73,0.027472,0.040176,0.037721
10785,20090225,3676,CAMD,CALIFORNIA MICRO DEVICES CORP,5,1.87,1.91,1.91,10887,0.02139,1.9,1.92,23553,1.87,46,0.02139,-0.010877,-0.015701
10785,20090226,3676,CAMD,CALIFORNIA MICRO DEVICES CORP,,1.95,2.06,1.98,32371,0.036649,1.97,2.03,23553,2.04,91,0.036649,-0.012328,-0.00725
10785,20090227,3676,CAMD,CALIFORNIA MICRO DEVICES CORP,5,1.98,2.09,2.09,23083,0.055556,2.05,2.08,23553,2.03,81,0.055556,-0.019093,-0.010485
10785,20090302,3676,CAMD,CALIFORNIA MICRO DEVICES CORP,5,1.9,2.03,1.9,33095,-0.090909,1.88,1.92,23553,2.03,106,-0.090909,-0.049856,-0.055772
10785,20090303,3676,CAMD,CALIFORNIA MICRO DEVICES CORP,,1.85,1.9,1.85,6172,-0.026316,1.85,1.92,23553,1.89,34,-0.026316,-0.006341,-0.013959
10785,20090304,3676,CAMD,CALIFORNIA MICRO DEVICES CORP,5,1.85,2.04,1.88,12946,0.016216,1.87,1.92,23553,1.93,59,0.016216,0.025591,0.029521
10785,20090305,3676,CAMD,CALIFORNIA MICRO DEVICES CORP,,1.85,1.94,1.85,22200,-0.015957,1.85,1.89,23553,1.88,91,-0.015957,-0.041898,-0.049146
10785,20090306,3676,CAMD,CALIFORNIA MICRO DEVICES CORP,,1.81,1.8501,1.85,8200,0,1.82,1.88,23553,1.8401,44,0,0.001402,-0.002324
10785,20090309,3676,CAMD,CALIFORNIA MICRO DEVICES CORP,,1.81,2.09,1.8501,8587,0.000054,1.85,1.88,23553,1.81,28,0.000054,-0.01247,-0.016503
10785,20090310,3676,CAMD,CALIFORNIA MICRO DEVICES CORP,,1.79,2.04,2.04,19799,0.102643,1.91,1.96,23553,1.79,77,0.102643,0.063308,0.062493
10785,20090311,3676,CAMD,CALIFORNIA MICRO DEVICES CORP,5,1.94,2.06,2.04,5740,0,1.98,2.04,23553,2.05,52,0,0.003688,0.004968
10785,20090312,3676,CAMD,CALIFORNIA MICRO DEVICES CORP,5,1.87,2.1,2.1,16103,0.029412,2.1,2.13,23553,1.99,73,0.029412,0.041657,0.050889
10785,20090313,3676,CAMD,CALIFORNIA MICRO DEVICES CORP,5,1.88,2.27,2.25,49788,0.071429,2.25,2.27,23553,1.88,206,0.071429,0.005981,0.009467
10785,20090316,3676,CAMD,CALIFORNIA MICRO DEVICES CORP,,1.9562,2.25,2.25,13980,0,2.22,2.25,23553,2.08,31,0,-0.004807,0.001224
10785,20090317,3676,CAMD,CALIFORNIA MICRO DEVICES CORP,5,1.94,2.27,2.27,23797,0.008889,2.19,2.26,23553,2.07,145,0.008889,0.030986,0.030329
10785,20090318,3676,CAMD,CALIFORNIA MICRO DEVICES CORP,5,1.969,2.34,2.31,14148,0.017621,2.24,2.31,23553,2.29,95,0.017621,0.022323,0.034035
10785,20090319,3676,CAMD,CALIFORNIA MICRO DEVICES CORP,5,2.19,2.37,2.32,17530,0.004329,2.29,2.35,23553,2.24,87,0.004329,-0.007998,0.007594
10785,20090320,3676,CAMD,CALIFORNIA MICRO DEVICES CORP,5,2.13,2.33,2.19,15501,-0.056034,2.14,2.17,23553,2.21,149,-0.056034,-0.020405,-0.014321
10785,20090323,3676,CAMD,CALIFORNIA MICRO DEVICES CORP,,2.17,2.37,2.25,18397,0.027397,2.2,2.25,23553,2.17,116,0.027397,0.068898,0.064724
10785,20090324,3676,CAMD,CALIFORNIA MICRO DEVICES CORP,,2.16,2.43,2.42,26400,0.075556,2.4,2.42,23553,2.16,93,0.075556,-0.020005,-0.016143
10785,20090325,3676,CAMD,CALIFORNIA MICRO DEVICES CORP,,2.26,2.41,2.35,7182,-0.028926,2.36,2.39,23553,2.38,55,-0.028926,0.008934,0.017629
10785,20090326,3676,CAMD,CALIFORNIA MICRO DEVICES CORP,5,2.16,2.43,2.43,39041,0.034043,2.36,2.41,23553,2.26,323,0.034043,0.025219,0.035754
10785,20090327,3676,CAMD,CALIFORNIA MICRO DEVICES CORP,5,2.35,2.43,2.43,8082,0,2.39,2.41,23553,2.35,58,0,-0.021848,-0.021833
10785,20090330,3676,CAMD,CALIFORNIA MICRO DEVICES CORP,,2.3,2.35,2.35,5951,-0.032922,2.33,2.35,23553,2.3,28,-0.032922,-0.036284,-0.031938
10785,20090331,3676,CAMD,CALIFORNIA MICRO DEVICES CORP,5,2.28,2.43,2.43,13146,0.034043,2.38,2.41,22880,2.29,54,0.034043,0.014239,0.020124
10785,20090401,3676,CAMD,CALIFORNIA MICRO DEVICES CORP,5,2.37,2.43,2.37,6586,-0.024691,2.37,2.39,22880,2.43,41,-0.024691,0.01693,0.015614
10785,20090402,3676,CAMD,CALIFORNIA MICRO DEVICES CORP,,2.35,2.6,2.51,34228,0.059072,2.48,2.51,22880,2.4,149,0.059072,0.031671,0.038943
10785,20090403,3676,CAMD,CALIFORNIA MICRO DEVICES CORP,,2.4,2.76,2.55,40642,0.015936,2.5,2.55,22880,2.58,208,0.015936,0.011581,0.012668
10785,20090406,3676,CAMD,CALIFORNIA MICRO DEVICES CORP,,2.37,2.5,2.5,17540,-0.019608,2.45,2.47,22880,2.39,73,-0.019608,-0.009847,-0.007253
10785,20090407,3676,CAMD,CALIFORNIA MICRO DEVICES CORP,,2.3504,2.5,2.5,13700,0,2.41,2.43,22880,2.36,78,0,-0.025075,-0.020181
10785,20090408,3676,CAMD,CALIFORNIA MICRO DEVICES CORP,,2.325,2.75,2.75,12620,0.1,2.49,2.6,22880,2.46,68,0.1,0.013077,0.01741
10785,20090409,3676,CAMD,CALIFORNIA MICRO DEVICES CORP,,2.62,2.75,2.75,26429,0,2.71,2.73,22880,2.69,123,0,0.039408,0.045828
10785,20090413,3676,CAMD,CALIFORNIA MICRO DEVICES CORP,5,2.64,2.75,2.75,13779,0,2.65,2.74,22880,2.7,62,0,0.003853,0.007148
10785,20090414,3676,CAMD,CALIFORNIA MICRO DEVICES CORP,,2.47,2.75,2.7,13204,-0.018182,2.69,2.7,22880,2.75,81,-0.018182,-0.019521,-0.012781
10785,20090415,3676,CAMD,CALIFORNIA MICRO DEVICES CORP,5,2.57,2.7,2.69,25550,-0.003704,2.61,2.64,22880,2.64,98,-0.003704,0.012403,0.013558
10785,20090416,3676,CAMD,CALIFORNIA MICRO DEVICES CORP,5,2.66,2.75,2.75,24170,0.022305,2.72,2.75,22880,2.75,129,0.022305,0.016053,0.020349
10785,20090417,3676,CAMD,CALIFORNIA MICRO DEVICES CORP,,2.58,2.75,2.71,66694,-0.014545,2.67,2.71,22880,2.63,267,-0.014545,0.006017,0.013748
10785,20090420,3676,CAMD,CALIFORNIA MICRO DEVICES CORP,5,2.59,2.79,2.79,19959,0.02952,2.73,2.74,22880,2.59,72,0.02952,-0.044772,-0.042046
10785,20090421,3676,CAMD,CALIFORNIA MICRO DEVICES CORP,5,2.56,2.75,2.73,9243,-0.021505,2.71,2.74,22880,2.67,63,-0.021505,0.022662,0.028919
10785,20090422,3676,CAMD,CALIFORNIA MICRO DEVICES CORP,,2.69,2.75,2.71,21136,-0.007326,2.71,2.72,22880,2.69,95,-0.007326,-0.005814,0.005351
10785,20090423,3676,CAMD,CALIFORNIA MICRO DEVICES CORP,5,2.7,2.75,2.75,9837,0.01476,2.72,2.75,22880,2.72,58,0.01476,0.009201,0.001693
10785,20090424,3676,CAMD,CALIFORNIA MICRO DEVICES CORP,,2.68,2.89,2.89,25269,0.050909,2.82,2.83,22880,2.68,94,0.050909,0.018991,0.021483
10785,20090427,3676,CAMD,CALIFORNIA MICRO DEVICES CORP,,2.74,2.87,2.8407,12347,-0.017059,2.82,2.86,22880,2.81,73,-0.017059,-0.011385,-0.011724
10785,20090428,3676,CAMD,CALIFORNIA MICRO DEVICES CORP,5,2.7695,2.94,2.85,19718,0.003274,2.75,2.82,22880,2.7695,73,0.003274,-0.002949,0.004866
10785,20090429,3676,CAMD,CALIFORNIA MICRO DEVICES CORP,5,2.66,2.87,2.87,30333,0.007018,2.77,2.9,22880,2.71,148,0.007018,0.024343,0.028455
10785,20090430,3676,CAMD,CALIFORNIA MICRO DEVICES CORP,,2.71,2.9,2.85,74012,-0.006969,2.81,2.85,22880,2.76,110,-0.006969,-0.0005,0.00418
10785,20090501,3676,CAMD,CALIFORNIA MICRO DEVICES CORP,,2.86,3.19,2.96,311060,0.038597,2.97,2.98,22880,2.89,864,0.038597,0.005911,0.008345
10785,20090504,3676,CAMD,CALIFORNIA MICRO DEVICES CORP,5,3.02,3.21,3.1,101629,0.047297,3.09,3.1,22880,3.09,246,0.047297,0.035854,0.037603
10785,20090505,3676,CAMD,CALIFORNIA MICRO DEVICES CORP,,2.99,3.14,3.1,28827,0,2.99,3,22880,3.11,93,0,-0.003555,0.00262
10785,20090506,3676,CAMD,CALIFORNIA MICRO DEVICES CORP,,2.77,3.04,2.94,50476,-0.051613,2.95,2.98,22880,3.04,197,-0.051613,0.015732,0.01504
10785,20090507,3676,CAMD,CALIFORNIA MICRO DEVICES CORP,,2.6296,2.9001,2.79,59826,-0.05102,2.69,2.7,22880,2.88,218,-0.05102,-0.015612,-0.011422
10785,20090508,3676,CAMD,CALIFORNIA MICRO DEVICES CORP,,2.67,2.89,2.89,33840,0.035842,2.84,2.85,22880,2.71,115,0.035842,0.027314,0.033944
10785,20090511,3676,CAMD,CALIFORNIA MICRO DEVICES CORP,,2.63,2.83,2.81,13515,-0.027682,2.81,2.83,22880,2.7,86,-0.027682,-0.020973,-0.006886
10785,20090512,3676,CAMD,CALIFORNIA MICRO DEVICES CORP,5,2.78,2.85,2.81,23715,0,2.77,2.81,22880,2.82,99,0,-0.002699,-0.005804
10785,20090513,3676,CAMD,CALIFORNIA MICRO DEVICES CORP,5,2.73,2.8,2.8,33605,-0.003559,2.74,2.78,22880,2.78,64,-0.003559,-0.031544,-0.03735
10785,20090514,3676,CAMD,CALIFORNIA MICRO DEVICES CORP,5,2.74,2.85,2.85,22409,0.017857,2.76,2.85,22880,2.79,88,0.017857,0.012324,0.01352
10785,20090515,3676,CAMD,CALIFORNIA MICRO DEVICES CORP,5,2.75,2.94,2.85,30014,0,2.84,2.85,22880,2.79,111,0,-0.010763,-0.008228
10785,20090518,3676,CAMD,CALIFORNIA MICRO DEVICES CORP,5,2.79,2.995,2.85,84256,0,2.84,2.85,22880,2.8,222,0,0.032821,0.034404
10785,20090519,3676,CAMD,CALIFORNIA MICRO DEVICES CORP,,2.69,2.85,2.75,69896,-0.035088,2.72,2.76,22880,2.85,133,-0.035088,0.000372,0.004793
10785,20090520,3676,CAMD,CALIFORNIA MICRO DEVICES CORP,,2.77,2.85,2.78,7145,0.010909,2.74,2.79,22880,2.77,32,0.010909,-0.001901,0.000185
10785,20090521,3676,CAMD,CALIFORNIA MICRO DEVICES CORP,,2.62,2.75,2.62,16300,-0.057554,2.71,2.76,22880,2.73,60,-0.057554,-0.016788,-0.013953
10785,20090522,3676,CAMD,CALIFORNIA MICRO DEVICES CORP,5,2.6,2.75,2.6,22132,-0.007634,2.62,2.63,22880,2.73,89,-0.007634,-0.000131,0.000876
10785,20090526,3676,CAMD,CALIFORNIA MICRO DEVICES CORP,5,2.61,2.67,2.62,16979,0.007692,2.62,2.65,22880,2.648,83,0.007692,0.028112,0.027208
10785,20090527,3676,CAMD,CALIFORNIA MICRO DEVICES CORP,,2.6,2.66,2.64,12410,0.007634,2.62,2.65,22880,2.65,63,0.007634,-0.017454,-0.010206
10785,20090528,3676,CAMD,CALIFORNIA MICRO DEVICES CORP,5,2.5,2.6201,2.58,37615,-0.022727,2.51,2.58,22880,2.62,135,-0.022727,0.014908,0.008145
10785,20090529,3676,CAMD,CALIFORNIA MICRO DEVICES CORP,5,2.41,2.64,2.43,63257,-0.058139,2.43,2.46,22918,2.64,278,-0.058139,0.014736,0.014954
10785,20090601,3676,CAMD,CALIFORNIA MICRO DEVICES CORP,,2.32,2.73,2.73,59004,0.123457,2.55,2.6,22918,2.36,339,0.123457,0.026965,0.029159
10785,20090602,3676,CAMD,CALIFORNIA MICRO DEVICES CORP,,2.52,2.72,2.55,11042,-0.065934,2.55,2.57,22918,2.72,29,-0.065934,0.003088,0.006465
10785,20090603,3676,CAMD,CALIFORNIA MICRO DEVICES CORP,5,2.52,2.56,2.54,7412,-0.003922,2.53,2.58,22918,2.55,43,-0.003922,-0.017411,-0.010969
10785,20090604,3676,CAMD,CALIFORNIA MICRO DEVICES CORP,5,2.5142,2.65,2.65,22559,0.043307,2.54,2.55,22918,2.5242,89,0.043307,0.013493,0.019853
10785,20090605,3676,CAMD,CALIFORNIA MICRO DEVICES CORP,,2.55,2.6,2.58,14868,-0.026415,2.57,2.61,22918,2.58,52,-0.026415,-0.003171,0.001178
10785,20090608,3676,CAMD,CALIFORNIA MICRO DEVICES CORP,5,2.58,2.9,2.9,33655,0.124031,2.69,2.7,22918,2.6,129,0.124031,-0.002809,-0.003627
10785,20090609,3676,CAMD,CALIFORNIA MICRO DEVICES CORP,,2.7199,2.9,2.9,15060,0,2.84,2.85,22918,2.7199,65,0,0.005445,0.008643
10785,20090610,3676,CAMD,CALIFORNIA MICRO DEVICES CORP,,2.76,2.83,2.79,3428,-0.037931,2.79,2.8,22918,2.795,17,-0.037931,-0.00288,-0.002354
10785,20090611,3676,CAMD,CALIFORNIA MICRO DEVICES CORP,,2.78,2.84,2.84,45765,0.017921,2.79,2.84,22918,2.8,67,0.017921,0.006898,0.010297
10785,20090612,3676,CAMD,CALIFORNIA MICRO DEVICES CORP,5,2.75,2.8,2.8,34706,-0.014084,2.79,2.83,22918,2.76,24,-0.014084,-0.001398,-0.002662
10785,20090615,3676,CAMD,CALIFORNIA MICRO DEVICES CORP,5,2.61,2.75,2.61,46163,-0.067857,2.65,2.74,22918,2.71,107,-0.067857,-0.025422,-0.023442
10785,20090616,3676,CAMD,CALIFORNIA MICRO DEVICES CORP,,2.4,2.61,2.45,84000,-0.061303,2.45,2.46,22918,2.61,175,-0.061303,-0.013129,-0.011502
10785,20090617,3676,CAMD,CALIFORNIA MICRO DEVICES CORP,5,2.48,2.75,2.58,3677,0.053061,2.54,2.58,22918,2.75,24,0.053061,-0.003043,-0.001974
10785,20090618,3676,CAMD,CALIFORNIA MICRO DEVICES CORP,,2.5,2.6,2.6,860,0.007752,2.52,2.57,22918,2.55,7,0.007752,0.006488,0.002944
10785,20090619,3676,CAMD,CALIFORNIA MICRO DEVICES CORP,5,2.61,2.7699,2.69,59907,0.034615,2.66,2.69,22918,2.61,220,0.034615,0.004042,0.006121
10785,20090622,3676,CAMD,CALIFORNIA MICRO DEVICES CORP,,2.37,2.56,2.45,34659,-0.089219,2.45,2.49,22918,2.56,35,-0.089219,-0.033272,-0.033507
10785,20090623,3676,CAMD,CALIFORNIA MICRO DEVICES CORP,,2.33,2.46,2.4,49286,-0.020408,2.4,2.44,22918,2.42,135,-0.020408,0.002132,-0.002855
10785,20090624,3676,CAMD,CALIFORNIA MICRO DEVICES CORP,5,2.49,2.6978,2.49,6024,0.0375,2.49,2.53,22918,2.549,21,0.0375,0.008894,0.008541
10785,20090625,3676,CAMD,CALIFORNIA MICRO DEVICES CORP,5,2.4999,2.52,2.52,983,0.012048,2.51,2.53,22918,2.4999,9,0.012048,0.021569,0.02192
10785,20090626,3676,CAMD,CALIFORNIA MICRO DEVICES CORP,,2.31,2.58,2.4,13830,-0.047619,2.41,2.44,22918,2.31,23,-0.047619,0.000649,0.009455
10785,20090629,3676,CAMD,CALIFORNIA MICRO DEVICES CORP,,2.42,2.45,2.45,7567,0.020833,2.43,2.45,22918,2.42,17,0.020833,0.007658,0.002581
10785,20090630,3676,CAMD,CALIFORNIA MICRO DEVICES CORP,5,2.41,2.5,2.46,13497,0.004082,2.45,2.46,22918,2.43,66,0.004082,-0.007815,-0.001845
10785,20090701,3676,CAMD,CALIFORNIA MICRO DEVICES CORP,5,2.39,2.572,2.572,73109,0.045528,2.52,2.58,22918,2.46,97,0.045528,0.005924,0.011637
10785,20090702,3676,CAMD,CALIFORNIA MICRO DEVICES CORP,5,2.51,2.59,2.59,6400,0.006998,2.53,2.59,22918,2.51,35,0.006998,-0.028214,-0.024559
10785,20090706,3676,CAMD,CALIFORNIA MICRO DEVICES CORP,5,2.47,2.6,2.52,18009,-0.027027,2.51,2.56,22918,2.47,50,-0.027027,-0.001733,-0.008899
10785,20090707,3676,CAMD,CALIFORNIA MICRO DEVICES CORP,,2.45,2.68,2.63,5930,0.043651,2.62,2.64,22918,2.45,33,0.043651,-0.019557,-0.016017
10785,20090708,3676,CAMD,CALIFORNIA MICRO DEVICES CORP,5,2.56,2.84,2.69,77922,0.022814,2.65,2.69,22918,2.6,315,0.022814,-0.004059,-0.011067
10785,20090709,3676,CAMD,CALIFORNIA MICRO DEVICES CORP,5,2.67,2.84,2.76,27692,0.026022,2.74,2.76,22918,2.79,49,0.026022,0.004852,0.004944
10785,20090710,3676,CAMD,CALIFORNIA MICRO DEVICES CORP,5,2.52,2.8101,2.8,29283,0.014493,2.8,2.83,22918,2.52,25,0.014493,-0.003392,-0.000134
10785,20090713,3676,CAMD,CALIFORNIA MICRO DEVICES CORP,,2.75,2.82,2.79,76864,-0.003571,2.8,2.82,22918,2.76,86,-0.003571,0.023814,0.015919
10785,20090714,3676,CAMD,CALIFORNIA MICRO DEVICES CORP,5,2.8,2.85,2.83,38856,0.014337,2.81,2.85,22918,2.84,44,0.014337,0.00725,0.008303
10785,20090715,3676,CAMD,CALIFORNIA MICRO DEVICES CORP,5,2.81,2.9,2.9,22466,0.024735,2.88,2.9,22918,2.9,42,0.024735,0.031101,0.029538
10785,20090716,3676,CAMD,CALIFORNIA MICRO DEVICES CORP,,2.81,2.9,2.89,1964,-0.003448,2.87,2.89,22918,2.81,17,-0.003448,0.009434,0.008213
10785,20090717,3676,CAMD,CALIFORNIA MICRO DEVICES CORP,,2.79,2.87,2.82,4600,-0.024222,2.81,2.83,22918,2.87,25,-0.024222,-0.000101,-0.001883
10785,20090720,3676,CAMD,CALIFORNIA MICRO DEVICES CORP,,2.64,2.75,2.68,22900,-0.049645,2.64,2.68,22918,2.7,82,-0.049645,0.01348,0.015309
10785,20090721,3676,CAMD,CALIFORNIA MICRO DEVICES CORP,5,2.62,2.76,2.63,10032,-0.018657,2.62,2.64,22918,2.65,51,-0.018657,0.002481,-0.001774
10785,20090722,3676,CAMD,CALIFORNIA MICRO DEVICES CORP,,2.75,2.91,2.88,15943,0.095057,2.87,2.9,22918,2.75,118,0.095057,0.000491,0.006205
10785,20090723,3676,CAMD,CALIFORNIA MICRO DEVICES CORP,,2.8,2.93,2.9,26354,0.006944,2.9,2.91,22918,2.81,95,0.006944,0.024188,0.022647
10785,20090724,3676,CAMD,CALIFORNIA MICRO DEVICES CORP,,2.83,3,2.93,18895,0.010345,2.84,2.9,22918,2.83,65,0.010345,0.004311,0.006532
10785,20090727,3676,CAMD,CALIFORNIA MICRO DEVICES CORP,5,2.68,2.88,2.8,18910,-0.044369,2.79,2.83,22918,2.88,67,-0.044369,0.003427,0.007145
10785,20090728,3676,CAMD,CALIFORNIA MICRO DEVICES CORP,5,2.7,2.89,2.8,25604,0,2.8,2.87,22918,2.88,41,0,-0.003765,0.001271
10785,20090729,3676,CAMD,CALIFORNIA MICRO DEVICES CORP,5,2.77,2.99,2.99,10077,0.067857,2.8,2.99,22918,2.79,40,0.067857,-0.006683,-0.005267
10785,20090730,3676,CAMD,CALIFORNIA MICRO DEVICES CORP,5,2.77,3.1599,3.15,173065,0.053512,3.08,3.15,22918,2.77,217,0.053512,0.013275,0.01481
10785,20090731,3676,CAMD,CALIFORNIA MICRO DEVICES CORP,5,3.17,3.25,3.2,17456,0.015873,3.16,3.2,22918,3.19,74,0.015873,0.002659,0.004931
10785,20090803,3676,CAMD,CALIFORNIA MICRO DEVICES CORP,5,3.08,3.25,3.08,102337,-0.0375,3.08,3.1,22918,3.25,122,-0.0375,0.017942,0.018979
10785,20090804,3676,CAMD,CALIFORNIA MICRO DEVICES CORP,5,3.14,3.26,3.25,67800,0.055195,3.21,3.25,22918,3.16,113,0.055195,0.002464,0.006793
10785,20090805,3676,CAMD,CALIFORNIA MICRO DEVICES CORP,5,2.8,3.14,3.14,109861,-0.033846,2.99,3.06,22918,2.99,320,-0.033846,-0.002357,0.000454
10785,20090806,3676,CAMD,CALIFORNIA MICRO DEVICES CORP,5,2.83,3.01,2.99,56174,-0.047771,2.96,2.99,22918,2.998,130,-0.047771,-0.007608,-0.007286
10785,20090807,3676,CAMD,CALIFORNIA MICRO DEVICES CORP,5,2.871,3.21,3,38628,0.003344,2.84,2.98,22918,2.96,139,0.003344,0.013295,0.017831
10785,20090810,3676,CAMD,CALIFORNIA MICRO DEVICES CORP,5,2.78,2.96,2.78,18767,-0.073333,2.79,2.92,22918,2.91,54,-0.073333,-0.004404,0.00206
10785,20090811,3676,CAMD,CALIFORNIA MICRO DEVICES CORP,5,2.71,3,2.98,23613,0.071942,2.83,3,22918,2.78,82,0.071942,-0.013944,-0.011763
10785,20090812,3676,CAMD,CALIFORNIA MICRO DEVICES CORP,5,2.84,2.96,2.85,8842,-0.043624,2.83,2.85,22918,2.9,47,-0.043624,0.011943,0.012078
10785,20090813,3676,CAMD,CALIFORNIA MICRO DEVICES CORP,5,2.77,2.839,2.8,21592,-0.017544,2.8,2.82,22918,2.82,61,-0.017544,0.008309,0.007076
10785,20090814,3676,CAMD,CALIFORNIA MICRO DEVICES CORP,5,2.7,2.87,2.85,12140,0.017857,2.8,2.85,22918,2.87,94,0.017857,-0.010031,-0.012103
10785,20090817,3676,CAMD,CALIFORNIA MICRO DEVICES CORP,5,2.79,2.88,2.79,11420,-0.021053,2.71,2.79,22918,2.84,15,-0.021053,-0.026142,-0.025955
10785,20090818,3676,CAMD,CALIFORNIA MICRO DEVICES CORP,,2.8,2.9,2.9,25760,0.039427,2.83,2.9,22918,2.8,82,0.039427,0.011877,0.014958
10785,20090819,3676,CAMD,CALIFORNIA MICRO DEVICES CORP,5,2.7,2.89,2.84,10460,-0.02069,2.81,2.85,22918,2.7,43,-0.02069,0.006796,0.00648
10785,20090820,3676,CAMD,CALIFORNIA MICRO DEVICES CORP,,2.7799,2.85,2.7799,21340,-0.021162,2.77,2.8,22918,2.8,34,-0.021162,0.010621,0.010238
10785,20090821,3676,CAMD,CALIFORNIA MICRO DEVICES CORP,5,2.77,2.83,2.83,24294,0.018022,2.78,2.83,22918,2.7801,53,0.018022,0.018065,0.016415
10785,20090824,3676,CAMD,CALIFORNIA MICRO DEVICES CORP,5,2.77,2.8,2.784,20956,-0.016254,2.78,2.81,22918,2.8,78,-0.016254,-0.000886,0.00104
10785,20090825,3676,CAMD,CALIFORNIA MICRO DEVICES CORP,5,2.83,2.86,2.84,1624,0.020115,2.82,2.85,22918,2.83,13,0.020115,0.002724,0.005296
10785,20090826,3676,CAMD,CALIFORNIA MICRO DEVICES CORP,5,2.8,2.8401,2.83,1746,-0.003521,2.83,2.85,22918,2.8,14,-0.003521,-0.000872,0.003415
10785,20090827,3676,CAMD,CALIFORNIA MICRO DEVICES CORP,,2.74,2.85,2.8,18085,-0.010601,2.8,2.82,22918,2.85,75,-0.010601,0.002952,0.002886
10785,20090828,3676,CAMD,CALIFORNIA MICRO DEVICES CORP,,2.78,2.8499,2.83,56394,0.010714,2.81,2.84,22918,2.78,255,0.010714,-0.001549,-0.00182
10785,20090831,3676,CAMD,CALIFORNIA MICRO DEVICES CORP,,2.7,2.98,2.89,41368,0.021201,2.82,2.89,22918,2.85,194,0.021201,-0.009212,-0.00901
10785,20090901,3676,CAMD,CALIFORNIA MICRO DEVICES CORP,,2.75,2.86,2.7599,170522,-0.045017,2.74,2.77,22918,2.85,252,-0.045017,-0.022005,-0.019693
10785,20090902,3676,CAMD,CALIFORNIA MICRO DEVICES CORP,5,2.71,2.79,2.77,24417,0.00366,2.75,2.77,22918,2.78,114,0.00366,-0.002831,-0.000708
10785,20090903,3676,CAMD,CALIFORNIA MICRO DEVICES CORP,5,2.73,2.86,2.82,42284,0.018051,2.82,2.84,22918,2.75,99,0.018051,0.010635,0.01055
10785,20090904,3676,CAMD,CALIFORNIA MICRO DEVICES CORP,,2.9,2.99,2.958,14696,0.048936,2.89,2.96,22918,2.9,63,0.048936,0.013915,0.013169
10785,20090908,3676,CAMD,CALIFORNIA MICRO DEVICES CORP,,2.8499,3.07,3,19660,0.014199,2.96,3,22918,2.8499,79,0.014199,0.010282,0.011679
10785,20090909,3676,CAMD,CALIFORNIA MICRO DEVICES CORP,5,3.04,3.13,3.13,52624,0.043333,3.09,3.11,22918,3.05,91,0.043333,0.007723,0.011559
10785,20090910,3676,CAMD,CALIFORNIA MICRO DEVICES CORP,5,3.08,3.16,3.136,26043,0.001917,3.11,3.14,22918,3.08,96,0.001917,0.011135,0.012868
10785,20090911,3676,CAMD,CALIFORNIA MICRO DEVICES CORP,,3.09,3.1899,3.18,20006,0.014031,3.14,3.17,22918,3.1453,75,0.014031,-0.00018,0.001629
10785,20090914,3676,CAMD,CALIFORNIA MICRO DEVICES CORP,,3.1896,3.27,3.26,47028,0.025157,3.24,3.26,22918,3.19,148,0.025157,0.006347,0.008033
10785,20090915,3676,CAMD,CALIFORNIA MICRO DEVICES CORP,5,3.14,3.3099,3.17,15232,-0.027607,3.16,3.18,22918,3.28,76,-0.027607,0.006156,0.009161
10785,20090916,3676,CAMD,CALIFORNIA MICRO DEVICES CORP,,3.15,3.25,3.19,23913,0.006309,3.19,3.24,22918,3.17,92,0.006309,0.01623,0.017363
10785,20090917,3676,CAMD,CALIFORNIA MICRO DEVICES CORP,5,3.12,3.25,3.17,29080,-0.00627,3.16,3.25,22918,3.12,119,-0.00627,-0.003799,-0.000059
10785,20090918,3676,CAMD,CALIFORNIA MICRO DEVICES CORP,5,3.11,3.224,3.12,14208,-0.015773,3.12,3.16,22918,3.202,67,-0.015773,0.001803,0.002374
10785,20090921,3676,CAMD,CALIFORNIA MICRO DEVICES CORP,,3.05,3.12,3.12,12408,0,3.06,3.12,22918,3.08,43,0,-0.00429,-0.001907
10785,20090922,3676,CAMD,CALIFORNIA MICRO DEVICES CORP,,3.06,3.13,3.06,4595,-0.019231,3.05,3.08,22918,3.07,30,-0.019231,0.00851,0.0095
10785,20090923,3676,CAMD,CALIFORNIA MICRO DEVICES CORP,,3.07,3.21,3.16,9292,0.03268,3.1,3.13,22918,3.09,39,0.03268,-0.010399,-0.004771
10785,20090924,3676,CAMD,CALIFORNIA MICRO DEVICES CORP,,3.12,3.18,3.12,4001,-0.012658,3.11,3.15,22918,3.167,21,-0.012658,-0.012782,-0.016009
10785,20090925,3676,CAMD,CALIFORNIA MICRO DEVICES CORP,,3.04,3.17,3.064,7425,-0.017949,3.04,3.08,22918,3.1,48,-0.017949,-0.006349,-0.00246
10785,20090928,3676,CAMD,CALIFORNIA MICRO DEVICES CORP,5,3.04,3.12,3.12,2524,0.018277,3.1,3.13,22918,3.04,21,0.018277,0.017756,0.015544
10785,20090929,3676,CAMD,CALIFORNIA MICRO DEVICES CORP,5,3.07,3.11,3.11,7202,-0.003205,3.09,3.14,22918,3.1,48,-0.003205,-0.001135,0.000021
10785,20090930,3676,CAMD,CALIFORNIA MICRO DEVICES CORP,5,3.08,3.32,3.22,79984,0.03537,3.14,3.21,22843,3.08,221,0.03537,-0.002949,-0.004365
10785,20091001,3676,CAMD,CALIFORNIA MICRO DEVICES CORP,,3.03,3.22,3.0499,21887,-0.052826,3.03,3.05,22843,3.2,71,-0.052826,-0.027161,-0.024291
10785,20091002,3676,CAMD,CALIFORNIA MICRO DEVICES CORP,5,2.91,3.04,3.03,41355,-0.006525,3.03,3.04,22843,3,285,-0.006525,-0.00537,-0.00652
10785,20091005,3676,CAMD,CALIFORNIA MICRO DEVICES CORP,5,2.96,3.1,3,21436,-0.009901,2.98,3.04,22843,2.96,132,-0.009901,0.015992,0.015665
10785,20091006,3676,CAMD,CALIFORNIA MICRO DEVICES CORP,,2.91,3.1,3.06,28384,0.02,3.05,3.06,22843,3,106,0.02,0.014532,0.01338
10785,20091007,3676,CAMD,CALIFORNIA MICRO DEVICES CORP,,2.9,3.03,2.97,47164,-0.029412,2.97,2.99,22843,2.91,404,-0.029412,0.002709,0.00231
10785,20091008,3676,CAMD,CALIFORNIA MICRO DEVICES CORP,,2.95,3.17,3.17,63050,0.06734,3.06,3.15,22843,2.95,212,0.06734,0.00967,0.009247
10785,20091009,3676,CAMD,CALIFORNIA MICRO DEVICES CORP,5,2.96,3.12,3.08,36440,-0.028391,3.01,3.08,22843,3.12,209,-0.028391,0.005217,0.006551
10785,20091012,3676,CAMD,CALIFORNIA MICRO DEVICES CORP,,3,3.11,3.07,46872,-0.003247,3.09,3.12,22843,3.11,109,-0.003247,0.003887,0.000513
10785,20091013,3676,CAMD,CALIFORNIA MICRO DEVICES CORP,5,2.98,3.08,3.05,18682,-0.006515,3.05,3.06,22843,3.08,58,-0.006515,-0.002009,-0.000771
10785,20091014,3676,CAMD,CALIFORNIA MICRO DEVICES CORP,5,3.02,3.1,3.07,34924,0.006557,3.05,3.07,22843,3.09,78,0.006557,0.017725,0.014018
10785,20091015,3676,CAMD,CALIFORNIA MICRO DEVICES CORP,,3.02,3.21,3.21,49151,0.045603,3.07,3.15,22843,3.06,66,0.045603,0.002394,0.000114
10785,20091016,3676,CAMD,CALIFORNIA MICRO DEVICES CORP,,3.05,3.15,3.09,9869,-0.037383,3.06,3.09,22843,3.15,47,-0.037383,-0.008154,-0.006072
10785,20091019,3676,CAMD,CALIFORNIA MICRO DEVICES CORP,,3.04,3.0899,3.05,5965,-0.012945,3.05,3.06,22843,3.0899,26,-0.012945,0.009985,0.007863
10785,20091020,3676,CAMD,CALIFORNIA MICRO DEVICES CORP,5,3,3.08,3.02,13111,-0.009836,3,3.02,22843,3.08,31,-0.009836,-0.007976,-0.009151
10785,20091021,3676,CAMD,CALIFORNIA MICRO DEVICES CORP,,2.95,3.12,3.06,20846,0.013245,2.95,3.12,22843,3.01,122,0.013245,-0.008455,-0.007087
10785,20091022,3676,CAMD,CALIFORNIA MICRO DEVICES CORP,,2.93,3.06,2.96,44500,-0.03268,2.95,3.03,22843,3.06,177,-0.03268,0.010047,0.00695
10785,20091023,3676,CAMD,CALIFORNIA MICRO DEVICES CORP,5,3.04,3.068,3.06,19868,0.033784,3.05,3.07,22843,3.05,50,0.033784,-0.012725,-0.013179
10785,20091026,3676,CAMD,CALIFORNIA MICRO DEVICES CORP,,3.01,3.09,3.0299,39000,-0.009837,3.02,3.04,22843,3.07,69,-0.009837,-0.013205,-0.012992
10785,20091027,3676,CAMD,CALIFORNIA MICRO DEVICES CORP,,3.03,3.17,3.16,64968,0.042939,3.16,3.16,22843,3.03,179,0.042939,-0.006301,-0.010174
10785,20091028,3676,CAMD,CALIFORNIA MICRO DEVICES CORP,,3.09,3.201,3.1201,113135,-0.012627,3.08,3.15,22843,3.19,247,-0.012627,-0.024016,-0.030507
10785,20091029,3676,CAMD,CALIFORNIA MICRO DEVICES CORP,5,2.82,3.13,2.82,38488,-0.096183,2.82,3.04,22843,3.13,158,-0.096183,0.023717,0.020269
10785,20091030,3676,CAMD,CALIFORNIA MICRO DEVICES CORP,5,2.91,3.08,2.99,24203,0.060284,2.92,3.01,22823,2.97,76,0.060284,-0.028014,-0.023906
10785,20091102,3676,CAMD,CALIFORNIA MICRO DEVICES CORP,5,2.74,3.03,3.03,17209,0.013378,2.83,3.04,22823,2.74,61,0.013378,0.005046,-0.001091
10785,20091103,3676,CAMD,CALIFORNIA MICRO DEVICES CORP,5,2.88,3.02,2.98,21539,-0.016502,2.96,2.98,22823,2.93,143,-0.016502,0.005715,0.009361
10785,20091104,3676,CAMD,CALIFORNIA MICRO DEVICES CORP,5,2.87,3,2.93,25219,-0.016779,3,3.01,22823,2.98,97,-0.016779,0.000573,-0.002537
10785,20091105,3676,CAMD,CALIFORNIA MICRO DEVICES CORP,,2.95,3.07,3.07,66913,0.047782,3.05,3.08,22823,2.95,138,0.047782,0.01927,0.020203
10785,20091106,3676,CAMD,CALIFORNIA MICRO DEVICES CORP,,2.9401,3.12,3.12,25483,0.016287,3.05,3.12,22823,2.9401,91,0.016287,0.001449,-0.000677
10785,20091109,3676,CAMD,CALIFORNIA MICRO DEVICES CORP,,3.029,3.1,3.03,12301,-0.028846,3.01,3.04,22823,3.07,63,-0.028846,0.023071,0.01561
10785,20091110,3676,CAMD,CALIFORNIA MICRO DEVICES CORP,,2.96,3.08,2.98,17275,-0.016502,2.97,3,22823,3.08,51,-0.016502,-0.00089,-0.006625
10785,20091111,3676,CAMD,CALIFORNIA MICRO DEVICES CORP,,2.91,2.98,2.91,2100,-0.02349,2.88,2.93,22823,2.98,17,-0.02349,0.005482,0.005813
10785,20091112,3676,CAMD,CALIFORNIA MICRO DEVICES CORP,,2.88,2.96,2.88,4800,-0.010309,2.88,2.93,22823,2.88,17,-0.010309,-0.011834,-0.014165
10785,20091113,3676,CAMD,CALIFORNIA MICRO DEVICES CORP,,2.9449,3.01,3,34030,0.041667,3,3.06,22823,2.9449,124,0.041667,0.006805,0.007858
10785,20091116,3676,CAMD,CALIFORNIA MICRO DEVICES CORP,5,2.97,3.13,3.13,3260,0.043333,3,3.03,22823,2.97,22,0.043333,0.015456,0.016677
10785,20091117,3676,CAMD,CALIFORNIA MICRO DEVICES CORP,,3,3.06,3.01,14318,-0.038339,3,3.05,22823,3.05,56,-0.038339,0.001121,-0.001859
10785,20091118,3676,CAMD,CALIFORNIA MICRO DEVICES CORP,5,3,3.0105,3,3646,-0.003322,3,3.01,22823,3.0105,17,-0.003322,-0.001161,-0.001495
10785,20091119,3676,CAMD,CALIFORNIA MICRO DEVICES CORP,,2.75,3.05,3,48036,0,2.91,3,22823,3,215,0,-0.014042,-0.01478
10785,20091120,3676,CAMD,CALIFORNIA MICRO DEVICES CORP,,2.91,3.02,3,10220,0,3,3.01,22823,2.94,57,0,-0.004073,-0.00149
10785,20091123,3676,CAMD,CALIFORNIA MICRO DEVICES CORP,,2.8611,3.05,2.93,32895,-0.023333,2.92,2.97,22823,3.05,129,-0.023333,0.012915,0.010613
10785,20091124,3676,CAMD,CALIFORNIA MICRO DEVICES CORP,,2.9724,3.05,3.05,75265,0.040956,3,3.03,22823,3,131,0.040956,-0.001354,-0.002342
10785,20091125,3676,CAMD,CALIFORNIA MICRO DEVICES CORP,,3,3.02,3,9300,-0.016393,3,3.01,22823,3.01,45,-0.016393,0.005708,0.003603
10785,20091127,3676,CAMD,CALIFORNIA MICRO DEVICES CORP,,3.01,3.01,3.01,401,0.003333,2.89,3,22823,3.01,4,0.003333,-0.018763,-0.016937
10785,20091130,3676,CAMD,CALIFORNIA MICRO DEVICES CORP,,2.97,3.06,3,4444,-0.003322,3,3.03,22823,3.04,25,-0.003322,0.003836,0.002409
10785,20091201,3676,CAMD,CALIFORNIA MICRO DEVICES CORP,5,2.96,3.1,3.07,23679,0.023333,3.03,3.1,22823,3.01,116,0.023333,0.013955,0.012471
10785,20091202,3676,CAMD,CALIFORNIA MICRO DEVICES CORP,,3,3.07,3.01,14256,-0.019544,3,3.06,22823,3.06,43,-0.019544,0.002238,0.005799
10785,20091203,3676,CAMD,CALIFORNIA MICRO DEVICES CORP,,2.976,3.01,3.01,14344,0,2.99,3.01,22823,2.976,53,0,-0.008846,-0.006883
10785,20091204,3676,CAMD,CALIFORNIA MICRO DEVICES CORP,,2.98,3.09,3,206924,-0.003322,3,3.04,22823,3,434,-0.003322,0.005348,0.011062
10785,20091207,3676,CAMD,CALIFORNIA MICRO DEVICES CORP,,2.99,3.1,3.08,83961,0.026667,3.08,3.1,22823,3.01,169,0.026667,-0.001611,0.001938
10785,20091208,3676,CAMD,CALIFORNIA MICRO DEVICES CORP,,3.05,3.09,3.09,8866,0.003247,3.06,3.09,22823,3.09,50,0.003247,-0.010691,-0.007994
10785,20091209,3676,CAMD,CALIFORNIA MICRO DEVICES CORP,,3.05,3.09,3.08,9483,-0.003236,3.08,3.09,22823,3.09,51,-0.003236,0.003409,0.002074
10785,20091210,3676,CAMD,CALIFORNIA MICRO DEVICES CORP,,3.05,3.09,3.05,30109,-0.00974,3.05,3.06,22823,3.08,55,-0.00974,0.005219,-0.001239
10785,20091211,3676,CAMD,CALIFORNIA MICRO DEVICES CORP,,3.02,3.1,3.05,51143,0,3.05,3.07,22823,3.05,92,0,0.002973,0.004861
10785,20091214,3676,CAMD,CALIFORNIA MICRO DEVICES CORP,5,4.64,4.68,4.67,4789043,0.531148,4.67,4.68,22823,4.65,3225,0.531148,0.008384,0.009792
10785,20091215,3676,CAMD,CALIFORNIA MICRO DEVICES CORP,,4.66,4.78,4.71,785554,0.008565,4.7,4.71,22823,4.66,1088,0.008565,-0.004635,-0.004327
10785,20091216,3676,CAMD,CALIFORNIA MICRO DEVICES CORP,,4.69,4.71,4.71,914909,0,4.7,4.71,22823,4.7,1022,0,0.003259,0.004849
10785,20091217,3676,CAMD,CALIFORNIA MICRO DEVICES CORP,,4.69,4.71,4.7,193560,-0.002123,4.7,4.71,22823,4.71,391,-0.002123,-0.0126,-0.010388
10785,20091218,3676,CAMD,CALIFORNIA MICRO DEVICES CORP,,4.69,4.71,4.71,186407,0.002128,4.7,4.71,22823,4.69,266,0.002128,0.006016,0.004816
10785,20091221,3676,CAMD,CALIFORNIA MICRO DEVICES CORP,,4.69,4.72,4.71,132870,0,4.7,4.71,22823,4.72,452,0,0.009701,0.009236
10785,20091222,3676,CAMD,CALIFORNIA MICRO DEVICES CORP,5,4.68,4.71,4.68,190513,-0.006369,4.68,4.7,22823,4.7,458,-0.006369,0.004463,0.005508
10785,20091223,3676,CAMD,CALIFORNIA MICRO DEVICES CORP,,4.67,4.7,4.68,103830,0,4.67,4.69,22823,4.68,276,0,0.004476,0.008398
10785,20091224,3676,CAMD,CALIFORNIA MICRO DEVICES CORP,5,4.69,4.7,4.7,32609,0.004274,4.69,4.7,22823,4.69,66,0.004274,0.005125,0.005212
10785,20091228,3676,CAMD,CALIFORNIA MICRO DEVICES CORP,,4.69,4.7,4.69,269236,-0.002128,4.69,4.7,22823,4.7,359,-0.002128,0.000886,-0.000222
10785,20091229,3676,CAMD,CALIFORNIA MICRO DEVICES CORP,5,4.69,4.7,4.69,101553,0,4.69,4.7,22823,4.69,166,0,-0.001165,0.001206
10785,20091230,3676,CAMD,CALIFORNIA MICRO DEVICES CORP,,4.69,4.72,4.71,432830,0.004264,4.71,4.72,22823,4.69,655,0.004264,-0.000749,0.000454
10785,20091231,3676,CAMD,CALIFORNIA MICRO DEVICES CORP,5,4.69,4.72,4.71,135260,0,4.7,4.71,22823,4.7,229,0,-0.008694,-0.002666
10785,20100104,3676,CAMD,CALIFORNIA MICRO DEVICES CORP,,4.68,4.71,4.68,662323,-0.006369,4.69,4.7,22823,4.7,936,-0.006369,0.017043,0.019077
10785,20100105,3676,CAMD,CALIFORNIA MICRO DEVICES CORP,,4.67,4.7,4.69,853103,0.002137,4.68,4.69,22823,4.69,479,0.002137,0.003363,0.002451
10785,20100106,3676,CAMD,CALIFORNIA MICRO DEVICES CORP,5,4.68,4.69,4.68,374771,-0.002132,4.68,4.69,22823,4.68,334,-0.002132,0.001768,0.00318
10785,20100107,3676,CAMD,CALIFORNIA MICRO DEVICES CORP,5,4.68,4.7,4.69,88713,0.002137,4.68,4.69,22823,4.69,144,0.002137,0.002817,0.006834
10785,20100108,3676,CAMD,CALIFORNIA MICRO DEVICES CORP,5,4.69,4.73,4.69,522382,0,4.69,4.71,22823,4.69,763,0,0.004161,0.007224
10785,20100111,3676,CAMD,CALIFORNIA MICRO DEVICES CORP,5,4.69,4.71,4.7,195349,0.002132,4.69,4.7,22823,4.69,336,0.002132,0.001121,0.003547
10785,20100112,3676,CAMD,CALIFORNIA MICRO DEVICES CORP,5,4.69,4.71,4.7,140894,0,4.7,4.71,22823,4.69,517,0,-0.011001,-0.010224
10785,20100113,3676,CAMD,CALIFORNIA MICRO DEVICES CORP,5,4.69,4.71,4.69,36824,-0.002128,4.69,4.7,22823,4.7,228,-0.002128,0.008535,0.008648
10785,20100114,3676,CAMD,CALIFORNIA MICRO DEVICES CORP,5,4.69,4.7,4.69,29156,0,4.69,4.7,22823,4.7,193,0,0.002296,0.004398
10785,20100115,3676,CAMD,CALIFORNIA MICRO DEVICES CORP,5,4.69,4.7,4.69,52268,0,4.69,4.7,22823,4.7,169,0,-0.011346,-0.008675
10785,20100119,3676,CAMD,CALIFORNIA MICRO DEVICES CORP,,4.69,4.7,4.69,39692,0,4.69,4.7,22823,4.69,123,0,0.01205,0.011274
10785,20100120,3676,CAMD,CALIFORNIA MICRO DEVICES CORP,,4.69,4.7,4.7,91761,0.002132,4.69,4.7,22823,4.69,253,0.002132,-0.011168,-0.00915
10785,20100121,3676,CAMD,CALIFORNIA MICRO DEVICES CORP,,4.69,4.71,4.7,175568,0,4.7,4.71,22823,4.69,395,0,-0.017759,-0.014217
10785,20100122,3676,CAMD,CALIFORNIA MICRO DEVICES CORP,5,4.69,4.71,4.7,123194,0,4.7,4.71,22823,4.69,316,0,-0.021031,-0.014439
10785,20100125,3676,CAMD,CALIFORNIA MICRO DEVICES CORP,5,4.69,4.7,4.69,302693,-0.002128,4.69,4.7,22823,4.69,282,-0.002128,0.003882,0.000966
10785,20100126,3676,CAMD,CALIFORNIA MICRO DEVICES CORP,,4.69,4.7,4.69,155702,0,4.69,4.7,22823,4.69,120,0,-0.004918,-0.006019
10785,20100127,3676,CAMD,CALIFORNIA MICRO DEVICES CORP,5,4.69,4.71,4.69,30515,0,4.69,4.71,22823,4.69,125,0,0.004048,0.001787
10785,20100128,3676,CAMD,CALIFORNIA MICRO DEVICES CORP,5,,,,,,,,,,,,-0.011402,-0.008945
