PERMNO,date,SICCD,TICKER,COMNAM,NMSIND,BIDLO,ASKHI,PRC,VOL,RET,BID,ASK,SHROUT,OPENPRC,NUMTRD,RETX,vwretx,ewretx
12871,20141201,9999,CCLP,C S I COMPRESSCO L P,6,18.05,21.69,19.24,60467,-0.058248,19.3,19.77,33142,19,243,-0.058248,-0.009062,-0.013816
12871,20141202,9999,CCLP,C S I COMPRESSCO L P,6,18.8,21.44,20.26,101123,0.053015,20.34,20.72,33142,19.9,434,0.053015,0.005828,0.005429
12871,20141203,9999,CCLP,C S I COMPRESSCO L P,6,20.3087,21.1699,20.87,79915,0.030109,20.85,20.95,33142,20.57,493,0.030109,0.005015,0.005906
12871,20141204,9999,CCLP,C S I COMPRESSCO L P,6,19.27,21.77,20.92,189651,0.002396,20.05,20.99,33142,21.77,1166,0.002396,-0.002163,-0.004193
12871,20141205,9999,CCLP,C S I COMPRESSCO L P,6,20,21.1,20.17,147162,-0.035851,20.07,20.2,33142,21.1,975,-0.035851,0.001445,0.002795
12871,20141208,9999,CCLP,C S I COMPRESSCO L P,6,16.14,20.33,17.51,460000,-0.131879,17.51,17.84,33142,19.5,2662,-0.131879,-0.009574,-0.014376
12871,20141209,9999,CCLP,C S I COMPRESSCO L P,6,16.2953,18.26,18.01,139071,0.028555,17.91,18.01,33142,16.69,800,0.028555,0.001678,0.008737
12871,20141210,9999,CCLP,C S I COMPRESSCO L P,6,16.5001,17.99,17.78,221460,-0.012771,17.7,17.78,33142,17.39,1328,-0.012771,-0.017499,-0.017051
12871,20141211,9999,CCLP,C S I COMPRESSCO L P,,16.76,17.934,17.26,200045,-0.029246,17.08,17.26,33142,17.05,1266,-0.029246,0.003784,0.001395
12871,20141212,9999,CCLP,C S I COMPRESSCO L P,,15.6,17.0675,15.8,232860,-0.084589,15.76,15.8,33142,16.52,1036,-0.084589,-0.015256,-0.010139
12871,20141215,9999,CCLP,C S I COMPRESSCO L P,,13.66,15.7709,13.9,253760,-0.120253,13.83,13.89,33142,15.31,1252,-0.120253,-0.007715,-0.011525
12871,20141216,9999,CCLP,C S I COMPRESSCO L P,6,13.09,14.95,14.75,293502,0.061151,14.66,14.75,33142,14.23,1622,0.061151,-0.005872,-0.001375
12871,20141217,9999,CCLP,C S I COMPRESSCO L P,,14.7,15.78,15.43,197849,0.046102,15.38,15.44,33142,15.1,1277,0.046102,0.021653,0.022133
12871,20141218,9999,CCLP,C S I COMPRESSCO L P,,14.3501,18,14.9,248558,-0.034349,14.84,14.9,33142,15.95,1489,-0.034349,0.021392,0.014597
12871,20141219,9999,CCLP,C S I COMPRESSCO L P,6,14.36,15.5,15.22,276113,0.021477,15.16,15.23,33142,14.85,1298,0.021477,0.00448,0.004822
12871,20141222,9999,CCLP,C S I COMPRESSCO L P,6,14,15.45,14.57,175690,-0.042707,14.49,14.57,33142,15.45,834,-0.042707,0.003071,0.001272
12871,20141223,9999,CCLP,C S I COMPRESSCO L P,,13.75,14.87,13.91,272137,-0.045299,13.78,13.92,33142,14.82,1408,-0.045299,0.002143,0.00075
12871,20141224,9999,CCLP,C S I COMPRESSCO L P,,13.61,14.58,14.43,196575,0.037383,14.3,14.44,33142,13.7,1006,0.037383,0.000448,0.001971
12871,20141226,9999,CCLP,C S I COMPRESSCO L P,,13.96,14.5799,14.08,151113,-0.024255,14.08,14.15,33142,14.48,608,-0.024255,0.003646,0.004836
12871,20141229,9999,CCLP,C S I COMPRESSCO L P,,13.77,14.58,14.14,309358,0.004261,14.03,14.14,33142,14.1,1842,0.004261,0.000966,-0.000529
12871,20141230,9999,CCLP,C S I COMPRESSCO L P,,13.206,14.0852,13.64,311882,-0.035361,13.57,13.65,33142,14,1444,-0.035361,-0.004382,-0.001869
12871,20141231,9999,CCLP,C S I COMPRESSCO L P,6,12.93,13.64,13.1302,356885,-0.037375,13.13,13.15,33142,13.25,1946,-0.037375,-0.008787,-0.001084
12871,20150102,9999,CCLP,C S I COMPRESSCO L P,,13.27,14.77,14.67,177688,0.117272,14.6,14.67,33142,13.27,947,0.117272,-0.000377,0.001432
12871,20150105,9999,CCLP,C S I COMPRESSCO L P,,13.33,14.65,14.05,182101,-0.042263,14.04,14.11,33142,14.48,752,-0.042263,-0.018327,-0.01263
12871,20150106,9999,CCLP,C S I COMPRESSCO L P,,13.34,14.6339,13.49,182449,-0.039858,13.45,13.5,33142,14.29,544,-0.039858,-0.009654,-0.010176
12871,20150107,9999,CCLP,C S I COMPRESSCO L P,,13.25,14.224,13.4,162229,-0.006672,13.26,13.38,33142,13.7,1048,-0.006672,0.010907,0.007982
12871,20150108,9999,CCLP,C S I COMPRESSCO L P,,13.3301,13.95,13.4,144818,0,13.37,13.4,33142,13.77,715,0,0.016831,0.01303
12871,20150109,9999,CCLP,C S I COMPRESSCO L P,,12.83,13.78,13,294497,-0.029851,12.95,13.15,33142,13.49,1715,-0.029851,-0.007548,-0.004126
12871,20150112,9999,CCLP,C S I COMPRESSCO L P,,12.7,13.4,12.85,117064,-0.011538,12.83,12.85,33142,13.4,665,-0.011538,-0.007781,-0.004698
12871,20150113,9999,CCLP,C S I COMPRESSCO L P,,12.7675,13.4,13.38,141058,0.041245,13.31,13.38,33142,12.78,824,0.041245,-0.002382,-0.002699
12871,20150114,9999,CCLP,C S I COMPRESSCO L P,,13.16,13.89,13.79,177636,0.030643,13.77,13.79,33142,13.17,527,0.030643,-0.005233,-0.003931
12871,20150115,9999,CCLP,C S I COMPRESSCO L P,,14,14.4499,14.22,140452,0.031182,14.2,14.22,33142,14.06,483,0.031182,-0.009211,-0.010606
12871,20150116,9999,CCLP,C S I COMPRESSCO L P,,13.95,15.01,14.99,119781,0.054149,14.95,14.99,33142,14.24,477,0.054149,0.01382,0.012351
12871,20150120,9999,CCLP,C S I COMPRESSCO L P,6,14.43,15.7,14.69,174924,-0.020013,14.65,14.69,33142,15.7,1012,-0.020013,0.00024,-0.003478
12871,20150121,9999,CCLP,C S I COMPRESSCO L P,,14.76,15.94,15.63,306665,0.063989,15.63,15.66,33142,15.21,1544,0.063989,0.004434,0.000927
12871,20150122,9999,CCLP,C S I COMPRESSCO L P,6,14.822,15.9,15.04,217976,-0.037748,14.96,15.03,33142,15.9,1266,-0.037748,0.014664,0.010948
12871,20150123,9999,CCLP,C S I COMPRESSCO L P,,14.94,15.28,15.2,77072,0.010638,15.1,15.2,33142,14.94,505,0.010638,-0.004194,-0.002666
12871,20150126,9999,CCLP,C S I COMPRESSCO L P,6,15,15.469,15.33,119868,0.008553,15.32,15.34,33142,15.39,835,0.008553,0.004392,0.007364
12871,20150127,9999,CCLP,C S I COMPRESSCO L P,,15.15,15.49,15.39,147181,0.003914,15.35,15.39,33142,15.33,668,0.003914,-0.010018,-0.001501
12871,20150128,9999,CCLP,C S I COMPRESSCO L P,6,13.87,14.93,14.11,165217,-0.051657,14.03,14.13,33142,14.93,1020,-0.083171,-0.014223,-0.012792
12871,20150129,9999,CCLP,C S I COMPRESSCO L P,6,13.9,14.3973,14,133735,-0.007796,14.01,14.04,33142,14.21,636,-0.007796,0.008368,0.006129
12871,20150130,9999,CCLP,C S I COMPRESSCO L P,6,14,14.4,14.25,103231,0.017857,14.18,14.3,33142,14,625,0.017857,-0.012196,-0.009683
12871,20150202,9999,CCLP,C S I COMPRESSCO L P,6,13.81,14.83,13.95,202421,-0.021053,13.95,14.04,33142,14.45,1505,-0.021053,0.01218,0.008705
12871,20150203,9999,CCLP,C S I COMPRESSCO L P,,14.19,15.39,14.44,362496,0.035125,14.4,14.55,33142,14.22,1290,0.035125,0.014975,0.015398
12871,20150204,9999,CCLP,C S I COMPRESSCO L P,,13.8809,15.2,15.14,164834,0.048477,15.01,15.14,33142,14.41,1006,0.048477,-0.004697,-0.004626
12871,20150205,9999,CCLP,C S I COMPRESSCO L P,,15,15.98,15.64,157888,0.033025,15.62,15.67,33142,15.44,886,0.033025,0.011235,0.011554
12871,20150206,9999,CCLP,C S I COMPRESSCO L P,6,15.65,16.16,15.98,119556,0.021739,15.98,16.06,33142,15.99,737,0.021739,-0.003783,-0.002919
12871,20150209,9999,CCLP,C S I COMPRESSCO L P,6,15.97,17.17,16.12,180874,0.008761,16.06,16.12,33142,16,903,0.008761,-0.004135,-0.002006
12871,20150210,9999,CCLP,C S I COMPRESSCO L P,,15.42,16.49,15.71,117379,-0.025434,15.71,15.76,33142,16.49,823,-0.025434,0.008568,0.002192
12871,20150211,9999,CCLP,C S I COMPRESSCO L P,6,15.32,16.6699,16.31,204085,0.038192,16.31,16.38,33142,15.67,1500,0.038192,-0.000651,-0.001595
12871,20150212,9999,CCLP,C S I COMPRESSCO L P,6,15.75,17.2199,16.17,263368,-0.008584,16.15,16.25,33142,16.47,1511,-0.008584,0.010237,0.009818
12871,20150213,9999,CCLP,C S I COMPRESSCO L P,,16,17.2299,16.61,121809,0.027211,16.61,16.72,33142,16,917,0.027211,0.004668,0.007091
12871,20150217,9999,CCLP,C S I COMPRESSCO L P,,16.438,17.2,17.13,133147,0.031306,17.18,17.19,33142,16.83,710,0.031306,0.001628,0.002102
12871,20150218,9999,CCLP,C S I COMPRESSCO L P,,16.06,16.6816,16.36,322819,-0.04495,16.33,16.37,33142,16.27,1702,-0.04495,0.000053,0.002042
12871,20150219,9999,CCLP,C S I COMPRESSCO L P,,15.88,16.75,16.42,119672,0.003667,16.38,16.42,33142,16,592,0.003667,-0.001168,0.000384
12871,20150220,9999,CCLP,C S I COMPRESSCO L P,,16.1,16.812,16.66,232485,0.014616,16.57,16.75,33142,16.45,1390,0.014616,0.005622,0.001785
12871,20150223,9999,CCLP,C S I COMPRESSCO L P,,16.01,16.67,16.19,201380,-0.028211,16.19,16.23,33142,16.67,1218,-0.028211,-0.000668,-0.002225
12871,20150224,9999,CCLP,C S I COMPRESSCO L P,,16.0101,16.39,16.24,141621,0.003088,16.22,16.24,33142,16.2,820,0.003088,0.00228,0.003263
12871,20150225,9999,CCLP,C S I COMPRESSCO L P,6,16.11,16.58,16.41,238167,0.010468,16.41,16.51,33142,16.38,1454,0.010468,0.00053,0.003203
12871,20150226,9999,CCLP,C S I COMPRESSCO L P,,16.25,17.53,17.26,294478,0.051798,17.23,17.26,33142,16.52,1772,0.051798,-0.001678,-0.000319
12871,20150227,9999,CCLP,C S I COMPRESSCO L P,,16.86,17.45,17.17,350535,-0.005214,17.17,17.22,33142,17.34,1933,-0.005214,-0.002623,-0.001439
12871,20150302,9999,CCLP,C S I COMPRESSCO L P,,16.2,17.13,16.21,279134,-0.055912,16.22,16.36,33142,17.13,1647,-0.055912,0.0054,0.003375
12871,20150303,9999,CCLP,C S I COMPRESSCO L P,,16.13,16.66,16.37,298747,0.009871,16.37,16.38,33142,16.13,1389,0.009871,-0.004067,-0.003185
12871,20150304,9999,CCLP,C S I COMPRESSCO L P,,16.25,16.93,16.71,121269,0.02077,16.69,16.73,33142,16.35,770,0.02077,-0.003924,-0.002701
12871,20150305,9999,CCLP,C S I COMPRESSCO L P,,16.4,16.93,16.81,204368,0.005984,16.77,16.83,33142,16.72,1248,0.005984,0.001579,0.002391
12871,20150306,9999,CCLP,C S I COMPRESSCO L P,,16.52,16.9172,16.66,105195,-0.008923,16.66,16.77,33142,16.74,685,-0.008923,-0.013952,-0.01093
12871,20150309,9999,CCLP,C S I COMPRESSCO L P,,16.5,17.06,16.7,145646,0.002401,16.68,16.7,33142,16.76,777,0.002401,0.002771,-0.000898
12871,20150310,9999,CCLP,C S I COMPRESSCO L P,,16.5,16.92,16.82,101811,0.007186,16.8,16.83,33142,16.63,729,0.007186,-0.015568,-0.012389
12871,20150311,9999,CCLP,C S I COMPRESSCO L P,,16.6,17.39,17.29,148056,0.027943,17.29,17.33,33142,16.78,993,0.027943,-0.000401,0.001805
12871,20150312,9999,CCLP,C S I COMPRESSCO L P,,16.81,17.39,17.02,135921,-0.015616,17,17.02,33142,17.39,856,-0.015616,0.011762,0.009437
12871,20150313,9999,CCLP,C S I COMPRESSCO L P,6,16.75,17.07,17.03,111026,0.000588,17,17.03,33146,16.89,879,0.000588,-0.005555,-0.004584
12871,20150316,9999,CCLP,C S I COMPRESSCO L P,,16.66,17.12,16.99,81447,-0.002349,16.96,16.99,33146,16.92,490,-0.002349,0.011741,0.002401
12871,20150317,9999,CCLP,C S I COMPRESSCO L P,,16.9,17.65,17.24,189654,0.014715,17.24,17.27,33146,17.21,1250,0.014715,-0.001755,0.000767
12871,20150318,9999,CCLP,C S I COMPRESSCO L P,,17.08,17.63,17.48,98417,0.013921,17.46,17.51,33146,17.2,796,0.013921,0.012034,0.010123
12871,20150319,9999,CCLP,C S I COMPRESSCO L P,,16.99,17.52,17.02,167115,-0.026316,17.02,17.05,33146,17.34,1061,-0.026316,-0.004574,-0.001137
12871,20150320,9999,CCLP,C S I COMPRESSCO L P,6,16.82,17.39,17.38,772979,0.021152,17.38,17.39,33146,17.22,1358,0.021152,0.009306,0.007055
12871,20150323,9999,CCLP,C S I COMPRESSCO L P,,17.27,18.25,18.04,169343,0.037975,17.99,18.04,33146,17.35,993,0.037975,-0.000999,0.003323
12871,20150324,9999,CCLP,C S I COMPRESSCO L P,,18.04,19.06,18.97,172832,0.051552,18.96,18.97,33146,18.06,1111,0.051552,-0.004627,0.00017
12871,20150325,9999,CCLP,C S I COMPRESSCO L P,,18.552,19.175,18.81,144806,-0.008434,18.78,18.83,33146,19.13,1300,-0.008434,-0.014825,-0.013217
12871,20150326,9999,CCLP,C S I COMPRESSCO L P,,18.8,19.26,19,156629,0.010101,18.97,19,33146,19.02,1104,0.010101,-0.002274,-0.002255
12871,20150327,9999,CCLP,C S I COMPRESSCO L P,,18.8011,19.19,18.96,145734,-0.002105,18.89,18.94,33146,19.03,1077,-0.002105,0.002235,0.002004
12871,20150330,9999,CCLP,C S I COMPRESSCO L P,,18.7801,19.28,19.21,127405,0.013186,19.18,19.22,33146,19.05,970,0.013186,0.011439,0.006734
12871,20150331,9999,CCLP,C S I COMPRESSCO L P,6,18.75,19.3999,19.24,52343,0.001562,19.22,19.24,33152,19.04,360,0.001562,-0.007193,-0.003589
12871,20150401,9999,CCLP,C S I COMPRESSCO L P,,18.8198,19.66,19.66,104029,0.02183,19.57,19.67,33152,19.12,615,0.02183,-0.002794,0.000877
12871,20150402,9999,CCLP,C S I COMPRESSCO L P,6,18.86,20.102,19.33,201990,-0.016785,19.25,19.32,33152,19.66,1494,-0.016785,0.003922,0.004673
12871,20150406,9999,CCLP,C S I COMPRESSCO L P,,19.66,20.7,20.38,200276,0.05432,20.4,20.5,33152,19.66,1361,0.05432,0.006562,0.006024
12871,20150407,9999,CCLP,C S I COMPRESSCO L P,,20.32,20.72,20.45,110448,0.003435,20.43,20.45,33152,20.32,648,0.003435,-0.002155,0.000103
12871,20150408,9999,CCLP,C S I COMPRESSCO L P,,20.36,20.66,20.55,49205,0.00489,20.5,20.55,33152,20.5,299,0.00489,0.003343,0.004481
12871,20150409,9999,CCLP,C S I COMPRESSCO L P,,20.36,21.0799,20.97,83251,0.020438,20.94,20.97,33152,20.54,359,0.020438,0.003329,0.001242
12871,20150410,9999,CCLP,C S I COMPRESSCO L P,,20.46,21.1199,20.73,137877,-0.011445,20.73,20.83,33152,21,921,-0.011445,0.004595,0.003472
12871,20150413,9999,CCLP,C S I COMPRESSCO L P,,20.52,21,20.8,128350,0.003377,20.8,20.85,33152,21,856,0.003377,-0.003808,-0.000543
12871,20150414,9999,CCLP,C S I COMPRESSCO L P,,20.72,21.09,20.84,80010,0.001923,20.8,20.83,33152,20.85,594,0.001923,0.001868,0.003079
12871,20150415,9999,CCLP,C S I COMPRESSCO L P,,20.78,21.09,20.97,124599,0.006238,20.97,20.99,33152,20.83,946,0.006238,0.006164,0.007962
12871,20150416,9999,CCLP,C S I COMPRESSCO L P,,20.51,20.91,20.68,75840,-0.013829,20.66,20.71,33152,20.88,490,-0.013829,-0.000431,0.000381
12871,20150417,9999,CCLP,C S I COMPRESSCO L P,,20.45,20.71,20.66,90910,-0.000967,20.55,20.66,33152,20.58,541,-0.000967,-0.011303,-0.010519
12871,20150420,9999,CCLP,C S I COMPRESSCO L P,,20.58,20.8299,20.73,47643,0.003388,20.58,20.62,33152,20.75,312,0.003388,0.008049,0.005584
12871,20150421,9999,CCLP,C S I COMPRESSCO L P,,20.35,20.82,20.49,72864,-0.011577,20.49,20.53,33152,20.8,566,-0.011577,-0.00105,-0.000298
12871,20150422,9999,CCLP,C S I COMPRESSCO L P,,20.45,20.9,20.6965,79090,0.010078,20.66,20.76,33152,20.47,549,0.010078,0.004084,0.001907
12871,20150423,9999,CCLP,C S I COMPRESSCO L P,,20.65,20.99,20.91,72925,0.010316,20.77,20.91,33152,20.9,471,0.010316,0.003464,0.005459
12871,20150424,9999,CCLP,C S I COMPRESSCO L P,,20.7801,21.0819,21,72939,0.004304,20.99,21,33152,20.7801,360,0.004304,0.001159,-0.000635
12871,20150427,9999,CCLP,C S I COMPRESSCO L P,,21.01,21.7999,21.4,204657,0.019048,21.36,21.4,33152,21.01,965,0.019048,-0.004796,-0.006122
12871,20150428,9999,CCLP,C S I COMPRESSCO L P,,21.25,21.9,21.32,100036,-0.003738,21.3,21.38,33152,21.52,551,-0.003738,0.002337,0.002906
12871,20150429,9999,CCLP,C S I COMPRESSCO L P,6,19.55,21,20.78,216706,-0.002111,20.72,20.75,33152,19.9,1087,-0.025328,-0.004011,-0.005035
12871,20150430,9999,CCLP,C S I COMPRESSCO L P,,20.392,21.28,21.2,53375,0.020212,21.18,21.22,33152,21,348,0.020212,-0.010776,-0.011785
12871,20150501,9999,CCLP,C S I COMPRESSCO L P,,21.2,21.83,21.35,115539,0.007075,21.31,21.35,33152,21.42,773,0.007075,0.009243,0.004622
12871,20150504,9999,CCLP,C S I COMPRESSCO L P,,21.13,22.15,21.48,750520,0.006089,21.53,21.8,33152,21.35,1786,0.006089,0.002958,0.003435
12871,20150505,9999,CCLP,C S I COMPRESSCO L P,,21.4,21.9,21.76,80375,0.013035,21.73,21.77,33152,21.88,576,0.013035,-0.01164,-0.009871
12871,20150506,9999,CCLP,C S I COMPRESSCO L P,,20.67,21.94,21.37,102326,-0.017923,21.29,21.38,33152,21.82,772,-0.017923,-0.003674,-0.002558
12871,20150507,9999,CCLP,C S I COMPRESSCO L P,6,16.11,21,20.18,520019,-0.055686,19.35,20.04,33152,18.01,2883,-0.055686,0.003143,0.000595
12871,20150508,9999,CCLP,C S I COMPRESSCO L P,6,19,20.68,19.48,180797,-0.034688,19.47,19.71,33152,20.11,1088,-0.034688,0.01206,0.008196
12871,20150511,9999,CCLP,C S I COMPRESSCO L P,6,19.1,21.2,20.48,129862,0.051335,20.4,20.49,33152,19.38,869,0.051335,-0.004176,-0.000986
12871,20150512,9999,CCLP,C S I COMPRESSCO L P,,20.12,20.77,20.73,63982,0.012207,20.57,20.74,33152,20.12,564,0.012207,-0.002289,-0.001313
12871,20150513,9999,CCLP,C S I COMPRESSCO L P,,20.01,20.81,20.18,77465,-0.026532,20.17,20.24,33152,20.81,716,-0.026532,-0.000026,0.00074
12871,20150514,9999,CCLP,C S I COMPRESSCO L P,,20.02,20.82,20.11,86268,-0.003469,20.07,20.11,33152,20.36,859,-0.003469,0.009622,0.006228
12871,20150515,9999,CCLP,C S I COMPRESSCO L P,,19.89,20.64,20.34,91907,0.011437,20.28,20.39,33152,19.94,876,0.011437,0.000979,0.001759
12871,20150518,9999,CCLP,C S I COMPRESSCO L P,,20.02,20.74,20.3,104709,-0.001967,20.21,20.33,33152,20.72,862,-0.001967,0.003279,0.003104
12871,20150519,9999,CCLP,C S I COMPRESSCO L P,6,19.82,20.62,19.82,108013,-0.023645,19.81,19.91,33152,20.62,840,-0.023645,-0.001503,-0.003923
12871,20150520,9999,CCLP,C S I COMPRESSCO L P,,19.27,20.46,19.48,82021,-0.017154,19.41,19.48,33152,19.66,833,-0.017154,-0.000414,0.001219
12871,20150521,9999,CCLP,C S I COMPRESSCO L P,,19.45,19.98,19.9701,55901,0.025159,19.97,19.98,33152,19.71,468,0.025159,0.00238,0.000834
12871,20150522,9999,CCLP,C S I COMPRESSCO L P,,20.02,20.6,20.35,71119,0.019023,20.26,20.34,33152,20.2,568,0.019023,-0.002262,-0.001829
12871,20150526,9999,CCLP,C S I COMPRESSCO L P,,19.74,20.42,19.94,76561,-0.020147,19.89,19.95,33152,20.19,548,-0.020147,-0.010473,-0.009358
12871,20150527,9999,CCLP,C S I COMPRESSCO L P,,19.75,20.42,20.36,76333,0.021063,20.24,20.36,33152,20.03,769,0.021063,0.008488,0.00611
12871,20150528,9999,CCLP,C S I COMPRESSCO L P,,19.32,20.49,20.01,146300,-0.017191,19.87,20.01,33152,20.25,923,-0.017191,-0.001344,-0.001138
12871,20150529,9999,CCLP,C S I COMPRESSCO L P,,19.39,20.01,19.9,102768,-0.005497,19.79,19.9,33152,19.87,785,-0.005497,-0.005829,-0.002798
12871,20150601,9999,CCLP,C S I COMPRESSCO L P,,18.831,20.04,19.85,157030,-0.002513,19.84,19.92,33152,20.04,972,-0.002513,0.001436,0.000206
12871,20150602,9999,CCLP,C S I COMPRESSCO L P,,19.66,20.0995,19.71,50460,-0.007053,19.7,19.74,33152,19.92,475,-0.007053,0.000331,0.004325
12871,20150603,9999,CCLP,C S I COMPRESSCO L P,,19.37,19.9799,19.38,86194,-0.016743,19.36,19.53,33152,19.91,882,-0.016743,0.0025,0.004434
12871,20150604,9999,CCLP,C S I COMPRESSCO L P,,19.29,20.35,19.31,155419,-0.003612,19.3,19.44,33152,19.49,1277,-0.003612,-0.0089,-0.007463
12871,20150605,9999,CCLP,C S I COMPRESSCO L P,,18.9846,19.55,19.15,78616,-0.008286,19.04,19.13,33152,19.31,662,-0.008286,-0.000058,0.002851
12871,20150608,9999,CCLP,C S I COMPRESSCO L P,,18.531,19.43,18.66,77759,-0.025587,18.62,18.69,33152,19.14,526,-0.025587,-0.006658,-0.003786
12871,20150609,9999,CCLP,C S I COMPRESSCO L P,6,18.51,19.2732,18.78,85163,0.006431,18.78,18.81,33152,18.62,655,0.006431,-0.00007,-0.002574
12871,20150610,9999,CCLP,C S I COMPRESSCO L P,,18.83,19.36,19.21,107278,0.022897,19.18,19.23,33152,18.85,994,0.022897,0.011451,0.009125
12871,20150611,9999,CCLP,C S I COMPRESSCO L P,,19,19.46,19.39,106290,0.00937,19.34,19.4,33152,19.1,957,0.00937,0.001616,0.000629
12871,20150612,9999,CCLP,C S I COMPRESSCO L P,,18.73,19.49,19.45,101589,0.003094,19.43,19.45,33152,19.41,701,0.003094,-0.006237,-0.002059
12871,20150615,9999,CCLP,C S I COMPRESSCO L P,,18.95,19.6767,19.4,91105,-0.002571,19.27,19.41,33152,19.46,746,-0.002571,-0.004065,-0.002227
12871,20150616,9999,CCLP,C S I COMPRESSCO L P,,18.8,19.88,19.33,203255,-0.003608,19.32,19.49,33152,19.39,1084,-0.003608,0.004931,0.002353
12871,20150617,9999,CCLP,C S I COMPRESSCO L P,,19,19.72,19.11,74891,-0.011381,19.1,19.19,33152,19.49,558,-0.011381,0.001702,0.000338
12871,20150618,9999,CCLP,C S I COMPRESSCO L P,,18.56,19.27,19.14,58737,0.00157,19.07,19.14,33152,19.27,440,0.00157,0.009167,0.00628
12871,20150619,9999,CCLP,C S I COMPRESSCO L P,,18,18.99,18,140479,-0.059561,18.03,18.11,33152,18.98,722,-0.059561,-0.00494,-0.003393
12871,20150622,9999,CCLP,C S I COMPRESSCO L P,,17.53,18.406,18.12,72101,0.006667,18.05,18.12,33152,18.14,412,0.006667,0.0058,0.004916
12871,20150623,9999,CCLP,C S I COMPRESSCO L P,,17.75,18.1,17.88,36282,-0.013245,17.89,17.9,33152,17.99,160,-0.013245,0.001227,0.002598
12871,20150624,9999,CCLP,C S I COMPRESSCO L P,,17.792,18.5337,18.5,92954,0.034676,18.41,18.5,33152,17.88,464,0.034676,-0.007508,-0.006784
12871,20150625,9999,CCLP,C S I COMPRESSCO L P,,18.2101,18.58,18.4,39295,-0.005405,18.4,18.45,33152,18.58,199,-0.005405,-0.002797,-0.002993
12871,20150626,9999,CCLP,C S I COMPRESSCO L P,,18.37,18.78,18.63,49155,0.0125,18.6,18.63,33152,18.37,275,0.0125,-0.001126,-0.004509
12871,20150629,9999,CCLP,C S I COMPRESSCO L P,,18.18,18.79,18.38,52759,-0.013419,18.31,18.38,33152,18.59,264,-0.013419,-0.021567,-0.020755
12871,20150630,9999,CCLP,C S I COMPRESSCO L P,6,17.85,18.5199,17.87,52332,-0.027747,17.85,17.87,33183,18.45,345,-0.027747,0.002921,0.003973
12871,20150701,9999,CCLP,C S I COMPRESSCO L P,,17.12,17.99,17.82,89748,-0.002798,17.75,17.83,33183,17.93,631,-0.002798,0.005279,-0.000296
12871,20150702,9999,CCLP,C S I COMPRESSCO L P,,17.2,17.87,17.35,50158,-0.026375,17.3,17.41,33183,17.78,342,-0.026375,-0.000606,-0.002142
12871,20150706,9999,CCLP,C S I COMPRESSCO L P,,16.7203,17.31,16.88,83681,-0.027089,16.81,16.89,33183,17.22,462,-0.027089,-0.004543,-0.006938
12871,20150707,9999,CCLP,C S I COMPRESSCO L P,,15.94,16.85,16.53,163258,-0.020735,16.42,16.52,33183,16.76,556,-0.020735,0.004951,-0.002208
12871,20150708,9999,CCLP,C S I COMPRESSCO L P,,16.0423,17,16.43,89673,-0.00605,16.42,16.5,33183,16.42,467,-0.00605,-0.016708,-0.016788
12871,20150709,9999,CCLP,C S I COMPRESSCO L P,,16.3801,17.25,16.93,81345,0.030432,16.83,16.96,33183,16.6,495,0.030432,0.002727,0.006726
12871,20150710,9999,CCLP,C S I COMPRESSCO L P,,16.22,17.11,16.81,142604,-0.007088,16.52,16.86,33183,17.08,1101,-0.007088,0.012663,0.011912
12871,20150713,9999,CCLP,C S I COMPRESSCO L P,,16.5612,17.04,16.69,86221,-0.007139,16.59,16.69,33183,16.82,470,-0.007139,0.010155,0.007709
12871,20150714,9999,CCLP,C S I COMPRESSCO L P,,16.56,17.15,16.98,95431,0.017376,16.97,16.99,33183,16.56,514,0.017376,0.004709,0.004533
12871,20150715,9999,CCLP,C S I COMPRESSCO L P,,16.5687,17.2,16.57,74105,-0.024146,16.56,16.63,33183,17.06,475,-0.024146,-0.002503,-0.006679
12871,20150716,9999,CCLP,C S I COMPRESSCO L P,,16.1,16.55,16.32,103626,-0.015088,16.31,16.4,33183,16.55,676,-0.015088,0.006943,0.004293
12871,20150717,9999,CCLP,C S I COMPRESSCO L P,,16.07,16.68,16.22,106136,-0.006127,16.14,16.29,33183,16.36,657,-0.006127,-0.000624,-0.004248
12871,20150720,9999,CCLP,C S I COMPRESSCO L P,,15.9,16.93,16.03,265634,-0.011714,16.02,16.03,33183,16.43,1270,-0.011714,-0.001238,-0.009293
12871,20150721,9999,CCLP,C S I COMPRESSCO L P,,15.76,16.53,16.23,103507,0.012477,16.22,16.31,33183,16.17,617,0.012477,-0.004087,-0.001793
12871,20150722,9999,CCLP,C S I COMPRESSCO L P,,15.25,16.25,15.25,123547,-0.060382,15.25,15.26,33183,16.25,527,-0.060382,-0.00246,-0.003145
12871,20150723,9999,CCLP,C S I COMPRESSCO L P,,15.0318,15.8299,15.2698,79609,0.001298,15.25,15.27,33183,15.46,368,0.001298,-0.005542,-0.006071
12871,20150724,9999,CCLP,C S I COMPRESSCO L P,,15.01,15.53,15.1,57907,-0.01112,15.1,15.16,33183,15.53,337,-0.01112,-0.010023,-0.010394
12871,20150727,9999,CCLP,C S I COMPRESSCO L P,,13.77,15.23,15.1,159346,0,15.02,15.17,33183,15,581,0,-0.007087,-0.009795
12871,20150728,9999,CCLP,C S I COMPRESSCO L P,,14.91,15.49,15.35,166026,0.016556,15.35,15.36,33183,15.3,861,0.016556,0.012242,0.007956
12871,20150729,9999,CCLP,C S I COMPRESSCO L P,6,14.763,15.4849,15.4,98959,0.035831,15.33,15.4,33183,14.92,632,0.003257,0.007407,0.006544
12871,20150730,9999,CCLP,C S I COMPRESSCO L P,,15.19,15.98,15.98,125742,0.037662,15.85,16.25,33183,15.45,831,0.037662,0.000675,-0.000661
12871,20150731,9999,CCLP,C S I COMPRESSCO L P,,15.05,17.2781,15.23,98531,-0.046934,15.23,15.34,33183,15.98,689,-0.046934,-0.000784,0.002531
12871,20150803,9999,CCLP,C S I COMPRESSCO L P,,14.31,15.5,14.4,150068,-0.054498,14.32,14.4,33183,15.19,1088,-0.054498,-0.003715,-0.006975
12871,20150804,9999,CCLP,C S I COMPRESSCO L P,,13.77,15.12,14.19,592709,-0.014583,14.21,14.27,33183,14.66,1446,-0.014583,-0.001797,-0.001046
12871,20150805,9999,CCLP,C S I COMPRESSCO L P,,13.51,14.83,13.55,116031,-0.045102,13.51,13.62,33183,14.3,879,-0.045102,0.002227,-0.000574
12871,20150806,9999,CCLP,C S I COMPRESSCO L P,,12.85,14.19,14.14,119847,0.043542,13.92,14.17,33183,12.85,639,0.043542,-0.008056,-0.006213
12871,20150807,9999,CCLP,C S I COMPRESSCO L P,6,13.85,15.13,14.24,82169,0.007072,14.19,14.25,33183,15.13,348,0.007072,-0.003317,-0.004524
12871,20150810,9999,CCLP,C S I COMPRESSCO L P,,14.05,15.6379,15.31,120618,0.07514,15.33,15.39,33183,14.05,720,0.07514,0.013109,0.012852
12871,20150811,9999,CCLP,C S I COMPRESSCO L P,,14.8186,15.49,15.35,53878,0.002613,15.35,15.39,33183,15.22,333,0.002613,-0.009395,-0.008392
12871,20150812,9999,CCLP,C S I COMPRESSCO L P,,15.1714,16,15.74,88625,0.025407,15.6,15.75,33183,15.45,610,0.025407,0.000492,0.00091
12871,20150813,9999,CCLP,C S I COMPRESSCO L P,,14.84,15.7,15.5,89876,-0.015248,15.45,15.49,33183,15.7,518,-0.015248,-0.002191,-0.003651
12871,20150814,9999,CCLP,C S I COMPRESSCO L P,,14.94,15.7,15.11,93179,-0.025161,15.11,15.27,33183,15.63,505,-0.025161,0.003761,0.002637
12871,20150817,9999,CCLP,C S I COMPRESSCO L P,,14.72,15.378,14.85,45314,-0.017207,14.85,14.94,33183,15.24,253,-0.017207,0.0056,0.003738
12871,20150818,9999,CCLP,C S I COMPRESSCO L P,,14.5501,15.13,14.67,87560,-0.012121,14.56,14.68,33183,14.77,683,-0.012121,-0.003644,-0.005782
12871,20150819,9999,CCLP,C S I COMPRESSCO L P,,13.6148,15.34,15.05,160564,0.025903,14.98,15.05,33183,14.54,760,0.025903,-0.008867,-0.008046
12871,20150820,9999,CCLP,C S I COMPRESSCO L P,,14.35,15.07,14.52,55732,-0.035216,14.4,14.51,33183,14.99,334,-0.035216,-0.02167,-0.01884
12871,20150821,9999,CCLP,C S I COMPRESSCO L P,,13.52,14.78,13.77,83347,-0.051653,13.65,13.78,33183,14.26,434,-0.051653,-0.028138,-0.015864
12871,20150824,9999,CCLP,C S I COMPRESSCO L P,6,11.6,13.73,13.2299,183302,-0.039223,13.05,13.23,33183,12.35,925,-0.039223,-0.038597,-0.035163
12871,20150825,9999,CCLP,C S I COMPRESSCO L P,6,13.02,14.12,13.46,192658,0.017392,13.43,13.7,33183,13.26,965,0.017392,-0.010306,-0.000305
12871,20150826,9999,CCLP,C S I COMPRESSCO L P,,12.77,13.82,13.67,79162,0.015602,13.53,13.7,33183,13.6,505,0.015602,0.033717,0.015935
12871,20150827,9999,CCLP,C S I COMPRESSCO L P,,13.41,14.75,14.25,71859,0.042429,14.25,14.37,33183,13.77,302,0.042429,0.024276,0.023301
12871,20150828,9999,CCLP,C S I COMPRESSCO L P,,14.12,15.51,15.38,67134,0.079298,15.26,15.38,33183,14.26,439,0.079298,0.002439,0.009535
12871,20150831,9999,CCLP,C S I COMPRESSCO L P,,14.85,15.47,15.33,84691,-0.003251,15.33,15.4,33183,15.19,530,-0.003251,-0.007337,0.001183
12871,20150901,9999,CCLP,C S I COMPRESSCO L P,,14.087,15.17,14.22,85505,-0.072407,14.12,14.26,33183,15.14,492,-0.072407,-0.028234,-0.020407
12871,20150902,9999,CCLP,C S I COMPRESSCO L P,,14,14.9277,14.34,71693,0.008439,14.18,14.36,33183,14.3,544,0.008439,0.016215,0.008571
12871,20150903,9999,CCLP,C S I COMPRESSCO L P,,13.83,14.54,14.51,87057,0.011855,14.13,14.51,33183,14.33,374,0.011855,0.001803,0.002018
12871,20150904,9999,CCLP,C S I COMPRESSCO L P,,13.25,14.24,13.62,128746,-0.061337,13.6,13.65,33183,14.24,882,-0.061337,-0.013815,-0.007399
12871,20150908,9999,CCLP,C S I COMPRESSCO L P,,13.0601,14.08,13.97,73890,0.025698,13.84,13.98,33183,13.65,405,0.025698,0.023572,0.015891
12871,20150909,9999,CCLP,C S I COMPRESSCO L P,,13.28,14.09,13.46,42431,-0.036507,13.37,13.83,33183,14.09,268,-0.036507,-0.012871,-0.008108
12871,20150910,9999,CCLP,C S I COMPRESSCO L P,,12.86,13.45,12.97,59815,-0.036404,12.97,13.09,33183,13.45,320,-0.036404,0.004323,0.002606
12871,20150911,9999,CCLP,C S I COMPRESSCO L P,,11.94,12.97,12.43,98463,-0.041635,12.42,12.56,33183,12.89,560,-0.041635,0.003131,0.000047
12871,20150914,9999,CCLP,C S I COMPRESSCO L P,,11.883,12.53,11.92,79192,-0.04103,11.92,11.99,33183,12.52,330,-0.04103,-0.004282,-0.004846
12871,20150915,9999,CCLP,C S I COMPRESSCO L P,,11.83,12.89,12.64,153898,0.060403,12.64,12.75,33183,11.88,698,0.060403,0.011414,0.007139
12871,20150916,9999,CCLP,C S I COMPRESSCO L P,,12.55,13.11,12.64,25277,0,12.64,12.68,33183,12.79,256,0,0.009488,0.010065
12871,20150917,9999,CCLP,C S I COMPRESSCO L P,,12.1601,13.67,13.08,123744,0.03481,13.08,13.49,33183,12.55,745,0.03481,-0.00081,0.003864
12871,20150918,9999,CCLP,C S I COMPRESSCO L P,,12.81,13.355,13.19,50888,0.00841,13.19,13.24,33183,12.81,372,0.00841,-0.015461,-0.005472
12871,20150921,9999,CCLP,C S I COMPRESSCO L P,,12.4,13.4199,13.16,56681,-0.002274,13.1,13.16,33183,13.14,332,-0.002274,0.003237,-0.002935
12871,20150922,9999,CCLP,C S I COMPRESSCO L P,,12.33,12.94,12.46,46557,-0.053191,12.46,12.53,33183,12.91,334,-0.053191,-0.013644,-0.013961
12871,20150923,9999,CCLP,C S I COMPRESSCO L P,,11.97,13.41,12.13,56197,-0.026485,12.02,12.14,33183,12.5,322,-0.026485,-0.003591,-0.005949
12871,20150924,9999,CCLP,C S I COMPRESSCO L P,,11.8614,12.55,12.18,46688,0.004122,12.17,12.24,33183,11.98,279,0.004122,-0.003714,-0.002104
12871,20150925,9999,CCLP,C S I COMPRESSCO L P,,11.98,13.21,12.79,81928,0.050082,12.8,12.91,33183,12.16,456,0.050082,-0.00224,-0.009782
12871,20150928,9999,CCLP,C S I COMPRESSCO L P,,12.32,12.85,12.74,64263,-0.003909,12.62,12.78,33183,12.85,479,-0.003909,-0.027359,-0.02624
12871,20150929,9999,CCLP,C S I COMPRESSCO L P,,12.12,13.05,12.16,80066,-0.045526,12.16,12.33,33183,12.71,588,-0.045526,-0.000955,-0.006711
12871,20150930,9999,CCLP,C S I COMPRESSCO L P,6,11.69,12.7555,12.51,183657,0.028783,12.6,12.7,33186,12.34,955,0.028783,0.019378,0.014106
12871,20151001,9999,CCLP,C S I COMPRESSCO L P,,12.38,13.24,13.23,77806,0.057554,13.07,13.23,33186,12.69,546,0.057554,0.001861,-0.001856
12871,20151002,9999,CCLP,C S I COMPRESSCO L P,,12.7,13.29,12.82,75304,-0.03099,12.75,12.86,33186,13.02,466,-0.03099,0.015079,0.016137
12871,20151005,9999,CCLP,C S I COMPRESSCO L P,,12.41,13.1799,12.88,81167,0.00468,12.8,12.88,33186,12.81,478,0.00468,0.018729,0.021282
12871,20151006,9999,CCLP,C S I COMPRESSCO L P,,12.65,13.46,13.45,166446,0.044255,13.3,13.5,33186,12.74,950,0.044255,-0.0031,0.002228
12871,20151007,9999,CCLP,C S I COMPRESSCO L P,,13.45,15.27,14.51,160344,0.07881,14.5,14.68,33186,13.55,944,0.07881,0.009508,0.011747
12871,20151008,9999,CCLP,C S I COMPRESSCO L P,6,13.66,14.72,14.46,114840,-0.003446,14.19,14.44,33186,14.39,705,-0.003446,0.008501,0.009199
12871,20151009,9999,CCLP,C S I COMPRESSCO L P,,13.9701,14.68,14.47,68202,0.000692,14.19,14.47,33186,14.43,585,0.000692,0.001408,0.003558
12871,20151012,9999,CCLP,C S I COMPRESSCO L P,,13.69,14.9,13.96,93028,-0.035245,13.75,13.89,33186,14.3,786,-0.035245,-0.000223,-0.002943
12871,20151013,9999,CCLP,C S I COMPRESSCO L P,,13.25,14.3,14.01,111053,0.003582,13.98,14.17,33186,13.79,797,0.003582,-0.007884,-0.009306
12871,20151014,9999,CCLP,C S I COMPRESSCO L P,,13.87,14.52,14.15,305154,0.009993,14,14.38,33186,14.07,1029,0.009993,-0.004342,-0.003109
12871,20151015,9999,CCLP,C S I COMPRESSCO L P,,13.9,14.7,14.05,71715,-0.007067,14,14.14,33186,14.13,631,-0.007067,0.014665,0.015878
12871,20151016,9999,CCLP,C S I COMPRESSCO L P,,13.96,14.895,14.44,145407,0.027758,14.21,14.43,33186,14.12,893,0.027758,0.003393,-0.000462
12871,20151019,9999,CCLP,C S I COMPRESSCO L P,,14.0025,14.5,14.06,61794,-0.026316,14.06,14.1,33186,14.25,434,-0.026316,-0.000687,-0.002584
12871,20151020,9999,CCLP,C S I COMPRESSCO L P,,14.12,14.97,14.35,137102,0.020626,14.25,14.33,33186,14.12,841,0.020626,-0.001193,0.000571
12871,20151021,9999,CCLP,C S I COMPRESSCO L P,,14.1129,14.83,14.25,144138,-0.006969,14.11,14.26,33186,14.21,537,-0.006969,-0.008124,-0.010995
12871,20151022,9999,CCLP,C S I COMPRESSCO L P,,14.25,14.51,14.35,57109,0.007018,14.35,14.37,33186,14.28,276,0.007018,0.013886,0.006532
12871,20151023,9999,CCLP,C S I COMPRESSCO L P,,14.1,14.52,14.21,77952,-0.009756,14.15,14.26,33186,14.35,295,-0.009756,0.009494,0.005913
12871,20151026,9999,CCLP,C S I COMPRESSCO L P,,14.2,14.43,14.43,61743,0.015482,14.37,14.43,33186,14.2,320,0.015482,-0.002832,-0.005896
12871,20151027,9999,CCLP,C S I COMPRESSCO L P,,13.9,14.57,14.42,104245,-0.000693,14.42,14.46,33186,14.45,531,-0.000693,-0.00449,-0.010881
12871,20151028,9999,CCLP,C S I COMPRESSCO L P,6,13.36,14.29,14.15,90909,0.016123,14.15,14.16,33186,13.85,481,-0.018724,0.013501,0.016439
12871,20151029,9999,CCLP,C S I COMPRESSCO L P,,14.01,14.48,14.33,89720,0.012721,14.32,14.42,33186,14.01,316,0.012721,-0.002362,-0.005813
12871,20151030,9999,CCLP,C S I COMPRESSCO L P,,13.92,14.55,14.21,136979,-0.008374,14.33,14.85,33186,14.33,946,-0.008374,-0.00402,-0.001265
12871,20151102,9999,CCLP,C S I COMPRESSCO L P,,14.1501,14.56,14.4,94310,0.013371,14.34,14.47,33186,14.56,304,0.013371,0.012413,0.015111
12871,20151103,9999,CCLP,C S I COMPRESSCO L P,,14.06,14.7488,14.7,38304,0.020833,14.56,14.68,33186,14.44,193,0.020833,0.003057,0.005924
12871,20151104,9999,CCLP,C S I COMPRESSCO L P,,14.32,14.735,14.5,88545,-0.013605,14.29,14.59,33186,14.63,510,-0.013605,-0.003677,-0.002343
12871,20151105,9999,CCLP,C S I COMPRESSCO L P,,14.04,14.44,14.35,75238,-0.010345,14.02,14.35,33186,14.31,368,-0.010345,-0.001566,-0.003333
12871,20151106,9999,CCLP,C S I COMPRESSCO L P,,14.02,14.55,14.12,85040,-0.016028,14.04,14.12,33186,14.2,577,-0.016028,-0.000491,0.000517
12871,20151109,9999,CCLP,C S I COMPRESSCO L P,,14,14.31,14.17,102257,0.003541,14.04,14.12,33186,14,330,0.003541,-0.009776,-0.009183
12871,20151110,9999,CCLP,C S I COMPRESSCO L P,6,14,14.54,14.5,87158,0.023289,14.41,14.5,33186,14,280,0.023289,0.001073,-0.002715
12871,20151111,9999,CCLP,C S I COMPRESSCO L P,,14.12,14.61,14.41,57532,-0.006207,14.41,14.48,33186,14.36,350,-0.006207,-0.004133,-0.006487
12871,20151112,9999,CCLP,C S I COMPRESSCO L P,,14.06,14.53,14.22,93211,-0.013185,14.19,14.22,33186,14.19,599,-0.013185,-0.014706,-0.013714
12871,20151113,9999,CCLP,C S I COMPRESSCO L P,,14.05,14.69,14.27,53194,0.003516,14.14,14.26,33186,14.3,388,0.003516,-0.009789,-0.005667
12871,20151116,9999,CCLP,C S I COMPRESSCO L P,,14.04,14.6084,14.19,141791,-0.005606,14.21,14.28,33186,14.44,587,-0.005606,0.013613,0.006234
12871,20151117,9999,CCLP,C S I COMPRESSCO L P,,14,14.5,14.5,126741,0.021846,14.25,14.32,33186,14.05,673,0.021846,-0.001526,-0.004381
12871,20151118,9999,CCLP,C S I COMPRESSCO L P,,14.16,14.62,14.47,71504,-0.002069,14.35,14.45,33186,14.17,453,-0.002069,0.015198,0.009419
12871,20151119,9999,CCLP,C S I COMPRESSCO L P,,14.07,14.41,14.11,53651,-0.024879,14.11,14.17,33186,14.39,393,-0.024879,-0.001038,-0.000878
12871,20151120,9999,CCLP,C S I COMPRESSCO L P,,13.5521,14.3785,13.67,123594,-0.031184,13.55,13.67,33186,14.19,484,-0.031184,0.002894,0.002415
12871,20151123,9999,CCLP,C S I COMPRESSCO L P,,13.14,13.95,13.41,78562,-0.01902,13.35,13.41,33186,13.67,356,-0.01902,-0.000717,0.002138
12871,20151124,9999,CCLP,C S I COMPRESSCO L P,,13.3415,13.95,13.73,101258,0.023863,13.48,13.74,33186,13.48,717,0.023863,0.002332,0.005581
12871,20151125,9999,CCLP,C S I COMPRESSCO L P,,13.36,13.69,13.58,49515,-0.010925,13.45,13.58,33186,13.52,356,-0.010925,0.001052,0.004919
12871,20151127,9999,CCLP,C S I COMPRESSCO L P,,13.55,13.955,13.57,13432,-0.000736,13.55,13.73,33186,13.55,151,-0.000736,0.000595,0.002004
12871,20151130,9999,CCLP,C S I COMPRESSCO L P,,13.4527,14.1832,14,64921,0.031688,14,14.06,33186,13.57,346,0.031688,-0.003962,-0.000319
12871,20151201,9999,CCLP,C S I COMPRESSCO L P,,13.67,14.2726,14,84795,0,13.9,14.07,33186,13.89,426,0,0.009426,0.006104
12871,20151202,9999,CCLP,C S I COMPRESSCO L P,,13.32,13.87,13.58,131887,-0.03,13.55,13.59,33186,13.83,614,-0.03,-0.010922,-0.00954
12871,20151203,9999,CCLP,C S I COMPRESSCO L P,,13.5,14.2,13.85,154548,0.019882,13.7,13.8,33186,13.58,827,0.019882,-0.014352,-0.010795
12871,20151204,9999,CCLP,C S I COMPRESSCO L P,6,13.5,14.21,13.54,223237,-0.022383,13.58,13.65,33186,13.74,925,-0.022383,0.016432,0.00404
12871,20151207,9999,CCLP,C S I COMPRESSCO L P,6,11.61,13.38,12.85,262737,-0.05096,12.3,12.68,33186,13.27,1420,-0.05096,-0.00984,-0.01644
12871,20151208,9999,CCLP,C S I COMPRESSCO L P,,11.51,12.98,12.3,160389,-0.042802,12.05,12.13,33186,12.32,1002,-0.042802,-0.006194,-0.004669
12871,20151209,9999,CCLP,C S I COMPRESSCO L P,6,12.0744,13.3,12.61,164749,0.025203,12.3,12.73,33186,12.3,1027,0.025203,-0.006675,-0.00448
12871,20151210,9999,CCLP,C S I COMPRESSCO L P,,12.051,13,12.56,82730,-0.003965,12.56,12.59,33186,12.35,588,-0.003965,0.001942,0.002146
12871,20151211,9999,CCLP,C S I COMPRESSCO L P,6,11.94,12.94,12.15,102805,-0.032643,12.15,12.25,33186,12.23,668,-0.032643,-0.020011,-0.019727
12871,20151214,9999,CCLP,C S I COMPRESSCO L P,6,10.71,12.18,11.18,221972,-0.079835,11.1,11.23,33186,12.04,1690,-0.079835,0.001549,-0.009662
12871,20151215,9999,CCLP,C S I COMPRESSCO L P,,10.49,11.52,10.66,139998,-0.046512,10.49,10.67,33186,11.14,1024,-0.046512,0.011283,0.010057
12871,20151216,9999,CCLP,C S I COMPRESSCO L P,6,10.48,11.1,11.09,127505,0.040338,11,11.1,33186,10.61,666,0.040338,0.014802,0.013144
12871,20151217,9999,CCLP,C S I COMPRESSCO L P,6,10.655,11.16,10.85,247415,-0.021641,10.85,10.88,33186,11.16,1259,-0.021641,-0.014729,-0.008276
12871,20151218,9999,CCLP,C S I COMPRESSCO L P,,10.59,11.18,10.63,85768,-0.020277,10.62,10.74,33186,10.85,433,-0.020277,-0.015171,-0.005374
12871,20151221,9999,CCLP,C S I COMPRESSCO L P,,10.32,10.74,10.44,146146,-0.017874,10.43,10.5,33186,10.68,912,-0.017874,0.006872,0.004141
12871,20151222,9999,CCLP,C S I COMPRESSCO L P,,10.1,11.26,10.9,160968,0.044061,10.91,11.06,33186,10.37,1002,0.044061,0.008755,0.007876
12871,20151223,9999,CCLP,C S I COMPRESSCO L P,,10.77,11.74,11.02,114104,0.011009,10.95,11.03,33186,11,782,0.011009,0.013562,0.016175
12871,20151224,9999,CCLP,C S I COMPRESSCO L P,6,10.54,11.21,11.05,85784,0.002722,10.75,11.07,33186,11.07,724,0.002722,-0.000945,0.001552
12871,20151228,9999,CCLP,C S I COMPRESSCO L P,6,10.102,10.97,10.88,144640,-0.015385,10.69,10.88,33186,10.9,778,-0.015385,-0.003343,-0.007581
12871,20151229,9999,CCLP,C S I COMPRESSCO L P,,10.28,11.09,10.56,176762,-0.029412,10.55,10.72,33186,10.79,1277,-0.029412,0.009723,0.005367
12871,20151230,9999,CCLP,C S I COMPRESSCO L P,6,10.31,10.6998,10.65,221006,0.008523,10.54,10.64,33186,10.64,1644,0.008523,-0.007485,-0.006843
12871,20151231,9999,CCLP,C S I COMPRESSCO L P,6,10.44,11.615,11.4,190157,0.070423,11.31,11.4,33186,10.46,1119,0.070423,-0.008217,-0.002051
