PERMNO,date,SICCD,TICKER,COMNAM,NMSIND,BIDLO,ASKHI,PRC,VOL,RET,BID,ASK,SHROUT,OPENPRC,NUMTRD,RETX,vwretx,ewretx
12752,20110526,6726,CVRT,POWERSHARES E T F TRUST II,,25.05,25.17,25.17,4200,C,25.02,25.19,400,25.15,,C,0.005146,0.007715
12752,20110527,6726,CVRT,POWERSHARES E T F TRUST II,,25.15,25.24,25.24,12900,0.002781,25.16,25.24,400,25.15,,0.002781,0.004895,0.006001
12752,20110531,6726,CVRT,POWERSHARES E T F TRUST II,,25.25,25.43,25.34,7400,0.003962,25.35,25.4,400,25.43,,0.003962,0.010268,0.009344
12752,20110601,6726,CVRT,POWERSHARES E T F TRUST II,,25,25.25,25,15500,-0.013418,24.79,25.13,400,25.25,,-0.013418,-0.023195,-0.019748
12752,20110602,6726,CVRT,POWERSHARES E T F TRUST II,,24.85,25.03,24.85,1500,-0.006,24.75,24.94,400,25,,-0.006,-0.000674,-0.0001
12752,20110603,6726,CVRT,POWERSHARES E T F TRUST II,,24.72,24.79,24.72,2300,-0.005231,24.68,24.71,400,24.79,,-0.005231,-0.009321,-0.009517
12752,20110606,6726,CVRT,POWERSHARES E T F TRUST II,,24.39,24.7,24.51,3100,-0.008495,24.36,24.51,400,24.7,,-0.008495,-0.01248,-0.01336
12752,20110607,6726,CVRT,POWERSHARES E T F TRUST II,,24.36,24.79,24.55,3700,0.001632,24.26,24.43,400,24.79,,0.001632,0.000244,0.001398
12752,20110608,6726,CVRT,POWERSHARES E T F TRUST II,,24.378,24.378,24.378,200,-0.007006,24.12,24.32,400,24.378,,-0.007006,-0.00614,-0.010785
12752,20110609,6726,CVRT,POWERSHARES E T F TRUST II,,24.32,24.3218,24.3218,300,-0.002305,24.23,24.4,400,24.32,,-0.002305,0.007438,0.00544
12752,20110610,6726,CVRT,POWERSHARES E T F TRUST II,,24.14,24.32,24.1478,4800,-0.007154,24.11,24.16,400,24.32,,-0.007154,-0.014092,-0.011787
12752,20110613,6726,CVRT,POWERSHARES E T F TRUST II,,24.0018,24.24,24.02,8200,-0.005292,23.87,24,400,24.12,,-0.005292,-0.001256,-0.006066
12752,20110614,6726,CVRT,POWERSHARES E T F TRUST II,,24.2,24.34,24.298,2000,0.011574,24.21,24.31,400,24.2,,0.011574,0.013809,0.014324
12752,20110615,6726,CVRT,POWERSHARES E T F TRUST II,,24,24.06,24,3500,-0.012264,23.9,24.05,400,24.02,,-0.012264,-0.01735,-0.014182
12752,20110616,6726,CVRT,POWERSHARES E T F TRUST II,,23.9508,23.9818,23.9818,200,-0.000758,23.85,24.02,400,23.9508,,-0.000758,-0.000231,-0.000882
12752,20110617,6726,CVRT,POWERSHARES E T F TRUST II,,24.03,24.12,24.0999,1700,0.004925,24.05,24.13,400,24.04,,0.004925,0.002107,0.001134
12752,20110620,6726,CVRT,POWERSHARES E T F TRUST II,,24.091,24.2,24.2,2900,0.004154,24.01,24.2,400,24.16,,0.004154,0.005327,0.002448
12752,20110621,6726,CVRT,POWERSHARES E T F TRUST II,,24.19,24.5,24.45,15900,0.010331,24.4,24.5,400,24.2,,0.010331,0.01578,0.015986
12752,20110622,6726,CVRT,POWERSHARES E T F TRUST II,,24.45,24.62,24.45,4900,0,24.35,24.48,400,24.5,,0,-0.005628,-0.003323
12752,20110623,6726,CVRT,POWERSHARES E T F TRUST II,,24.24,24.42,24.4,11100,-0.002045,24.35,24.52,400,24.39,,-0.002045,-0.002604,-0.000903
12752,20110624,6726,CVRT,POWERSHARES E T F TRUST II,,24.28,24.32,24.28,4200,-0.004918,24.11,24.25,400,24.32,,-0.004918,-0.010604,-0.002482
12752,20110627,6726,CVRT,POWERSHARES E T F TRUST II,,24.3399,24.39,24.39,5100,0.00453,24.2,24.39,400,24.34,,0.00453,0.008064,0.00543
12752,20110628,6726,CVRT,POWERSHARES E T F TRUST II,,24.47,24.58,24.52,9500,0.00533,24.49,24.52,400,24.47,,0.00533,0.013434,0.010381
12752,20110629,6726,CVRT,POWERSHARES E T F TRUST II,,24.37,24.72,24.69,7500,0.006933,24.58,24.7,400,24.37,,0.006933,0.008625,0.004894
12752,20110630,6726,CVRT,POWERSHARES E T F TRUST II,,24.73,24.89,24.8628,9100,0.006999,24.74,24.9,400,24.81,,0.006999,0.009669,0.008367
12752,20110701,6726,CVRT,POWERSHARES E T F TRUST II,,25.03,25.12,25.12,2900,0.010345,24.95,25.16,400,25.04,,0.010345,0.013321,0.009964
12752,20110705,6726,CVRT,POWERSHARES E T F TRUST II,,24.68,25.1,25.1,1700,-0.000796,24.93,25.11,400,24.68,,-0.000796,-0.000055,0.000779
12752,20110706,6726,CVRT,POWERSHARES E T F TRUST II,,25.03,25.08,25.03,1800,-0.002789,24.9,25.08,400,25.03,,-0.002789,0.000902,0.002824
12752,20110707,6726,CVRT,POWERSHARES E T F TRUST II,,25.07,25.25,25.102,4400,0.002876,24.99,25.27,400,25.18,,0.002876,0.010562,0.011633
12752,20110708,6726,CVRT,POWERSHARES E T F TRUST II,,25.1,25.19,25.16,7900,0.002311,24.95,25.16,400,25.15,,0.002311,-0.006331,-0.004814
12752,20110711,6726,CVRT,POWERSHARES E T F TRUST II,,24.71,24.89,-24.8,0,-0.014308,24.71,24.89,400,,,-0.014308,-0.019355,-0.016329
12752,20110712,6726,CVRT,POWERSHARES E T F TRUST II,,24.7499,24.76,24.76,600,-0.001613,24.54,24.73,400,24.7499,,-0.001613,-0.003815,-0.002258
12752,20110713,6726,CVRT,POWERSHARES E T F TRUST II,,24.59,24.85,24.76,3900,0,24.53,24.7,400,24.59,,0,0.004893,0.007214
12752,20110714,6726,CVRT,POWERSHARES E T F TRUST II,,24.63,24.64,24.63,1300,-0.00525,24.4,24.61,400,24.64,,-0.00525,-0.008057,-0.009562
12752,20110715,6726,CVRT,POWERSHARES E T F TRUST II,,24.327,24.48,24.327,2000,-0.009639,24.31,24.48,400,24.448,,-0.012302,0.006171,0.004208
12752,20110718,6726,CVRT,POWERSHARES E T F TRUST II,,23.94,24.316,24.316,1100,-0.000452,24.1,24.36,400,23.94,,-0.000452,-0.009499,-0.011087
12752,20110719,6726,CVRT,POWERSHARES E T F TRUST II,,24.37,24.62,-24.495,0,0.007361,24.37,24.62,400,,,0.007361,0.016152,0.013498
12752,20110720,6726,CVRT,POWERSHARES E T F TRUST II,,24.48,24.48,24.48,800,-0.000612,24.47,24.7,400,24.48,,-0.000612,-0.000043,0.000894
12752,20110721,6726,CVRT,POWERSHARES E T F TRUST II,,24.58,24.79,-24.685,0,0.008374,24.58,24.79,400,,,0.008374,0.012197,0.008868
12752,20110722,6726,CVRT,POWERSHARES E T F TRUST II,,24.8199,24.9,24.8999,7000,0.008706,24.71,24.9,400,24.8199,,0.008706,0.001382,0.001569
12752,20110725,6726,CVRT,POWERSHARES E T F TRUST II,,24.8,24.84,24.8,2800,-0.004012,24.46,24.79,400,24.82,,-0.004012,-0.00628,-0.007896
12752,20110726,6726,CVRT,POWERSHARES E T F TRUST II,,24.65,24.65,24.65,1700,-0.006048,24.45,24.68,400,24.65,,-0.006048,-0.004541,-0.004074
12752,20110727,6726,CVRT,POWERSHARES E T F TRUST II,,23.95,24.23,-24.09,0,-0.022718,23.95,24.23,400,,,-0.022718,-0.021724,-0.021165
12752,20110728,6726,CVRT,POWERSHARES E T F TRUST II,,23.99,24,23.99,700,-0.004151,23.99,24.22,400,24,,-0.004151,-0.003041,-0.001498
12752,20110729,6726,CVRT,POWERSHARES E T F TRUST II,,23.93,23.93,23.93,300,-0.002501,23.87,24.14,400,23.93,,-0.002501,-0.005649,-0.003083
12752,20110801,6726,CVRT,POWERSHARES E T F TRUST II,,23.9175,23.9175,23.9175,100,-0.000522,23.74,24.08,400,23.9175,,-0.000522,-0.00364,-0.000943
12752,20110802,6726,CVRT,POWERSHARES E T F TRUST II,,23.24,23.968,23.25,4000,-0.027908,23.2,23.68,400,23.968,,-0.027908,-0.025654,-0.021105
12752,20110803,6726,CVRT,POWERSHARES E T F TRUST II,,22.98,23.49,23.49,2100,0.010323,23.21,23.57,400,22.98,,0.010323,0.004643,0.002141
12752,20110804,6726,CVRT,POWERSHARES E T F TRUST II,,22.75,23.13,23.13,1400,-0.015326,22.4,22.87,400,22.75,,-0.015326,-0.050395,-0.047471
12752,20110805,6726,CVRT,POWERSHARES E T F TRUST II,,22.03,22.43,22.43,2600,-0.030264,22.22,22.5,400,22.13,,-0.030264,-0.004807,-0.01258
12752,20110808,6726,CVRT,POWERSHARES E T F TRUST II,,21.18,21.722,21.18,600,-0.055729,21,21.32,400,21.722,,-0.055729,-0.068767,-0.072433
12752,20110809,6726,CVRT,POWERSHARES E T F TRUST II,,19.24,21.75,21.75,8500,0.026912,21.5,21.98,400,21.09,,0.026912,0.051179,0.047104
12752,20110810,6726,CVRT,POWERSHARES E T F TRUST II,,21.55,21.71,21.59,1900,-0.007356,21.17,21.48,400,21.71,,-0.007356,-0.038886,-0.029925
12752,20110811,6726,CVRT,POWERSHARES E T F TRUST II,,21.79,21.79,21.79,300,0.009264,21.67,22.01,400,21.79,,0.009264,0.045039,0.037071
12752,20110812,6726,CVRT,POWERSHARES E T F TRUST II,,22.14,22.14,22.14,500,0.016062,21.84,22.22,400,22.14,,0.016062,0.004744,0.004153
12752,20110815,6726,CVRT,POWERSHARES E T F TRUST II,,22.12,22.47,-22.295,0,0.009926,22.12,22.47,400,,,0.007001,0.02273,0.022971
12752,20110816,6726,CVRT,POWERSHARES E T F TRUST II,,22.31,22.31,22.31,500,0.000673,21.98,22.32,400,22.31,,0.000673,-0.011038,-0.012961
12752,20110817,6726,CVRT,POWERSHARES E T F TRUST II,,21.83,22.02,21.83,1000,-0.021515,21.91,22.24,400,22.02,,-0.021515,0.000641,0.000567
12752,20110818,6726,CVRT,POWERSHARES E T F TRUST II,,21.42,21.88,21.53,1100,-0.013743,21.25,21.63,400,21.88,,-0.013743,-0.045349,-0.041372
12752,20110819,6726,CVRT,POWERSHARES E T F TRUST II,,21.34,21.46,21.34,1300,-0.008825,20.9,21.39,400,21.46,,-0.008825,-0.015399,-0.012245
12752,20110822,6726,CVRT,POWERSHARES E T F TRUST II,,20.89,21.32,-21.105,0,-0.011012,20.89,21.32,400,,,-0.011012,-0.000001,-0.002681
12752,20110823,6726,CVRT,POWERSHARES E T F TRUST II,,21.27,21.6,-21.435,0,0.015636,21.27,21.6,400,,,0.015636,0.033725,0.028999
12752,20110824,6726,CVRT,POWERSHARES E T F TRUST II,,21.57,21.57,21.57,200,0.006298,21.42,21.84,400,21.57,,0.006298,0.011433,0.007909
12752,20110825,6726,CVRT,POWERSHARES E T F TRUST II,,21.06,22.05,-21.555,0,-0.000695,21.06,22.05,400,,,-0.000695,-0.015922,-0.015405
12752,20110826,6726,CVRT,POWERSHARES E T F TRUST II,,21.34,21.38,21.34,200,-0.009974,21.51,21.9,400,21.38,,-0.009974,0.01634,0.015529
12752,20110829,6726,CVRT,POWERSHARES E T F TRUST II,,22.21,22.32,22.27,4600,0.04358,21.96,22.32,400,22.21,,0.04358,0.029507,0.031448
12752,20110830,6726,CVRT,POWERSHARES E T F TRUST II,,22.1,22.1,22.1,1000,-0.007634,21.97,22.33,400,22.1,,-0.007634,0.00357,0.004626
12752,20110831,6726,CVRT,POWERSHARES E T F TRUST II,,22.421,22.55,22.49,1300,0.017647,22.25,22.51,400,22.55,,0.017647,0.004997,0.002966
12752,20110901,6726,CVRT,POWERSHARES E T F TRUST II,,22.28,22.6,22.28,700,-0.009337,21.94,22.48,400,22.6,,-0.009337,-0.012218,-0.013873
12752,20110902,6726,CVRT,POWERSHARES E T F TRUST II,,21.93,22.05,21.93,300,-0.015709,21.58,22.03,400,22.05,,-0.015709,-0.024662,-0.022485
12752,20110906,6726,CVRT,POWERSHARES E T F TRUST II,,20.8,21.82,21.82,600,-0.005016,21.49,21.99,400,20.8,,-0.005016,-0.00817,-0.009007
12752,20110907,6726,CVRT,POWERSHARES E T F TRUST II,,22.22,22.32,22.248,1700,0.019615,21.92,22.43,400,22.22,,0.019615,0.028946,0.027053
12752,20110908,6726,CVRT,POWERSHARES E T F TRUST II,,22.2,22.3,22.22,3400,-0.001259,21.86,22.21,400,22.2,,-0.001259,-0.010911,-0.012366
12752,20110909,6726,CVRT,POWERSHARES E T F TRUST II,,21.58,22.02,-21.8,0,-0.018902,21.58,22.02,400,,,-0.018902,-0.02659,-0.021064
12752,20110912,6726,CVRT,POWERSHARES E T F TRUST II,,21.43,21.48,21.48,1000,-0.014679,21.65,22,400,21.43,,-0.014679,0.004088,-0.000512
12752,20110913,6726,CVRT,POWERSHARES E T F TRUST II,,21.82,22.15,-21.985,0,0.02351,21.82,22.15,400,,,0.02351,0.010437,0.011502
12752,20110914,6726,CVRT,POWERSHARES E T F TRUST II,,22.27,22.27,22.27,200,0.012963,22,22.34,400,22.27,,0.012963,0.012749,0.011627
12752,20110915,6726,CVRT,POWERSHARES E T F TRUST II,,22.15,22.2,22.15,300,-0.002453,22.14,22.56,400,22.2,,-0.005388,0.015329,0.008742
12752,20110916,6726,CVRT,POWERSHARES E T F TRUST II,,22.17,22.26,22.17,2100,0.000903,22.26,22.62,400,22.26,,0.000903,0.003486,0.001369
12752,20110919,6726,CVRT,POWERSHARES E T F TRUST II,,21.93,22.41,22.41,1600,0.010825,22.03,22.44,400,22.211,,0.010825,-0.010944,-0.014332
12752,20110920,6726,CVRT,POWERSHARES E T F TRUST II,,22.336,22.336,22.336,400,-0.003302,21.9,22.28,400,22.336,,-0.003302,-0.004135,-0.009129
12752,20110921,6726,CVRT,POWERSHARES E T F TRUST II,,21.55,21.91,-21.73,0,-0.027131,21.55,21.91,400,,,-0.027131,-0.029484,-0.024804
12752,20110922,6726,CVRT,POWERSHARES E T F TRUST II,,21.13,21.33,21.13,1200,-0.027612,21.04,21.45,400,21.33,,-0.027612,-0.034404,-0.03289
12752,20110923,6726,CVRT,POWERSHARES E T F TRUST II,,21.11,21.29,21.11,2400,-0.000946,21.2,21.57,400,21.2,,-0.000946,0.005628,0.007186
12752,20110926,6726,CVRT,POWERSHARES E T F TRUST II,,21.364,21.364,21.364,400,0.012032,21.37,21.77,400,21.364,,0.012032,0.021538,0.009785
12752,20110927,6726,CVRT,POWERSHARES E T F TRUST II,,21.86,22.16,22.16,700,0.037259,21.6,21.96,400,21.86,,0.037259,0.012834,0.015723
12752,20110928,6726,CVRT,POWERSHARES E T F TRUST II,,21.63,21.63,21.63,100,-0.023917,21.22,21.62,400,21.63,,-0.023917,-0.023992,-0.025641
12752,20110929,6726,CVRT,POWERSHARES E T F TRUST II,,21.49,21.49,21.49,100,-0.006472,21.3,21.68,400,21.49,,-0.006472,0.008163,0.006593
12752,20110930,6726,CVRT,POWERSHARES E T F TRUST II,,21.05,22.46,22.46,1200,0.045137,21,22.49,400,21.05,,0.045137,-0.024662,-0.01885
12752,20111003,6726,CVRT,POWERSHARES E T F TRUST II,,21.08,21.08,21.08,200,-0.061443,20.35,20.78,400,21.08,,-0.061443,-0.032029,-0.041389
12752,20111004,6726,CVRT,POWERSHARES E T F TRUST II,,20.21,20.77,20.74,2400,-0.016129,20.75,21.07,400,20.233,,-0.016129,0.023523,0.027271
12752,20111005,6726,CVRT,POWERSHARES E T F TRUST II,,20.55,20.55,20.55,100,-0.009161,20.78,21.23,400,20.55,,-0.009161,0.019306,0.017052
12752,20111006,6726,CVRT,POWERSHARES E T F TRUST II,,21.07,21.12,21.12,400,0.027737,21.1,21.52,400,21.07,,0.027737,0.02048,0.020302
12752,20111007,6726,CVRT,POWERSHARES E T F TRUST II,,21.23,21.34,21.28,700,0.007576,21.04,21.39,400,21.23,,0.007576,-0.010945,-0.013558
12752,20111010,6726,CVRT,POWERSHARES E T F TRUST II,,21.46,21.69,21.6888,1000,0.019211,21.38,21.77,400,21.46,,0.019211,0.034255,0.029485
12752,20111011,6726,CVRT,POWERSHARES E T F TRUST II,,21.78,21.84,21.79,1400,0.004666,21.41,21.84,400,21.84,,0.004666,0.001038,0.005045
12752,20111012,6726,CVRT,POWERSHARES E T F TRUST II,,20.7,21.51,21.51,600,-0.01285,21.08,22.56,400,20.7,,-0.01285,0.011647,0.015032
12752,20111013,6726,CVRT,POWERSHARES E T F TRUST II,,21.65,21.799,21.799,1600,0.013436,21.51,21.8,400,21.7,,0.013436,-0.003016,-0.000785
12752,20111014,6726,CVRT,POWERSHARES E T F TRUST II,,21.83,21.94,21.8956,1100,0.007591,21.72,22.09,400,21.89,,0.004431,0.017724,0.014636
12752,20111017,6726,CVRT,POWERSHARES E T F TRUST II,,21.748,21.748,21.748,200,-0.006741,21.31,21.72,400,21.748,,-0.006741,-0.020866,-0.02031
12752,20111018,6726,CVRT,POWERSHARES E T F TRUST II,,21.81,22.03,22.03,1200,0.012967,21.69,22.04,400,21.9,,0.012967,0.020777,0.018455
12752,20111019,6726,CVRT,POWERSHARES E T F TRUST II,,21.75,22.8,22.0788,1600,0.002215,21.57,21.94,400,22.8,,0.002215,-0.014271,-0.012823
12752,20111020,6726,CVRT,POWERSHARES E T F TRUST II,,21.8,21.82,21.82,1100,-0.011722,21.62,22.04,400,21.8,,-0.011722,0.003855,0.000346
12752,20111021,6726,CVRT,POWERSHARES E T F TRUST II,,22.15,22.18,22.18,500,0.016499,21.22,22.2,400,22.15,,0.016499,0.019233,0.016308
12752,20111024,6726,CVRT,POWERSHARES E T F TRUST II,,22.17,22.44,-22.305,0,0.005636,22.17,22.44,400,,,0.005636,0.016704,0.021862
12752,20111025,6726,CVRT,POWERSHARES E T F TRUST II,,22.09,22.81,22.1,500,-0.009191,21.93,22.28,400,22.81,,-0.009191,-0.019819,-0.017923
12752,20111026,6726,CVRT,POWERSHARES E T F TRUST II,,22.07,22.38,-22.225,0,0.005656,22.07,22.38,400,,,0.005656,0.011488,0.013112
12752,20111027,6726,CVRT,POWERSHARES E T F TRUST II,,22.66,22.95,22.8,19200,0.025872,22.52,22.9,400,22.728,,0.025872,0.036079,0.036164
12752,20111028,6726,CVRT,POWERSHARES E T F TRUST II,,22.49,23.07,23.07,2900,0.011842,22.67,23.07,400,22.49,,0.011842,0.00019,0.00033
12752,20111031,6726,CVRT,POWERSHARES E T F TRUST II,,22.68,23.76,22.68,5500,-0.016905,22.58,22.82,400,23.76,,-0.016905,-0.02465,-0.019074
12752,20111101,6726,CVRT,POWERSHARES E T F TRUST II,,22.144,22.5,22.2,1500,-0.021164,22.2,22.31,400,22.5,,-0.021164,-0.028634,-0.025608
12752,20111102,6726,CVRT,POWERSHARES E T F TRUST II,,22.5199,22.79,22.79,300,0.026577,22.27,22.79,400,22.52,,0.026577,0.016945,0.017805
12752,20111103,6726,CVRT,POWERSHARES E T F TRUST II,,22.35,22.65,22.6,12600,-0.008337,22.36,22.65,400,22.65,,-0.008337,0.019006,0.01579
12752,20111104,6726,CVRT,POWERSHARES E T F TRUST II,,22.22,22.5862,22.57,9500,-0.001327,22.37,22.62,400,22.36,,-0.001327,-0.005583,-0.00431
12752,20111107,6726,CVRT,POWERSHARES E T F TRUST II,,22.4,22.578,22.578,5900,0.000354,22.36,22.7,400,22.4,,0.000354,0.004856,0.000102
12752,20111108,6726,CVRT,POWERSHARES E T F TRUST II,,22.22,23.14,22.65,4800,0.003189,22.48,22.65,400,23.14,,0.003189,0.01077,0.010293
12752,20111109,6726,CVRT,POWERSHARES E T F TRUST II,,22.3405,22.468,22.3405,700,-0.013664,21.9,22.3,400,22.468,,-0.013664,-0.037935,-0.033721
12752,20111110,6726,CVRT,POWERSHARES E T F TRUST II,,21.98,22.3,-22.14,0,-0.008975,21.98,22.3,400,,,-0.008975,0.007259,0.004295
12752,20111111,6726,CVRT,POWERSHARES E T F TRUST II,,22.2,22.49,-22.345,0,0.009259,22.2,22.49,400,,,0.009259,0.019767,0.016413
12752,20111114,6726,CVRT,POWERSHARES E T F TRUST II,,22.13,22.16,22.13,200,-0.009622,22.06,22.45,400,22.16,,-0.009622,-0.009495,-0.011298
12752,20111115,6726,CVRT,POWERSHARES E T F TRUST II,,21.94,22.42,22.39,2700,0.014533,22.09,22.38,400,22.42,,0.011749,0.004354,0.005009
12752,20111116,6726,CVRT,POWERSHARES E T F TRUST II,,22.3,22.3,22.3,200,-0.00402,21.84,22.3,400,22.3,,-0.00402,-0.015294,-0.010514
12752,20111117,6726,CVRT,POWERSHARES E T F TRUST II,,21.84,22.17,21.84,1100,-0.020628,21.5,21.9,400,22.138,,-0.020628,-0.017226,-0.013572
12752,20111118,6726,CVRT,POWERSHARES E T F TRUST II,,21.48,21.89,-21.685,0,-0.007097,21.48,21.89,400,,,-0.007097,-0.00036,0.00091
12752,20111121,6726,CVRT,POWERSHARES E T F TRUST II,,21.5,21.5,21.5,300,-0.008531,21.36,21.65,400,21.5,,-0.008531,-0.018747,-0.019219
12752,20111122,6726,CVRT,POWERSHARES E T F TRUST II,,21.35,21.5,21.5,800,0,21.22,21.54,400,21.35,,0,-0.004178,-0.004975
12752,20111123,6726,CVRT,POWERSHARES E T F TRUST II,,20.87,21.36,-21.115,0,-0.017907,20.87,21.36,400,,,-0.017907,-0.023265,-0.022619
12752,20111125,6726,CVRT,POWERSHARES E T F TRUST II,,21.025,22.16,21.4,1800,0.013498,20.94,21.35,400,21.812,,0.013498,-0.003742,-0.004938
12752,20111128,6726,CVRT,POWERSHARES E T F TRUST II,,21.07,21.34,-21.205,0,-0.009112,21.07,21.34,400,,,-0.009112,0.030371,0.027825
12752,20111129,6726,CVRT,POWERSHARES E T F TRUST II,,21.284,21.49,21.3,500,0.00448,21.09,21.49,400,21.49,,0.00448,0.001993,-0.002277
12752,20111130,6726,CVRT,POWERSHARES E T F TRUST II,,21.8,21.87,21.87,600,0.026761,21.61,21.9,400,21.8,,0.026761,0.043756,0.038087
12752,20111201,6726,CVRT,POWERSHARES E T F TRUST II,,21.54,21.87,21.784,18400,-0.003932,21.7,21.99,400,21.6,,-0.003932,-0.002335,-0.003719
12752,20111202,6726,CVRT,POWERSHARES E T F TRUST II,,21.94,22,21.94,300,0.007161,21.7,21.99,400,22,,0.007161,0.000065,0.004847
12752,20111205,6726,CVRT,POWERSHARES E T F TRUST II,,21.9999,22,21.9999,200,0.00273,21.7,22,400,22,,0.00273,0.010254,0.009643
12752,20111206,6726,CVRT,POWERSHARES E T F TRUST II,,22,22.29,22.29,6500,0.013186,21.84,22.35,400,22,,0.013186,0.000367,-0.000547
12752,20111207,6726,CVRT,POWERSHARES E T F TRUST II,,22.1,22.1,22.1,400,-0.008524,21.82,22.1,400,22.1,,-0.008524,0.001647,0.00065
12752,20111208,6726,CVRT,POWERSHARES E T F TRUST II,,21.65,22.0899,21.65,1700,-0.020362,21.61,21.98,400,22.0899,,-0.020362,-0.022946,-0.02281
12752,20111209,6726,CVRT,POWERSHARES E T F TRUST II,,21.66,22.25,-21.955,0,0.014088,21.66,22.25,400,,,0.014088,0.01772,0.018867
12752,20111212,6726,CVRT,POWERSHARES E T F TRUST II,,21.61,22.46,21.85,3000,-0.004782,21.61,21.85,400,22.46,,-0.004782,-0.015582,-0.013633
12752,20111213,6726,CVRT,POWERSHARES E T F TRUST II,,21.6,22.09,21.6,300,-0.011442,21.2,21.8,400,22.09,,-0.011442,-0.011498,-0.012977
12752,20111214,6726,CVRT,POWERSHARES E T F TRUST II,,21.03,21.6,-21.315,0,-0.013194,21.03,21.6,400,,,-0.013194,-0.012833,-0.009275
12752,20111215,6726,CVRT,POWERSHARES E T F TRUST II,,21.48,21.48,21.48,200,0.011356,21.06,21.51,400,21.48,,0.007741,0.003637,0.002408
12752,20111216,6726,CVRT,POWERSHARES E T F TRUST II,,21.5,21.58,21.58,700,0.004656,21.07,21.58,400,21.56,,0.004656,0.004859,0.003314
12752,20111219,6726,CVRT,POWERSHARES E T F TRUST II,,21.4,21.4,21.4,500,-0.008341,20.89,21.39,400,21.4,,-0.008341,-0.012671,-0.014777
12752,20111220,6726,CVRT,POWERSHARES E T F TRUST II,,21.28,21.61,21.379,14900,-0.000981,21.31,21.61,400,21.55,,-0.000981,0.029812,0.026714
12752,20111221,6726,CVRT,POWERSHARES E T F TRUST II,,21.53,21.55,21.53,1800,0.007063,21.24,21.55,400,21.55,,0.007063,0.001868,0.001089
12752,20111222,6726,CVRT,POWERSHARES E T F TRUST II,,21.68,21.68,21.68,400,0.006967,21.53,21.76,400,21.68,,0.006967,0.008685,0.008057
12752,20111223,6726,CVRT,POWERSHARES E T F TRUST II,,21.55,22.46,21.9,20400,0.010148,21.67,21.9,400,22.46,,0.010148,0.007787,0.003873
12752,20111227,6726,CVRT,POWERSHARES E T F TRUST II,,21.61,21.899,21.61,800,-0.013242,21.55,21.9,400,21.61,,-0.013242,-0.000047,-0.001196
12752,20111228,6726,CVRT,POWERSHARES E T F TRUST II,,21.33,21.755,21.75,3900,0.006478,21.34,21.75,400,21.44,,0.006478,-0.013924,-0.014109
12752,20111229,6726,CVRT,POWERSHARES E T F TRUST II,,21.646,21.88,21.88,1100,0.005977,21.46,21.92,400,21.646,,0.005977,0.010708,0.008676
12752,20111230,6726,CVRT,POWERSHARES E T F TRUST II,,21.95,23.93,22.2,37800,0.014625,22.21,22.7,400,21.95,,0.014625,-0.002615,0.002135
12752,20120103,6726,CVRT,POWERSHARES E T F TRUST II,,21.91,22.5,22.02,36100,-0.008108,21.91,21.99,400,22.5,,-0.008108,0.016088,0.016986
12752,20120104,6726,CVRT,POWERSHARES E T F TRUST II,,21.97,22.03,21.97,3200,-0.002271,21.78,22.06,400,22.03,,-0.002271,-0.000589,-0.001452
12752,20120105,6726,CVRT,POWERSHARES E T F TRUST II,,21.981,22.2,21.981,3700,0.000501,21.98,22.2,400,22.07,,0.000501,0.002924,0.004036
12752,20120106,6726,CVRT,POWERSHARES E T F TRUST II,,21.97,22.28,22.26,4600,0.012693,21.96,22.28,400,21.97,,0.012693,-0.003156,-0.000628
12752,20120109,6726,CVRT,POWERSHARES E T F TRUST II,,22.25,22.46,22.25,600,-0.000449,22.01,22.25,400,22.46,,-0.000449,0.002795,0.004414
12752,20120110,6726,CVRT,POWERSHARES E T F TRUST II,,22.11,22.3,22.3,600,0.002247,22.15,22.45,400,22.11,,0.002247,0.010411,0.011106
12752,20120111,6726,CVRT,POWERSHARES E T F TRUST II,,22.49,22.69,22.65,4000,0.015695,22.51,22.65,400,22.69,,0.015695,0.00085,0.004343
12752,20120112,6726,CVRT,POWERSHARES E T F TRUST II,,22.43,22.65,22.65,4800,0,22.34,22.75,400,22.573,,0,0.003016,0.005018
12752,20120113,6726,CVRT,POWERSHARES E T F TRUST II,,22.52,22.62,22.62,1100,0.001129,22.21,22.62,400,22.52,,-0.001324,-0.005316,-0.005025
12752,20120117,6726,CVRT,POWERSHARES E T F TRUST II,,22.5,22.78,22.52,2100,-0.004421,22.2,22.5,400,22.78,,-0.004421,0.003896,0.003736
12752,20120118,6726,CVRT,POWERSHARES E T F TRUST II,,22.5,22.75,22.51,1400,-0.000444,22.48,22.8,400,22.5,,-0.000444,0.012182,0.013639
12752,20120119,6726,CVRT,POWERSHARES E T F TRUST II,,22.65,22.9999,22.97,700,0.020435,22.77,22.99,400,22.65,,0.020435,0.005555,0.005428
12752,20120120,6726,CVRT,POWERSHARES E T F TRUST II,,22.9,22.98,22.9,1500,-0.003047,22.62,22.98,400,22.98,,-0.003047,0.000859,0.003648
12752,20120123,6726,CVRT,POWERSHARES E T F TRUST II,,23.04,23.15,23.04,800,0.006114,22.77,23.04,400,23.08,,0.006114,0.001594,0.001815
12752,20120124,6726,CVRT,POWERSHARES E T F TRUST II,,22.5,22.94,22.9364,9100,-0.004497,22.91,23.09,400,22.82,,-0.004497,-0.000865,0.003335
12752,20120125,6726,CVRT,POWERSHARES E T F TRUST II,,23.117,23.195,23.195,600,0.011275,23.12,23.29,400,23.18,,0.011275,0.009939,0.009521
12752,20120126,6726,CVRT,POWERSHARES E T F TRUST II,,23.05,23.088,23.05,600,-0.006251,23.05,23.19,400,23.088,,-0.006251,-0.004942,-0.001108
12752,20120127,6726,CVRT,POWERSHARES E T F TRUST II,,22.91,23.26,22.98,2500,-0.003037,22.75,23.23,400,23,,-0.003037,0.000576,0.006083
12752,20120130,6726,CVRT,POWERSHARES E T F TRUST II,,22.85,23.26,22.96,3000,-0.00087,22.86,23.21,400,23.26,,-0.00087,-0.003788,-0.004873
12752,20120131,6726,CVRT,POWERSHARES E T F TRUST II,,22.68,23.21,23.21,5200,0.010889,22.76,23.2,400,23.05,,0.010889,-0.000083,0.00176
12752,20120201,6726,CVRT,POWERSHARES E T F TRUST II,,22.9,23.4,23.12,1100,-0.003878,22.9,23.39,400,23.17,,-0.003878,0.010979,0.013626
12752,20120202,6726,CVRT,POWERSHARES E T F TRUST II,,23.04,23.53,-23.285,0,0.007137,23.04,23.53,400,,,0.007137,0.001769,0.004356
12752,20120203,6726,CVRT,POWERSHARES E T F TRUST II,,22.6,23.53,23.21,7200,-0.003221,23.24,23.85,400,23.48,,-0.003221,0.014518,0.014863
12752,20120206,6726,CVRT,POWERSHARES E T F TRUST II,,23.41,23.77,23.77,1600,0.024128,23.7,23.84,400,23.41,,0.024128,-0.001007,-0.000468
12752,20120207,6726,CVRT,POWERSHARES E T F TRUST II,,23.7599,23.77,23.76,1600,-0.000421,23.7,23.76,400,23.77,,-0.000421,0.001371,0.001456
12752,20120208,6726,CVRT,POWERSHARES E T F TRUST II,,23.71,23.7156,23.71,600,-0.002104,23.2,23.73,400,23.7156,,-0.002104,0.001945,0.003403
12752,20120209,6726,CVRT,POWERSHARES E T F TRUST II,,23.23,23.72,23.33,32800,-0.016027,23.2,23.77,400,23.59,,-0.016027,0.000975,0.000305
12752,20120210,6726,CVRT,POWERSHARES E T F TRUST II,,23.6,23.76,23.6525,2300,0.013823,22.85,23.66,400,23.76,,0.013823,-0.008403,-0.009804
12752,20120213,6726,CVRT,POWERSHARES E T F TRUST II,,22.99,24,23.45,1900,-0.008561,23.09,23.81,400,24,,-0.008561,0.007227,0.00919
12752,20120214,6726,CVRT,POWERSHARES E T F TRUST II,,23.72,23.97,23.72,300,0.011514,23.01,23.68,400,23.97,,0.011514,-0.001719,-0.004104
12752,20120215,6726,CVRT,POWERSHARES E T F TRUST II,,21.9,23.55,22.98,20400,-0.028761,22.96,23.2,400,23.55,,-0.031197,-0.004492,-0.003297
12752,20120216,6726,CVRT,POWERSHARES E T F TRUST II,,22.88,23.69,23.69,7600,0.030896,22.88,23.74,400,23.2,,0.030896,0.012339,0.011434
12752,20120217,6726,CVRT,POWERSHARES E T F TRUST II,,23.58,23.65,23.65,2000,-0.001689,23.13,23.69,400,23.58,,-0.001689,0.001314,0.002643
12752,20120221,6726,CVRT,POWERSHARES E T F TRUST II,,23.29,23.68,23.63,2600,-0.000846,23.6,23.67,400,23.29,,-0.000846,0.000131,-0.00227
12752,20120222,6726,CVRT,POWERSHARES E T F TRUST II,,23.48,23.68,-23.58,0,-0.002116,23.48,23.68,400,,,-0.002116,-0.003181,-0.004243
12752,20120223,6726,CVRT,POWERSHARES E T F TRUST II,,23.31,23.69,-23.5,0,-0.003393,23.31,23.69,400,,,-0.003393,0.005573,0.008018
12752,20120224,6726,CVRT,POWERSHARES E T F TRUST II,,23.26,23.5201,23.26,1000,-0.010213,23.26,23.69,400,23.5001,,-0.010213,0.001408,0.000398
12752,20120227,6726,CVRT,POWERSHARES E T F TRUST II,,23.64,23.69,23.6899,600,0.018482,23.2,23.69,400,23.64,,0.018482,0.000735,-0.000826
12752,20120228,6726,CVRT,POWERSHARES E T F TRUST II,,23.15,23.68,23.64,1900,-0.002106,23.25,23.69,400,23.15,,-0.002106,0.002771,0.000473
12752,20120229,6726,CVRT,POWERSHARES E T F TRUST II,,23.67,23.67,23.67,200,0.001269,23.67,23.69,400,23.67,,0.001269,-0.005792,-0.009222
12752,20120301,6726,CVRT,POWERSHARES E T F TRUST II,,23.6899,23.69,23.6899,1600,0.000841,23.22,23.69,400,23.69,,0.000841,0.006707,0.004577
12752,20120302,6726,CVRT,POWERSHARES E T F TRUST II,,23.97,23.97,23.97,200,0.011824,23.25,23.9,400,23.97,,0.011824,-0.004969,-0.008092
12752,20120305,6726,CVRT,POWERSHARES E T F TRUST II,,23.69,23.89,23.84,4100,-0.005423,23.32,23.84,400,23.89,,-0.005423,-0.004618,-0.003572
12752,20120306,6726,CVRT,POWERSHARES E T F TRUST II,,22.94,23.75,23.55,5200,-0.012164,23.27,23.55,400,23.75,,-0.012164,-0.017408,-0.017324
12752,20120307,6726,CVRT,POWERSHARES E T F TRUST II,,23.44,23.49,23.49,1000,-0.002548,23.18,23.49,400,23.47,,-0.002548,0.007703,0.009368
12752,20120308,6726,CVRT,POWERSHARES E T F TRUST II,,23.65,23.65,23.65,400,0.006811,23.07,23.65,400,23.65,,0.006811,0.010707,0.01057
12752,20120309,6726,CVRT,POWERSHARES E T F TRUST II,,23.78,23.8,23.78,2000,0.005497,23.38,23.8,400,23.8,,0.005497,0.004494,0.007759
12752,20120312,6726,CVRT,POWERSHARES E T F TRUST II,,23.5299,23.86,23.5299,900,-0.010517,23.33,23.85,400,23.86,,-0.010517,-0.001423,-0.001807
12752,20120313,6726,CVRT,POWERSHARES E T F TRUST II,,23.31,24.3499,23.42,900,-0.004671,23.42,24.5,400,23.31,,-0.004671,0.017258,0.014083
12752,20120314,6726,CVRT,POWERSHARES E T F TRUST II,,23.6999,23.9301,23.9301,200,0.021781,23.3,24.36,400,23.6999,,0.021781,-0.003961,-0.00684
12752,20120315,6726,CVRT,POWERSHARES E T F TRUST II,,23.39,23.39,23.39,300,-0.020277,23.43,24.44,400,23.39,,-0.02257,0.006468,0.004775
12752,20120316,6726,CVRT,POWERSHARES E T F TRUST II,,22.88,22.94,22.94,1700,-0.019239,23.58,23.94,400,22.88,,-0.019239,0.001252,0.001174
12752,20120319,6726,CVRT,POWERSHARES E T F TRUST II,,23.41,24.0857,24.0226,7700,0.047193,23.97,24.1,400,23.45,,0.047193,0.003981,0.004725
12752,20120320,6726,CVRT,POWERSHARES E T F TRUST II,,23.7399,24.17,24.07,5100,0.001973,23.53,24.1,400,24.17,,0.001973,-0.004522,-0.005376
12752,20120321,6726,CVRT,POWERSHARES E T F TRUST II,,23.72,24.05,24.0201,2600,-0.002073,23.56,24.07,400,24.05,,-0.002073,-0.001166,0.000988
12752,20120322,6726,CVRT,POWERSHARES E T F TRUST II,,23.615,24.02,23.9,8500,-0.005,23.53,24.01,400,24.02,,-0.005,-0.008155,-0.008314
12752,20120323,6726,CVRT,POWERSHARES E T F TRUST II,,23.42,23.53,23.42,1000,-0.020084,23.03,24.01,400,23.53,,-0.020084,0.004456,0.007128
12752,20120326,6726,CVRT,POWERSHARES E T F TRUST II,,23.8,24.16,24.01,10500,0.025192,23.18,24.06,400,24.16,,0.025192,0.013895,0.01128
12752,20120327,6726,CVRT,POWERSHARES E T F TRUST II,,23.86,24.2,24.2,5900,0.007913,23.36,24.2,400,24.18,,0.007913,-0.003741,-0.002922
12752,20120328,6726,CVRT,POWERSHARES E T F TRUST II,,24.01,24.1,24.05,1200,-0.006198,23.4,24,400,24.01,,-0.006198,-0.00579,-0.005661
12752,20120329,6726,CVRT,POWERSHARES E T F TRUST II,,23.21,24,-23.605,0,-0.018503,23.21,24,400,,,-0.018503,-0.001927,-0.001684
12752,20120330,6726,CVRT,POWERSHARES E T F TRUST II,,23.25,23.85,23.25,18100,-0.015039,23.27,23.57,400,23.85,,-0.015039,0.00329,0.001961
12752,20120402,6726,CVRT,POWERSHARES E T F TRUST II,,23.816,24,23.98,2800,0.031398,23.3,24.3,400,24,,0.031398,0.007941,0.007247
12752,20120403,6726,CVRT,POWERSHARES E T F TRUST II,,24.2,24.3,24.2961,1500,0.013182,23.91,24.3,400,24.2,,0.013182,-0.004612,-0.006652
12752,20120404,6726,CVRT,POWERSHARES E T F TRUST II,,23.91,24.2,23.99,800,-0.012599,23.21,23.99,400,24.2,,-0.012599,-0.011834,-0.011988
12752,20120405,6726,CVRT,POWERSHARES E T F TRUST II,,23.86,24.11,23.86,1100,-0.005419,23.15,23.98,400,24.03,,-0.005419,-0.001053,-0.000752
12752,20120409,6726,CVRT,POWERSHARES E T F TRUST II,,23.2,23.8,-23.5,0,-0.015088,23.2,23.8,400,,,-0.015088,-0.011387,-0.011952
12752,20120410,6726,CVRT,POWERSHARES E T F TRUST II,,22.94,23.6,-23.27,0,-0.009787,22.94,23.6,400,,,-0.009787,-0.018025,-0.016297
12752,20120411,6726,CVRT,POWERSHARES E T F TRUST II,,23.452,23.7,23.6,9500,0.014181,22.94,23.6,400,23.7,,0.014181,0.008376,0.011324
12752,20120412,6726,CVRT,POWERSHARES E T F TRUST II,,23.07,23.73,23.73,1300,0.005508,23.2,23.75,400,23.58,,0.005508,0.015043,0.012911
12752,20120413,6726,CVRT,POWERSHARES E T F TRUST II,,23.13,23.75,23.4999,2500,-0.007353,23.3,23.49,400,23.73,,-0.009697,-0.012399,-0.010688
12752,20120416,6726,CVRT,POWERSHARES E T F TRUST II,,23.3,23.4,-23.35,0,-0.006379,23.3,23.4,400,,,-0.006379,-0.000595,-0.000054
12752,20120417,6726,CVRT,POWERSHARES E T F TRUST II,,23.36,23.6,23.49,19100,0.005996,23.42,23.5,400,23.5,,0.005996,0.014944,0.010745
12752,20120418,6726,CVRT,POWERSHARES E T F TRUST II,,23.3001,23.4699,23.3001,1100,-0.008084,23.3,23.4,400,23.4699,,-0.008084,-0.00404,-0.006206
12752,20120419,6726,CVRT,POWERSHARES E T F TRUST II,,23.4,23.98,23.5999,4100,0.012867,23.3,23.6,400,23.98,,0.012867,-0.004708,-0.002428
12752,20120420,6726,CVRT,POWERSHARES E T F TRUST II,,23.35,23.7,23.35,800,-0.010589,23.3,23.58,400,23.68,,-0.010589,0.001613,0.003775
12752,20120423,6726,CVRT,POWERSHARES E T F TRUST II,,23.3,23.351,23.3,5500,-0.002141,22.85,23.5,400,23.3,,-0.002141,-0.009589,-0.009782
12752,20120424,6726,CVRT,POWERSHARES E T F TRUST II,,22.8599,23.4002,23.36,7800,0.002575,22.53,23.5,400,22.8599,,0.002575,0.003243,0.005758
12752,20120425,6726,CVRT,POWERSHARES E T F TRUST II,,22.8498,23.65,23.65,6100,0.012414,23,23.65,400,22.8499,,0.012414,0.013724,0.010255
12752,20120426,6726,CVRT,POWERSHARES E T F TRUST II,,23.0599,23.78,23.26,5400,-0.01649,23,23.9,400,23.78,,-0.01649,0.006688,0.005672
12752,20120427,6726,CVRT,POWERSHARES E T F TRUST II,,23.02,23.7,23.23,9400,-0.00129,23.12,23.82,400,23.02,,-0.00129,0.003835,0.005222
12752,20120430,6726,CVRT,POWERSHARES E T F TRUST II,,23.75,23.88,23.8499,2400,0.026685,23.03,23.85,400,23.88,,0.026685,-0.004337,-0.004102
12752,20120501,6726,CVRT,POWERSHARES E T F TRUST II,,23.22,23.49,23.4,800,-0.018864,23.38,23.87,400,23.22,,-0.018864,0.004837,0.001615
12752,20120502,6726,CVRT,POWERSHARES E T F TRUST II,,23,23.75,-23.375,0,-0.001068,23,23.75,400,,,-0.001068,-0.002169,-0.000587
12752,20120503,6726,CVRT,POWERSHARES E T F TRUST II,,23.7,23.74,23.74,500,0.015615,23,23.74,400,23.7,,0.015615,-0.010087,-0.010968
12752,20120504,6726,CVRT,POWERSHARES E T F TRUST II,,23.75,23.75,23.75,100,0.000421,22.53,23.5,400,23.75,,0.000421,-0.015729,-0.012771
12752,20120507,6726,CVRT,POWERSHARES E T F TRUST II,,22.55,23,22.85,3100,-0.037895,22.6,23.59,400,23,,-0.037895,0.000516,0.001052
12752,20120508,6726,CVRT,POWERSHARES E T F TRUST II,,22.5701,23.5,23.5,500,0.028446,22.33,23.5,400,23.5,,0.028446,-0.00546,-0.004518
12752,20120509,6726,CVRT,POWERSHARES E T F TRUST II,,22.46,23.182,22.75,12700,-0.031915,22.75,23.54,400,22.54,,-0.031915,-0.0063,-0.004224
12752,20120510,6726,CVRT,POWERSHARES E T F TRUST II,,22.45,23,-22.725,0,-0.001099,22.45,23,400,,,-0.001099,0.002666,0.002531
12752,20120511,6726,CVRT,POWERSHARES E T F TRUST II,,22.25,23,-22.625,0,-0.0044,22.25,23,400,,,-0.0044,-0.002942,-0.003938
12752,20120514,6726,CVRT,POWERSHARES E T F TRUST II,,22.98,22.98,22.98,200,0.015691,22.25,23,400,22.98,,0.015691,-0.012243,-0.012493
12752,20120515,6726,CVRT,POWERSHARES E T F TRUST II,,22.23,22.98,-22.605,0,-0.013837,22.23,22.98,400,,,-0.016319,-0.006167,-0.006623
12752,20120516,6726,CVRT,POWERSHARES E T F TRUST II,,21.53,22.26,22.104,4500,-0.022163,21.98,22.69,400,22.19,,-0.022163,-0.005159,-0.007936
12752,20120517,6726,CVRT,POWERSHARES E T F TRUST II,,21.8,22.54,21.8,2400,-0.013753,21.8,22.49,400,22.54,,-0.013753,-0.015942,-0.016
12752,20120518,6726,CVRT,POWERSHARES E T F TRUST II,,21.5,21.55,21.5,3000,-0.013761,21.43,22.25,400,21.51,,-0.013761,-0.008152,-0.009713
12752,20120521,6726,CVRT,POWERSHARES E T F TRUST II,,21.51,22.14,22.1352,3600,0.029544,21.67,22.18,400,21.95,,0.029544,0.017725,0.016239
12752,20120522,6726,CVRT,POWERSHARES E T F TRUST II,,22.05,22.34,22.1,600,-0.00159,21.61,22.1,400,22.34,,-0.00159,-0.000537,-0.004098
12752,20120523,6726,CVRT,POWERSHARES E T F TRUST II,,21.6,22.22,22.22,6100,0.00543,21.71,22.29,400,22.1,,0.00543,0.002735,0.002348
12752,20120524,6726,CVRT,POWERSHARES E T F TRUST II,,21.71,22.28,21.71,1200,-0.022952,21.66,22.24,400,22.28,,-0.022952,0.00089,0.00165
12752,20120525,6726,CVRT,POWERSHARES E T F TRUST II,,21.73,22.25,-21.99,0,0.012897,21.73,22.25,400,,,0.012897,-0.001556,0.001189
12752,20120529,6726,CVRT,POWERSHARES E T F TRUST II,,21.65,23,23,2400,0.04593,21.93,23,400,22.29,,0.04593,0.011087,0.00989
12752,20120530,6726,CVRT,POWERSHARES E T F TRUST II,,22.3599,22.99,22.88,1700,-0.005217,21.52,22.88,400,22.99,,-0.005217,-0.015727,-0.01451
12752,20120531,6726,CVRT,POWERSHARES E T F TRUST II,,21.58,22.7908,21.58,3400,-0.056818,21.65,22.51,400,22.7908,,-0.056818,-0.00205,-0.000549
12752,20120601,6726,CVRT,POWERSHARES E T F TRUST II,,22.15,22.4,22.15,700,0.026413,21.33,22.35,400,22.38,,0.026413,-0.024626,-0.02054
12752,20120604,6726,CVRT,POWERSHARES E T F TRUST II,,21.33,22.3,-21.815,0,-0.015124,21.33,22.3,400,,,-0.015124,-0.001032,-0.002296
12752,20120605,6726,CVRT,POWERSHARES E T F TRUST II,,21.63,22.35,-21.99,0,0.008022,21.63,22.35,400,,,0.008022,0.007817,0.008022
12752,20120606,6726,CVRT,POWERSHARES E T F TRUST II,,21.94,22.39,22.39,2700,0.01819,22,22.39,400,22.38,,0.01819,0.022479,0.019578
12752,20120607,6726,CVRT,POWERSHARES E T F TRUST II,,22.1,22.1,22.1,200,-0.012952,21.85,22.1,400,22.1,,-0.012952,-0.00144,-0.002134
12752,20120608,6726,CVRT,POWERSHARES E T F TRUST II,,21.65,22.3899,22.3899,1700,0.013118,22,22.49,400,21.65,,0.013118,0.007106,0.00539
12752,20120611,6726,CVRT,POWERSHARES E T F TRUST II,,22.76,22.76,22.76,300,0.01653,21.86,22.58,400,22.76,,0.01653,-0.01399,-0.013517
12752,20120612,6726,CVRT,POWERSHARES E T F TRUST II,,21.83,22.69,-22.26,0,-0.021968,21.83,22.69,400,,,-0.021968,0.011638,0.008853
12752,20120613,6726,CVRT,POWERSHARES E T F TRUST II,,22,22.4382,22.35,1000,0.004043,21.91,22.54,400,22,,0.004043,-0.007339,-0.007641
12752,20120614,6726,CVRT,POWERSHARES E T F TRUST II,,22.39,22.7,22.64,1400,0.012975,21.85,22.65,400,22.39,,0.012975,0.009466,0.00785
12752,20120615,6726,CVRT,POWERSHARES E T F TRUST II,,21.83,22.8,22.8,8100,0.00968,21.86,22.63,400,21.83,,0.007067,0.01003,0.008481
12752,20120618,6726,CVRT,POWERSHARES E T F TRUST II,,22.7,22.82,22.82,1300,0.000877,22.03,22.82,400,22.8,,0.000877,0.002173,0.001733
12752,20120619,6726,CVRT,POWERSHARES E T F TRUST II,,22.1,22.9,22.7501,5600,-0.003063,22.15,22.9,400,22.9,,-0.003063,0.011545,0.012798
12752,20120620,6726,CVRT,POWERSHARES E T F TRUST II,,22.1999,22.8501,22.64,11200,-0.00484,22.25,22.97,400,22.2,,-0.00484,-0.001541,-0.000687
12752,20120621,6726,CVRT,POWERSHARES E T F TRUST II,,22.4,23.1,22.4,8200,-0.010601,22.26,22.74,400,23,,-0.010601,-0.023661,-0.018777
12752,20120622,6726,CVRT,POWERSHARES E T F TRUST II,,22.209,22.751,22.59,14100,0.008482,22.08,23.12,400,22.75,,0.008482,0.007238,0.007544
12752,20120625,6726,CVRT,POWERSHARES E T F TRUST II,,22.12,22.69,22.35,14200,-0.010624,21.95,22.52,400,22.69,,-0.010624,-0.015536,-0.012052
12752,20120626,6726,CVRT,POWERSHARES E T F TRUST II,,22.25,22.6,22.54,6800,0.008501,22.18,22.54,400,22.55,,0.008501,0.004818,0.002861
12752,20120627,6726,CVRT,POWERSHARES E T F TRUST II,,22.35,22.61,22.4,2100,-0.006211,22.12,22.61,400,22.61,,-0.006211,0.008732,0.009343
12752,20120628,6726,CVRT,POWERSHARES E T F TRUST II,,22.3,22.6,22.6,300,0.008929,22.05,22.65,400,22.34,,0.008929,-0.002172,-0.002573
12752,20120629,6726,CVRT,POWERSHARES E T F TRUST II,,22.29,22.85,-22.57,0,-0.001327,22.29,22.85,400,,,-0.001327,0.025451,0.023253
12752,20120702,6726,CVRT,POWERSHARES E T F TRUST II,,22.29,23,-22.645,0,0.003323,22.29,23,400,,,0.003323,0.003733,0.006515
12752,20120703,6726,CVRT,POWERSHARES E T F TRUST II,,23.1,23.1,23.1,2500,0.020093,22.32,23.1,400,23.1,,0.020093,0.00878,0.01071
12752,20120705,6726,CVRT,POWERSHARES E T F TRUST II,,22.34,23.07,-22.705,0,-0.0171,22.34,23.07,400,,,-0.0171,-0.004134,-0.000756
12752,20120706,6726,CVRT,POWERSHARES E T F TRUST II,,22.35,23.0682,22.35,1100,-0.015635,22.3,23.04,400,23.0682,,-0.015635,-0.010191,-0.007735
12752,20120709,6726,CVRT,POWERSHARES E T F TRUST II,,22.4798,22.4798,22.4798,700,0.005808,22.3,23.04,400,22.4798,,0.005808,-0.002207,-0.002372
12752,20120710,6726,CVRT,POWERSHARES E T F TRUST II,,22.459,22.97,22.55,2100,0.003123,22.47,22.97,400,22.4599,,0.003123,-0.008819,-0.008379
12752,20120711,6726,CVRT,POWERSHARES E T F TRUST II,,22.51,22.8,22.75,3500,0.008869,22.47,22.87,400,22.51,,0.008869,-0.000419,-0.000427
12752,20120712,6726,CVRT,POWERSHARES E T F TRUST II,,22.55,22.85,22.619,2800,-0.005758,22.47,22.72,400,22.85,,-0.005758,-0.004912,-0.004265
12752,20120713,6726,CVRT,POWERSHARES E T F TRUST II,,22.52,22.75,22.57,4800,0.000316,22.43,22.85,400,22.549,,-0.002166,0.015232,0.010622
12752,20120716,6726,CVRT,POWERSHARES E T F TRUST II,,22.41,22.85,22.65,10900,0.003545,22.41,22.65,400,22.6,,0.003545,-0.002468,-0.003517
12752,20120717,6726,CVRT,POWERSHARES E T F TRUST II,,22.6,22.97,22.72,5900,0.00309,22.6,23.25,400,22.9,,0.00309,0.006705,0.002432
12752,20120718,6726,CVRT,POWERSHARES E T F TRUST II,,22.529,22.77,22.7,9700,-0.00088,22.65,23.1,400,22.53,,-0.00088,0.00614,0.003807
12752,20120719,6726,CVRT,POWERSHARES E T F TRUST II,,22.23,23.1565,22.7,7600,0,22.18,22.7,400,22.99,,0,0.002743,-0.000006
12752,20120720,6726,CVRT,POWERSHARES E T F TRUST II,,22.59,23.04,22.75,5900,0.002203,22.3,22.89,400,23.04,,0.002203,-0.009933,-0.008788
12752,20120723,6726,CVRT,POWERSHARES E T F TRUST II,,22.55,22.78,22.6,3200,-0.006593,22.14,22.6,400,22.73,,-0.006593,-0.010161,-0.012016
12752,20120724,6726,CVRT,POWERSHARES E T F TRUST II,,22.39,22.55,22.55,2800,-0.002212,22.13,22.68,400,22.55,,-0.002212,-0.009459,-0.009281
12752,20120725,6726,CVRT,POWERSHARES E T F TRUST II,,22.3,22.6,22.3,8600,-0.011086,22.05,22.67,400,22.6,,-0.011086,0.000691,0.002445
12752,20120726,6726,CVRT,POWERSHARES E T F TRUST II,,22.17,22.6,22.5,3300,0.008969,22.14,22.81,400,22.6,,0.008969,0.015475,0.008601
12752,20120727,6726,CVRT,POWERSHARES E T F TRUST II,,22.27,23.01,-22.64,0,0.006222,22.27,23.01,400,,,0.006222,0.018789,0.016403
12752,20120730,6726,CVRT,POWERSHARES E T F TRUST II,,22.2501,22.95,22.85,1100,0.009276,22.01,22.98,400,22.2501,,0.009276,-0.000858,-0.002895
12752,20120731,6726,CVRT,POWERSHARES E T F TRUST II,,22.86,23.05,23.0499,1200,0.008748,22.35,23.01,400,22.9,,0.008748,-0.004977,-0.003227
12752,20120801,6726,CVRT,POWERSHARES E T F TRUST II,,23.09,23.09,23.09,500,0.00174,22.22,23.06,400,23.09,,0.00174,-0.004649,-0.009215
12752,20120802,6726,CVRT,POWERSHARES E T F TRUST II,,22.51,23,22.54,5000,-0.02382,22.14,22.94,400,23,,-0.02382,-0.007394,-0.005728
12752,20120803,6726,CVRT,POWERSHARES E T F TRUST II,,22.3,23,-22.65,0,0.00488,22.3,23,400,,,0.00488,0.019079,0.017674
12752,20120806,6726,CVRT,POWERSHARES E T F TRUST II,,23.1,23.1,23.1,300,0.019868,22.77,23.1,400,23.1,,0.019868,0.003504,0.006599
12752,20120807,6726,CVRT,POWERSHARES E T F TRUST II,,22.4792,22.4792,22.4792,300,-0.026874,22.55,23.05,400,22.4792,,-0.026874,0.006321,0.0062
12752,20120808,6726,CVRT,POWERSHARES E T F TRUST II,,22.99,23.32,23.102,14700,0.027706,22.53,23.24,400,23.31,,0.027706,-0.0001,-0.001097
12752,20120809,6726,CVRT,POWERSHARES E T F TRUST II,,23.2,23.4,23.4,4900,0.012899,22.6,23.4,400,23.24,,0.012899,0.00133,0.003304
12752,20120810,6726,CVRT,POWERSHARES E T F TRUST II,,22.63,23.38,-23.005,0,-0.01688,22.63,23.38,400,,,-0.01688,0.001845,-0.000758
12752,20120813,6726,CVRT,POWERSHARES E T F TRUST II,,22.65,23.45,-23.05,0,0.001956,22.65,23.45,400,,,0.001956,-0.0021,-0.002392
12752,20120814,6726,CVRT,POWERSHARES E T F TRUST II,,23.3,23.47,23.4,10400,0.015184,22.65,23.45,400,23.46,,0.015184,-0.000139,-0.002297
12752,20120815,6726,CVRT,POWERSHARES E T F TRUST II,,23.11,23.45,23.45,4500,0.004515,22.66,23.45,400,23.45,,0.002137,0.002475,0.0044
12752,20120816,6726,CVRT,POWERSHARES E T F TRUST II,,23.332,23.55,23.55,4700,0.004264,22.66,23.55,400,23.44,,0.004264,0.007841,0.008012
12752,20120817,6726,CVRT,POWERSHARES E T F TRUST II,,23.5,23.59,23.59,800,0.001699,22.65,23.59,400,23.52,,0.001699,0.00262,0.004733
12752,20120820,6726,CVRT,POWERSHARES E T F TRUST II,,23.578,23.581,23.578,1800,-0.000509,23.48,23.58,400,23.58,,-0.000509,-0.000643,-0.001632
12752,20120821,6726,CVRT,POWERSHARES E T F TRUST II,,23.48,23.7,23.7,600,0.005174,23.48,23.7,400,23.6,,0.005174,-0.002371,-0.00066
12752,20120822,6726,CVRT,POWERSHARES E T F TRUST II,,23.48,23.6,23.6,1600,-0.004219,22.84,23.6,400,23.6,,-0.004219,-0.000167,-0.001911
12752,20120823,6726,CVRT,POWERSHARES E T F TRUST II,,23.598,23.598,23.598,100,-0.000085,22.83,23.6,400,23.598,,-0.000085,-0.007352,-0.00456
12752,20120824,6726,CVRT,POWERSHARES E T F TRUST II,,22.924,23.6,23.59,1400,-0.000339,22.93,23.59,400,23.367,,-0.000339,0.005368,0.0032
12752,20120827,6726,CVRT,POWERSHARES E T F TRUST II,,22.9,24.05,-23.475,0,-0.004875,22.9,24.05,400,,,-0.004875,-0.000575,-0.000593
12752,20120828,6726,CVRT,POWERSHARES E T F TRUST II,,23.54,23.59,23.55,7900,0.003195,23.15,23.51,400,23.59,,0.003195,0.000208,0.002364
12752,20120829,6726,CVRT,POWERSHARES E T F TRUST II,,23.35,23.52,23.35,1000,-0.008493,23.35,23.58,400,23.45,,-0.008493,0.000747,0.001643
12752,20120830,6726,CVRT,POWERSHARES E T F TRUST II,,23.05,23.19,23.18,2900,-0.007281,23.05,23.39,400,23.05,,-0.007281,-0.007942,-0.007645
12752,20120831,6726,CVRT,POWERSHARES E T F TRUST II,,23.3986,23.4,23.3986,2000,0.009431,23.1,23.4,400,23.4,,0.009431,0.005857,0.005276
12752,20120904,6726,CVRT,POWERSHARES E T F TRUST II,,23.4,23.5862,23.5862,2200,0.008018,23.4,23.6,400,23.4,,0.008018,0.000576,0.003103
12752,20120905,6726,CVRT,POWERSHARES E T F TRUST II,,23.54,23.6,23.592,2800,0.000246,23.28,23.6,400,23.6,,0.000246,-0.000794,-0.000793
12752,20120906,6726,CVRT,POWERSHARES E T F TRUST II,,23.25,23.91,-23.58,0,-0.000509,23.25,23.91,400,,,-0.000509,0.01932,0.013613
12752,20120907,6726,CVRT,POWERSHARES E T F TRUST II,,23.814,23.95,23.814,200,0.009924,23.5,23.95,400,23.95,,0.009924,0.005609,0.006393
12752,20120910,6726,CVRT,POWERSHARES E T F TRUST II,,23.51,23.9,23.9,5700,0.003611,23.41,23.95,400,23.57,,0.003611,-0.005723,-0.001868
12752,20120911,6726,CVRT,POWERSHARES E T F TRUST II,,23.88,23.9938,23.88,600,-0.000837,23.4,24,400,23.9938,,-0.000837,0.003408,0.004897
12752,20120912,6726,CVRT,POWERSHARES E T F TRUST II,,23.42,23.9283,23.9283,12000,0.002023,23.47,23.93,400,23.52,,0.002023,0.00232,0.003495
12752,20120913,6726,CVRT,POWERSHARES E T F TRUST II,,23.9999,23.9999,23.9999,400,0.002992,23.5,24,400,23.9999,,0.002992,0.015179,0.011148
12752,20120914,6726,CVRT,POWERSHARES E T F TRUST II,,24.09,24.1,24.09,300,0.006679,23.51,24.1,400,24.1,,0.003754,0.006128,0.008127
12752,20120917,6726,CVRT,POWERSHARES E T F TRUST II,,24.42,24.45,24.446,700,0.014778,24.2,24.45,400,24.42,,0.014778,-0.004582,-0.004204
12752,20120918,6726,CVRT,POWERSHARES E T F TRUST II,,23.95,24.2,24.15,700,-0.012108,23.55,24.15,400,24.2,,-0.012108,-0.001814,-0.000369
12752,20120919,6726,CVRT,POWERSHARES E T F TRUST II,,23.55,24.27,24.23,20500,0.003313,23.61,24.23,400,23.55,,0.003313,0.001262,0.001704
12752,20120920,6726,CVRT,POWERSHARES E T F TRUST II,,24.1,24.22,24.22,2700,-0.000413,23.62,24.22,400,24.22,,-0.000413,-0.002056,-0.003733
12752,20120921,6726,CVRT,POWERSHARES E T F TRUST II,,23.59,24.29,-23.94,0,-0.011561,23.59,24.29,400,,,-0.011561,0.000373,0.004826
12752,20120924,6726,CVRT,POWERSHARES E T F TRUST II,,24,24.3,24.17,4300,0.009607,24.15,24.3,400,24.129,,0.009607,-0.003196,-0.003377
12752,20120925,6726,CVRT,POWERSHARES E T F TRUST II,,24.15,24.15,24.15,800,-0.000827,23.95,24.29,400,24.15,,-0.000827,-0.010896,-0.009693
12752,20120926,6726,CVRT,POWERSHARES E T F TRUST II,,23.55,24.17,23.56,9100,-0.024431,23.54,23.7,400,24.15,,-0.024431,-0.005756,-0.005113
12752,20120927,6726,CVRT,POWERSHARES E T F TRUST II,,23.82,23.99,23.98,4000,0.017827,23.75,23.98,400,23.94,,0.017827,0.009947,0.00892
12752,20120928,6726,CVRT,POWERSHARES E T F TRUST II,,23.42,23.97,-23.695,0,-0.011885,23.42,23.97,400,,,-0.011885,-0.004535,-0.003469
12752,20121001,6726,CVRT,POWERSHARES E T F TRUST II,,24.2,24.2,24.2,200,0.021313,23.55,24.25,400,24.2,,0.021313,0.002709,0.002595
12752,20121002,6726,CVRT,POWERSHARES E T F TRUST II,,23.9,24.22,23.9,2100,-0.012397,23.85,24.1,400,24.22,,-0.012397,0.001139,0.00035
12752,20121003,6726,CVRT,POWERSHARES E T F TRUST II,,23.42,24.1,-23.76,0,-0.005858,23.42,24.1,400,,,-0.005858,0.002362,-0.000138
12752,20121004,6726,CVRT,POWERSHARES E T F TRUST II,,23.52,24.1,-23.81,0,0.002104,23.52,24.1,400,,,0.002104,0.007652,0.006541
12752,20121005,6726,CVRT,POWERSHARES E T F TRUST II,,23.27,24.25,23.5,2100,-0.01302,23.7,24.25,400,24.25,,-0.01302,-0.000369,-0.000848
12752,20121008,6726,CVRT,POWERSHARES E T F TRUST II,,24.04,24.239,24.11,5800,0.025957,23.91,24.2,400,24.23,,0.025957,-0.003573,-0.003513
12752,20121009,6726,CVRT,POWERSHARES E T F TRUST II,,23.94,24.22,23.94,2900,-0.007051,23.77,23.99,400,24.22,,-0.007051,-0.009804,-0.009159
12752,20121010,6726,CVRT,POWERSHARES E T F TRUST II,,23.6,23.62,23.62,400,-0.013367,23.61,23.8,400,23.6,,-0.013367,-0.005611,-0.004178
12752,20121011,6726,CVRT,POWERSHARES E T F TRUST II,,23.25,24.03,-23.64,0,0.000847,23.25,24.03,400,,,0.000847,0.001582,0.004311
12752,20121012,6726,CVRT,POWERSHARES E T F TRUST II,,24.0746,24.0746,24.0746,1000,0.018384,23.42,24.1,400,24.0746,,0.018384,-0.003527,-0.004332
12752,20121015,6726,CVRT,POWERSHARES E T F TRUST II,,23.97,24.149,23.97,1600,-0.002661,23.3,24.15,400,24.07,,-0.004345,0.007228,0.004164
12752,20121016,6726,CVRT,POWERSHARES E T F TRUST II,,24.15,24.15,24.15,300,0.007509,23.34,23.99,400,24.15,,0.007509,0.009926,0.007031
12752,20121017,6726,CVRT,POWERSHARES E T F TRUST II,,23.9,24.15,24.1,1600,-0.00207,23.75,24.1,400,24.15,,-0.00207,0.004993,0.005563
12752,20121018,6726,CVRT,POWERSHARES E T F TRUST II,,24,24,24,100,-0.004149,23.75,24,400,24,,-0.004149,-0.002776,-0.003914
12752,20121019,6726,CVRT,POWERSHARES E T F TRUST II,,23.98,24,23.98,2600,-0.000833,23.5,23.98,400,24,,-0.000833,-0.015646,-0.013008
12752,20121022,6726,CVRT,POWERSHARES E T F TRUST II,,24,24.27,24.27,2000,0.012093,23.3,24.27,400,24,,0.012093,0.000165,-0.000325
12752,20121023,6726,CVRT,POWERSHARES E T F TRUST II,,23.6526,23.96,23.74,900,-0.021838,23.07,23.74,400,23.96,,-0.021838,-0.012991,-0.00699
12752,20121024,6726,CVRT,POWERSHARES E T F TRUST II,,23.21,23.9,23.22,4000,-0.021904,23.02,23.8,400,23.69,,-0.021904,-0.002626,-0.001419
12752,20121025,6726,CVRT,POWERSHARES E T F TRUST II,,23.6,23.85,23.85,2900,0.027132,23.16,23.74,400,23.83,,0.027132,0.003279,0.002125
12752,20121026,6726,CVRT,POWERSHARES E T F TRUST II,,23.659,23.799,23.659,4500,-0.008008,22.97,23.7,400,23.799,,-0.008008,-0.001384,-0.001858
12752,20121031,6726,CVRT,POWERSHARES E T F TRUST II,,23.3372,23.6,23.6,8500,-0.002494,22.87,23.6,400,23.55,,-0.002494,0.002192,0.003228
12752,20121101,6726,CVRT,POWERSHARES E T F TRUST II,,23.4,23.7,23.5894,8500,-0.000449,22.89,23.6,400,23.4,,-0.000449,0.011076,0.009557
12752,20121102,6726,CVRT,POWERSHARES E T F TRUST II,,23.8,23.8,23.8,1000,0.008928,22.77,23.8,400,23.8,,0.008928,-0.009797,-0.008813
12752,20121105,6726,CVRT,POWERSHARES E T F TRUST II,,22.93,23.7,-23.315,0,-0.020378,22.93,23.7,400,,,-0.020378,0.00207,0.00308
12752,20121106,6726,CVRT,POWERSHARES E T F TRUST II,,23.301,23.8,23.4,3000,0.003646,23.26,23.8,400,23.8,,0.003646,0.007713,0.005972
12752,20121107,6726,CVRT,POWERSHARES E T F TRUST II,,23.25,23.8,23.65,11500,0.010684,22.95,23.65,400,23.8,,0.010684,-0.021697,-0.018066
12752,20121108,6726,CVRT,POWERSHARES E T F TRUST II,,21.61,23.38,23.25,9700,-0.016913,23,23.41,400,21.61,,-0.016913,-0.011597,-0.009684
12752,20121109,6726,CVRT,POWERSHARES E T F TRUST II,,23.15,23.4,23.18,15300,-0.003011,22.76,23.4,400,23.2,,-0.003011,0.000895,-0.000668
12752,20121112,6726,CVRT,POWERSHARES E T F TRUST II,,22.5392,22.71,22.71,400,-0.020276,22.88,23.46,400,22.5392,,-0.020276,-0.00022,-0.001908
12752,20121113,6726,CVRT,POWERSHARES E T F TRUST II,,22.845,23.351,23.3501,3300,0.028186,22.79,23.47,400,22.845,,0.028186,-0.004436,-0.006196
12752,20121114,6726,CVRT,POWERSHARES E T F TRUST II,,22.55,23.2,-22.875,0,-0.020347,22.55,23.2,400,,,-0.020347,-0.014976,-0.01576
12752,20121115,6726,CVRT,POWERSHARES E T F TRUST II,,22.2,23.1,-22.65,0,-0.007322,22.2,23.1,400,,,-0.009836,-0.003108,-0.006326
12752,20121116,6726,CVRT,POWERSHARES E T F TRUST II,,23.0999,23.0999,23.0999,100,0.019863,22.15,23.05,400,23.0999,,0.019863,0.006103,0.005619
12752,20121119,6726,CVRT,POWERSHARES E T F TRUST II,,23.2,23.2899,23.2,1200,0.004333,22.45,23.25,400,23.2899,,0.004333,0.019049,0.016446
12752,20121120,6726,CVRT,POWERSHARES E T F TRUST II,,22.46,23,23,800,-0.008621,23,23.2,400,22.46,,-0.008621,0.000901,0.00074
12752,20121121,6726,CVRT,POWERSHARES E T F TRUST II,,23.2,23.2418,23.2,500,0.008696,22.8,23.2,400,23.2418,,0.008696,0.003088,0.004732
12752,20121123,6726,CVRT,POWERSHARES E T F TRUST II,,23.06,23.2,23.2,900,0,23.14,23.2,400,23.06,,0,0.012618,0.010054
12752,20121126,6726,CVRT,POWERSHARES E T F TRUST II,,23.1,23.248,23.248,1000,0.002069,22.72,23.4,400,23.1,,0.002069,-0.001693,0.001119
12752,20121127,6726,CVRT,POWERSHARES E T F TRUST II,,23.391,23.53,23.391,2200,0.006151,23.09,23.49,400,23.53,,0.006151,-0.00451,-0.000963
12752,20121128,6726,CVRT,POWERSHARES E T F TRUST II,,23.25,23.6,23.37,4700,-0.000898,22.98,23.5,400,23.49,,-0.000898,0.007189,0.004772
12752,20121129,6726,CVRT,POWERSHARES E T F TRUST II,,23.65,23.75,23.65,1400,0.011981,23.5,23.75,400,23.75,,0.011981,0.004978,0.008425
12752,20121130,6726,CVRT,POWERSHARES E T F TRUST II,,23.4,23.75,23.68,6100,0.001269,22.99,23.68,400,23.74,,0.001269,0.000252,0.000901
12752,20121203,6726,CVRT,POWERSHARES E T F TRUST II,,23.1801,23.99,23.49,3600,-0.008024,23.1,23.99,400,23.78,,-0.008024,-0.004297,-0.002236
12752,20121204,6726,CVRT,POWERSHARES E T F TRUST II,,23.6,24.59,23.7144,1200,0.009553,23.25,23.7,400,23.6,,0.009553,-0.001371,-0.001161
12752,20121205,6726,CVRT,POWERSHARES E T F TRUST II,,23.814,24.85,24.11,900,0.016682,23.27,24.11,400,24.85,,0.016682,0.001404,-0.000275
12752,20121206,6726,CVRT,POWERSHARES E T F TRUST II,,24.1,24.1,24.1,200,-0.000415,23.99,24.12,400,24.1,,-0.000415,0.002338,0.000448
12752,20121207,6726,CVRT,POWERSHARES E T F TRUST II,,24.15,24.17,24.17,600,0.002905,23.99,24.24,400,24.15,,0.002905,0.00246,0.001127
12752,20121210,6726,CVRT,POWERSHARES E T F TRUST II,,23.4,23.8,23.7999,1400,-0.015312,23.22,23.8,400,23.8,,-0.015312,0.001425,0.002594
12752,20121211,6726,CVRT,POWERSHARES E T F TRUST II,,23.4,23.93,23.93,500,0.005466,23.38,23.93,400,23.4,,0.005466,0.006128,0.007206
12752,20121212,6726,CVRT,POWERSHARES E T F TRUST II,,23.56,24,24,3000,0.002925,23.5,23.97,400,23.56,,0.002925,-0.000097,-0.000931
12752,20121213,6726,CVRT,POWERSHARES E T F TRUST II,,23.5625,23.94,23.74,3200,-0.010833,23.37,23.89,400,23.62,,-0.010833,-0.006196,-0.004505
12752,20121214,6726,CVRT,POWERSHARES E T F TRUST II,,23.4199,23.89,23.89,9100,0.008707,23.37,23.89,400,23.4199,,0.006318,-0.003192,0.000757
12752,20121217,6726,CVRT,POWERSHARES E T F TRUST II,,23.38,23.8,23.74,11600,-0.006279,23.28,23.74,400,23.78,,-0.006279,0.010147,0.006348
12752,20121218,6726,CVRT,POWERSHARES E T F TRUST II,,23.46,23.46,23.46,100,-0.011794,23.48,24,400,23.46,,-0.011794,0.010818,0.00905
12752,20121219,6726,CVRT,POWERSHARES E T F TRUST II,,23.72,24.15,24.1,8600,0.027281,23.53,24.1,400,23.95,,0.027281,-0.004829,0.000447
12752,20121220,6726,CVRT,POWERSHARES E T F TRUST II,,23.6229,24.1,23.6229,4800,-0.019797,23.4,24.1,400,24.1,,-0.019797,0.004651,0.004035
12752,20121221,6726,CVRT,POWERSHARES E T F TRUST II,,24.1,24.1,24.1,6800,0.020197,23.11,24.1,400,24.1,,0.020197,-0.008636,-0.006072
12752,20121224,6726,CVRT,POWERSHARES E T F TRUST II,,24.05,24.1,24.05,300,-0.002075,23.59,24.1,400,24.1,,-0.002075,-0.002399,-0.003032
12752,20121226,6726,CVRT,POWERSHARES E T F TRUST II,,23.17,24,23.88,3300,-0.007069,23.46,23.98,400,23.59,,-0.007069,-0.005058,-0.003441
12752,20121227,6726,CVRT,POWERSHARES E T F TRUST II,,23.6,23.91,23.6,2900,-0.011725,23.34,23.91,400,23.9,,-0.011725,-0.000918,-0.002331
12752,20121228,6726,CVRT,POWERSHARES E T F TRUST II,,23.88,23.9,23.9,500,0.012712,23.03,23.9,400,23.88,,0.012712,-0.00939,-0.004243
12752,20121231,6726,CVRT,POWERSHARES E T F TRUST II,,23.025,23.95,23.84,23100,-0.00251,23.48,24,400,23.38,,-0.00251,0.016416,0.014957
12752,20130102,6726,CVRT,POWERSHARES E T F TRUST II,,23.53,24.54,23.75,16500,-0.003775,23.75,24.2,400,24.41,,-0.003775,0.02482,0.024095
12752,20130103,6726,CVRT,POWERSHARES E T F TRUST II,,23.82,24.13,23.9,39100,0.006316,23.95,24.13,400,23.86,,0.006316,-0.001909,0.000456
12752,20130104,6726,CVRT,POWERSHARES E T F TRUST II,,23.95,24.21,24.04,13500,0.005858,23.89,24.26,400,23.98,,0.005858,0.005624,0.007403
12752,20130107,6726,CVRT,POWERSHARES E T F TRUST II,,23.65,24.45,23.67,6400,-0.015391,23.67,24.45,400,24.45,,-0.015391,-0.002555,-0.000452
12752,20130108,6726,CVRT,POWERSHARES E T F TRUST II,,23.99,24.22,24.01,9800,0.014364,23.74,24.47,400,24,,0.014364,-0.002437,-0.000547
12752,20130109,6726,CVRT,POWERSHARES E T F TRUST II,,24,24.366,24.04,4500,0.00125,23.74,24.43,400,24,,0.00125,0.003388,0.005259
12752,20130110,6726,CVRT,POWERSHARES E T F TRUST II,,23.77,24.24,24.22,18900,0.007487,23.99,24.39,400,23.97,,0.007487,0.006792,0.003818
12752,20130111,6726,CVRT,POWERSHARES E T F TRUST II,,23.95,24.3501,24.23,12200,0.000413,23.96,24.49,400,24.18,,0.000413,0.000152,0.00062
12752,20130114,6726,CVRT,POWERSHARES E T F TRUST II,,24.1,24.5,24.1,23000,-0.003033,24.1,24.49,400,24.2,,-0.005365,-0.000351,0.000439
12752,20130115,6726,CVRT,POWERSHARES E T F TRUST II,,24.01,24.15,24.01,8100,-0.003734,24.01,24.25,400,24.049,,-0.003734,0.001943,0.001872
12752,20130116,6726,CVRT,POWERSHARES E T F TRUST II,,24.04,24.1,24.05,3300,0.001666,24.04,24.35,400,24.05,,0.001666,-0.000814,-0.001536
12752,20130117,6726,CVRT,POWERSHARES E T F TRUST II,,24.352,24.45,24.445,2400,0.016424,24,24.45,400,24.352,,0.016424,0.005906,0.006745
12752,20130118,6726,CVRT,POWERSHARES E T F TRUST II,,24.1752,24.524,24.44,1500,-0.000205,24.23,24.51,400,24.524,,-0.000205,0.002922,0.002357
12752,20130122,6726,CVRT,POWERSHARES E T F TRUST II,,24.1,24.23,24.1,11400,-0.013912,24.11,24.49,400,24.23,,-0.013912,0.005109,0.0061
12752,20130123,6726,CVRT,POWERSHARES E T F TRUST II,,24.1,24.49,24.12,25200,0.00083,24.1,24.49,400,24.49,,0.00083,0.000261,-0.000793
12752,20130124,6726,CVRT,POWERSHARES E T F TRUST II,,24.25,24.5776,24.5,7700,0.015755,24.35,24.62,400,24.5776,,0.015755,0.000619,0.00151
12752,20130125,6726,CVRT,POWERSHARES E T F TRUST II,,24.4601,24.79,24.75,6600,0.010204,24.51,24.84,400,24.62,,0.010204,0.005238,0.002817
12752,20130128,6726,CVRT,POWERSHARES E T F TRUST II,,24.5,24.75,24.74,3500,-0.000404,24.47,24.95,400,24.51,,-0.000404,-0.001345,0.000399
12752,20130129,6726,CVRT,POWERSHARES E T F TRUST II,,24.36,24.7,24.41,7400,-0.013339,24.41,24.85,400,24.544,,-0.013339,0.003509,0.002696
12752,20130130,6726,CVRT,POWERSHARES E T F TRUST II,,24.4001,24.6021,24.6021,4200,0.00787,24.32,24.76,400,24.45,,0.00787,-0.0041,-0.004937
12752,20130131,6726,CVRT,POWERSHARES E T F TRUST II,,24.46,24.77,24.54,10900,-0.002524,24.42,24.85,300,24.48,,-0.002524,-0.00084,0.002841
12752,20130201,6726,CVRT,POWERSHARES E T F TRUST II,,24.57,24.85,24.7,13800,0.00652,24.61,24.85,300,24.81,,0.00652,0.00921,0.00816
12752,20130204,6726,CVRT,POWERSHARES E T F TRUST II,,24.69,24.87,24.79,13400,0.003644,24.56,24.84,300,24.87,,0.003644,-0.011063,-0.009387
12752,20130205,6726,CVRT,POWERSHARES E T F TRUST II,,24.79,24.9,24.9,400,0.004437,24.51,24.89,300,24.79,,0.004437,0.009121,0.007036
12752,20130206,6726,CVRT,POWERSHARES E T F TRUST II,,24.89,25,24.95,5300,0.002008,24.52,25,300,24.95,,0.002008,0.001182,0.002261
12752,20130207,6726,CVRT,POWERSHARES E T F TRUST II,,24.61,25.1,24.61,5700,-0.013627,24.65,25.09,300,24.95,,-0.013627,-0.002407,-0.002495
12752,20130208,6726,CVRT,POWERSHARES E T F TRUST II,,24.95,25.2,25.15,4600,0.021942,24.83,25.17,300,24.95,,0.021942,0.005381,0.003908
12752,20130211,6726,CVRT,POWERSHARES E T F TRUST II,,24.79,25.25,25.24,4200,0.003579,24.79,25.25,300,25.15,,0.003579,-0.001048,-0.000209
12752,20130212,6726,CVRT,POWERSHARES E T F TRUST II,,25.16,25.25,25.16,4100,-0.00317,25.17,25.25,300,25.23,,-0.00317,0.002137,0.003477
12752,20130213,6726,CVRT,POWERSHARES E T F TRUST II,,24.85,25.4,24.93,42300,-0.009141,24.9,25.08,300,25.4,,-0.009141,0.001023,0.001107
12752,20130214,6726,CVRT,POWERSHARES E T F TRUST II,,24.9,25.34,24.93,2600,0,24.9,25.31,300,24.9,,0,0.00072,0.001495
12752,20130215,6726,CVRT,POWERSHARES E T F TRUST II,,24.7301,24.7301,24.7301,500,-0.008018,24.74,25.42,300,24.7301,,-0.008018,-0.002089,-0.001758
12752,20130219,6726,CVRT,POWERSHARES E T F TRUST II,,25.3,25.7899,25.3,15900,0.023045,25.3,25.74,300,25.32,,0.023045,0.006794,0.006107
12752,20130220,6726,CVRT,POWERSHARES E T F TRUST II,,25,25.2922,25.29,17600,-0.000395,24.78,25.27,300,25.08,,-0.000395,-0.013355,-0.013123
12752,20130221,6726,CVRT,POWERSHARES E T F TRUST II,,24.65,25.051,25.02,2600,-0.010676,24.63,25.2,300,25.02,,-0.010676,-0.007201,-0.007363
12752,20130222,6726,CVRT,POWERSHARES E T F TRUST II,,24.5,25.19,24.5,2100,-0.020783,24.55,25.17,300,25.19,,-0.020783,0.008582,0.00751
12752,20130225,6726,CVRT,POWERSHARES E T F TRUST II,,25.011,25.35,25.2954,4000,0.032465,24.86,25.24,300,25.14,,0.032465,-0.017155,-0.01411
12752,20130226,6726,CVRT,POWERSHARES E T F TRUST II,,24.63,25.07,25.03,3900,-0.010492,24.87,25.07,300,24.7301,,-0.010492,0.005532,0.003545
12752,20130227,6726,CVRT,POWERSHARES E T F TRUST II,,,,,,,,,,,,,0.012064,0.007339
