PERMNO,date,SICCD,TICKER,COMNAM,NMSIND,BIDLO,ASKHI,PRC,VOL,RET,BID,ASK,SHROUT,OPENPRC,NUMTRD,RETX,vwretx,ewretx
10028,20080102,5094,DGC,D G S E COMPANIES INC,,5.18,5.25,5.21,13700,-0.007619,5.15,5.21,9900,5.2,,-0.007619,-0.011965,-0.006655
10028,20080103,5094,DGC,D G S E COMPANIES INC,,5,5.21,5,2900,-0.040307,4.94,5,9900,5.1,,-0.040307,-0.000957,-0.004569
10028,20080104,5094,DGC,D G S E COMPANIES INC,,4.92,5,5,1700,0,4.95,5,9900,5,,0,-0.025651,-0.022428
10028,20080107,5094,DGC,D G S E COMPANIES INC,,4.85,5,4.9,5000,-0.02,4.8,4.9,9900,4.87,,-0.02,0.000177,-0.001906
10028,20080108,5094,DGC,D G S E COMPANIES INC,,4.1001,4.9,4.35,10800,-0.112245,4.3,4.35,9900,4.86,,-0.112245,-0.017246,-0.014073
10028,20080109,5094,DGC,D G S E COMPANIES INC,,4,4.45,4.12,8600,-0.052874,4.12,4.25,9900,4.25,,-0.052874,0.009933,-0.000568
10028,20080110,5094,DGC,D G S E COMPANIES INC,,4.1,4.45,4.24,10600,0.029126,4.24,4.35,9900,4.18,,0.029126,0.008375,0.009638
10028,20080111,5094,DGC,D G S E COMPANIES INC,,4.35,4.65,4.65,12600,0.096698,4.55,4.7,9900,4.4,,0.096698,-0.013966,-0.011448
10028,20080114,5094,DGC,D G S E COMPANIES INC,,4.09,4.89,4.2,15700,-0.096774,4.1,4.21,9900,4.6,,-0.096774,0.010449,0.007768
10028,20080115,5094,DGC,D G S E COMPANIES INC,,4.02,4.2,4.16,3300,-0.009524,4.05,4.2,9900,4.15,,-0.009524,-0.024743,-0.018449
10028,20080116,5094,DGC,D G S E COMPANIES INC,,4.2499,4.45,4.37,6700,0.050481,4.3,4.45,9900,4.25,,0.050481,-0.006756,-0.000147
10028,20080117,5094,DGC,D G S E COMPANIES INC,,4.09,4.3,4.3,3700,-0.016018,4.2,4.36,9900,4.3,,-0.016018,-0.027749,-0.021664
10028,20080118,5094,DGC,D G S E COMPANIES INC,,4.2,4.45,4.3501,16000,0.011651,4.35,4.38,9900,4.3,,0.011651,-0.005592,-0.007332
10028,20080122,5094,DGC,D G S E COMPANIES INC,,4.07,4.4,4.35,14700,-0.000023,4.3,4.45,9900,4.07,,-0.000023,-0.009456,-0.010386
10028,20080123,5094,DGC,D G S E COMPANIES INC,,4.1501,4.35,4.33,4000,-0.004598,4.33,4.43,9900,4.35,,-0.004598,0.019772,0.018187
10028,20080124,5094,DGC,D G S E COMPANIES INC,,4.3,4.41,4.4,6800,0.016166,4.4,4.5,9900,4.4,,0.016166,0.012535,0.011062
10028,20080125,5094,DGC,D G S E COMPANIES INC,,4.06,4.4,4.06,4000,-0.077273,4,4.25,9900,4.31,,-0.077273,-0.013001,-0.001545
10028,20080128,5094,DGC,D G S E COMPANIES INC,,4.25,4.44,4.4,13100,0.083744,4.3,4.44,9900,4.25,,0.083744,0.017161,0.013493
10028,20080129,5094,DGC,D G S E COMPANIES INC,,4.36,4.45,4.44,17000,0.009091,4.44,4.5,9900,4.36,,0.009091,0.006287,0.007579
10028,20080130,5094,DGC,D G S E COMPANIES INC,,4.4,4.5,4.5,3900,0.013514,4.4,4.55,9900,4.48,,0.013514,-0.005471,-0.002636
10028,20080131,5094,DGC,D G S E COMPANIES INC,4,4.6,4.7,4.7,2800,0.044444,4.7,4.8,9900,4.6,,0.044444,0.014823,0.015102
10028,20080201,5094,DGC,D G S E COMPANIES INC,,4.73,4.9,4.75,3400,0.010638,4.75,4.9,9900,4.73,,0.010638,0.015966,0.015673
10028,20080204,5094,DGC,D G S E COMPANIES INC,,4.7,4.94,4.85,4300,0.021053,4.75,4.9,9900,4.94,,0.021053,-0.009007,-0.003053
10028,20080205,5094,DGC,D G S E COMPANIES INC,,4.8001,4.85,4.8001,300,-0.010289,4.85,4.9,9900,4.85,,-0.010289,-0.030929,-0.021632
10028,20080206,5094,DGC,D G S E COMPANIES INC,,4.82,4.88,4.88,4100,0.016646,4.85,4.88,9900,4.85,,0.016646,-0.008268,-0.007339
10028,20080207,5094,DGC,D G S E COMPANIES INC,,4.82,4.95,4.95,51800,0.014344,4.95,5,9900,4.9,,0.014344,0.007562,0.005105
10028,20080208,5094,DGC,D G S E COMPANIES INC,,4.9,5.05,5,33300,0.010101,5,5.07,9900,4.9,,0.010101,-0.002103,-0.002793
10028,20080211,5094,DGC,D G S E COMPANIES INC,,5,5.1,5.06,46400,0.012,5.03,5.08,9900,5.1,,0.012,0.005764,0.002776
10028,20080212,5094,DGC,D G S E COMPANIES INC,,4.97,5.2,5,115400,-0.011858,4.95,5,9900,5.1,,-0.011858,0.00623,0.004074
10028,20080213,5094,DGC,D G S E COMPANIES INC,,4.95,5.1,5,58700,0,4.9,5,9900,5.05,,0,0.014027,0.01276
10028,20080214,5094,DGC,D G S E COMPANIES INC,,4.58,5,4.85,30200,-0.03,4.7,4.9,9900,4.58,,-0.03,-0.013234,-0.013663
10028,20080215,5094,DGC,D G S E COMPANIES INC,,4.89,5,4.98,30600,0.026804,4.9,5,9900,4.9,,0.026804,-0.000498,-0.004099
10028,20080219,5094,DGC,D G S E COMPANIES INC,,5.0499,5.1,5.0499,6400,0.014036,5,5.1,9900,5.1,,0.014036,0.000535,0.002507
10028,20080220,5094,DGC,D G S E COMPANIES INC,,4.9001,5,4.97,27300,-0.015822,4.97,5.05,9900,5,,-0.015822,0.008783,0.00497
10028,20080221,5094,DGC,D G S E COMPANIES INC,,4.98,5.03,5,31500,0.006036,5,5.05,9900,5.03,,0.006036,-0.012067,-0.009713
10028,20080222,5094,DGC,D G S E COMPANIES INC,,4.95,5.0001,5,20900,0,4.9,5,9900,5.0001,,0,0.006707,0.000367
10028,20080225,5094,DGC,D G S E COMPANIES INC,,4.95,5,4.95,10800,-0.01,4.95,5,9900,4.95,,-0.01,0.015038,0.013319
10028,20080226,5094,DGC,D G S E COMPANIES INC,,4.77,5.15,5.01,74000,0.012121,5.02,5.1,9900,4.85,,0.012121,0.008214,0.009566
10028,20080227,5094,DGC,D G S E COMPANIES INC,,4.9501,5.05,5.05,37300,0.007984,5.03,5.05,9900,5,,0.007984,-0.000963,-0.000165
10028,20080228,5094,DGC,D G S E COMPANIES INC,,4.9,5.25,5.25,25100,0.039604,5.19,5.25,9900,4.9,,0.039604,-0.007812,-0.008768
10028,20080229,5094,DGC,D G S E COMPANIES INC,4,5.3,5.41,5.4,8800,0.028571,5.25,5.4,9900,5.3,,0.028571,-0.026168,-0.020187
10028,20080303,5094,DGC,D G S E COMPANIES INC,,5.15,5.45,5.15,12600,-0.046296,5.15,5.29,9900,5.4,,-0.046296,-0.000485,-0.005238
10028,20080304,5094,DGC,D G S E COMPANIES INC,,5.05,5.2001,5.15,25400,0,5.05,5.22,9900,5.06,,0,-0.004804,-0.006747
10028,20080305,5094,DGC,D G S E COMPANIES INC,,5.2,5.38,5.2,6000,0.009709,5.2,5.22,9900,5.22,,0.009709,0.006594,0.003172
10028,20080306,5094,DGC,D G S E COMPANIES INC,,5.15,5.25,5.16,6300,-0.007692,5.16,5.27,9900,5.2,,-0.007692,-0.022149,-0.021506
10028,20080307,5094,DGC,D G S E COMPANIES INC,,4.77,5.15,4.77,25700,-0.075581,4.77,5.12,9900,5.15,,-0.075581,-0.008779,-0.007707
10028,20080310,5094,DGC,D G S E COMPANIES INC,,4.8,5.1,5.08,10100,0.06499,5,5.1,9900,4.86,,0.06499,-0.01825,-0.020884
10028,20080311,5094,DGC,D G S E COMPANIES INC,,4.97,5.12,5.07,2200,-0.001968,5,5.12,9900,5.11,,-0.001968,0.035732,0.026985
10028,20080312,5094,DGC,D G S E COMPANIES INC,,5,5.1199,5,700,-0.013807,4.92,5,9900,5.1199,,-0.013807,-0.00733,-0.00462
10028,20080313,5094,DGC,D G S E COMPANIES INC,,4.55,4.96,4.76,29500,-0.048,4.76,4.9,9900,4.55,,-0.048,0.007226,0.007298
10028,20080314,5094,DGC,D G S E COMPANIES INC,,4.6001,4.9,4.6001,4400,-0.033592,4.6,4.8,9900,4.8,,-0.033592,-0.020023,-0.018222
10028,20080317,5094,DGC,D G S E COMPANIES INC,,4.6,4.81,4.65,2900,0.010848,4.65,4.85,9900,4.7,,0.010848,-0.015035,-0.020983
10028,20080318,5094,DGC,D G S E COMPANIES INC,,4.5,4.65,4.5,2800,-0.032258,4.47,4.62,9900,4.65,,-0.032258,0.039537,0.028376
10028,20080319,5094,DGC,D G S E COMPANIES INC,,4.38,4.6999,4.55,4900,0.011111,4.55,4.7,9900,4.38,,0.011111,-0.026107,-0.017168
10028,20080320,5094,DGC,D G S E COMPANIES INC,,4.5,4.65,4.65,2000,0.021978,4.6,4.64,9900,4.5,,0.021978,0.021158,0.014501
10028,20080324,5094,DGC,D G S E COMPANIES INC,,4.6,4.68,4.6045,6400,-0.009785,4.6,4.65,9900,4.68,,-0.009785,0.017582,0.021668
10028,20080325,5094,DGC,D G S E COMPANIES INC,,4.6,4.8,4.8,4600,0.042459,4.7,4.8,9900,4.7,,0.042459,0.005698,0.010797
10028,20080326,5094,DGC,D G S E COMPANIES INC,,4.8,5.03,5,6500,0.041667,4.92,5.05,9900,4.8,,0.041667,-0.006485,-0.002807
10028,20080327,5094,DGC,D G S E COMPANIES INC,,5,5.0722,5.05,8900,0.01,5,5.05,9900,5.0722,,0.01,-0.010373,-0.004944
10028,20080328,5094,DGC,D G S E COMPANIES INC,,4.95,5.04,4.995,5300,-0.010891,4.95,5,9900,5.03,,-0.010891,-0.008038,-0.007315
10028,20080331,5094,DGC,D G S E COMPANIES INC,4,4.94,5.04,5.04,700,0.009009,4.94,5.04,9900,5,,0.009009,0.005286,0.005196
10028,20080401,5094,DGC,D G S E COMPANIES INC,,4.94,5.02,4.94,5800,-0.019841,4.94,4.95,9900,5.02,,-0.019841,0.032086,0.020874
10028,20080402,5094,DGC,D G S E COMPANIES INC,,4.9101,5.04,4.9101,4900,-0.006053,4.9,4.99,9900,5.04,,-0.006053,0.000222,0.003193
10028,20080403,5094,DGC,D G S E COMPANIES INC,,4.95,5,4.95,2500,0.008126,4.92,4.95,9900,4.97,,0.008126,0.002665,0.001693
10028,20080404,5094,DGC,D G S E COMPANIES INC,,4.9,5.02,4.9,2200,-0.010101,4.9,4.94,9900,5.02,,-0.010101,0.00195,0.002778
10028,20080407,5094,DGC,D G S E COMPANIES INC,,4.89,4.95,4.94,5600,0.008163,4.92,4.94,9900,4.89,,0.008163,0.001712,0.0018
10028,20080408,5094,DGC,D G S E COMPANIES INC,,4.89,4.95,4.95,2600,0.002024,4.9,4.95,9900,4.95,,0.002024,-0.003404,-0.002727
10028,20080409,5094,DGC,D G S E COMPANIES INC,,4.95,4.95,4.95,100,0,4.9,4.95,9900,4.95,,0,-0.009046,-0.011542
10028,20080410,5094,DGC,D G S E COMPANIES INC,,4.9001,4.9001,4.9001,300,-0.010081,4.9,4.95,9900,4.9001,,-0.010081,0.005403,0.005008
10028,20080411,5094,DGC,D G S E COMPANIES INC,,4.9,4.95,4.9,5800,-0.00002,4.89,4.94,9900,4.95,,-0.00002,-0.019628,-0.01591
10028,20080414,5094,DGC,D G S E COMPANIES INC,,4.6,4.94,4.6,10900,-0.061225,4.5,4.7,9900,4.911,,-0.061225,-0.002586,-0.004434
10028,20080415,5094,DGC,D G S E COMPANIES INC,,4.3,4.45,4.3,1600,-0.065217,4.2,4.35,9900,4.45,,-0.065217,0.005073,0.002118
10028,20080416,5094,DGC,D G S E COMPANIES INC,,4.1,4.2,4.1,6900,-0.046512,4.1,4.2,9900,4.2,,-0.046512,0.024085,0.017852
10028,20080417,5094,DGC,D G S E COMPANIES INC,,4.15,4.2999,4.25,3500,0.036585,4.1,4.3,9900,4.15,,0.036585,-0.001228,-0.002075
10028,20080418,5094,DGC,D G S E COMPANIES INC,,4.3,4.62,4.4499,7500,0.047035,4.4,4.45,9900,4.62,,0.047035,0.016548,0.012443
10028,20080421,5094,DGC,D G S E COMPANIES INC,,4.35,4.55,4.4,8700,-0.011214,4.36,4.55,9900,4.5,,-0.011214,-0.000578,-0.001629
10028,20080422,5094,DGC,D G S E COMPANIES INC,,4.45,4.45,4.45,200,0.011364,4.35,4.5,9900,4.45,,0.011364,-0.009319,-0.01285
10028,20080423,5094,DGC,D G S E COMPANIES INC,,4.4,4.5,4.4,3800,-0.011236,4.35,4.5,9900,4.404,,-0.011236,0.00111,0.002084
10028,20080424,5094,DGC,D G S E COMPANIES INC,,4.25,4.3578,4.25,6500,-0.034091,4.15,4.25,9900,4.35,,-0.034091,0.005058,0.007845
10028,20080425,5094,DGC,D G S E COMPANIES INC,,4.35,4.35,4.35,200,0.023529,4.25,4.35,9900,4.35,,0.023529,0.006915,0.005692
10028,20080428,5094,DGC,D G S E COMPANIES INC,,4.2,4.48,4.35,6800,0,4.25,4.35,9900,4.48,,0,0.000154,0.003586
10028,20080429,5094,DGC,D G S E COMPANIES INC,,4.149,4.202,4.15,6300,-0.045977,4.05,4.15,9900,4.2,,-0.045977,-0.005712,-0.004917
10028,20080430,5094,DGC,D G S E COMPANIES INC,4,4.01,4.2499,4.04,1900,-0.026506,4.05,4.15,9938,4.2499,,-0.026506,-0.001607,0.00166
10028,20080501,5094,DGC,D G S E COMPANIES INC,,4.1,4.29,4.1999,5500,0.039579,4.15,4.2,9938,4.1,,0.039579,0.01437,0.010829
10028,20080502,5094,DGC,D G S E COMPANIES INC,,4.152,4.2,4.152,300,-0.011405,4.15,4.2,9938,4.2,,-0.011405,0.00324,0.000327
10028,20080505,5094,DGC,D G S E COMPANIES INC,,4.05,4.1601,4.1,4800,-0.012524,4.05,4.1,9938,4.1601,,-0.012524,-0.002711,-0.001239
10028,20080506,5094,DGC,D G S E COMPANIES INC,,4.08,4.2,4.2,16000,0.02439,4.14,4.2,9938,4.1,,0.02439,0.008366,0.006164
10028,20080507,5094,DGC,D G S E COMPANIES INC,,4.01,4.16,4.15,12900,-0.011905,4.06,4.2,9938,4.15,,-0.011905,-0.016185,-0.011755
10028,20080508,5094,DGC,D G S E COMPANIES INC,,4.18,4.2,4.2,18100,0.012048,4.18,4.2,9938,4.18,,0.012048,0.004532,0.001917
10028,20080509,5094,DGC,D G S E COMPANIES INC,,4.16,4.3,4.3,32400,0.02381,4.15,4.4,9938,4.18,,0.02381,-0.004717,-0.000676
10028,20080512,5094,DGC,D G S E COMPANIES INC,,4.3,4.5,4.5,12600,0.046512,4.4,4.5,9938,4.3,,0.046512,0.010944,0.010765
10028,20080513,5094,DGC,D G S E COMPANIES INC,,4.4,4.6,4.4,4200,-0.022222,4.4,4.6,9938,4.5,,-0.022222,0.000545,0.002291
10028,20080514,5094,DGC,D G S E COMPANIES INC,,4.35,4.5,4.5,1100,0.022727,4.36,4.5,9938,4.35,,0.022727,0.00289,0.00187
10028,20080515,5094,DGC,D G S E COMPANIES INC,,4.3,4.3,4.3,2500,-0.044444,4.3,4.4,9938,4.3,,-0.044444,0.011029,0.008057
10028,20080516,5094,DGC,D G S E COMPANIES INC,,4.3,4.45,4.45,5500,0.034884,4.31,4.5,9938,4.35,,0.034884,0.002414,0.001076
10028,20080519,5094,DGC,D G S E COMPANIES INC,,4.3999,4.55,4.55,10900,0.022472,4.55,4.65,9938,4.45,,0.022472,-0.000322,-0.000502
10028,20080520,5094,DGC,D G S E COMPANIES INC,,4.5742,4.8899,4.8899,4900,0.074703,4.83,4.89,9938,4.65,,0.074703,-0.005988,-0.003529
10028,20080521,5094,DGC,D G S E COMPANIES INC,,4.75,4.89,4.75,7900,-0.02861,4.75,4.77,9938,4.89,,-0.02861,-0.015421,-0.009184
10028,20080522,5094,DGC,D G S E COMPANIES INC,,4.55,4.75,4.55,2300,-0.042105,4.41,4.6,9938,4.75,,-0.042105,0.002786,0.003248
10028,20080523,5094,DGC,D G S E COMPANIES INC,,4.4501,4.5,4.49,18900,-0.013187,4.45,4.49,9938,4.4501,,-0.013187,-0.011557,-0.007309
10028,20080527,5094,DGC,D G S E COMPANIES INC,,4.15,4.42,4.29,10000,-0.044543,4.15,4.29,9938,4.42,,-0.044543,0.004893,0.006116
10028,20080528,5094,DGC,D G S E COMPANIES INC,,4.15,4.28,4.28,1800,-0.002331,4.15,4.28,9938,4.15,,-0.002331,0.005529,0.003347
10028,20080529,5094,DGC,D G S E COMPANIES INC,,4.3,4.3001,4.3,1200,0.004673,4.3,4.4,9938,4.3,,0.004673,0.004276,0.005167
10028,20080530,5094,DGC,D G S E COMPANIES INC,4,4.3,4.317,4.317,300,0.003953,4.3,4.4,9499,4.3,,0.003953,0.003063,0.004872
10028,20080602,5094,DGC,D G S E COMPANIES INC,,4.1501,4.32,4.1501,3200,-0.038661,4.15,4.34,9499,4.3,,-0.038661,-0.009077,-0.008391
10028,20080603,5094,DGC,D G S E COMPANIES INC,,4.15,4.155,4.15,4100,-0.000024,4.15,4.3,9499,4.1501,,-0.000024,-0.00488,-0.001854
10028,20080604,5094,DGC,D G S E COMPANIES INC,,4.06,4.1501,4.06,2600,-0.021687,4.06,4.25,9499,4.1501,,-0.021687,-0.001235,0.001266
10028,20080605,5094,DGC,D G S E COMPANIES INC,,3.7,4.07,3.71,9300,-0.086207,3.71,3.8,9499,4.07,,-0.086207,0.020182,0.014676
10028,20080606,5094,DGC,D G S E COMPANIES INC,,3.77,3.8,3.77,9500,0.016172,3.77,3.9,9499,3.79,,0.016172,-0.026786,-0.019893
10028,20080609,5094,DGC,D G S E COMPANIES INC,,3.43,3.9,3.62,3200,-0.039788,3.6,3.7,9499,3.7,,-0.039788,-0.000607,-0.007792
10028,20080610,5094,DGC,D G S E COMPANIES INC,,3.538,3.61,3.538,3800,-0.022652,3.5,3.69,9499,3.55,,-0.022652,-0.005005,-0.005391
10028,20080611,5094,DGC,D G S E COMPANIES INC,,3.5,3.5701,3.5,2500,-0.010741,3.5,3.7,9499,3.5,,-0.010741,-0.015416,-0.0153
10028,20080612,5094,DGC,D G S E COMPANIES INC,,3.43,3.5001,3.4501,6000,-0.014257,3.4,3.49,9499,3.5,,-0.014257,0.00133,0.000751
10028,20080613,5094,DGC,D G S E COMPANIES INC,,3.42,3.5595,3.5097,9500,0.017275,3.48,3.51,9499,3.45,,0.017275,0.014676,0.012188
10028,20080616,5094,DGC,D G S E COMPANIES INC,,3.51,3.65,3.65,14000,0.039975,3.6,3.65,9499,3.53,,0.039975,0.00327,0.0054
10028,20080617,5094,DGC,D G S E COMPANIES INC,,3.35,3.55,3.43,26900,-0.060274,3.35,3.5,9499,3.55,,-0.060274,-0.00395,-0.00434
10028,20080618,5094,DGC,D G S E COMPANIES INC,,3.3,3.47,3.3,14600,-0.037901,3.3,3.39,9499,3.4,,-0.037901,-0.008296,-0.008457
10028,20080619,5094,DGC,D G S E COMPANIES INC,,3.4199,3.7599,3.7,40600,0.121212,3.65,3.71,9499,3.4199,,0.121212,0.002225,0.002649
10028,20080620,5094,DGC,D G S E COMPANIES INC,,3.49,3.71,3.5,23900,-0.054054,3.45,3.6,9499,3.71,,-0.054054,-0.01753,-0.013931
10028,20080623,5094,DGC,D G S E COMPANIES INC,,3.25,3.48,3.42,25600,-0.022857,3.35,3.42,9499,3.43,,-0.022857,-0.000866,-0.0091
10028,20080624,5094,DGC,D G S E COMPANIES INC,,3.28,3.42,3.35,10100,-0.020468,3.22,3.4,9499,3.38,,-0.020468,-0.006253,-0.009897
10028,20080625,5094,DGC,D G S E COMPANIES INC,,3,3.32,3.1,28400,-0.074627,3.05,3.14,9499,3.32,,-0.074627,0.006097,0.007233
10028,20080626,5094,DGC,D G S E COMPANIES INC,,3.0002,3.2,3.2,2500,0.032258,3.1,3.2,9499,3.01,,0.032258,-0.026496,-0.019562
10028,20080627,5094,DGC,D G S E COMPANIES INC,,3,3.1891,3.117,1600,-0.025937,3,3.13,9499,3.101,,-0.025937,-0.002526,-0.005772
10028,20080630,5094,DGC,D G S E COMPANIES INC,4,2.92,3.02,2.92,12800,-0.063202,2.92,3,9499,3,,-0.063202,-0.00105,-0.005719
10028,20080701,5094,DGC,D G S E COMPANIES INC,,2.64,2.95,2.95,9700,0.010274,2.9,3,9499,2.9,,0.010274,0.001689,-0.006391
10028,20080702,5094,DGC,D G S E COMPANIES INC,,2.8001,2.9485,2.86,2100,-0.030509,2.81,2.95,9499,2.85,,-0.030509,-0.021045,-0.018159
10028,20080703,5094,DGC,D G S E COMPANIES INC,,2.7,2.8485,2.71,700,-0.052448,2.71,2.75,9499,2.75,,-0.052448,-0.002429,-0.006075
10028,20080707,5094,DGC,D G S E COMPANIES INC,,2.42,2.71,2.61,4800,-0.0369,2.53,2.61,9499,2.71,,-0.0369,-0.008618,-0.011669
10028,20080708,5094,DGC,D G S E COMPANIES INC,,2.63,2.83,2.7,34800,0.034483,2.6,2.83,9499,2.83,,0.034483,0.016773,0.018279
10028,20080709,5094,DGC,D G S E COMPANIES INC,,2.65,2.77,2.65,26300,-0.018519,2.65,2.8,9499,2.71,,-0.018519,-0.019455,-0.01426
10028,20080710,5094,DGC,D G S E COMPANIES INC,,2.73,2.75,2.75,29900,0.037736,2.73,2.79,9499,2.73,,0.037736,0.007645,0.002266
10028,20080711,5094,DGC,D G S E COMPANIES INC,,2.8,2.8,2.8,200,0.018182,2.76,2.85,9499,2.8,,0.018182,-0.008381,-0.003414
10028,20080714,5094,DGC,D G S E COMPANIES INC,,2.74,3.01,3,25500,0.071429,2.9,3.1,9499,2.74,,0.071429,-0.008219,-0.012361
10028,20080715,5094,DGC,D G S E COMPANIES INC,,2.9001,3.39,3.05,4100,0.016667,3,3.05,9499,2.9001,,0.016667,-0.011511,-0.009229
10028,20080716,5094,DGC,D G S E COMPANIES INC,,3.02,3.15,3.02,57900,-0.009836,3.02,3.15,9499,3.03,,-0.009836,0.023954,0.026472
10028,20080717,5094,DGC,D G S E COMPANIES INC,,3,3.015,3,3000,-0.006623,3,3.15,9499,3,,-0.006623,0.009637,0.016398
10028,20080718,5094,DGC,D G S E COMPANIES INC,,3.01,3.2,3.2,1800,0.066667,3.01,3.2,9499,3.01,,0.066667,0.000346,0.000861
10028,20080721,5094,DGC,D G S E COMPANIES INC,,3.1,3.1,3.1,200,-0.03125,3.02,3.14,9499,3.1,,-0.03125,0.003955,0.0069
10028,20080722,5094,DGC,D G S E COMPANIES INC,,3.2,3.5,3.5,4000,0.129032,3.5,3.6,9499,3.37,,0.129032,0.011076,0.015126
10028,20080723,5094,DGC,D G S E COMPANIES INC,,3.6,3.7,3.7,3800,0.057143,3.7,3.8,9499,3.6,,0.057143,0.001821,0.006569
10028,20080724,5094,DGC,D G S E COMPANIES INC,,3.69,3.8,3.8,9200,0.027027,3.73,3.8,9499,3.69,,0.027027,-0.024336,-0.018647
10028,20080725,5094,DGC,D G S E COMPANIES INC,,3.65,3.8,3.65,2600,-0.039474,3.65,3.8,9499,3.7,,-0.039474,0.005536,0.006369
10028,20080728,5094,DGC,D G S E COMPANIES INC,,3.53,3.65,3.555,7800,-0.026027,3.51,3.6,9499,3.53,,-0.026027,-0.016527,-0.013761
10028,20080729,5094,DGC,D G S E COMPANIES INC,,2.98,3.5001,3.5,40400,-0.015471,3.35,3.55,9499,3.5,,-0.015471,0.021117,0.016734
10028,20080730,5094,DGC,D G S E COMPANIES INC,,3.35,3.45,3.35,4400,-0.042857,3.25,3.38,9499,3.45,,-0.042857,0.016377,0.006677
10028,20080731,5094,DGC,D G S E COMPANIES INC,4,3.3982,3.3982,3.3982,100,0.014388,3.25,3.43,9759,3.3982,,0.014388,-0.011859,-0.002778
10028,20080801,5094,DGC,D G S E COMPANIES INC,,3.25,3.45,-3.35,0,-0.014184,3.25,3.45,9759,,,-0.014184,-0.005198,-0.000741
10028,20080804,5094,DGC,D G S E COMPANIES INC,,3.35,3.41,3.35,300,0,3.3,3.34,9759,3.38,,0,-0.013405,-0.012228
10028,20080805,5094,DGC,D G S E COMPANIES INC,,3.25,3.35,3.31,1600,-0.01194,3.25,3.35,9759,3.35,,-0.01194,0.024378,0.013398
10028,20080806,5094,DGC,D G S E COMPANIES INC,,3.2,3.4,3.2,8100,-0.033233,3.15,3.34,9759,3.4,,-0.033233,0.005406,0.006504
10028,20080807,5094,DGC,D G S E COMPANIES INC,,3.2,3.7,3.2,3900,0,3.1,3.3,9759,3.7,,0,-0.016912,-0.012611
10028,20080808,5094,DGC,D G S E COMPANIES INC,,3.2001,3.29,3.2001,2100,0.000031,3.2,3.28,9759,3.29,,0.000031,0.019173,0.015813
10028,20080811,5094,DGC,D G S E COMPANIES INC,,3.2001,3.3,3.2001,300,0,3.2,3.25,9759,3.3,,0,0.006503,0.01065
10028,20080812,5094,DGC,D G S E COMPANIES INC,,3.201,3.201,3.201,100,0.000281,3.2,3.28,9759,3.201,,0.000281,-0.009666,-0.005693
10028,20080813,5094,DGC,D G S E COMPANIES INC,,3.2,3.2,3.2,200,-0.000312,3.1,3.24,9759,3.2,,-0.000312,-0.00044,0.002201
10028,20080814,5094,DGC,D G S E COMPANIES INC,,3.15,3.25,3.2,3000,0,3.16,3.2,9759,3.25,,0,0.00503,0.006533
10028,20080815,5094,DGC,D G S E COMPANIES INC,,3,3.1401,3,2800,-0.0625,3,3.16,9759,3.1401,,-0.0625,0.001245,-0.000882
10028,20080818,5094,DGC,D G S E COMPANIES INC,,2.95,3.1,-3.025,0,0.008333,2.95,3.1,9759,,,0.008333,-0.013473,-0.00993
10028,20080819,5094,DGC,D G S E COMPANIES INC,,3,3.0001,3,300,-0.008264,2.9,3.1,9759,3.0001,,-0.008264,-0.008943,-0.011751
10028,20080820,5094,DGC,D G S E COMPANIES INC,,2.9,3,2.912,1800,-0.029333,2.9,2.96,9759,3,,-0.029333,0.006771,0.002565
10028,20080821,5094,DGC,D G S E COMPANIES INC,,2.7,2.9,2.9,2300,-0.004121,2.75,2.9,9759,2.89,,-0.004121,0.00314,-0.00224
10028,20080822,5094,DGC,D G S E COMPANIES INC,,2.75,2.99,2.9,2100,0,2.75,3,9759,2.75,,0,0.009437,0.009536
10028,20080825,5094,DGC,D G S E COMPANIES INC,,2.9,2.9,2.9,100,0,2.85,2.99,9759,2.9,,0,-0.01855,-0.015117
10028,20080826,5094,DGC,D G S E COMPANIES INC,,2.9,2.925,2.9,1500,0,2.8,2.99,9759,2.9,,0,0.003549,0.00287
10028,20080827,5094,DGC,D G S E COMPANIES INC,,2.9,3.2,3.2,7400,0.103448,3.05,3.25,9759,2.9,,0.103448,0.009412,0.00805
10028,20080828,5094,DGC,D G S E COMPANIES INC,,3.0799,3.2499,3.0799,11100,-0.037531,3.05,3.15,9759,3.23,,-0.037531,0.014185,0.013313
10028,20080829,5094,DGC,D G S E COMPANIES INC,4,3.1,3.35,3.15,12900,0.022761,3.1,3.35,9834,3.15,,0.022761,-0.011719,-0.003495
10028,20080902,5094,DGC,D G S E COMPANIES INC,,3.1,3.1,3.1,100,-0.015873,3.1,3.2,9834,3.1,,-0.015873,-0.007076,-0.003574
10028,20080903,5094,DGC,D G S E COMPANIES INC,,3.2499,3.2499,3.2499,100,0.048355,3.1,3.24,9834,3.2499,,0.048355,-0.003312,-0.000519
10028,20080904,5094,DGC,D G S E COMPANIES INC,,3.1,3.1501,3.1,2100,-0.046125,3.1,3.2,9834,3.1501,,-0.046125,-0.028948,-0.021621
10028,20080905,5094,DGC,D G S E COMPANIES INC,,3,3.1001,3,3700,-0.032258,2.87,3,9834,3.1,,-0.032258,0.003797,-0.000339
10028,20080908,5094,DGC,D G S E COMPANIES INC,,2.64,2.95,2.95,5200,-0.016667,2.8,3,9834,2.95,,-0.016667,0.014721,0.007628
10028,20080909,5094,DGC,D G S E COMPANIES INC,,2.61,2.95,2.61,9000,-0.115254,2.5,2.76,9834,2.95,,-0.115254,-0.034941,-0.028945
10028,20080910,5094,DGC,D G S E COMPANIES INC,,2.51,2.75,2.75,2100,0.05364,2.6,2.8,9834,2.6,,0.05364,0.008484,0.003445
10028,20080911,5094,DGC,D G S E COMPANIES INC,,2.5,2.8,2.665,13800,-0.030909,2.52,2.7,9834,2.8,,-0.030909,0.010642,-0.003328
10028,20080912,5094,DGC,D G S E COMPANIES INC,,2.5,2.7,2.7,6500,0.013133,2.53,2.7,9834,2.5,,0.013133,0.005322,0.004843
10028,20080915,5094,DGC,D G S E COMPANIES INC,,2.55,2.65,2.55,600,-0.055556,2.55,2.7,9834,2.65,,-0.055556,-0.045674,-0.039367
10028,20080916,5094,DGC,D G S E COMPANIES INC,,2.5,2.6,2.52,9500,-0.011765,2.52,2.59,9834,2.6,,-0.011765,0.015157,0.003354
10028,20080917,5094,DGC,D G S E COMPANIES INC,,2.51,2.51,2.51,200,-0.003968,2.51,2.59,9834,2.51,,-0.003968,-0.045503,-0.040954
10028,20080918,5094,DGC,D G S E COMPANIES INC,,2.52,2.59,2.5201,1900,0.004024,2.52,2.66,9834,2.5899,,0.004024,0.043916,0.041432
10028,20080919,5094,DGC,D G S E COMPANIES INC,,2.6,2.7,2.65,1000,0.051546,2.55,2.75,9834,2.6,,0.051546,0.04599,0.04939
10028,20080922,5094,DGC,D G S E COMPANIES INC,,2.51,2.7,2.69,2400,0.015094,2.6,2.75,9834,2.51,,0.015094,-0.036817,-0.026898
10028,20080923,5094,DGC,D G S E COMPANIES INC,,2.51,2.75,2.51,9200,-0.066915,2.51,2.7,9834,2.71,,-0.066915,-0.015644,-0.012863
10028,20080924,5094,DGC,D G S E COMPANIES INC,,2.6499,2.7,2.65,1700,0.055777,2.51,2.65,9834,2.6999,,0.055777,-0.003315,-0.00926
10028,20080925,5094,DGC,D G S E COMPANIES INC,,2.55,2.5501,2.55,800,-0.037736,2.55,2.65,9834,2.5501,,-0.037736,0.016532,0.008804
10028,20080926,5094,DGC,D G S E COMPANIES INC,,2.55,2.65,2.55,3400,0,2.55,2.65,9834,2.55,,0,-0.002251,-0.008583
10028,20080929,5094,DGC,D G S E COMPANIES INC,,2.5001,2.61,2.5001,3900,-0.019569,2.5,2.65,9834,2.61,,-0.019569,-0.082589,-0.061315
10028,20080930,5094,DGC,D G S E COMPANIES INC,4,2.51,2.57,2.57,2000,0.027959,2.55,2.64,9834,2.51,,0.027959,0.046616,0.027735
10028,20081001,5094,DGC,D G S E COMPANIES INC,,2.51,2.6,2.6,2200,0.011673,2.5,2.65,9834,2.51,,0.011673,-0.005829,-0.004764
10028,20081002,5094,DGC,D G S E COMPANIES INC,,2.25,2.6,2.4,10700,-0.076923,2.3,2.55,9834,2.25,,-0.076923,-0.045779,-0.039139
10028,20081003,5094,DGC,D G S E COMPANIES INC,,2.25,2.3,2.2501,4500,-0.062458,2.25,2.4,9834,2.3,,-0.062458,-0.014335,-0.016903
10028,20081006,5094,DGC,D G S E COMPANIES INC,,1.8,2.25,2,5500,-0.111151,2,2.1,9834,2.25,,-0.111151,-0.04243,-0.059337
10028,20081007,5094,DGC,D G S E COMPANIES INC,,1.45,1.96,1.57,2100,-0.215,1.42,1.67,9834,1.96,,-0.215,-0.057914,-0.047041
10028,20081008,5094,DGC,D G S E COMPANIES INC,,1.5,1.59,1.5,2700,-0.044586,1.5,1.59,9834,1.59,,-0.044586,-0.012011,-0.026977
10028,20081009,5094,DGC,D G S E COMPANIES INC,,1.58,1.59,1.5899,400,0.059933,1.43,1.59,9834,1.58,,0.059933,-0.072775,-0.063757
10028,20081010,5094,DGC,D G S E COMPANIES INC,,1,1.3,1,7100,-0.37103,1,1.2,9834,1.21,,-0.37103,-0.01221,-0.006893
10028,20081013,5094,DGC,D G S E COMPANIES INC,,1,2.2,2.1,27800,1.1,1.95,2.2,9834,1,,1.1,0.114836,0.107335
10028,20081014,5094,DGC,D G S E COMPANIES INC,,2.1,2.25,2.1,5600,0,2,2.1,9834,2.18,,0,-0.009051,-0.001721
10028,20081015,5094,DGC,D G S E COMPANIES INC,,2,2.02,2.02,600,-0.038095,2,2.2,9834,2,,-0.038095,-0.089842,-0.070866
10028,20081016,5094,DGC,D G S E COMPANIES INC,,2.1,2.1,2.1,31300,0.039604,2.1,2.25,9834,2.1,,0.039604,0.039611,0.02952
10028,20081017,5094,DGC,D G S E COMPANIES INC,,2.2,2.25,2.25,5700,0.071429,2.15,2.31,9834,2.2,,0.071429,-0.002498,0.001614
10028,20081020,5094,DGC,D G S E COMPANIES INC,,2.08,2.19,2.19,1100,-0.026667,2.08,2.2,9834,2.1,,-0.026667,0.046506,0.035473
10028,20081021,5094,DGC,D G S E COMPANIES INC,,1.93,2.15,2.1,3800,-0.041096,1.9,2.15,9834,2.15,,-0.041096,-0.031481,-0.02072
10028,20081022,5094,DGC,D G S E COMPANIES INC,,1.95,2.15,2.15,2100,0.02381,2,2.1,9834,1.95,,0.02381,-0.059264,-0.048986
10028,20081023,5094,DGC,D G S E COMPANIES INC,,1.9,2.1,1.9,4100,-0.116279,1.85,2.05,9834,2.1,,-0.116279,0.000813,-0.020324
10028,20081024,5094,DGC,D G S E COMPANIES INC,,1.76,1.76,1.76,200,-0.073684,1.85,1.95,9834,1.76,,-0.073684,-0.033449,-0.031311
10028,20081027,5094,DGC,D G S E COMPANIES INC,,1.8,1.97,-1.885,0,0.071023,1.8,1.97,9834,,,0.071023,-0.036947,-0.035395
10028,20081028,5094,DGC,D G S E COMPANIES INC,,1.71,1.97,1.97,6300,0.045093,1.9,1.97,9834,1.85,,0.045093,0.095262,0.050347
10028,20081029,5094,DGC,D G S E COMPANIES INC,,1.9699,1.9699,1.9699,500,-0.000051,1.92,1.97,9834,1.9699,,-0.000051,0.001199,0.021377
10028,20081030,5094,DGC,D G S E COMPANIES INC,,1.821,1.95,1.9,1000,-0.035484,1.87,2.01,9834,1.95,,-0.035484,0.031799,0.03553
10028,20081031,5094,DGC,D G S E COMPANIES INC,4,1.36,1.9,1.71,15400,-0.1,1.71,1.82,9834,1.9,,-0.1,0.018079,0.033871
10028,20081103,5094,DGC,D G S E COMPANIES INC,,1.65,1.7,1.7,3600,-0.005848,1.6,1.7,9834,1.65,,-0.005848,-0.000679,0.008574
10028,20081104,5094,DGC,D G S E COMPANIES INC,,1.67,1.75,1.7,20000,0,1.7,1.82,9834,1.67,,0,0.038976,0.026518
10028,20081105,5094,DGC,D G S E COMPANIES INC,,1.6,1.7,1.7,1800,0,1.65,1.75,9834,1.6,,0,-0.051195,-0.03761
10028,20081106,5094,DGC,D G S E COMPANIES INC,,1.65,1.79,1.7,6900,0,1.65,1.7,9834,1.75,,0,-0.049316,-0.038225
10028,20081107,5094,DGC,D G S E COMPANIES INC,,1.74,1.8,1.79,2500,0.052941,1.6,1.8,9834,1.74,,0.052941,0.026164,0.014395
10028,20081110,5094,DGC,D G S E COMPANIES INC,,1.7,1.8,1.7,9200,-0.050279,1.7,1.75,9834,1.75,,-0.050279,-0.013397,-0.019251
10028,20081111,5094,DGC,D G S E COMPANIES INC,,1.65,1.71,1.65,1000,-0.029412,1.61,1.75,9834,1.71,,-0.029412,-0.024388,-0.028206
10028,20081112,5094,DGC,D G S E COMPANIES INC,,1.09,1.6,1.31,12100,-0.206061,1.25,1.5,9834,1.6,,-0.206061,-0.053998,-0.054534
10028,20081113,5094,DGC,D G S E COMPANIES INC,,1.4499,1.65,1.55,2900,0.183206,1.55,1.75,9834,1.4499,,0.183206,0.067871,0.048289
10028,20081114,5094,DGC,D G S E COMPANIES INC,,1.4,1.5001,1.4001,1300,-0.09671,1.45,1.6,9834,1.5001,,-0.09671,-0.043809,-0.039664
10028,20081117,5094,DGC,D G S E COMPANIES INC,,1.2,1.46,1.2001,8000,-0.142847,1.2,1.45,9834,1.46,,-0.142847,-0.024027,-0.022115
10028,20081118,5094,DGC,D G S E COMPANIES INC,,1.15,1.2501,1.15,1400,-0.041746,1.1,1.2,9834,1.25,,-0.041746,0.005539,-0.010832
10028,20081119,5094,DGC,D G S E COMPANIES INC,,1.2,1.2,1.2,500,0.043478,1.12,1.35,9834,1.2,,0.043478,-0.064102,-0.064622
10028,20081120,5094,DGC,D G S E COMPANIES INC,,1.11,1.26,1.25,30100,0.041667,1.1,1.25,9834,1.11,,0.041667,-0.070146,-0.067122
10028,20081121,5094,DGC,D G S E COMPANIES INC,,1.2,1.25,1.25,1900,0,1.1,1.25,9834,1.24,,0,0.060934,0.033422
10028,20081124,5094,DGC,D G S E COMPANIES INC,,1.1,1.25,1.25,1500,0,1.28,1.35,9834,1.1,,0,0.06607,0.063574
10028,20081125,5094,DGC,D G S E COMPANIES INC,,1.25,1.3,1.3,3100,0.04,1.25,1.4,9834,1.25,,0.04,0.009516,0.015273
10028,20081126,5094,DGC,D G S E COMPANIES INC,,1.2,1.5,1.2,7600,-0.076923,1.25,1.35,9834,1.251,,-0.076923,0.038034,0.051933
10028,20081128,5094,DGC,D G S E COMPANIES INC,4,1.25,1.25,1.25,500,0.041667,1.26,1.35,9834,1.25,,0.041667,0.010075,0.019966
10028,20081201,5094,DGC,D G S E COMPANIES INC,,1.2499,1.25,1.25,1000,0,1.2,1.31,9834,1.2499,,0,-0.089446,-0.078335
10028,20081202,5094,DGC,D G S E COMPANIES INC,,1.1999,1.2,1.1999,1200,-0.04008,1.15,1.2,9834,1.2,,-0.04008,0.037575,0.035171
10028,20081203,5094,DGC,D G S E COMPANIES INC,,1.15,1.2,1.15,2000,-0.041587,1.15,1.2,9834,1.2,,-0.041587,0.023612,0.014519
10028,20081204,5094,DGC,D G S E COMPANIES INC,,1.0501,1.15,1.0501,4000,-0.08687,1.04,1.13,9834,1.1,,-0.08687,-0.030168,-0.021918
10028,20081205,5094,DGC,D G S E COMPANIES INC,,1.06,1.12,1.1,12900,0.047519,1.1,1.12,9834,1.1,,0.047519,0.036081,0.025995
10028,20081208,5094,DGC,D G S E COMPANIES INC,,1.14,1.1449,1.1449,6700,0.040818,1.12,1.15,9834,1.14,,0.040818,0.040252,0.0378
10028,20081209,5094,DGC,D G S E COMPANIES INC,,1.11,1.16,1.12,19400,-0.021749,1.11,1.14,9834,1.14,,-0.021749,-0.02238,-0.014945
10028,20081210,5094,DGC,D G S E COMPANIES INC,,1.06,1.07,1.07,2800,-0.044643,1.07,1.11,9834,1.06,,-0.044643,0.015014,0.021801
10028,20081211,5094,DGC,D G S E COMPANIES INC,,1.07,1.11,1.1099,1900,0.03729,1.07,1.14,9834,1.07,,0.03729,-0.030236,-0.027158
10028,20081212,5094,DGC,D G S E COMPANIES INC,,1.12,1.15,1.14,17500,0.02712,1.15,1.17,9834,1.15,,0.02712,0.010463,0.017702
10028,20081215,5094,DGC,D G S E COMPANIES INC,,1.0801,1.37,1.274,12500,0.117544,1.22,1.32,9834,1.0801,,0.117544,-0.013903,-0.019502
10028,20081216,5094,DGC,D G S E COMPANIES INC,,1.25,1.6,1.47,36300,0.153846,1.42,1.5,9834,1.25,,0.153846,0.052815,0.046585
10028,20081217,5094,DGC,D G S E COMPANIES INC,,1.4,1.47,1.45,16000,-0.013605,1.4,1.45,9834,1.47,,-0.013605,-0.004899,0.010663
10028,20081218,5094,DGC,D G S E COMPANIES INC,,1.35,1.57,1.53,29700,0.055172,1.48,1.53,9834,1.57,,0.055172,-0.02057,-0.012006
10028,20081219,5094,DGC,D G S E COMPANIES INC,,1.45,1.55,1.45,7900,-0.052288,1.45,1.5,9834,1.55,,-0.052288,0.003762,0.003476
10028,20081222,5094,DGC,D G S E COMPANIES INC,,1.25,1.45,1.45,7100,0,1.4,1.45,9834,1.32,,0,-0.019253,-0.013129
10028,20081223,5094,DGC,D G S E COMPANIES INC,,1.49,1.4999,1.49,1700,0.027586,1.46,1.49,9834,1.4999,,0.027586,-0.007876,-0.008267
10028,20081224,5094,DGC,D G S E COMPANIES INC,,1.4,1.5,-1.45,0,-0.026846,1.4,1.5,9834,,,-0.026846,0.004067,0.004547
10028,20081226,5094,DGC,D G S E COMPANIES INC,,1.4,1.5,1.5,12300,0.034483,1.45,1.5,9834,1.45,,0.034483,0.007159,0.010885
10028,20081229,5094,DGC,D G S E COMPANIES INC,,1.45,1.5,1.45,11700,-0.033333,1.42,1.44,9834,1.5,,-0.033333,-0.004742,-0.015756
10028,20081230,5094,DGC,D G S E COMPANIES INC,,1.12,1.4017,1.3999,17300,-0.034552,1.35,1.45,9834,1.4,,-0.034552,0.024607,0.021245
10028,20081231,5094,DGC,D G S E COMPANIES INC,4,1.45,1.8,1.7,36800,0.214373,1.7,1.75,9834,1.45,,0.214373,0.017386,0.034415
10028,20090102,5094,DGC,D G S E COMPANIES INC,,1.65,1.71,1.71,1800,0.005882,1.7,1.75,9834,1.65,,0.005882,0.0303,0.038221
10028,20090105,5094,DGC,D G S E COMPANIES INC,,1.65,1.75,-1.7,0,-0.005848,1.65,1.75,9834,,,-0.005848,-0.000602,0.016737
10028,20090106,5094,DGC,D G S E COMPANIES INC,,1.73,1.75,-1.74,0,0.023529,1.73,1.75,9834,,,0.023529,0.011287,0.03362
10028,20090107,5094,DGC,D G S E COMPANIES INC,,1.7208,1.7208,1.7208,200,-0.011034,1.72,1.73,9834,1.7208,,-0.011034,-0.030862,-0.022326
10028,20090108,5094,DGC,D G S E COMPANIES INC,,1.71,1.8,1.8,3900,0.046025,1.71,1.8,9834,1.8,,0.046025,0.00625,0.011791
10028,20090109,5094,DGC,D G S E COMPANIES INC,,1.7,1.8,-1.75,0,-0.027778,1.7,1.8,9834,,,-0.027778,-0.02242,-0.018761
10028,20090112,5094,DGC,D G S E COMPANIES INC,,1.79,1.8,1.8,1900,0.028571,1.67,1.75,9834,1.79,,0.028571,-0.025562,-0.026627
10028,20090113,5094,DGC,D G S E COMPANIES INC,,1.36,1.95,1.55,61900,-0.138889,1.47,1.49,9834,1.67,,-0.138889,0.00343,0.003321
10028,20090114,5094,DGC,D G S E COMPANIES INC,,1.496,1.5,1.496,1000,-0.034839,1.45,1.5,9834,1.5,,-0.034839,-0.035271,-0.035146
10028,20090115,5094,DGC,D G S E COMPANIES INC,,1.4,1.4,1.4,100,-0.064171,1.4,1.55,9834,1.4,,-0.064171,0.004583,0.00556
10028,20090116,5094,DGC,D G S E COMPANIES INC,,1.5,1.74,1.5,600,0.071429,1.45,1.59,9834,1.65,,0.071429,0.008429,0.008781
10028,20090120,5094,DGC,D G S E COMPANIES INC,,1.34,1.48,1.48,700,-0.013333,1.4,1.5,9834,1.34,,-0.013333,-0.055283,-0.051546
10028,20090121,5094,DGC,D G S E COMPANIES INC,,1.35,1.45,1.45,1000,-0.02027,1.35,1.48,9834,1.35,,-0.02027,0.043054,0.036035
10028,20090122,5094,DGC,D G S E COMPANIES INC,,1.49,1.5,1.4999,700,0.034414,1.4,1.49,9834,1.49,,0.034414,-0.018295,-0.021994
10028,20090123,5094,DGC,D G S E COMPANIES INC,,1.45,1.45,1.45,1000,-0.033269,1.3,1.49,9834,1.45,,-0.033269,0.006841,0.003358
10028,20090126,5094,DGC,D G S E COMPANIES INC,,1.4899,1.4899,1.4899,100,0.027517,1.3,1.49,9834,1.4899,,0.027517,0.006125,0.010055
10028,20090127,5094,DGC,D G S E COMPANIES INC,,1.3,1.48,-1.39,0,-0.067051,1.3,1.48,9834,,,-0.067051,0.011294,0.010029
10028,20090128,5094,DGC,D G S E COMPANIES INC,,1.35,1.55,-1.45,0,0.043166,1.35,1.55,9834,,,0.043166,0.033594,0.03037
10028,20090129,5094,DGC,D G S E COMPANIES INC,,1.35,1.49,1.4,6700,-0.034483,1.4,1.47,9834,1.49,,-0.034483,-0.032894,-0.028987
10028,20090130,5094,DGC,D G S E COMPANIES INC,4,1.35,1.4,-1.375,0,-0.017857,1.35,1.4,9834,,,-0.017857,-0.02079,-0.012876
10028,20090202,5094,DGC,D G S E COMPANIES INC,,1.4,1.5,1.5,2200,0.090909,1.4,1.5,9834,1.4,,0.090909,-0.001103,0.001473
10028,20090203,5094,DGC,D G S E COMPANIES INC,,1.3,1.36,1.3,2000,-0.133333,1.3,1.42,9834,1.36,,-0.133333,0.01431,0.008913
10028,20090204,5094,DGC,D G S E COMPANIES INC,,1.2,1.45,1.45,9300,0.115385,1.4,1.48,9834,1.25,,0.115385,-0.005041,-0.004255
10028,20090205,5094,DGC,D G S E COMPANIES INC,,1.48,1.65,1.61,3100,0.110345,1.55,1.61,9834,1.48,,0.110345,0.015462,0.011872
10028,20090206,5094,DGC,D G S E COMPANIES INC,,1.03,1.55,1.5499,6700,-0.037329,1.48,1.56,9834,1.45,,-0.037329,0.027644,0.026639
10028,20090209,5094,DGC,D G S E COMPANIES INC,,1.49,1.57,1.57,1200,0.012969,1.56,1.63,9834,1.56,,0.012969,0.001197,0.000726
10028,20090210,5094,DGC,D G S E COMPANIES INC,,1.45,1.55,1.48,800,-0.057325,1.38,1.5,9834,1.55,,-0.057325,-0.046047,-0.035136
10028,20090211,5094,DGC,D G S E COMPANIES INC,,1.48,1.55,1.48,1000,0,1.48,1.6,9834,1.55,,0,0.006879,0.004182
10028,20090212,5094,DGC,D G S E COMPANIES INC,,1.45,1.52,1.45,400,-0.02027,1.45,1.52,9834,1.52,,-0.02027,0.002453,-0.000841
10028,20090213,5094,DGC,D G S E COMPANIES INC,,1.3199,1.6,1.3199,5600,-0.089724,1.27,1.4,9834,1.6,,-0.089724,-0.008898,-0.002143
10028,20090217,5094,DGC,D G S E COMPANIES INC,,0.91,1.25,0.99,35200,-0.249943,0.96,1,9834,1.25,,-0.249943,-0.0454,-0.041936
10028,20090218,5094,DGC,D G S E COMPANIES INC,,0.95,1.01,1.01,40700,0.020202,1.01,1.08,9834,0.951,,0.020202,-0.003958,-0.011852
10028,20090219,5094,DGC,D G S E COMPANIES INC,,0.95,0.95,0.95,25500,-0.059406,0.92,0.95,9834,0.95,,-0.059406,-0.011584,-0.015205
10028,20090220,5094,DGC,D G S E COMPANIES INC,,0.92,0.92,0.92,300,-0.031579,0.88,0.92,9834,0.92,,-0.031579,-0.011943,-0.020079
10028,20090223,5094,DGC,D G S E COMPANIES INC,,0.8,0.85,0.82,19700,-0.108696,0.75,0.85,9834,0.85,,-0.108696,-0.036197,-0.030867
10028,20090224,5094,DGC,D G S E COMPANIES INC,,0.9,0.95,0.93,1900,0.134146,0.91,0.93,9834,0.9,,0.134146,0.040176,0.037721
10028,20090225,5094,DGC,D G S E COMPANIES INC,,0.9,0.93,0.9,3200,-0.032258,0.88,0.9,9834,0.93,,-0.032258,-0.010877,-0.015701
10028,20090226,5094,DGC,D G S E COMPANIES INC,,0.88,0.95,0.88,600,-0.022222,0.88,0.93,9834,0.95,,-0.022222,-0.012328,-0.00725
10028,20090227,5094,DGC,D G S E COMPANIES INC,4,0.85,0.88,0.85,3400,-0.034091,0.85,0.93,9834,0.88,,-0.034091,-0.019093,-0.010485
10028,20090302,5094,DGC,D G S E COMPANIES INC,,0.85,0.93,0.85,8200,0,0.85,0.9,9834,0.88,,0,-0.049856,-0.055772
10028,20090303,5094,DGC,D G S E COMPANIES INC,,0.8,0.9,-0.85,0,0,0.8,0.9,9834,,,0,-0.006341,-0.013959
10028,20090304,5094,DGC,D G S E COMPANIES INC,,0.8,0.89,-0.845,0,-0.005882,0.8,0.89,9834,,,-0.005882,0.025591,0.029521
10028,20090305,5094,DGC,D G S E COMPANIES INC,,0.81,0.88,0.88,2200,0.04142,0.83,0.88,9834,0.81,,0.04142,-0.041898,-0.049146
10028,20090306,5094,DGC,D G S E COMPANIES INC,,0.8,0.82,0.8,24600,-0.090909,0.76,0.84,9834,0.82,,-0.090909,0.001402,-0.002324
10028,20090309,5094,DGC,D G S E COMPANIES INC,,0.8,0.84,0.84,3200,0.05,0.8,0.88,9834,0.8,,0.05,-0.01247,-0.016503
10028,20090310,5094,DGC,D G S E COMPANIES INC,,0.82,0.82,0.82,25000,-0.02381,0.8,0.82,9834,0.82,,-0.02381,0.063308,0.062493
10028,20090311,5094,DGC,D G S E COMPANIES INC,,0.83,0.83,0.83,1900,0.012195,0.86,0.87,9834,0.83,,0.012195,0.003688,0.004968
10028,20090312,5094,DGC,D G S E COMPANIES INC,,0.83,0.9,0.84,32200,0.012048,0.84,0.88,9834,0.87,,0.012048,0.041657,0.050889
10028,20090313,5094,DGC,D G S E COMPANIES INC,,0.8045,0.87,0.86,800,0.02381,0.86,0.9,9834,0.83,,0.02381,0.005981,0.009467
10028,20090316,5094,DGC,D G S E COMPANIES INC,,0.8,0.9,-0.85,0,-0.011628,0.8,0.9,9834,,,-0.011628,-0.004807,0.001224
10028,20090317,5094,DGC,D G S E COMPANIES INC,,0.8,0.86,-0.83,0,-0.023529,0.8,0.86,9834,,,-0.023529,0.030986,0.030329
10028,20090318,5094,DGC,D G S E COMPANIES INC,,0.8,0.8512,0.8399,13000,0.011928,0.8,0.87,9834,0.84,,0.011928,0.022323,0.034035
10028,20090319,5094,DGC,D G S E COMPANIES INC,,0.8735,0.9,0.8735,1200,0.040005,0.78,0.88,9834,0.9,,0.040005,-0.007998,0.007594
10028,20090320,5094,DGC,D G S E COMPANIES INC,,0.8,0.88,-0.84,0,-0.038351,0.8,0.88,9834,,,-0.038351,-0.020405,-0.014321
10028,20090323,5094,DGC,D G S E COMPANIES INC,,0.8,0.88,-0.84,0,0,0.8,0.88,9834,,,0,0.068898,0.064724
10028,20090324,5094,DGC,D G S E COMPANIES INC,,0.77,0.87,0.87,4500,0.035714,0.85,0.87,9834,0.77,,0.035714,-0.020005,-0.016143
10028,20090325,5094,DGC,D G S E COMPANIES INC,,0.81,0.9,0.85,10000,-0.022988,0.87,0.89,9834,0.89,,-0.022988,0.008934,0.017629
10028,20090326,5094,DGC,D G S E COMPANIES INC,,0.76,0.8,0.76,1000,-0.105882,0.76,0.84,9834,0.8,,-0.105882,0.025219,0.035754
10028,20090327,5094,DGC,D G S E COMPANIES INC,,0.85,0.85,0.85,700,0.118421,0.81,0.85,9834,0.85,,0.118421,-0.021848,-0.021833
10028,20090330,5094,DGC,D G S E COMPANIES INC,,0.8,0.88,0.8299,22300,-0.023647,0.8,0.83,9834,0.8,,-0.023647,-0.036284,-0.031938
10028,20090331,5094,DGC,D G S E COMPANIES INC,4,0.82,0.89,0.85,1600,0.02422,0.83,0.89,9834,0.82,,0.02422,0.014239,0.020124
10028,20090401,5094,DGC,D G S E COMPANIES INC,,0.8489,0.863,0.85,12200,0,0.81,0.86,9834,0.85,,0,0.01693,0.015614
10028,20090402,5094,DGC,D G S E COMPANIES INC,,0.8,0.9,0.8,2600,-0.058824,0.81,0.84,9834,0.89,,-0.058824,0.031671,0.038943
10028,20090403,5094,DGC,D G S E COMPANIES INC,,0.8399,0.8399,0.8399,400,0.049875,0.8,0.84,9834,0.8399,,0.049875,0.011581,0.012668
10028,20090406,5094,DGC,D G S E COMPANIES INC,,0.8,0.89,0.8,50700,-0.047506,0.8,0.84,9834,0.85,,-0.047506,-0.009847,-0.007253
10028,20090407,5094,DGC,D G S E COMPANIES INC,,0.8,0.9,0.84,2600,0.05,0.8,0.85,9834,0.9,,0.05,-0.025075,-0.020181
10028,20090408,5094,DGC,D G S E COMPANIES INC,,0.76,0.85,0.8425,4600,0.002976,0.84,0.85,9834,0.85,,0.002976,0.013077,0.01741
10028,20090409,5094,DGC,D G S E COMPANIES INC,,0.76,0.85,0.85,8900,0.008902,0.85,0.87,9834,0.8,,0.008902,0.039408,0.045828
10028,20090413,5094,DGC,D G S E COMPANIES INC,,0.83,0.89,0.89,16500,0.047059,0.88,0.89,9834,0.87,,0.047059,0.003853,0.007148
10028,20090414,5094,DGC,D G S E COMPANIES INC,,0.89,0.89,0.89,2100,0,0.8,0.88,9834,0.89,,0,-0.019521,-0.012781
10028,20090415,5094,DGC,D G S E COMPANIES INC,,0.82,0.9,0.86,20700,-0.033708,0.86,0.89,9834,0.89,,-0.033708,0.012403,0.013558
10028,20090416,5094,DGC,D G S E COMPANIES INC,,0.85,0.88,0.86,15600,0,0.86,0.89,9834,0.88,,0,0.016053,0.020349
10028,20090417,5094,DGC,D G S E COMPANIES INC,,0.855,0.98,0.89,51700,0.034884,0.86,0.89,9834,0.98,,0.034884,0.006017,0.013748
10028,20090420,5094,DGC,D G S E COMPANIES INC,,0.85,0.9,0.89,27900,0,0.85,0.93,9834,0.89,,0,-0.044772,-0.042046
10028,20090421,5094,DGC,D G S E COMPANIES INC,,0.85,0.93,-0.89,0,0,0.85,0.93,9834,,,0,0.022662,0.028919
10028,20090422,5094,DGC,D G S E COMPANIES INC,,0.85,0.95,0.95,1500,0.067416,0.92,0.94,9834,0.85,,0.067416,-0.005814,0.005351
10028,20090423,5094,DGC,D G S E COMPANIES INC,,0.94,1.1,1.0967,24800,0.154421,1,1.06,9834,0.9789,,0.154421,0.009201,0.001693
10028,20090424,5094,DGC,D G S E COMPANIES INC,,1,1.1,1,6700,-0.088174,0.96,1,9834,1.05,,-0.088174,0.018991,0.021483
10028,20090427,5094,DGC,D G S E COMPANIES INC,,0.95,1.1,0.9935,3200,-0.0065,0.98,1,9834,1.0999,,-0.0065,-0.011385,-0.011724
10028,20090428,5094,DGC,D G S E COMPANIES INC,,0.9,1.1,0.95,7900,-0.043785,0.96,1,9834,0.98,,-0.043785,-0.002949,0.004866
10028,20090429,5094,DGC,D G S E COMPANIES INC,,0.94,0.94,0.94,2000,-0.010526,0.95,1.04,9834,0.94,,-0.010526,0.024343,0.028455
10028,20090430,5094,DGC,D G S E COMPANIES INC,4,0.9,1.008,1,6100,0.06383,0.95,1,9834,0.95,,0.06383,-0.0005,0.00418
10028,20090501,5094,DGC,D G S E COMPANIES INC,,0.95,0.9508,0.95,3700,-0.05,0.96,1,9834,0.9508,,-0.05,0.005911,0.008345
10028,20090504,5094,DGC,D G S E COMPANIES INC,,0.94,1.05,0.94,20100,-0.010526,0.95,1,9834,1.04,,-0.010526,0.035854,0.037603
10028,20090505,5094,DGC,D G S E COMPANIES INC,,1.0615,1.1,1.0615,8900,0.129255,1.02,1.07,9834,1.07,,0.129255,-0.003555,0.00262
10028,20090506,5094,DGC,D G S E COMPANIES INC,,0.9999,1,1,800,-0.057937,0.97,1,9834,1,,-0.057937,0.015732,0.01504
10028,20090507,5094,DGC,D G S E COMPANIES INC,,0.95,1.05,1.05,7100,0.05,0.96,1.05,9834,0.97,,0.05,-0.015612,-0.011422
10028,20090508,5094,DGC,D G S E COMPANIES INC,,0.97,0.97,0.97,100,-0.07619,0.97,1.02,9834,0.97,,-0.07619,0.027314,0.033944
10028,20090511,5094,DGC,D G S E COMPANIES INC,,0.97,1.07,1.07,1200,0.103093,1.02,1.07,9834,0.97,,0.103093,-0.020973,-0.006886
10028,20090512,5094,DGC,D G S E COMPANIES INC,,0.97,1.1,1.01,26000,-0.056075,0.97,1.04,9834,1.09,,-0.056075,-0.002699,-0.005804
10028,20090513,5094,DGC,D G S E COMPANIES INC,,1.015,1.14,1.05,16200,0.039604,1.03,1.05,9834,1.09,,0.039604,-0.031544,-0.03735
10028,20090514,5094,DGC,D G S E COMPANIES INC,,0.95,1.1,1.05,23000,0,1,1.05,9834,1.06,,0,0.012324,0.01352
10028,20090515,5094,DGC,D G S E COMPANIES INC,,0.97,1.1,1,18700,-0.047619,1,1.03,9834,1.09,,-0.047619,-0.010763,-0.008228
10028,20090518,5094,DGC,D G S E COMPANIES INC,,1,1.12,1.05,4700,0.05,1,1.05,9834,1.12,,0.05,0.032821,0.034404
10028,20090519,5094,DGC,D G S E COMPANIES INC,,1,1.1,1.03,7700,-0.019048,1.03,1.04,9834,1.06,,-0.019048,0.000372,0.004793
10028,20090520,5094,DGC,D G S E COMPANIES INC,,0.9998,1.09,1.0299,9700,-0.000097,1,1.03,9834,1.08,,-0.000097,-0.001901,0.000185
10028,20090521,5094,DGC,D G S E COMPANIES INC,,0.98,1.03,1,3700,-0.029032,1,1.03,9834,1.03,,-0.029032,-0.016788,-0.013953
10028,20090522,5094,DGC,D G S E COMPANIES INC,,1.0001,1.03,1.0199,1100,0.0199,1.02,1.05,9834,1.03,,0.0199,-0.000131,0.000876
10028,20090526,5094,DGC,D G S E COMPANIES INC,,0.95,1.09,1.04,14200,0.019708,1,1.04,9834,1.09,,0.019708,0.028112,0.027208
10028,20090527,5094,DGC,D G S E COMPANIES INC,,1.07,1.07,1.07,100,0.028846,1,1.03,9834,1.07,,0.028846,-0.017454,-0.010206
10028,20090528,5094,DGC,D G S E COMPANIES INC,,0.99,1.04,1.0001,12800,-0.065327,1,1.04,9834,0.99,,-0.065327,0.014908,0.008145
10028,20090529,5094,DGC,D G S E COMPANIES INC,4,0.9,1.0468,0.97,5800,-0.030097,0.95,1,9834,0.9,,-0.030097,0.014736,0.014954
10028,20090601,5094,DGC,D G S E COMPANIES INC,,0.99,1.0999,1.049,22100,0.081443,1.04,1.14,9834,0.99,,0.081443,0.026965,0.029159
10028,20090602,5094,DGC,D G S E COMPANIES INC,,1.0001,1.09,1.0899,2100,0.03899,1,1.09,9834,1.05,,0.03899,0.003088,0.006465
10028,20090603,5094,DGC,D G S E COMPANIES INC,,0.9801,1.09,1.09,2100,0.000092,1.04,1.09,9834,0.9801,,0.000092,-0.017411,-0.010969
10028,20090604,5094,DGC,D G S E COMPANIES INC,,1.02,1.12,-1.07,0,-0.018349,1.02,1.12,9834,,,-0.018349,0.013493,0.019853
10028,20090605,5094,DGC,D G S E COMPANIES INC,,1,1.0999,1.01,28100,-0.056075,1.01,1.06,9834,1.05,,-0.056075,-0.003171,0.001178
10028,20090608,5094,DGC,D G S E COMPANIES INC,,0.98,1.06,1.03,9900,0.019802,1.06,1.1,9834,1.03,,0.019802,-0.002809,-0.003627
10028,20090609,5094,DGC,D G S E COMPANIES INC,,0.9501,1.05,1.05,2300,0.019417,1.05,1.1,9834,1.01,,0.019417,0.005445,0.008643
10028,20090610,5094,DGC,D G S E COMPANIES INC,,1.05,1.17,1.09,4600,0.038095,1.05,1.1,9834,1.17,,0.038095,-0.00288,-0.002354
10028,20090611,5094,DGC,D G S E COMPANIES INC,,1,1.1,1.05,2600,-0.036697,1.05,1.1,9834,1.1,,-0.036697,0.006898,0.010297
10028,20090612,5094,DGC,D G S E COMPANIES INC,,1.02,1.09,-1.055,0,0.004762,1.02,1.09,9834,,,0.004762,-0.001398,-0.002662
10028,20090615,5094,DGC,D G S E COMPANIES INC,,1.01,1.02,1.0152,1500,-0.037725,0.99,1.05,9834,1.02,,-0.037725,-0.025422,-0.023442
10028,20090616,5094,DGC,D G S E COMPANIES INC,,1.0499,1.2,1.07,9600,0.05398,1.03,1.07,9834,1.05,,0.05398,-0.013129,-0.011502
10028,20090617,5094,DGC,D G S E COMPANIES INC,,1.0999,1.0999,1.0999,400,0.027944,1.03,1.1,9834,1.0999,,0.027944,-0.003043,-0.001974
10028,20090618,5094,DGC,D G S E COMPANIES INC,,1.1,1.1,1.1,200,0.000091,1.04,1.1,9834,1.1,,0.000091,0.006488,0.002944
10028,20090619,5094,DGC,D G S E COMPANIES INC,,1.04,1.11,1.04,1900,-0.054546,1.04,1.07,9834,1.1,,-0.054546,0.004042,0.006121
10028,20090622,5094,DGC,D G S E COMPANIES INC,,1.01,1.2,1.09,37900,0.048077,1.07,1.12,9834,1.17,,0.048077,-0.033272,-0.033507
10028,20090623,5094,DGC,D G S E COMPANIES INC,,1.07,1.09,1.09,1300,0,1.07,1.09,9834,1.07,,0,0.002132,-0.002855
10028,20090624,5094,DGC,D G S E COMPANIES INC,,1.0999,1.1,1.0999,900,0.009083,1.1,1.13,9834,1.0999,,0.009083,0.008894,0.008541
10028,20090625,5094,DGC,D G S E COMPANIES INC,,1,1.16,1.1599,6300,0.05455,1.1,1.16,9834,1.0601,,0.05455,0.021569,0.02192
10028,20090626,5094,DGC,D G S E COMPANIES INC,,1.0601,1.1,1.0601,500,-0.086042,1.06,1.14,9834,1.1,,-0.086042,0.000649,0.009455
10028,20090629,5094,DGC,D G S E COMPANIES INC,,1.05,1.05,1.05,500,-0.009527,1.02,1.09,9834,1.05,,-0.009527,0.007658,0.002581
10028,20090630,5094,DGC,D G S E COMPANIES INC,4,1.0899,1.16,1.1,1500,0.047619,1.07,1.1,9834,1.09,,0.047619,-0.007815,-0.001845
10028,20090701,5094,DGC,D G S E COMPANIES INC,,1.02,1.11,1.02,1200,-0.072727,1.02,1.06,9834,1.11,,-0.072727,0.005924,0.011637
10028,20090702,5094,DGC,D G S E COMPANIES INC,,0.99,1.12,0.99,2900,-0.029412,1,1.04,9834,1.12,,-0.029412,-0.028214,-0.024559
10028,20090706,5094,DGC,D G S E COMPANIES INC,,0.99,1.02,1.02,300,0.030303,1.02,1.04,9834,0.99,,0.030303,-0.001733,-0.008899
10028,20090707,5094,DGC,D G S E COMPANIES INC,,1.03,1.03,1.03,300,0.009804,1.03,1.04,9834,1.03,,0.009804,-0.019557,-0.016017
10028,20090708,5094,DGC,D G S E COMPANIES INC,,1.04,1.04,1.04,2700,0.009709,1.04,1.05,9834,1.04,,0.009709,-0.004059,-0.011067
10028,20090709,5094,DGC,D G S E COMPANIES INC,,1.0199,1.03,1.0199,700,-0.019327,1,1.03,9834,1.03,,-0.019327,0.004852,0.004944
10028,20090710,5094,DGC,D G S E COMPANIES INC,,1.04,1.04,1.04,100,0.019708,1,1.04,9834,1.04,,0.019708,-0.003392,-0.000134
10028,20090713,5094,DGC,D G S E COMPANIES INC,,1,1.0001,1,800,-0.038462,0.97,0.99,9834,1,,-0.038462,0.023814,0.015919
10028,20090714,5094,DGC,D G S E COMPANIES INC,,0.95,1.03,1.03,2600,0.03,1.03,1.04,9834,1,,0.03,0.00725,0.008303
10028,20090715,5094,DGC,D G S E COMPANIES INC,,0.96,1.03,-0.995,0,-0.033981,0.96,1.03,9834,,,-0.033981,0.031101,0.029538
10028,20090716,5094,DGC,D G S E COMPANIES INC,,0.95,1.11,0.95,6600,-0.045226,0.95,0.99,9834,1.03,,-0.045226,0.009434,0.008213
10028,20090717,5094,DGC,D G S E COMPANIES INC,,0.8,0.93,0.89,11900,-0.063158,0.87,0.93,9834,0.92,,-0.063158,-0.000101,-0.001883
10028,20090720,5094,DGC,D G S E COMPANIES INC,,0.94,1.02,0.96,7200,0.078652,0.96,0.99,9834,0.94,,0.078652,0.01348,0.015309
10028,20090721,5094,DGC,D G S E COMPANIES INC,,0.89,0.9439,0.89,12000,-0.072917,0.89,0.93,9834,0.94,,-0.072917,0.002481,-0.001774
10028,20090722,5094,DGC,D G S E COMPANIES INC,,0.88,0.9999,0.91,6100,0.022472,0.89,0.9,9834,0.88,,0.022472,0.000491,0.006205
10028,20090723,5094,DGC,D G S E COMPANIES INC,,0.85,0.91,0.9,4300,-0.010989,0.87,0.9,9834,0.88,,-0.010989,0.024188,0.022647
10028,20090724,5094,DGC,D G S E COMPANIES INC,,0.7784,0.87,0.84,34700,-0.066667,0.78,0.8,9834,0.87,,-0.066667,0.004311,0.006532
10028,20090727,5094,DGC,D G S E COMPANIES INC,,0.84,0.94,0.88,42700,0.047619,0.88,0.91,9834,0.84,,0.047619,0.003427,0.007145
10028,20090728,5094,DGC,D G S E COMPANIES INC,,0.9,0.91,0.91,1300,0.034091,0.9,0.91,9834,0.9,,0.034091,-0.003765,0.001271
10028,20090729,5094,DGC,D G S E COMPANIES INC,,0.85,0.94,0.85,20200,-0.065934,0.88,0.92,9834,0.94,,-0.065934,-0.006683,-0.005267
10028,20090730,5094,DGC,D G S E COMPANIES INC,,0.86,0.94,0.9048,21100,0.064471,0.88,0.91,9834,0.92,,0.064471,0.013275,0.01481
10028,20090731,5094,DGC,D G S E COMPANIES INC,4,0.82,0.94,0.94,3300,0.038904,0.9,0.92,9834,0.82,,0.038904,0.002659,0.004931
10028,20090803,5094,DGC,D G S E COMPANIES INC,,0.86,0.9,0.86,4000,-0.085106,0.87,0.89,9834,0.9,,-0.085106,0.017942,0.018979
10028,20090804,5094,DGC,D G S E COMPANIES INC,,0.8257,0.9,0.87,2600,0.011628,0.87,0.9,9834,0.8257,,0.011628,0.002464,0.006793
10028,20090805,5094,DGC,D G S E COMPANIES INC,,0.8338,0.91,0.87,1700,0,0.87,0.91,9834,0.8338,,0,-0.002357,0.000454
10028,20090806,5094,DGC,D G S E COMPANIES INC,,0.82,0.94,0.82,35300,-0.057471,0.82,0.85,9834,0.899,,-0.057471,-0.007608,-0.007286
10028,20090807,5094,DGC,D G S E COMPANIES INC,,0.82,0.94,0.82,20800,0,0.8,0.82,9834,0.82,,0,0.013295,0.017831
10028,20090810,5094,DGC,D G S E COMPANIES INC,,0.8,0.834,0.81,26900,-0.012195,0.8,0.83,9834,0.83,,-0.012195,-0.004404,0.00206
10028,20090811,5094,DGC,D G S E COMPANIES INC,,0.81,0.83,0.81,3300,0,0.81,0.84,9834,0.83,,0,-0.013944,-0.011763
10028,20090812,5094,DGC,D G S E COMPANIES INC,,0.79,0.85,-0.82,0,0.012346,0.79,0.85,9834,,,0.012346,0.011943,0.012078
10028,20090813,5094,DGC,D G S E COMPANIES INC,,0.79,0.86,0.85,8900,0.036585,0.81,0.86,9834,0.85,,0.036585,0.008309,0.007076
10028,20090814,5094,DGC,D G S E COMPANIES INC,,0.78,0.82,0.78,11900,-0.082353,0.78,0.82,9834,0.82,,-0.082353,-0.010031,-0.012103
