PERMNO,date,SICCD,TICKER,COMNAM,NMSIND,BIDLO,ASKHI,PRC,VOL,RET,BID,ASK,SHROUT,OPENPRC,NUMTRD,RETX,vwretx,ewretx
11873,20080102,7822,DISK,IMAGE ENTERTAINMENT INC,5,3.5,3.64,3.57,2628,-0.027248,3.53,3.54,21740,3.64,23,-0.027248,-0.011965,-0.006655
11873,20080103,7822,DISK,IMAGE ENTERTAINMENT INC,5,3.4,3.56,3.47,21480,-0.028011,3.47,3.48,21740,3.56,117,-0.028011,-0.000957,-0.004569
11873,20080104,7822,DISK,IMAGE ENTERTAINMENT INC,5,3.26,3.45,3.31,42703,-0.04611,3.31,3.33,21740,3.41,116,-0.04611,-0.025651,-0.022428
11873,20080107,7822,DISK,IMAGE ENTERTAINMENT INC,,3.13,3.35,3.26,77351,-0.015106,3.24,3.31,21740,3.31,151,-0.015106,0.000177,-0.001906
11873,20080108,7822,DISK,IMAGE ENTERTAINMENT INC,5,3.15,3.26,3.2,62386,-0.018405,3.17,3.25,21740,3.26,79,-0.018405,-0.017246,-0.014073
11873,20080109,7822,DISK,IMAGE ENTERTAINMENT INC,5,3.1,3.19,3.15,40304,-0.015625,3.11,3.14,21740,3.17,72,-0.015625,0.009933,-0.000568
11873,20080110,7822,DISK,IMAGE ENTERTAINMENT INC,,3.08,3.53,3.46,37500,0.098413,3.43,3.46,21740,3.09,147,0.098413,0.008375,0.009638
11873,20080111,7822,DISK,IMAGE ENTERTAINMENT INC,,3.31,3.55,3.5,17300,0.011561,3.5,3.52,21740,3.43,67,0.011561,-0.013966,-0.011448
11873,20080114,7822,DISK,IMAGE ENTERTAINMENT INC,,3.46,3.57,3.57,18491,0.02,3.53,3.56,21740,3.55,60,0.02,0.010449,0.007768
11873,20080115,7822,DISK,IMAGE ENTERTAINMENT INC,5,3.5,3.8,3.58,14500,0.002801,3.54,3.57,21740,3.54,70,0.002801,-0.024743,-0.018449
11873,20080116,7822,DISK,IMAGE ENTERTAINMENT INC,,3.5,3.67,3.59,39222,0.002793,3.45,3.59,21740,3.59,77,0.002793,-0.006756,-0.000147
11873,20080117,7822,DISK,IMAGE ENTERTAINMENT INC,,2.76,3.5901,3.43,58900,-0.044568,3.26,3.51,21740,3.5901,151,-0.044568,-0.027749,-0.021664
11873,20080118,7822,DISK,IMAGE ENTERTAINMENT INC,5,3.02,3.39,3.02,66936,-0.119534,3.03,3.08,21740,3.39,148,-0.119534,-0.005592,-0.007332
11873,20080122,7822,DISK,IMAGE ENTERTAINMENT INC,,2.96,3.12,3.05,69627,0.009934,2.99,3.07,21740,3.08,54,0.009934,-0.009456,-0.010386
11873,20080123,7822,DISK,IMAGE ENTERTAINMENT INC,,2.88,3.15,3.12,44700,0.022951,3.03,3.11,21740,2.97,115,0.022951,0.019772,0.018187
11873,20080124,7822,DISK,IMAGE ENTERTAINMENT INC,,2.77,3.04,2.77,29405,-0.112179,2.88,2.92,21740,3.04,167,-0.112179,0.012535,0.011062
11873,20080125,7822,DISK,IMAGE ENTERTAINMENT INC,,1.53,2.475,1.55,862443,-0.440433,1.55,1.58,21740,2.46,1209,-0.440433,-0.013001,-0.001545
11873,20080128,7822,DISK,IMAGE ENTERTAINMENT INC,5,1.04,1.5599,1.17,2251210,-0.245161,1.15,1.18,21740,1.55,2409,-0.245161,0.017161,0.013493
11873,20080129,7822,DISK,IMAGE ENTERTAINMENT INC,,1.12,1.325,1.26,1363341,0.076923,1.25,1.28,21740,1.18,1190,0.076923,0.006287,0.007579
11873,20080130,7822,DISK,IMAGE ENTERTAINMENT INC,,1.15,1.31,1.17,612734,-0.071429,1.17,1.19,21740,1.31,648,-0.071429,-0.005471,-0.002636
11873,20080131,7822,DISK,IMAGE ENTERTAINMENT INC,,1.11,1.19,1.16,442544,-0.008547,1.16,1.17,21740,1.17,623,-0.008547,0.014823,0.015102
11873,20080201,7822,DISK,IMAGE ENTERTAINMENT INC,,1.11,1.16,1.11,416894,-0.043103,1.11,1.13,21740,1.16,338,-0.043103,0.015966,0.015673
11873,20080204,7822,DISK,IMAGE ENTERTAINMENT INC,,1.25,1.8,1.681,1404465,0.514414,1.68,1.69,21740,1.26,1970,0.514414,-0.009007,-0.003053
11873,20080205,7822,DISK,IMAGE ENTERTAINMENT INC,5,1.52,2,1.55,1000347,-0.07793,1.52,1.55,21740,1.98,1464,-0.07793,-0.030929,-0.021632
11873,20080206,7822,DISK,IMAGE ENTERTAINMENT INC,5,1.15,1.34,1.19,918010,-0.232258,1.2,1.22,21740,1.2,1036,-0.232258,-0.008268,-0.007339
11873,20080207,7822,DISK,IMAGE ENTERTAINMENT INC,,1.15,1.25,1.18,204730,-0.008403,1.17,1.18,21740,1.25,351,-0.008403,0.007562,0.005105
11873,20080208,7822,DISK,IMAGE ENTERTAINMENT INC,5,1.11,1.19,1.13,231413,-0.042373,1.11,1.13,21756,1.18,320,-0.042373,-0.002103,-0.002793
11873,20080211,7822,DISK,IMAGE ENTERTAINMENT INC,5,1.05,1.15,1.12,278123,-0.00885,1.11,1.14,21756,1.13,508,-0.00885,0.005764,0.002776
11873,20080212,7822,DISK,IMAGE ENTERTAINMENT INC,5,1.18,1.3,1.24,325317,0.107143,1.22,1.24,21756,1.2,467,0.107143,0.00623,0.004074
11873,20080213,7822,DISK,IMAGE ENTERTAINMENT INC,5,1.17,1.31,1.22,208861,-0.016129,1.21,1.22,21756,1.3,303,-0.016129,0.014027,0.01276
11873,20080214,7822,DISK,IMAGE ENTERTAINMENT INC,5,1.17,1.23,1.21,142994,-0.008197,1.19,1.22,21756,1.23,139,-0.008197,-0.013234,-0.013663
11873,20080215,7822,DISK,IMAGE ENTERTAINMENT INC,,1.26,1.39,1.31,510139,0.082645,1.28,1.31,21756,1.3,446,0.082645,-0.000498,-0.004099
11873,20080219,7822,DISK,IMAGE ENTERTAINMENT INC,,1.29,1.37,1.3,192956,-0.007634,1.29,1.3,21756,1.35,306,-0.007634,0.000535,0.002507
11873,20080220,7822,DISK,IMAGE ENTERTAINMENT INC,,1.21,1.3,1.29,209006,-0.007692,1.29,1.3,21756,1.26,370,-0.007692,0.008783,0.00497
11873,20080221,7822,DISK,IMAGE ENTERTAINMENT INC,,1.23,1.32,1.29,158057,0,1.24,1.27,21756,1.3,173,0,-0.012067,-0.009713
11873,20080222,7822,DISK,IMAGE ENTERTAINMENT INC,,1.24,1.45,1.44,275547,0.116279,1.43,1.45,21756,1.25,645,0.116279,0.006707,0.000367
11873,20080225,7822,DISK,IMAGE ENTERTAINMENT INC,,1.5,1.83,1.8,781684,0.25,1.77,1.79,21756,1.55,1263,0.25,0.015038,0.013319
11873,20080226,7822,DISK,IMAGE ENTERTAINMENT INC,5,1.76,2.07,2.03,630807,0.127778,2,2.02,21756,1.81,1186,0.127778,0.008214,0.009566
11873,20080227,7822,DISK,IMAGE ENTERTAINMENT INC,,2,2.49,2.45,1029085,0.206897,2.41,2.45,21756,2,1831,0.206897,-0.000963,-0.000165
11873,20080228,7822,DISK,IMAGE ENTERTAINMENT INC,5,2.06,2.45,2.27,536882,-0.073469,2.25,2.26,21756,2.45,1019,-0.073469,-0.007812,-0.008768
11873,20080229,7822,DISK,IMAGE ENTERTAINMENT INC,5,2.05,2.2,2.14,247502,-0.057269,2.12,2.14,21756,2.14,575,-0.057269,-0.026168,-0.020187
11873,20080303,7822,DISK,IMAGE ENTERTAINMENT INC,,2,2.18,2.18,178823,0.018692,2.17,2.18,21756,2.09,400,0.018692,-0.000485,-0.005238
11873,20080304,7822,DISK,IMAGE ENTERTAINMENT INC,,2.05,2.19,2.12,114136,-0.027523,2.11,2.13,21756,2.19,352,-0.027523,-0.004804,-0.006747
11873,20080305,7822,DISK,IMAGE ENTERTAINMENT INC,,2.01,2.2,2.19,110673,0.033019,2.16,2.19,21756,2.03,307,0.033019,0.006594,0.003172
11873,20080306,7822,DISK,IMAGE ENTERTAINMENT INC,,2.05,2.2,2.1,100524,-0.041096,2.06,2.1,21756,2.2,328,-0.041096,-0.022149,-0.021506
11873,20080307,7822,DISK,IMAGE ENTERTAINMENT INC,,1.92,2.1,2.02,111859,-0.038095,2.01,2.02,21756,2.07,322,-0.038095,-0.008779,-0.007707
11873,20080310,7822,DISK,IMAGE ENTERTAINMENT INC,5,1.8,2.01,1.84,148135,-0.089109,1.8,1.85,21756,2,321,-0.089109,-0.01825,-0.020884
11873,20080311,7822,DISK,IMAGE ENTERTAINMENT INC,5,1.62,1.89,1.8,167201,-0.021739,1.79,1.8,21756,1.82,508,-0.021739,0.035732,0.026985
11873,20080312,7822,DISK,IMAGE ENTERTAINMENT INC,,1.75,2.24,2.13,415053,0.183333,2.12,2.14,21756,1.83,937,0.183333,-0.00733,-0.00462
11873,20080313,7822,DISK,IMAGE ENTERTAINMENT INC,5,2.03,2.15,2.14,191543,0.004695,2.13,2.14,21756,2.07,268,0.004695,0.007226,0.007298
11873,20080314,7822,DISK,IMAGE ENTERTAINMENT INC,5,2.06,2.21,2.11,87142,-0.014019,2.11,2.12,21756,2.06,206,-0.014019,-0.020023,-0.018222
11873,20080317,7822,DISK,IMAGE ENTERTAINMENT INC,5,1.9482,2.14,2.03,97129,-0.037915,1.99,2.03,21756,2.05,316,-0.037915,-0.015035,-0.020983
11873,20080318,7822,DISK,IMAGE ENTERTAINMENT INC,5,2,2.14,2.04,73590,0.004926,2.02,2.04,21756,2,211,0.004926,0.039537,0.028376
11873,20080319,7822,DISK,IMAGE ENTERTAINMENT INC,,1.95,2.11,2.08,44342,0.019608,2.07,2.09,21756,2.1,163,0.019608,-0.026107,-0.017168
11873,20080320,7822,DISK,IMAGE ENTERTAINMENT INC,,2.02,2.18,2.18,171988,0.048077,2.15,2.16,21756,2.12,328,0.048077,0.021158,0.014501
11873,20080324,7822,DISK,IMAGE ENTERTAINMENT INC,5,1.97,2.2,2,121379,-0.082569,1.98,2,21756,2.18,289,-0.082569,0.017582,0.021668
11873,20080325,7822,DISK,IMAGE ENTERTAINMENT INC,,1.79,2.03,1.86,145885,-0.07,1.79,1.82,21756,2.01,359,-0.07,0.005698,0.010797
11873,20080326,7822,DISK,IMAGE ENTERTAINMENT INC,,1.54,2.04,2.03,396241,0.091398,2.01,2.03,21756,1.54,673,0.091398,-0.006485,-0.002807
11873,20080327,7822,DISK,IMAGE ENTERTAINMENT INC,,1.86,2.04,1.95,72466,-0.039409,1.95,1.99,21756,2.01,151,-0.039409,-0.010373,-0.004944
11873,20080328,7822,DISK,IMAGE ENTERTAINMENT INC,5,1.85,1.98,1.87,55886,-0.041026,1.87,1.89,21756,1.98,142,-0.041026,-0.008038,-0.007315
11873,20080331,7822,DISK,IMAGE ENTERTAINMENT INC,5,1.55,1.87,1.68,206945,-0.101604,1.67,1.68,21856,1.85,401,-0.101604,0.005286,0.005196
11873,20080401,7822,DISK,IMAGE ENTERTAINMENT INC,5,1.7699,1.84,1.82,30027,0.083333,1.79,1.82,21856,1.7699,101,0.083333,0.032086,0.020874
11873,20080402,7822,DISK,IMAGE ENTERTAINMENT INC,5,1.6,1.85,1.66,190159,-0.087912,1.61,1.64,21856,1.85,342,-0.087912,0.000222,0.003193
11873,20080403,7822,DISK,IMAGE ENTERTAINMENT INC,,1.529,1.71,1.65,154486,-0.006024,1.65,1.66,21856,1.71,310,-0.006024,0.002665,0.001693
11873,20080404,7822,DISK,IMAGE ENTERTAINMENT INC,,1.62,1.74,1.66,35945,0.006061,1.63,1.66,21856,1.68,155,0.006061,0.00195,0.002778
11873,20080407,7822,DISK,IMAGE ENTERTAINMENT INC,,1.55,1.7,1.58,39220,-0.048193,1.56,1.59,21856,1.7,148,-0.048193,0.001712,0.0018
11873,20080408,7822,DISK,IMAGE ENTERTAINMENT INC,,1.52,1.6,1.53,22175,-0.031646,1.53,1.54,21856,1.6,112,-0.031646,-0.003404,-0.002727
11873,20080409,7822,DISK,IMAGE ENTERTAINMENT INC,,1.5601,1.66,1.58,67597,0.03268,1.58,1.6,21856,1.58,186,0.03268,-0.009046,-0.011542
11873,20080410,7822,DISK,IMAGE ENTERTAINMENT INC,,1.4,1.63,1.45,162761,-0.082278,1.44,1.46,21856,1.52,371,-0.082278,0.005403,0.005008
11873,20080411,7822,DISK,IMAGE ENTERTAINMENT INC,,1.46,1.52,1.5,57598,0.034483,1.49,1.52,21856,1.49,224,0.034483,-0.019628,-0.01591
11873,20080414,7822,DISK,IMAGE ENTERTAINMENT INC,5,1.09,1.56,1.3401,185633,-0.1066,1.3,1.35,21856,1.53,412,-0.1066,-0.002586,-0.004434
11873,20080415,7822,DISK,IMAGE ENTERTAINMENT INC,5,1.208,1.35,1.27,128383,-0.05231,1.25,1.27,21856,1.32,234,-0.05231,0.005073,0.002118
11873,20080416,7822,DISK,IMAGE ENTERTAINMENT INC,5,1.08,1.39,1.15,148952,-0.094488,1.14,1.15,21856,1.39,281,-0.094488,0.024085,0.017852
11873,20080417,7822,DISK,IMAGE ENTERTAINMENT INC,5,1.08,1.2,1.19,77406,0.034783,1.19,1.2,21856,1.18,136,0.034783,-0.001228,-0.002075
11873,20080418,7822,DISK,IMAGE ENTERTAINMENT INC,,1.1601,1.24,1.18,21689,-0.008403,1.18,1.2,21856,1.18,79,-0.008403,0.016548,0.012443
11873,20080421,7822,DISK,IMAGE ENTERTAINMENT INC,,1.16,1.35,1.34,77048,0.135593,1.31,1.34,21856,1.16,185,0.135593,-0.000578,-0.001629
11873,20080422,7822,DISK,IMAGE ENTERTAINMENT INC,,1.22,1.34,1.31,50847,-0.022388,1.31,1.33,21856,1.34,120,-0.022388,-0.009319,-0.01285
11873,20080423,7822,DISK,IMAGE ENTERTAINMENT INC,,1.24,1.31,1.2999,18700,-0.00771,1.28,1.3,21856,1.31,63,-0.00771,0.00111,0.002084
11873,20080424,7822,DISK,IMAGE ENTERTAINMENT INC,5,1.21,1.2601,1.24,33105,-0.04608,1.22,1.24,21856,1.26,111,-0.04608,0.005058,0.007845
11873,20080425,7822,DISK,IMAGE ENTERTAINMENT INC,,1.18,1.236,1.18,24337,-0.048387,1.18,1.19,21856,1.236,87,-0.048387,0.006915,0.005692
11873,20080428,7822,DISK,IMAGE ENTERTAINMENT INC,5,1.2,1.3,1.22,29010,0.033898,1.22,1.24,21856,1.2,101,0.033898,0.000154,0.003586
11873,20080429,7822,DISK,IMAGE ENTERTAINMENT INC,5,1.13,1.23,1.17,60558,-0.040984,1.15,1.17,21856,1.21,153,-0.040984,-0.005712,-0.004917
11873,20080430,7822,DISK,IMAGE ENTERTAINMENT INC,5,1.15,1.2,1.19,64999,0.017094,1.15,1.16,21856,1.169,140,0.017094,-0.001607,0.00166
11873,20080501,7822,DISK,IMAGE ENTERTAINMENT INC,5,1.2,1.4,1.26,110358,0.058823,1.24,1.27,21856,1.2,264,0.058823,0.01437,0.010829
11873,20080502,7822,DISK,IMAGE ENTERTAINMENT INC,5,1.2,1.4,1.21,59215,-0.039683,1.2,1.22,21856,1.26,145,-0.039683,0.00324,0.000327
11873,20080505,7822,DISK,IMAGE ENTERTAINMENT INC,,1.19,1.26,1.2,37392,-0.008264,1.19,1.21,21856,1.24,118,-0.008264,-0.002711,-0.001239
11873,20080506,7822,DISK,IMAGE ENTERTAINMENT INC,5,1.18,1.23,1.21,28780,0.008333,1.2,1.21,21856,1.21,97,0.008333,0.008366,0.006164
11873,20080507,7822,DISK,IMAGE ENTERTAINMENT INC,5,1.16,1.2499,1.2,31496,-0.008264,1.19,1.2,21856,1.22,105,-0.008264,-0.016185,-0.011755
11873,20080508,7822,DISK,IMAGE ENTERTAINMENT INC,5,1.16,1.19,1.16,26772,-0.033333,1.16,1.18,21856,1.17,108,-0.033333,0.004532,0.001917
11873,20080509,7822,DISK,IMAGE ENTERTAINMENT INC,5,1.1,1.19,1.14,82481,-0.017241,1.13,1.14,21856,1.15,185,-0.017241,-0.004717,-0.000676
11873,20080512,7822,DISK,IMAGE ENTERTAINMENT INC,,1.14,1.19,1.14,20732,0,1.12,1.2,21856,1.14,100,0,0.010944,0.010765
11873,20080513,7822,DISK,IMAGE ENTERTAINMENT INC,,1.176,1.26,1.24,38491,0.087719,1.22,1.24,21856,1.2,146,0.087719,0.000545,0.002291
11873,20080514,7822,DISK,IMAGE ENTERTAINMENT INC,,1.24,1.33,1.27,43814,0.024194,1.26,1.27,21856,1.26,159,0.024194,0.00289,0.00187
11873,20080515,7822,DISK,IMAGE ENTERTAINMENT INC,,1.22,1.3,1.25,55721,-0.015748,1.24,1.25,21856,1.28,127,-0.015748,0.011029,0.008057
11873,20080516,7822,DISK,IMAGE ENTERTAINMENT INC,5,1.22,1.4,1.29,34800,0.032,1.28,1.29,21856,1.29,88,0.032,0.002414,0.001076
11873,20080519,7822,DISK,IMAGE ENTERTAINMENT INC,,1.31,1.415,1.32,96115,0.023256,1.3,1.32,21856,1.34,194,0.023256,-0.000322,-0.000502
11873,20080520,7822,DISK,IMAGE ENTERTAINMENT INC,5,1.2,1.37,1.2199,161151,-0.075833,1.21,1.22,21856,1.37,321,-0.075833,-0.005988,-0.003529
11873,20080521,7822,DISK,IMAGE ENTERTAINMENT INC,5,1.18,1.34,1.21,57639,-0.008115,1.2,1.21,21856,1.26,140,-0.008115,-0.015421,-0.009184
11873,20080522,7822,DISK,IMAGE ENTERTAINMENT INC,5,1.16,1.26,1.16,39080,-0.041322,1.16,1.17,21856,1.26,88,-0.041322,0.002786,0.003248
11873,20080523,7822,DISK,IMAGE ENTERTAINMENT INC,,1.08,1.23,1.1,55557,-0.051724,1.08,1.1,21856,1.18,94,-0.051724,-0.011557,-0.007309
11873,20080527,7822,DISK,IMAGE ENTERTAINMENT INC,5,1.12,1.2001,1.14,35900,0.036364,1.11,1.14,21856,1.13,121,0.036364,0.004893,0.006116
11873,20080528,7822,DISK,IMAGE ENTERTAINMENT INC,5,1.1,1.2,1.163,38172,0.020175,1.15,1.18,21856,1.13,81,0.020175,0.005529,0.003347
11873,20080529,7822,DISK,IMAGE ENTERTAINMENT INC,,1.06,1.2,1.09,86418,-0.062769,1.08,1.09,21856,1.2,151,-0.062769,0.004276,0.005167
11873,20080530,7822,DISK,IMAGE ENTERTAINMENT INC,,1.09,1.15,1.1399,108800,0.04578,1.12,1.14,21856,1.1001,168,0.04578,0.003063,0.004872
11873,20080602,7822,DISK,IMAGE ENTERTAINMENT INC,,1.1401,1.2,1.17,20889,0.026406,1.15,1.17,21856,1.1401,87,0.026406,-0.009077,-0.008391
11873,20080603,7822,DISK,IMAGE ENTERTAINMENT INC,,1.19,1.29,1.25,94885,0.068376,1.27,1.28,21856,1.19,189,0.068376,-0.00488,-0.001854
11873,20080604,7822,DISK,IMAGE ENTERTAINMENT INC,,1.23,1.3,1.28,31141,0.024,1.27,1.28,21856,1.27,120,0.024,-0.001235,0.001266
11873,20080605,7822,DISK,IMAGE ENTERTAINMENT INC,,1.18,1.27,1.24,39000,-0.03125,1.21,1.24,21856,1.26,138,-0.03125,0.020182,0.014676
11873,20080606,7822,DISK,IMAGE ENTERTAINMENT INC,5,1.08,1.3,1.12,59838,-0.096774,1.12,1.14,21856,1.21,153,-0.096774,-0.026786,-0.019893
11873,20080609,7822,DISK,IMAGE ENTERTAINMENT INC,5,1.12,1.2,1.17,17340,0.044643,1.15,1.17,21856,1.13,66,0.044643,-0.000607,-0.007792
11873,20080610,7822,DISK,IMAGE ENTERTAINMENT INC,,1.17,1.24,1.24,15130,0.059829,1.22,1.24,21856,1.17,88,0.059829,-0.005005,-0.005391
11873,20080611,7822,DISK,IMAGE ENTERTAINMENT INC,,1.09,1.22,1.13,50543,-0.08871,1.11,1.13,21856,1.21,177,-0.08871,-0.015416,-0.0153
11873,20080612,7822,DISK,IMAGE ENTERTAINMENT INC,5,1.11,1.15,1.14,18900,0.00885,1.12,1.14,21856,1.13,39,0.00885,0.00133,0.000751
11873,20080613,7822,DISK,IMAGE ENTERTAINMENT INC,5,1.138,1.2,1.2,23805,0.052632,1.18,1.2,21856,1.14,54,0.052632,0.014676,0.012188
11873,20080616,7822,DISK,IMAGE ENTERTAINMENT INC,,1.13,1.24,1.14,18657,-0.05,1.12,1.15,21856,1.18,39,-0.05,0.00327,0.0054
11873,20080617,7822,DISK,IMAGE ENTERTAINMENT INC,5,1.11,1.2,1.12,5928,-0.017544,1.11,1.13,21856,1.13,23,-0.017544,-0.00395,-0.00434
11873,20080618,7822,DISK,IMAGE ENTERTAINMENT INC,5,1.11,1.15,1.11,9452,-0.008929,1.11,1.13,21856,1.11,23,-0.008929,-0.008296,-0.008457
11873,20080619,7822,DISK,IMAGE ENTERTAINMENT INC,5,1.11,1.14,1.12,8673,0.009009,1.12,1.13,21856,1.128,25,0.009009,0.002225,0.002649
11873,20080620,7822,DISK,IMAGE ENTERTAINMENT INC,,1.08,1.14,1.13,13116,0.008929,1.1,1.11,21856,1.14,53,0.008929,-0.01753,-0.013931
11873,20080623,7822,DISK,IMAGE ENTERTAINMENT INC,5,1.05,1.13,1.09,18450,-0.035398,1.08,1.09,21856,1.13,32,-0.035398,-0.000866,-0.0091
11873,20080624,7822,DISK,IMAGE ENTERTAINMENT INC,,1.1,1.14,1.12,5200,0.027523,1.1,1.12,21856,1.14,14,0.027523,-0.006253,-0.009897
11873,20080625,7822,DISK,IMAGE ENTERTAINMENT INC,,1.1,1.24,1.24,40510,0.107143,1.21,1.24,21856,1.1,114,0.107143,0.006097,0.007233
11873,20080626,7822,DISK,IMAGE ENTERTAINMENT INC,5,1.15,1.25,1.23,44096,-0.008065,1.21,1.24,21856,1.2,108,-0.008065,-0.026496,-0.019562
11873,20080627,7822,DISK,IMAGE ENTERTAINMENT INC,,0.8,1.24,1.05,238278,-0.146342,1.04,1.05,21856,1.11,455,-0.146342,-0.002526,-0.005772
11873,20080630,7822,DISK,IMAGE ENTERTAINMENT INC,5,0.9,1.05,0.93,135320,-0.114286,0.93,0.94,21856,1.012,240,-0.114286,-0.00105,-0.005719
11873,20080701,7822,DISK,IMAGE ENTERTAINMENT INC,5,0.8718,1.12,1.05,109858,0.129032,1.05,1.07,21856,0.8718,151,0.129032,0.001689,-0.006391
11873,20080702,7822,DISK,IMAGE ENTERTAINMENT INC,,1,1.14,1.01,147150,-0.038095,1,1.02,21856,1.04,227,-0.038095,-0.021045,-0.018159
11873,20080703,7822,DISK,IMAGE ENTERTAINMENT INC,5,1,1.12,1.11,55950,0.09901,1.08,1.11,21856,1.04,104,0.09901,-0.002429,-0.006075
11873,20080707,7822,DISK,IMAGE ENTERTAINMENT INC,5,0.99,1.17,1.09,80499,-0.018018,1.06,1.09,21856,1.09,234,-0.018018,-0.008618,-0.011669
11873,20080708,7822,DISK,IMAGE ENTERTAINMENT INC,5,1.03,1.11,1.07,55736,-0.018349,1.05,1.07,21856,1.11,187,-0.018349,0.016773,0.018279
11873,20080709,7822,DISK,IMAGE ENTERTAINMENT INC,5,1.07,1.16,1.09,51032,0.018692,1.09,1.1,21856,1.14,159,0.018692,-0.019455,-0.01426
11873,20080710,7822,DISK,IMAGE ENTERTAINMENT INC,,1.1,1.15,1.11,18150,0.018349,1.11,1.12,21856,1.11,78,0.018349,0.007645,0.002266
11873,20080711,7822,DISK,IMAGE ENTERTAINMENT INC,5,1.04,1.12,1.06,60744,-0.045045,1.06,1.07,21856,1.12,69,-0.045045,-0.008381,-0.003414
11873,20080714,7822,DISK,IMAGE ENTERTAINMENT INC,,1.08,1.23,1.2,29748,0.132076,1.19,1.2,21856,1.08,110,0.132076,-0.008219,-0.012361
11873,20080715,7822,DISK,IMAGE ENTERTAINMENT INC,,1.09,1.2,1.13,39251,-0.058333,1.11,1.13,21856,1.174,102,-0.058333,-0.011511,-0.009229
11873,20080716,7822,DISK,IMAGE ENTERTAINMENT INC,,1.1,1.1847,1.17,4135,0.035398,1.15,1.18,21856,1.1847,22,0.035398,0.023954,0.026472
11873,20080717,7822,DISK,IMAGE ENTERTAINMENT INC,5,1.1,1.18,1.17,19735,0,1.15,1.17,21856,1.18,63,0,0.009637,0.016398
11873,20080718,7822,DISK,IMAGE ENTERTAINMENT INC,5,1.1,1.18,1.14,27350,-0.025641,1.13,1.16,21856,1.18,106,-0.025641,0.000346,0.000861
11873,20080721,7822,DISK,IMAGE ENTERTAINMENT INC,,1.07,1.16,1.14,22940,0,1.11,1.14,21856,1.16,88,0,0.003955,0.0069
11873,20080722,7822,DISK,IMAGE ENTERTAINMENT INC,,1.03,1.18,1.18,32200,0.035088,1.16,1.18,21856,1.17,103,0.035088,0.011076,0.015126
11873,20080723,7822,DISK,IMAGE ENTERTAINMENT INC,,1.15,1.2,1.17,18435,-0.008475,1.17,1.19,21856,1.18,40,-0.008475,0.001821,0.006569
11873,20080724,7822,DISK,IMAGE ENTERTAINMENT INC,5,1.18,1.2,1.19,2800,0.017094,1.14,1.17,21856,1.18,14,0.017094,-0.024336,-0.018647
11873,20080725,7822,DISK,IMAGE ENTERTAINMENT INC,5,1.11,1.19,1.18,33962,-0.008403,1.18,1.19,21856,1.11,60,-0.008403,0.005536,0.006369
11873,20080728,7822,DISK,IMAGE ENTERTAINMENT INC,,1.15,1.19,1.16,11755,-0.016949,1.16,1.17,21856,1.19,57,-0.016949,-0.016527,-0.013761
11873,20080729,7822,DISK,IMAGE ENTERTAINMENT INC,,1.15,1.2,1.15,14250,-0.008621,1.16,1.19,21856,1.2,58,-0.008621,0.021117,0.016734
11873,20080730,7822,DISK,IMAGE ENTERTAINMENT INC,,1.12,1.18,1.18,11163,0.026087,1.17,1.18,21856,1.18,61,0.026087,0.016377,0.006677
11873,20080731,7822,DISK,IMAGE ENTERTAINMENT INC,,1.16,1.19,1.19,8645,0.008475,1.18,1.19,21856,1.16,59,0.008475,-0.011859,-0.002778
11873,20080801,7822,DISK,IMAGE ENTERTAINMENT INC,,1.1,1.19,1.16,42746,-0.02521,1.16,1.16,21856,1.16,119,-0.02521,-0.005198,-0.000741
11873,20080804,7822,DISK,IMAGE ENTERTAINMENT INC,,1.1301,1.18,1.15,7824,-0.008621,1.13,1.15,21856,1.1301,16,-0.008621,-0.013405,-0.012228
11873,20080805,7822,DISK,IMAGE ENTERTAINMENT INC,5,1.1,1.15,1.13,13440,-0.017391,1.11,1.13,21856,1.15,30,-0.017391,0.024378,0.013398
11873,20080806,7822,DISK,IMAGE ENTERTAINMENT INC,5,1.1,1.15,1.15,43481,0.017699,1.14,1.15,21856,1.1,113,0.017699,0.005406,0.006504
11873,20080807,7822,DISK,IMAGE ENTERTAINMENT INC,5,1.11,1.15,1.15,15637,0,1.14,1.15,21856,1.14,61,0,-0.016912,-0.012611
11873,20080808,7822,DISK,IMAGE ENTERTAINMENT INC,5,1.11,1.15,1.13,6200,-0.017391,1.11,1.13,21856,1.12,33,-0.017391,0.019173,0.015813
11873,20080811,7822,DISK,IMAGE ENTERTAINMENT INC,,1.11,1.19,1.16,14606,0.026549,1.15,1.16,21856,1.15,55,0.026549,0.006503,0.01065
11873,20080812,7822,DISK,IMAGE ENTERTAINMENT INC,,1.12,1.17,1.17,88858,0.008621,1.17,1.18,21856,1.16,144,0.008621,-0.009666,-0.005693
11873,20080813,7822,DISK,IMAGE ENTERTAINMENT INC,5,1.1599,1.28,1.24,195811,0.059829,1.23,1.24,21856,1.19,215,0.059829,-0.00044,0.002201
11873,20080814,7822,DISK,IMAGE ENTERTAINMENT INC,5,1.12,1.29,1.2,88361,-0.032258,1.19,1.2,21856,1.26,232,-0.032258,0.00503,0.006533
11873,20080815,7822,DISK,IMAGE ENTERTAINMENT INC,,1.12,1.21,1.15,24658,-0.041667,1.14,1.15,21856,1.2,71,-0.041667,0.001245,-0.000882
11873,20080818,7822,DISK,IMAGE ENTERTAINMENT INC,,1.15,1.21,1.19,32528,0.034783,1.17,1.19,21856,1.17,119,0.034783,-0.013473,-0.00993
11873,20080819,7822,DISK,IMAGE ENTERTAINMENT INC,5,1.15,1.19,1.18,11950,-0.008403,1.16,1.18,21856,1.16,53,-0.008403,-0.008943,-0.011751
11873,20080820,7822,DISK,IMAGE ENTERTAINMENT INC,,1.13,1.22,1.16,22560,-0.016949,1.14,1.16,21856,1.21,91,-0.016949,0.006771,0.002565
11873,20080821,7822,DISK,IMAGE ENTERTAINMENT INC,5,1.13,1.2,1.16,24850,0,1.14,1.16,21856,1.18,101,0,0.00314,-0.00224
11873,20080822,7822,DISK,IMAGE ENTERTAINMENT INC,,1.09,1.18,1.15,8700,-0.008621,1.14,1.16,21856,1.18,57,-0.008621,0.009437,0.009536
11873,20080825,7822,DISK,IMAGE ENTERTAINMENT INC,,1.13,1.15,1.14,27892,-0.008696,1.11,1.15,21856,1.13,60,-0.008696,-0.01855,-0.015117
11873,20080826,7822,DISK,IMAGE ENTERTAINMENT INC,5,1.04,1.18,1.1,35204,-0.035088,1.08,1.1,21856,1.12,125,-0.035088,0.003549,0.00287
11873,20080827,7822,DISK,IMAGE ENTERTAINMENT INC,5,1.01,1.15,1.13,20400,0.027273,1.11,1.13,21856,1.13,116,0.027273,0.009412,0.00805
11873,20080828,7822,DISK,IMAGE ENTERTAINMENT INC,5,1.085,1.16,1.16,75747,0.026549,1.15,1.16,21856,1.11,257,0.026549,0.014185,0.013313
11873,20080829,7822,DISK,IMAGE ENTERTAINMENT INC,,1.15,1.18,1.17,9100,0.008621,1.15,1.17,21856,1.17,46,0.008621,-0.011719,-0.003495
11873,20080902,7822,DISK,IMAGE ENTERTAINMENT INC,,1.08,1.18,1.1,16345,-0.059829,1.08,1.1,21856,1.18,72,-0.059829,-0.007076,-0.003574
11873,20080903,7822,DISK,IMAGE ENTERTAINMENT INC,,1.09,1.14,1.1,19360,0,1.08,1.1,21856,1.12,43,0,-0.003312,-0.000519
11873,20080904,7822,DISK,IMAGE ENTERTAINMENT INC,,1.04,1.11,1.07,28758,-0.027273,1.06,1.07,21856,1.1,88,-0.027273,-0.028948,-0.021621
11873,20080905,7822,DISK,IMAGE ENTERTAINMENT INC,,1.02,1.08,1.08,25308,0.009346,1.05,1.07,21856,1.07,58,0.009346,0.003797,-0.000339
11873,20080908,7822,DISK,IMAGE ENTERTAINMENT INC,,1.0137,1.13,1.1,49572,0.018519,1.08,1.1,21856,1.05,98,0.018519,0.014721,0.007628
11873,20080909,7822,DISK,IMAGE ENTERTAINMENT INC,,1.06,1.15,1.08,19200,-0.018182,1.07,1.08,21856,1.08,118,-0.018182,-0.034941,-0.028945
11873,20080910,7822,DISK,IMAGE ENTERTAINMENT INC,,1.05,1.1,1.07,16300,-0.009259,1.04,1.08,21856,1.07,36,-0.009259,0.008484,0.003445
11873,20080911,7822,DISK,IMAGE ENTERTAINMENT INC,,0.96,1.08,0.99,105227,-0.074766,0.99,1,21856,1,209,-0.074766,0.010642,-0.003328
11873,20080912,7822,DISK,IMAGE ENTERTAINMENT INC,,0.98,1.04,1.02,19000,0.030303,1,1.03,21856,1.01,56,0.030303,0.005322,0.004843
11873,20080915,7822,DISK,IMAGE ENTERTAINMENT INC,,0.95,1.05,1,20331,-0.019608,0.99,1,21856,0.96,80,-0.019608,-0.045674,-0.039367
11873,20080916,7822,DISK,IMAGE ENTERTAINMENT INC,,0.91,1.05,1.02,39604,0.02,1,1.02,21856,0.99,86,0.02,0.015157,0.003354
11873,20080917,7822,DISK,IMAGE ENTERTAINMENT INC,,0.91,1.02,0.985,38315,-0.034314,0.97,0.99,21856,0.93,65,-0.034314,-0.045503,-0.040954
11873,20080918,7822,DISK,IMAGE ENTERTAINMENT INC,,0.95,1.04,0.97,18814,-0.015228,0.97,0.98,21856,1,58,-0.015228,0.043916,0.041432
11873,20080919,7822,DISK,IMAGE ENTERTAINMENT INC,,0.95,1,0.98,10318,0.010309,0.95,0.9799,21856,1,39,0.010309,0.04599,0.04939
11873,20080922,7822,DISK,IMAGE ENTERTAINMENT INC,5,0.92,1.03,0.9499,41010,-0.030714,0.94,0.9499,21856,1.01,99,-0.030714,-0.036817,-0.026898
11873,20080923,7822,DISK,IMAGE ENTERTAINMENT INC,,0.86,1.03,0.88,120435,-0.073587,0.87,0.88,21856,1,163,-0.073587,-0.015644,-0.012863
11873,20080924,7822,DISK,IMAGE ENTERTAINMENT INC,5,0.7512,1,0.84,88448,-0.045455,0.83,0.84,21856,0.99,275,-0.045455,-0.003315,-0.00926
11873,20080925,7822,DISK,IMAGE ENTERTAINMENT INC,5,0.8,0.9,0.8937,51121,0.063929,0.89,0.895,21856,0.8999,182,0.063929,0.016532,0.008804
11873,20080926,7822,DISK,IMAGE ENTERTAINMENT INC,,0.88,0.97,0.9099,53750,0.018127,0.9,0.9099,21856,0.9,135,0.018127,-0.002251,-0.008583
11873,20080929,7822,DISK,IMAGE ENTERTAINMENT INC,,0.87,0.95,0.94,32817,0.033081,0.89,0.96,21856,0.95,73,0.033081,-0.082589,-0.061315
11873,20080930,7822,DISK,IMAGE ENTERTAINMENT INC,5,0.82,0.89,0.85,48853,-0.095745,0.82,0.85,21856,0.89,31,-0.095745,0.046616,0.027735
11873,20081001,7822,DISK,IMAGE ENTERTAINMENT INC,,0.81,0.85,0.85,22619,0,0.84,0.85,21856,0.85,44,0,-0.005829,-0.004764
11873,20081002,7822,DISK,IMAGE ENTERTAINMENT INC,,0.51,0.89,0.82,282770,-0.035294,0.77,0.82,21856,0.85,366,-0.035294,-0.045779,-0.039139
11873,20081003,7822,DISK,IMAGE ENTERTAINMENT INC,,0.77,0.88,0.8357,49029,0.019146,0.81,0.8357,21856,0.8788,173,0.019146,-0.014335,-0.016903
11873,20081006,7822,DISK,IMAGE ENTERTAINMENT INC,,0.66,0.89,0.8,34612,-0.042719,0.74,0.8,21856,0.77,110,-0.042719,-0.04243,-0.059337
11873,20081007,7822,DISK,IMAGE ENTERTAINMENT INC,5,0.66,0.87,0.8,50796,0,0.78,0.8,21856,0.84,109,0,-0.057914,-0.047041
11873,20081008,7822,DISK,IMAGE ENTERTAINMENT INC,5,0.65,0.7999,0.74,92404,-0.075,0.73,0.74,21856,0.7999,131,-0.075,-0.012011,-0.026977
11873,20081009,7822,DISK,IMAGE ENTERTAINMENT INC,5,0.6,0.74,0.67,31354,-0.094595,0.61,0.67,21856,0.74,43,-0.094595,-0.072775,-0.063757
11873,20081010,7822,DISK,IMAGE ENTERTAINMENT INC,5,0.411,0.74,0.64,97523,-0.044776,0.63,0.64,21856,0.7,263,-0.044776,-0.01221,-0.006893
11873,20081013,7822,DISK,IMAGE ENTERTAINMENT INC,,0.64,0.82,0.8,22342,0.25,0.79,0.8,21856,0.74,82,0.25,0.114836,0.107335
11873,20081014,7822,DISK,IMAGE ENTERTAINMENT INC,,0.5501,0.92,0.86,57592,0.075,0.86,0.89,21856,0.8,254,0.075,-0.009051,-0.001721
11873,20081015,7822,DISK,IMAGE ENTERTAINMENT INC,5,0.75,0.93,0.78,25056,-0.093023,0.75,0.7899,21856,0.93,109,-0.093023,-0.089842,-0.070866
11873,20081016,7822,DISK,IMAGE ENTERTAINMENT INC,,0.73,0.9,0.8,44220,0.025641,0.75,0.8,21856,0.9,169,0.025641,0.039611,0.02952
11873,20081017,7822,DISK,IMAGE ENTERTAINMENT INC,,0.7,0.83,0.8,4570,0,0.79,0.8,21856,0.83,24,0,-0.002498,0.001614
11873,20081020,7822,DISK,IMAGE ENTERTAINMENT INC,5,0.74,0.83,0.8,26405,0,0.72,0.8,21856,0.82,54,0,0.046506,0.035473
11873,20081021,7822,DISK,IMAGE ENTERTAINMENT INC,5,0.4712,0.78,0.7,19934,-0.125,0.71,0.74,21856,0.4712,32,-0.125,-0.031481,-0.02072
11873,20081022,7822,DISK,IMAGE ENTERTAINMENT INC,,0.58,0.8,0.7,37080,0,0.69,0.77,21856,0.58,112,0,-0.059264,-0.048986
11873,20081023,7822,DISK,IMAGE ENTERTAINMENT INC,5,0.65,0.8,0.72,23008,0.028571,0.67,0.71,21856,0.68,86,0.028571,0.000813,-0.020324
11873,20081024,7822,DISK,IMAGE ENTERTAINMENT INC,5,0.62,0.71,0.68,16788,-0.055556,0.64,0.68,21856,0.7,20,-0.055556,-0.033449,-0.031311
11873,20081027,7822,DISK,IMAGE ENTERTAINMENT INC,5,0.666,0.74,0.72,1110,0.058824,0.66,0.72,21856,0.74,3,0.058824,-0.036947,-0.035395
11873,20081028,7822,DISK,IMAGE ENTERTAINMENT INC,,0.68,0.72,0.71,4950,-0.013889,0.69,0.71,21856,0.68,18,-0.013889,0.095262,0.050347
11873,20081029,7822,DISK,IMAGE ENTERTAINMENT INC,,0.7,0.75,0.7,19280,-0.014084,0.69,0.7,21856,0.72,49,-0.014084,0.001199,0.021377
11873,20081030,7822,DISK,IMAGE ENTERTAINMENT INC,5,0.7136,0.75,0.74,31105,0.057143,0.73,0.74,21856,0.74,38,0.057143,0.031799,0.03553
11873,20081031,7822,DISK,IMAGE ENTERTAINMENT INC,5,0.66,0.79,0.77,50972,0.040541,0.76,0.77,21856,0.74,132,0.040541,0.018079,0.033871
11873,20081103,7822,DISK,IMAGE ENTERTAINMENT INC,,0.77,0.82,0.81,12375,0.051948,0.8,0.81,21856,0.77,40,0.051948,-0.000679,0.008574
11873,20081104,7822,DISK,IMAGE ENTERTAINMENT INC,5,0.75,0.82,0.8,72354,-0.012346,0.79,0.8,21856,0.81,59,-0.012346,0.038976,0.026518
11873,20081105,7822,DISK,IMAGE ENTERTAINMENT INC,,0.65,0.81,0.74,32990,-0.075,0.73,0.74,21856,0.75,75,-0.075,-0.051195,-0.03761
11873,20081106,7822,DISK,IMAGE ENTERTAINMENT INC,5,0.63,0.76,0.72,34610,-0.027027,0.71,0.72,21856,0.74,55,-0.027027,-0.049316,-0.038225
11873,20081107,7822,DISK,IMAGE ENTERTAINMENT INC,5,0.67,0.71,0.71,7093,-0.013889,0.68,0.71,21856,0.71,31,-0.013889,0.026164,0.014395
11873,20081110,7822,DISK,IMAGE ENTERTAINMENT INC,,0.6999,0.72,0.71,8780,0,0.71,0.7199,21856,0.72,22,0,-0.013397,-0.019251
11873,20081111,7822,DISK,IMAGE ENTERTAINMENT INC,,0.7,0.78,0.75,55575,0.056338,0.74,0.75,21856,0.729,68,0.056338,-0.024388,-0.028206
11873,20081112,7822,DISK,IMAGE ENTERTAINMENT INC,,0.63,0.78,0.7,26550,-0.066667,0.69,0.7,21856,0.78,83,-0.066667,-0.053998,-0.054534
11873,20081113,7822,DISK,IMAGE ENTERTAINMENT INC,,0.67,0.78,0.75,83527,0.071429,0.73,0.75,21856,0.71,120,0.071429,0.067871,0.048289
11873,20081114,7822,DISK,IMAGE ENTERTAINMENT INC,,0.72,0.81,0.77,41640,0.026667,0.75,0.77,21856,0.78,80,0.026667,-0.043809,-0.039664
11873,20081117,7822,DISK,IMAGE ENTERTAINMENT INC,,0.75,0.89,0.83,119136,0.077922,0.83,0.84,21856,0.79,196,0.077922,-0.024027,-0.022115
11873,20081118,7822,DISK,IMAGE ENTERTAINMENT INC,,0.76,0.9299,0.82,58931,-0.012048,0.8,0.83,21856,0.9299,89,-0.012048,0.005539,-0.010832
11873,20081119,7822,DISK,IMAGE ENTERTAINMENT INC,,0.77,0.88,0.8,45000,-0.02439,0.79,0.8,21856,0.84,55,-0.02439,-0.064102,-0.064622
11873,20081120,7822,DISK,IMAGE ENTERTAINMENT INC,5,0.58,0.81,0.69,138709,-0.1375,0.64,0.69,21856,0.8,215,-0.1375,-0.070146,-0.067122
11873,20081121,7822,DISK,IMAGE ENTERTAINMENT INC,,1.3,2.15,1.55,1562651,1.246377,1.55,1.68,21856,2,1701,1.246377,0.060934,0.033422
11873,20081124,7822,DISK,IMAGE ENTERTAINMENT INC,5,1.62,1.89,1.66,279316,0.070968,1.66,1.7,21856,1.84,504,0.070968,0.06607,0.063574
11873,20081125,7822,DISK,IMAGE ENTERTAINMENT INC,,1.6,1.99,1.93,125986,0.162651,1.9,1.93,21856,1.75,246,0.162651,0.009516,0.015273
11873,20081126,7822,DISK,IMAGE ENTERTAINMENT INC,,1.81,2.08,1.94,287102,0.005181,1.93,1.95,21856,1.86,424,0.005181,0.038034,0.051933
11873,20081128,7822,DISK,IMAGE ENTERTAINMENT INC,,1.93,2,2,45067,0.030928,1.96,2,21856,1.95,88,0.030928,0.010075,0.019966
11873,20081201,7822,DISK,IMAGE ENTERTAINMENT INC,,1.9,2,1.9,108195,-0.05,1.9,1.91,21856,2,183,-0.05,-0.089446,-0.078335
11873,20081202,7822,DISK,IMAGE ENTERTAINMENT INC,,1.83,1.92,1.85,115450,-0.026316,1.84,1.85,21856,1.9,156,-0.026316,0.037575,0.035171
11873,20081203,7822,DISK,IMAGE ENTERTAINMENT INC,,1.78,1.92,1.79,170545,-0.032432,1.78,1.79,21856,1.92,335,-0.032432,0.023612,0.014519
11873,20081204,7822,DISK,IMAGE ENTERTAINMENT INC,,1.7,1.78,1.73,272068,-0.03352,1.71,1.73,21856,1.75,291,-0.03352,-0.030168,-0.021918
11873,20081205,7822,DISK,IMAGE ENTERTAINMENT INC,,1.74,1.81,1.79,199602,0.034682,1.75,1.77,21856,1.78,235,0.034682,0.036081,0.025995
11873,20081208,7822,DISK,IMAGE ENTERTAINMENT INC,,1.8,1.92,1.84,165729,0.027933,1.81,1.84,21856,1.89,253,0.027933,0.040252,0.0378
11873,20081209,7822,DISK,IMAGE ENTERTAINMENT INC,,1.79,1.85,1.8,89965,-0.021739,1.79,1.8,21856,1.85,168,-0.021739,-0.02238,-0.014945
11873,20081210,7822,DISK,IMAGE ENTERTAINMENT INC,,1.7599,1.85,1.79,76350,-0.005556,1.79,1.8,21856,1.8,135,-0.005556,0.015014,0.021801
11873,20081211,7822,DISK,IMAGE ENTERTAINMENT INC,5,1.74,1.83,1.78,120348,-0.005587,1.75,1.78,21856,1.75,164,-0.005587,-0.030236,-0.027158
11873,20081212,7822,DISK,IMAGE ENTERTAINMENT INC,,1.74,1.89,1.85,42470,0.039326,1.83,1.85,21856,1.75,81,0.039326,0.010463,0.017702
11873,20081215,7822,DISK,IMAGE ENTERTAINMENT INC,,1.77,1.85,1.77,49393,-0.043243,1.77,1.78,21856,1.85,74,-0.043243,-0.013903,-0.019502
11873,20081216,7822,DISK,IMAGE ENTERTAINMENT INC,5,1.72,1.79,1.77,175704,0,1.76,1.77,21856,1.76,139,0,0.052815,0.046585
11873,20081217,7822,DISK,IMAGE ENTERTAINMENT INC,5,1.72,1.77,1.73,84689,-0.022599,1.72,1.73,21856,1.77,55,-0.022599,-0.004899,0.010663
11873,20081218,7822,DISK,IMAGE ENTERTAINMENT INC,5,1.73,1.79,1.73,16572,0,1.75,1.76,21856,1.78,37,0,-0.02057,-0.012006
11873,20081219,7822,DISK,IMAGE ENTERTAINMENT INC,5,1.66,1.73,1.66,63777,-0.040462,1.66,1.69,21856,1.73,100,-0.040462,0.003762,0.003476
11873,20081222,7822,DISK,IMAGE ENTERTAINMENT INC,,1.49,1.64,1.52,139084,-0.084337,1.55,1.56,21856,1.64,197,-0.084337,-0.019253,-0.013129
11873,20081223,7822,DISK,IMAGE ENTERTAINMENT INC,,1.562,1.63,1.6,59125,0.052632,1.59,1.6,21856,1.6,84,0.052632,-0.007876,-0.008267
11873,20081224,7822,DISK,IMAGE ENTERTAINMENT INC,,1.6,1.8,1.74,125299,0.0875,1.74,1.77,21856,1.6,139,0.0875,0.004067,0.004547
11873,20081226,7822,DISK,IMAGE ENTERTAINMENT INC,,1.78,2.01,2.01,92957,0.155172,2,2.03,21856,1.78,202,0.155172,0.007159,0.010885
11873,20081229,7822,DISK,IMAGE ENTERTAINMENT INC,,1.91,2.03,1.9601,56905,-0.024826,1.97,2,21856,2.01,76,-0.024826,-0.004742,-0.015756
11873,20081230,7822,DISK,IMAGE ENTERTAINMENT INC,,1.93,2,1.93,34736,-0.015356,1.93,1.96,21856,1.96,51,-0.015356,0.024607,0.021245
11873,20081231,7822,DISK,IMAGE ENTERTAINMENT INC,5,1.87,1.98,1.89,120352,-0.020725,1.88,1.89,21856,1.97,158,-0.020725,0.017386,0.034415
11873,20090102,7822,DISK,IMAGE ENTERTAINMENT INC,,1.9,1.95,1.9,31900,0.005291,1.9,1.94,21856,1.92,40,0.005291,0.0303,0.038221
11873,20090105,7822,DISK,IMAGE ENTERTAINMENT INC,,1.88,1.9299,1.88,28910,-0.010526,1.88,1.92,21856,1.9299,46,-0.010526,-0.000602,0.016737
11873,20090106,7822,DISK,IMAGE ENTERTAINMENT INC,,1.85,1.93,1.93,23694,0.026596,1.9,1.93,21856,1.87,72,0.026596,0.011287,0.03362
11873,20090107,7822,DISK,IMAGE ENTERTAINMENT INC,5,1.85,1.93,1.88,30766,-0.025907,1.87,1.88,21856,1.9,22,-0.025907,-0.030862,-0.022326
11873,20090108,7822,DISK,IMAGE ENTERTAINMENT INC,5,1.76,1.85,1.8,90692,-0.042553,1.79,1.8,21856,1.85,134,-0.042553,0.00625,0.011791
11873,20090109,7822,DISK,IMAGE ENTERTAINMENT INC,,1.7201,1.85,1.84,191775,0.022222,1.8,1.84,21856,1.79,205,0.022222,-0.02242,-0.018761
11873,20090112,7822,DISK,IMAGE ENTERTAINMENT INC,,1.769,1.84,1.84,95340,0,1.81,1.85,21856,1.84,69,0,-0.025562,-0.026627
11873,20090113,7822,DISK,IMAGE ENTERTAINMENT INC,,1.81,1.87,1.87,69643,0.016304,1.84,1.87,21856,1.82,83,0.016304,0.00343,0.003321
11873,20090114,7822,DISK,IMAGE ENTERTAINMENT INC,,1.78,1.87,1.79,67509,-0.042781,1.78,1.79,21856,1.84,113,-0.042781,-0.035271,-0.035146
11873,20090115,7822,DISK,IMAGE ENTERTAINMENT INC,,1.8,1.89,1.84,138304,0.027933,1.83,1.84,21856,1.83,98,0.027933,0.004583,0.00556
11873,20090116,7822,DISK,IMAGE ENTERTAINMENT INC,5,1.88,1.9,1.9,30150,0.032609,1.89,1.9,21856,1.9,71,0.032609,0.008429,0.008781
11873,20090120,7822,DISK,IMAGE ENTERTAINMENT INC,,1.9,2.04,1.97,183538,0.036842,1.96,1.97,21856,1.9,144,0.036842,-0.055283,-0.051546
11873,20090121,7822,DISK,IMAGE ENTERTAINMENT INC,,1.96,2.05,1.97,45098,0,1.96,1.97,21856,2.05,47,0,0.043054,0.036035
11873,20090122,7822,DISK,IMAGE ENTERTAINMENT INC,,1.88,1.95,1.9,35992,-0.035533,1.89,1.9,21856,1.95,45,-0.035533,-0.018295,-0.021994
11873,20090123,7822,DISK,IMAGE ENTERTAINMENT INC,,1.93,1.97,1.95,14991,0.026316,1.94,1.95,21856,1.97,37,0.026316,0.006841,0.003358
11873,20090126,7822,DISK,IMAGE ENTERTAINMENT INC,5,1.85,1.95,1.86,80802,-0.046154,1.85,1.86,21856,1.95,81,-0.046154,0.006125,0.010055
11873,20090127,7822,DISK,IMAGE ENTERTAINMENT INC,,1.75,1.9,1.8,123938,-0.032258,1.77,1.84,21856,1.9,164,-0.032258,0.011294,0.010029
11873,20090128,7822,DISK,IMAGE ENTERTAINMENT INC,5,1.35,1.82,1.54,400532,-0.144444,1.47,1.53,21856,1.77,687,-0.144444,0.033594,0.03037
11873,20090129,7822,DISK,IMAGE ENTERTAINMENT INC,,1.05,1.54,1.08,611961,-0.298701,1.08,1.09,21856,1.54,889,-0.298701,-0.032894,-0.028987
11873,20090130,7822,DISK,IMAGE ENTERTAINMENT INC,,0.73,1,0.93,874840,-0.138889,0.93,0.98,21856,0.76,921,-0.138889,-0.02079,-0.012876
11873,20090202,7822,DISK,IMAGE ENTERTAINMENT INC,5,0.9,1.04,0.9499,248820,0.021398,0.93,0.95,21856,1,254,0.021398,-0.001103,0.001473
11873,20090203,7822,DISK,IMAGE ENTERTAINMENT INC,,0.8401,0.97,0.86,116683,-0.094641,0.86,0.91,21856,0.97,128,-0.094641,0.01431,0.008913
11873,20090204,7822,DISK,IMAGE ENTERTAINMENT INC,,0.8605,0.93,0.9,133888,0.046512,0.89,0.91,21856,0.93,100,0.046512,-0.005041,-0.004255
11873,20090205,7822,DISK,IMAGE ENTERTAINMENT INC,5,0.84,0.9,0.88,290803,-0.022222,0.88,0.9,21856,0.9,153,-0.022222,0.015462,0.011872
11873,20090206,7822,DISK,IMAGE ENTERTAINMENT INC,,0.845,0.88,0.85,88323,-0.034091,0.831,0.85,21856,0.88,110,-0.034091,0.027644,0.026639
11873,20090209,7822,DISK,IMAGE ENTERTAINMENT INC,5,0.86,1.18,1.08,228510,0.270588,1.07,1.09,21856,0.9,271,0.270588,0.001197,0.000726
11873,20090210,7822,DISK,IMAGE ENTERTAINMENT INC,5,1,1.15,1.12,94161,0.037037,1.11,1.16,21856,1.07,113,0.037037,-0.046047,-0.035136
11873,20090211,7822,DISK,IMAGE ENTERTAINMENT INC,5,1,1.1199,1.03,158021,-0.080357,1,1.08,21856,1.11,128,-0.080357,0.006879,0.004182
11873,20090212,7822,DISK,IMAGE ENTERTAINMENT INC,,1.9,2.2,2.0101,1660863,0.951553,2.01,2.02,21856,1.9,2664,0.951553,0.002453,-0.000841
11873,20090213,7822,DISK,IMAGE ENTERTAINMENT INC,5,2.0124,2.19,2.15,904488,0.069599,2.13,2.15,21856,2.09,1380,0.069599,-0.008898,-0.002143
11873,20090217,7822,DISK,IMAGE ENTERTAINMENT INC,5,2.102,2.25,2.24,422131,0.04186,2.22,2.24,21856,2.2,771,0.04186,-0.0454,-0.041936
11873,20090218,7822,DISK,IMAGE ENTERTAINMENT INC,,2.15,2.39,2.16,769495,-0.035714,2.16,2.2,21856,2.24,1289,-0.035714,-0.003958,-0.011852
11873,20090219,7822,DISK,IMAGE ENTERTAINMENT INC,5,2.05,2.23,2.15,461707,-0.00463,2.07,2.15,21856,2.23,758,-0.00463,-0.011584,-0.015205
11873,20090220,7822,DISK,IMAGE ENTERTAINMENT INC,,1.95,2.13,1.95,572791,-0.093023,1.95,1.99,21856,2.13,1162,-0.093023,-0.011943,-0.020079
11873,20090223,7822,DISK,IMAGE ENTERTAINMENT INC,5,1.25,2.05,1.47,1436475,-0.246154,1.54,1.61,21856,2,2138,-0.246154,-0.036197,-0.030867
11873,20090224,7822,DISK,IMAGE ENTERTAINMENT INC,5,1.31,2.1,1.34,1714818,-0.088435,1.35,1.38,21856,1.59,2688,-0.088435,0.040176,0.037721
11873,20090225,7822,DISK,IMAGE ENTERTAINMENT INC,5,1.32,1.55,1.3999,621645,0.044701,1.37,1.41,21856,1.54,1115,0.044701,-0.010877,-0.015701
11873,20090226,7822,DISK,IMAGE ENTERTAINMENT INC,,1.27,1.5,1.28,302264,-0.085649,1.28,1.32,21856,1.31,461,-0.085649,-0.012328,-0.00725
11873,20090227,7822,DISK,IMAGE ENTERTAINMENT INC,5,1.27,1.99,1.45,1208441,0.132813,1.44,1.48,21856,1.292,1824,0.132813,-0.019093,-0.010485
11873,20090302,7822,DISK,IMAGE ENTERTAINMENT INC,,1.31,1.6135,1.407,370038,-0.029655,1.38,1.41,21856,1.5,596,-0.029655,-0.049856,-0.055772
11873,20090303,7822,DISK,IMAGE ENTERTAINMENT INC,,1.07,1.37,1.18,474173,-0.161336,1.16,1.19,21856,1.27,748,-0.161336,-0.006341,-0.013959
11873,20090304,7822,DISK,IMAGE ENTERTAINMENT INC,,0.85,1,0.92,698273,-0.220339,0.88,0.93,21856,0.92,1149,-0.220339,0.025591,0.029521
11873,20090305,7822,DISK,IMAGE ENTERTAINMENT INC,,0.99,1.25,1.14,549206,0.23913,1.1,1.15,21856,1.2,698,0.23913,-0.041898,-0.049146
11873,20090306,7822,DISK,IMAGE ENTERTAINMENT INC,5,1.11,1.22,1.19,166726,0.04386,1.18,1.2,21856,1.14,339,0.04386,0.001402,-0.002324
11873,20090309,7822,DISK,IMAGE ENTERTAINMENT INC,5,1.22,1.48,1.32,303767,0.109244,1.32,1.35,21856,1.48,453,0.109244,-0.01247,-0.016503
11873,20090310,7822,DISK,IMAGE ENTERTAINMENT INC,5,1.2,1.38,1.3501,194737,0.022803,1.31,1.36,21856,1.3,276,0.022803,0.063308,0.062493
11873,20090311,7822,DISK,IMAGE ENTERTAINMENT INC,,1.29,1.4,1.38,157187,0.022146,1.37,1.39,21856,1.37,257,0.022146,0.003688,0.004968
11873,20090312,7822,DISK,IMAGE ENTERTAINMENT INC,,1.21,1.4,1.26,503980,-0.086957,1.25,1.28,21856,1.4,627,-0.086957,0.041657,0.050889
11873,20090313,7822,DISK,IMAGE ENTERTAINMENT INC,5,1.2,1.5,1.43,296465,0.134921,1.39,1.43,21856,1.23,431,0.134921,0.005981,0.009467
11873,20090316,7822,DISK,IMAGE ENTERTAINMENT INC,,1.3,1.49,1.3,362517,-0.090909,1.29,1.32,21856,1.49,523,-0.090909,-0.004807,0.001224
11873,20090317,7822,DISK,IMAGE ENTERTAINMENT INC,,1.18,1.369,1.26,216333,-0.030769,1.26,1.28,21856,1.33,315,-0.030769,0.030986,0.030329
11873,20090318,7822,DISK,IMAGE ENTERTAINMENT INC,5,1.12,1.28,1.27,278019,0.007937,1.25,1.27,21856,1.25,457,0.007937,0.022323,0.034035
11873,20090319,7822,DISK,IMAGE ENTERTAINMENT INC,5,1.1899,1.3,1.22,139087,-0.03937,1.21,1.26,21856,1.23,278,-0.03937,-0.007998,0.007594
11873,20090320,7822,DISK,IMAGE ENTERTAINMENT INC,,0.93,1.1,1.1,350013,-0.098361,1.06,1.1,21856,0.95,584,-0.098361,-0.020405,-0.014321
11873,20090323,7822,DISK,IMAGE ENTERTAINMENT INC,,1.16,1.26,1.24,191579,0.127273,1.24,1.26,21856,1.18,369,0.127273,0.068898,0.064724
11873,20090324,7822,DISK,IMAGE ENTERTAINMENT INC,,1.32,1.49,1.43,327113,0.153226,1.4,1.43,21856,1.35,496,0.153226,-0.020005,-0.016143
11873,20090325,7822,DISK,IMAGE ENTERTAINMENT INC,5,1.28,1.51,1.28,301365,-0.104895,1.28,1.33,21856,1.51,472,-0.104895,0.008934,0.017629
11873,20090326,7822,DISK,IMAGE ENTERTAINMENT INC,5,1.26,1.38,1.38,87028,0.078125,1.3,1.37,21856,1.35,208,0.078125,0.025219,0.035754
11873,20090327,7822,DISK,IMAGE ENTERTAINMENT INC,5,1.26,1.352,1.26,107611,-0.086957,1.26,1.29,21856,1.34,403,-0.086957,-0.021848,-0.021833
11873,20090330,7822,DISK,IMAGE ENTERTAINMENT INC,5,1.3,1.3425,1.33,33910,0.055556,1.31,1.33,21856,1.32,80,0.055556,-0.036284,-0.031938
11873,20090331,7822,DISK,IMAGE ENTERTAINMENT INC,5,1.27,1.38,1.29,104015,-0.030075,1.29,1.3,21856,1.38,217,-0.030075,0.014239,0.020124
11873,20090401,7822,DISK,IMAGE ENTERTAINMENT INC,,1.29,1.33,1.29,103775,0,1.29,1.3,21856,1.29,168,0,0.01693,0.015614
11873,20090402,7822,DISK,IMAGE ENTERTAINMENT INC,,1.09,1.295,1.28,147065,-0.007752,1.25,1.28,21856,1.29,220,-0.007752,0.031671,0.038943
11873,20090403,7822,DISK,IMAGE ENTERTAINMENT INC,5,1.11,1.3001,1.18,361451,-0.078125,1.18,1.21,21856,1.3,404,-0.078125,0.011581,0.012668
11873,20090406,7822,DISK,IMAGE ENTERTAINMENT INC,5,1.1,1.22,1.22,151992,0.033898,1.2,1.22,21856,1.18,231,0.033898,-0.009847,-0.007253
11873,20090407,7822,DISK,IMAGE ENTERTAINMENT INC,,1.45,1.74,1.63,1333740,0.336066,1.59,1.64,21856,1.7,1942,0.336066,-0.025075,-0.020181
11873,20090408,7822,DISK,IMAGE ENTERTAINMENT INC,,1.5,1.68,1.54,232219,-0.055215,1.53,1.57,21856,1.63,403,-0.055215,0.013077,0.01741
11873,20090409,7822,DISK,IMAGE ENTERTAINMENT INC,,1.41,1.62,1.48,374870,-0.038961,1.45,1.5,21856,1.59,514,-0.038961,0.039408,0.045828
11873,20090413,7822,DISK,IMAGE ENTERTAINMENT INC,5,1.33,1.5,1.4,241088,-0.054054,1.4,1.43,21856,1.45,523,-0.054054,0.003853,0.007148
11873,20090414,7822,DISK,IMAGE ENTERTAINMENT INC,5,1.22,1.35,1.28,326564,-0.085714,1.28,1.34,21856,1.35,570,-0.085714,-0.019521,-0.012781
11873,20090415,7822,DISK,IMAGE ENTERTAINMENT INC,5,1.36,1.53,1.46,390706,0.140625,1.46,1.47,21856,1.49,651,0.140625,0.012403,0.013558
11873,20090416,7822,DISK,IMAGE ENTERTAINMENT INC,5,1.33,1.45,1.42,401790,-0.027397,1.4,1.42,21856,1.44,532,-0.027397,0.016053,0.020349
11873,20090417,7822,DISK,IMAGE ENTERTAINMENT INC,,1.25,1.39,1.35,522901,-0.049296,1.34,1.35,21856,1.37,771,-0.049296,0.006017,0.013748
11873,20090420,7822,DISK,IMAGE ENTERTAINMENT INC,5,0.88,1.07,1.06,1375136,-0.214815,1.03,1.07,21856,0.91,1601,-0.214815,-0.044772,-0.042046
11873,20090421,7822,DISK,IMAGE ENTERTAINMENT INC,5,0.98,1.1,1.08,346470,0.018868,1.05,1.08,21856,1.09,495,0.018868,0.022662,0.028919
11873,20090422,7822,DISK,IMAGE ENTERTAINMENT INC,,1,1.06,1.04,116438,-0.037037,1.02,1.04,21856,1.06,195,-0.037037,-0.005814,0.005351
11873,20090423,7822,DISK,IMAGE ENTERTAINMENT INC,5,1,1.03,1.01,128382,-0.028846,0.99,1.02,21856,1.03,197,-0.028846,0.009201,0.001693
11873,20090424,7822,DISK,IMAGE ENTERTAINMENT INC,5,0.78,1.0212,0.89,742204,-0.118812,0.9,0.95,21856,1.01,799,-0.118812,0.018991,0.021483
11873,20090427,7822,DISK,IMAGE ENTERTAINMENT INC,5,0.81,0.95,0.87,353779,-0.022472,0.84,0.88,21856,0.95,435,-0.022472,-0.011385,-0.011724
11873,20090428,7822,DISK,IMAGE ENTERTAINMENT INC,5,0.83,0.9,0.831,185285,-0.044828,0.83,0.87,21856,0.9,257,-0.044828,-0.002949,0.004866
11873,20090429,7822,DISK,IMAGE ENTERTAINMENT INC,5,0.78,0.9,0.86,409631,0.034898,0.8202,0.87,21856,0.83,646,0.034898,0.024343,0.028455
11873,20090430,7822,DISK,IMAGE ENTERTAINMENT INC,,0.8,0.94,0.81,419756,-0.05814,0.81,0.82,21856,0.94,603,-0.05814,-0.0005,0.00418
11873,20090501,7822,DISK,IMAGE ENTERTAINMENT INC,5,0.83,0.87,0.85,155444,0.049383,0.85,0.87,21856,0.83,273,0.049383,0.005911,0.008345
11873,20090504,7822,DISK,IMAGE ENTERTAINMENT INC,5,0.8501,0.9,0.87,156562,0.023529,0.86,0.87,21856,0.9,188,0.023529,0.035854,0.037603
11873,20090505,7822,DISK,IMAGE ENTERTAINMENT INC,5,0.85,0.91,0.8697,63116,-0.000345,0.86,0.87,21856,0.91,118,-0.000345,-0.003555,0.00262
11873,20090506,7822,DISK,IMAGE ENTERTAINMENT INC,5,0.88,0.95,0.95,370503,0.092331,0.94,0.95,21856,0.91,426,0.092331,0.015732,0.01504
11873,20090507,7822,DISK,IMAGE ENTERTAINMENT INC,,0.88,0.97,0.9097,219643,-0.042421,0.9,0.91,21856,0.96,349,-0.042421,-0.015612,-0.011422
11873,20090508,7822,DISK,IMAGE ENTERTAINMENT INC,5,0.87,0.93,0.93,113791,0.022315,0.88,0.93,21856,0.93,182,0.022315,0.027314,0.033944
11873,20090511,7822,DISK,IMAGE ENTERTAINMENT INC,,0.88,0.94,0.91,83148,-0.021505,0.88,0.92,21856,0.94,161,-0.021505,-0.020973,-0.006886
11873,20090512,7822,DISK,IMAGE ENTERTAINMENT INC,5,0.84,0.91,0.88,141576,-0.032967,0.87,0.88,21856,0.89,203,-0.032967,-0.002699,-0.005804
11873,20090513,7822,DISK,IMAGE ENTERTAINMENT INC,,0.85,0.99,0.97,343223,0.102273,0.95,0.97,21856,0.86,389,0.102273,-0.031544,-0.03735
11873,20090514,7822,DISK,IMAGE ENTERTAINMENT INC,,0.99,1.1,1.06,705470,0.092783,1.05,1.07,21856,1,872,0.092783,0.012324,0.01352
11873,20090515,7822,DISK,IMAGE ENTERTAINMENT INC,,0.95,1.08,0.9803,225850,-0.075189,0.97,1.01,21856,1.08,265,-0.075189,-0.010763,-0.008228
11873,20090518,7822,DISK,IMAGE ENTERTAINMENT INC,5,0.87,0.99,0.93,181417,-0.051311,0.93,0.96,21856,0.8711,241,-0.051311,0.032821,0.034404
11873,20090519,7822,DISK,IMAGE ENTERTAINMENT INC,,0.9,0.98,0.9338,128230,0.004086,0.92,0.95,21856,0.979,188,0.004086,0.000372,0.004793
11873,20090520,7822,DISK,IMAGE ENTERTAINMENT INC,,0.92,0.96,0.93,96573,-0.004069,0.93,0.95,21856,0.92,143,-0.004069,-0.001901,0.000185
11873,20090521,7822,DISK,IMAGE ENTERTAINMENT INC,,0.99,1.09,1.04,412107,0.11828,1.04,1.05,21856,1.04,455,0.11828,-0.016788,-0.013953
11873,20090522,7822,DISK,IMAGE ENTERTAINMENT INC,5,1.01,1.1,1.06,125917,0.019231,1.05,1.07,21856,1.09,231,0.019231,-0.000131,0.000876
11873,20090526,7822,DISK,IMAGE ENTERTAINMENT INC,,1,1.0401,1.04,84909,-0.018868,1.02,1.04,21856,1.03,243,-0.018868,0.028112,0.027208
11873,20090527,7822,DISK,IMAGE ENTERTAINMENT INC,,1,1.05,1.0299,112117,-0.009712,1.03,1.05,21856,1,146,-0.009712,-0.017454,-0.010206
11873,20090528,7822,DISK,IMAGE ENTERTAINMENT INC,,1.02,1.09,1.08,95823,0.048646,1.06,1.08,21856,1.02,197,0.048646,0.014908,0.008145
11873,20090529,7822,DISK,IMAGE ENTERTAINMENT INC,5,1.02,1.09,1.03,73494,-0.046296,1.03,1.04,21856,1.08,172,-0.046296,0.014736,0.014954
11873,20090601,7822,DISK,IMAGE ENTERTAINMENT INC,5,1.03,1.15,1.14,491524,0.106796,1.12,1.14,21856,1.04,469,0.106796,0.026965,0.029159
11873,20090602,7822,DISK,IMAGE ENTERTAINMENT INC,5,1.0699,1.1299,1.08,98298,-0.052632,1.08,1.13,21856,1.07,145,-0.052632,0.003088,0.006465
11873,20090603,7822,DISK,IMAGE ENTERTAINMENT INC,5,1.06,1.1,1.07,94517,-0.009259,1.07,1.08,21856,1.1,149,-0.009259,-0.017411,-0.010969
11873,20090604,7822,DISK,IMAGE ENTERTAINMENT INC,,1.07,1.13,1.13,125540,0.056075,1.11,1.13,21856,1.08,251,0.056075,0.013493,0.019853
11873,20090605,7822,DISK,IMAGE ENTERTAINMENT INC,,1.06,1.3,1.06,247823,-0.061947,1.05,1.11,21856,1.08,364,-0.061947,-0.003171,0.001178
11873,20090608,7822,DISK,IMAGE ENTERTAINMENT INC,5,1.04,1.13,1.11,124913,0.04717,1.09,1.09,21856,1.13,168,0.04717,-0.002809,-0.003627
11873,20090609,7822,DISK,IMAGE ENTERTAINMENT INC,5,1.03,1.11,1.1,103533,-0.009009,1.09,1.1,21856,1.1,232,-0.009009,0.005445,0.008643
11873,20090610,7822,DISK,IMAGE ENTERTAINMENT INC,,1.05,1.1,1.08,102414,-0.018182,1.07,1.09,21856,1.05,110,-0.018182,-0.00288,-0.002354
11873,20090611,7822,DISK,IMAGE ENTERTAINMENT INC,,1.05,1.11,1.1,125409,0.018519,1.09,1.11,21856,1.05,215,0.018519,0.006898,0.010297
11873,20090612,7822,DISK,IMAGE ENTERTAINMENT INC,,1.08,1.15,1.13,148019,0.027273,1.15,1.16,21856,1.09,207,0.027273,-0.001398,-0.002662
11873,20090615,7822,DISK,IMAGE ENTERTAINMENT INC,5,1.13,1.1892,1.14,137090,0.00885,1.14,1.17,21856,1.14,215,0.00885,-0.025422,-0.023442
11873,20090616,7822,DISK,IMAGE ENTERTAINMENT INC,5,1.11,1.16,1.14,134821,0,1.12,1.15,21856,1.14,118,0,-0.013129,-0.011502
11873,20090617,7822,DISK,IMAGE ENTERTAINMENT INC,5,1.1,1.15,1.15,112610,0.008772,1.13,1.15,21856,1.13,158,0.008772,-0.003043,-0.001974
11873,20090618,7822,DISK,IMAGE ENTERTAINMENT INC,5,1.13,1.16,1.16,93554,0.008696,1.15,1.16,21856,1.13,152,0.008696,0.006488,0.002944
11873,20090619,7822,DISK,IMAGE ENTERTAINMENT INC,,1.13,1.1576,1.13,81790,-0.025862,1.14,1.15,21856,1.14,99,-0.025862,0.004042,0.006121
11873,20090622,7822,DISK,IMAGE ENTERTAINMENT INC,5,1.01,1.13,1.02,99526,-0.097345,1.02,1.03,21856,1.12,229,-0.097345,-0.033272,-0.033507
11873,20090623,7822,DISK,IMAGE ENTERTAINMENT INC,5,1,1.086,1.05,78414,0.029412,1.04,1.08,21856,1,118,0.029412,0.002132,-0.002855
11873,20090624,7822,DISK,IMAGE ENTERTAINMENT INC,5,1.04,1.09,1.04,43465,-0.009524,1.05,1.07,21856,1.08,59,-0.009524,0.008894,0.008541
11873,20090625,7822,DISK,IMAGE ENTERTAINMENT INC,,0.96,1.08,1.0599,161045,0.019135,1.04,1.06,21856,1.05,293,0.019135,0.021569,0.02192
11873,20090626,7822,DISK,IMAGE ENTERTAINMENT INC,5,0.91,1.15,0.9799,309451,-0.075479,0.97,0.99,21856,0.93,428,-0.075479,0.000649,0.009455
11873,20090629,7822,DISK,IMAGE ENTERTAINMENT INC,,0.9725,1.03,0.98,96173,0.000102,0.98,1.02,21856,0.98,102,0.000102,0.007658,0.002581
11873,20090630,7822,DISK,IMAGE ENTERTAINMENT INC,5,0.95,1,0.98,47069,0,0.97,1,21856,0.95,101,0,-0.007815,-0.001845
11873,20090701,7822,DISK,IMAGE ENTERTAINMENT INC,5,0.85,1.01,0.91,342000,-0.071429,0.9,0.91,21856,1.01,426,-0.071429,0.005924,0.011637
11873,20090702,7822,DISK,IMAGE ENTERTAINMENT INC,,0.84,0.9,0.8499,413000,-0.066044,0.84,0.88,21856,0.86,309,-0.066044,-0.028214,-0.024559
11873,20090706,7822,DISK,IMAGE ENTERTAINMENT INC,5,0.601,0.81,0.675,776551,-0.205789,0.67,0.675,21856,0.81,857,-0.205789,-0.001733,-0.008899
11873,20090707,7822,DISK,IMAGE ENTERTAINMENT INC,,0.675,0.78,0.755,204888,0.118518,0.755,0.77,21856,0.7,202,0.118518,-0.019557,-0.016017
11873,20090708,7822,DISK,IMAGE ENTERTAINMENT INC,,0.7,0.78,0.72,72007,-0.046358,0.71,0.73,21856,0.78,117,-0.046358,-0.004059,-0.011067
11873,20090709,7822,DISK,IMAGE ENTERTAINMENT INC,,0.7,0.77,0.76,53680,0.055556,0.75,0.76,21856,0.7,89,0.055556,0.004852,0.004944
11873,20090710,7822,DISK,IMAGE ENTERTAINMENT INC,5,0.7101,0.7601,0.741,106442,-0.025,0.74,0.76,21856,0.7101,103,-0.025,-0.003392,-0.000134
11873,20090713,7822,DISK,IMAGE ENTERTAINMENT INC,5,0.6003,0.7394,0.625,176131,-0.156545,0.625,0.63,21856,0.7394,273,-0.156545,0.023814,0.015919
11873,20090714,7822,DISK,IMAGE ENTERTAINMENT INC,5,0.61,0.69,0.69,110675,0.104,0.6899,0.69,21856,0.61,159,0.104,0.00725,0.008303
11873,20090715,7822,DISK,IMAGE ENTERTAINMENT INC,5,0.7,0.75,0.75,104879,0.086957,0.74,0.75,21856,0.7,106,0.086957,0.031101,0.029538
11873,20090716,7822,DISK,IMAGE ENTERTAINMENT INC,5,0.71,0.75,0.73,57246,-0.026667,0.72,0.73,21856,0.71,85,-0.026667,0.009434,0.008213
11873,20090717,7822,DISK,IMAGE ENTERTAINMENT INC,,0.71,0.7499,0.73,76809,0,0.72,0.7301,21856,0.7112,119,0,-0.000101,-0.001883
11873,20090720,7822,DISK,IMAGE ENTERTAINMENT INC,5,0.7,0.75,0.72,80296,-0.013699,0.72,0.73,21856,0.71,104,-0.013699,0.01348,0.015309
11873,20090721,7822,DISK,IMAGE ENTERTAINMENT INC,,0.73,0.77,0.7399,64977,0.027639,0.73,0.74,21856,0.75,75,0.027639,0.002481,-0.001774
11873,20090722,7822,DISK,IMAGE ENTERTAINMENT INC,5,0.72,0.76,0.72,84305,-0.026895,0.73,0.75,21856,0.74,56,-0.026895,0.000491,0.006205
11873,20090723,7822,DISK,IMAGE ENTERTAINMENT INC,5,0.71,0.79,0.73,155115,0.013889,0.73,0.75,21856,0.75,254,0.013889,0.024188,0.022647
11873,20090724,7822,DISK,IMAGE ENTERTAINMENT INC,5,0.72,0.74,0.73,27074,0,0.73,0.75,21856,0.74,56,0,0.004311,0.006532
11873,20090727,7822,DISK,IMAGE ENTERTAINMENT INC,5,0.68,0.75,0.69,80915,-0.054795,0.69,0.71,21856,0.731,151,-0.054795,0.003427,0.007145
11873,20090728,7822,DISK,IMAGE ENTERTAINMENT INC,,0.66,0.71,0.67,107738,-0.028985,0.67,0.69,21856,0.69,132,-0.028985,-0.003765,0.001271
11873,20090729,7822,DISK,IMAGE ENTERTAINMENT INC,,0.7,0.74,0.74,90752,0.104478,0.72,0.74,21856,0.74,89,0.104478,-0.006683,-0.005267
11873,20090730,7822,DISK,IMAGE ENTERTAINMENT INC,5,0.759,0.83,0.83,131337,0.121622,0.79,0.83,21856,0.76,169,0.121622,0.013275,0.01481
11873,20090731,7822,DISK,IMAGE ENTERTAINMENT INC,5,0.832,0.94,0.87,210154,0.048193,0.85,0.9,21856,0.93,236,0.048193,0.002659,0.004931
11873,20090803,7822,DISK,IMAGE ENTERTAINMENT INC,5,0.86,0.92,0.91,122458,0.045977,0.9,0.91,21856,0.92,143,0.045977,0.017942,0.018979
11873,20090804,7822,DISK,IMAGE ENTERTAINMENT INC,,0.8701,0.92,0.89,17089,-0.021978,0.88,0.89,21856,0.92,34,-0.021978,0.002464,0.006793
11873,20090805,7822,DISK,IMAGE ENTERTAINMENT INC,5,0.85,0.89,0.85,46745,-0.044944,0.85,0.86,21856,0.89,56,-0.044944,-0.002357,0.000454
11873,20090806,7822,DISK,IMAGE ENTERTAINMENT INC,5,0.826,0.88,0.875,52718,0.029412,0.85,0.87,21856,0.83,79,0.029412,-0.007608,-0.007286
11873,20090807,7822,DISK,IMAGE ENTERTAINMENT INC,5,0.85,0.89,0.86,36771,-0.017143,0.86,0.89,21856,0.86,53,-0.017143,0.013295,0.017831
11873,20090810,7822,DISK,IMAGE ENTERTAINMENT INC,5,0.8321,0.88,0.86,17403,0,0.85,0.86,21856,0.87,32,0,-0.004404,0.00206
11873,20090811,7822,DISK,IMAGE ENTERTAINMENT INC,,0.83,0.93,0.92,37221,0.069767,0.88,0.92,21856,0.86,60,0.069767,-0.013944,-0.011763
11873,20090812,7822,DISK,IMAGE ENTERTAINMENT INC,5,0.88,0.93,0.91,64037,-0.01087,0.91,0.92,21856,0.93,70,-0.01087,0.011943,0.012078
11873,20090813,7822,DISK,IMAGE ENTERTAINMENT INC,5,0.89,0.94,0.93,134660,0.021978,0.92,0.94,21856,0.91,130,0.021978,0.008309,0.007076
11873,20090814,7822,DISK,IMAGE ENTERTAINMENT INC,5,0.8745,0.91,0.88,79882,-0.053763,0.88,0.89,21856,0.8745,80,-0.053763,-0.010031,-0.012103
11873,20090817,7822,DISK,IMAGE ENTERTAINMENT INC,,0.85,0.9,0.85,85537,-0.034091,0.85,0.86,21856,0.87,61,-0.034091,-0.026142,-0.025955
11873,20090818,7822,DISK,IMAGE ENTERTAINMENT INC,5,0.78,0.8499,0.81,60578,-0.047059,0.81,0.82,21856,0.8499,102,-0.047059,0.011877,0.014958
11873,20090819,7822,DISK,IMAGE ENTERTAINMENT INC,,0.8001,0.89,0.84,71239,0.037037,0.83,0.84,21856,0.81,90,0.037037,0.006796,0.00648
11873,20090820,7822,DISK,IMAGE ENTERTAINMENT INC,5,0.791,0.83,0.82,33799,-0.02381,0.81,0.83,21856,0.83,51,-0.02381,0.010621,0.010238
11873,20090821,7822,DISK,IMAGE ENTERTAINMENT INC,5,0.8,0.86,0.85,31373,0.036585,0.83,0.86,21856,0.8,51,0.036585,0.018065,0.016415
11873,20090824,7822,DISK,IMAGE ENTERTAINMENT INC,,0.8001,0.89,0.88,92883,0.035294,0.85,0.87,21856,0.84,97,0.035294,-0.000886,0.00104
11873,20090825,7822,DISK,IMAGE ENTERTAINMENT INC,5,0.86,0.91,0.9,87400,0.022727,0.8999,0.9,21856,0.91,69,0.022727,0.002724,0.005296
11873,20090826,7822,DISK,IMAGE ENTERTAINMENT INC,,0.85,0.902,0.85,117690,-0.055556,0.85,0.88,21856,0.87,84,-0.055556,-0.000872,0.003415
11873,20090827,7822,DISK,IMAGE ENTERTAINMENT INC,,0.82,0.9,0.89,51413,0.047059,0.86,0.89,21856,0.86,91,0.047059,0.002952,0.002886
11873,20090828,7822,DISK,IMAGE ENTERTAINMENT INC,5,0.83,0.9,0.87,33161,-0.022472,0.85,0.87,21856,0.86,69,-0.022472,-0.001549,-0.00182
11873,20090831,7822,DISK,IMAGE ENTERTAINMENT INC,,0.82,0.8597,0.8597,43860,-0.011839,0.84,0.85,21856,0.85,77,-0.011839,-0.009212,-0.00901
11873,20090901,7822,DISK,IMAGE ENTERTAINMENT INC,5,0.81,0.88,0.82,62643,-0.046179,0.82,0.86,21856,0.88,82,-0.046179,-0.022005,-0.019693
11873,20090902,7822,DISK,IMAGE ENTERTAINMENT INC,5,0.82,0.861,0.8401,38185,0.024512,0.84,0.8401,21856,0.825,27,0.024512,-0.002831,-0.000708
11873,20090903,7822,DISK,IMAGE ENTERTAINMENT INC,5,0.82,0.88,0.84,33829,-0.000119,0.83,0.84,21856,0.88,63,-0.000119,0.010635,0.01055
11873,20090904,7822,DISK,IMAGE ENTERTAINMENT INC,,0.8,0.86,0.8399,31600,-0.000119,0.83,0.85,21856,0.86,24,-0.000119,0.013915,0.013169
11873,20090908,7822,DISK,IMAGE ENTERTAINMENT INC,5,0.81,0.86,0.8294,25247,-0.012502,0.82,0.8298,21856,0.86,53,-0.012502,0.010282,0.011679
11873,20090909,7822,DISK,IMAGE ENTERTAINMENT INC,5,0.83,0.87,0.87,47435,0.048951,0.85,0.86,21856,0.85,67,0.048951,0.007723,0.011559
11873,20090910,7822,DISK,IMAGE ENTERTAINMENT INC,5,0.86,0.89,0.87,93818,0,0.86,0.87,21856,0.89,48,0,0.011135,0.012868
11873,20090911,7822,DISK,IMAGE ENTERTAINMENT INC,5,0.8699,0.8999,0.88,23984,0.011494,0.87,0.88,21856,0.87,44,0.011494,-0.00018,0.001629
11873,20090914,7822,DISK,IMAGE ENTERTAINMENT INC,5,0.82,0.88,0.83,75992,-0.056818,0.832,0.85,21856,0.88,123,-0.056818,0.006347,0.008033
11873,20090915,7822,DISK,IMAGE ENTERTAINMENT INC,5,0.84,0.87,0.857,29172,0.03253,0.84,0.86,21856,0.87,68,0.03253,0.006156,0.009161
11873,20090916,7822,DISK,IMAGE ENTERTAINMENT INC,5,0.84,0.87,0.87,79850,0.015169,0.855,0.87,21856,0.854,72,0.015169,0.01623,0.017363
11873,20090917,7822,DISK,IMAGE ENTERTAINMENT INC,,0.85,0.92,0.88,121818,0.011494,0.87,0.91,21856,0.88,161,0.011494,-0.003799,-0.000059
11873,20090918,7822,DISK,IMAGE ENTERTAINMENT INC,5,0.85,0.91,0.85,55511,-0.034091,0.86,0.87,21856,0.91,71,-0.034091,0.001803,0.002374
11873,20090921,7822,DISK,IMAGE ENTERTAINMENT INC,5,0.83,0.8701,0.83,66207,-0.023529,0.83,0.86,21856,0.8401,79,-0.023529,-0.00429,-0.001907
11873,20090922,7822,DISK,IMAGE ENTERTAINMENT INC,5,0.782,0.87,0.7899,425745,-0.048313,0.782,0.7899,21856,0.85,376,-0.048313,0.00851,0.0095
11873,20090923,7822,DISK,IMAGE ENTERTAINMENT INC,,0.7123,0.81,0.78,453818,-0.012533,0.78,0.8,21856,0.81,420,-0.012533,-0.010399,-0.004771
11873,20090924,7822,DISK,IMAGE ENTERTAINMENT INC,5,0.78,0.82,0.78,64733,0,0.78,0.79,21856,0.79,93,0,-0.012782,-0.016009
11873,20090925,7822,DISK,IMAGE ENTERTAINMENT INC,5,0.78,0.82,0.82,30945,0.051282,0.8001,0.82,21856,0.78,45,0.051282,-0.006349,-0.00246
11873,20090928,7822,DISK,IMAGE ENTERTAINMENT INC,5,0.8,0.88,0.85,56780,0.036585,0.82,0.85,21856,0.81,73,0.036585,0.017756,0.015544
11873,20090929,7822,DISK,IMAGE ENTERTAINMENT INC,5,0.83,0.8501,0.85,41550,0,0.85,0.85,21856,0.85,28,0,-0.001135,0.000021
11873,20090930,7822,DISK,IMAGE ENTERTAINMENT INC,5,0.8,0.86,0.85,70906,0,0.85,0.86,21856,0.82,85,0,-0.002949,-0.004365
11873,20091001,7822,DISK,IMAGE ENTERTAINMENT INC,,0.83,0.87,0.86,100902,0.011765,0.84,0.86,21856,0.86,52,0.011765,-0.027161,-0.024291
11873,20091002,7822,DISK,IMAGE ENTERTAINMENT INC,5,0.82,0.87,0.8596,84026,-0.000465,0.85,0.8595,21856,0.84,92,-0.000465,-0.00537,-0.00652
11873,20091005,7822,DISK,IMAGE ENTERTAINMENT INC,,0.84,0.88,0.854,116345,-0.006515,0.85,0.86,21856,0.84,100,-0.006515,0.015992,0.015665
11873,20091006,7822,DISK,IMAGE ENTERTAINMENT INC,5,0.84,0.86,0.8539,10133,-0.000117,0.85,0.8539,21856,0.84,37,-0.000117,0.014532,0.01338
11873,20091007,7822,DISK,IMAGE ENTERTAINMENT INC,,0.83,0.85,0.83,28152,-0.027989,0.84,0.85,21856,0.85,63,-0.027989,0.002709,0.00231
11873,20091008,7822,DISK,IMAGE ENTERTAINMENT INC,,0.81,0.86,0.84,110382,0.012048,0.82,0.86,21856,0.83,151,0.012048,0.00967,0.009247
11873,20091009,7822,DISK,IMAGE ENTERTAINMENT INC,5,0.7796,0.842,0.82,169016,-0.02381,0.8,0.83,21856,0.82,145,-0.02381,0.005217,0.006551
11873,20091012,7822,DISK,IMAGE ENTERTAINMENT INC,5,0.77,0.8099,0.781,38690,-0.047561,0.772,0.79,21856,0.8,60,-0.047561,0.003887,0.000513
11873,20091013,7822,DISK,IMAGE ENTERTAINMENT INC,5,0.74,0.7756,0.7561,59735,-0.031882,0.75,0.8,21856,0.7625,68,-0.031882,-0.002009,-0.000771
11873,20091014,7822,DISK,IMAGE ENTERTAINMENT INC,5,0.75,0.8,0.76,53098,0.005158,0.76,0.785,21856,0.75,94,0.005158,0.017725,0.014018
11873,20091015,7822,DISK,IMAGE ENTERTAINMENT INC,,0.7497,0.79,0.76,63986,0,0.75,0.78,21856,0.79,84,0,0.002394,0.000114
11873,20091016,7822,DISK,IMAGE ENTERTAINMENT INC,5,0.72,0.76,0.74,64072,-0.026316,0.73,0.76,21856,0.75,74,-0.026316,-0.008154,-0.006072
11873,20091019,7822,DISK,IMAGE ENTERTAINMENT INC,5,0.7221,0.78,0.75,42246,0.013514,0.75,0.76,21856,0.7399,41,0.013514,0.009985,0.007863
11873,20091020,7822,DISK,IMAGE ENTERTAINMENT INC,5,0.75,0.79,0.75,26860,0,0.75,0.7589,21856,0.78,44,0,-0.007976,-0.009151
11873,20091021,7822,DISK,IMAGE ENTERTAINMENT INC,,0.75,0.8,0.8,27833,0.066667,0.77,0.795,21856,0.75,40,0.066667,-0.008455,-0.007087
11873,20091022,7822,DISK,IMAGE ENTERTAINMENT INC,,0.73,0.7901,0.78,71707,-0.025,0.76,0.79,21856,0.79,98,-0.025,0.010047,0.00695
11873,20091023,7822,DISK,IMAGE ENTERTAINMENT INC,5,0.75,0.78,0.78,200,0,0.75,0.78,21856,0.75,3,0,-0.012725,-0.013179
11873,20091026,7822,DISK,IMAGE ENTERTAINMENT INC,,0.74,0.77,0.76,10800,-0.025641,0.75,0.7608,21856,0.76,25,-0.025641,-0.013205,-0.012992
11873,20091027,7822,DISK,IMAGE ENTERTAINMENT INC,5,0.75,0.805,0.8,117203,0.052632,0.8,0.805,21856,0.76,118,0.052632,-0.006301,-0.010174
11873,20091028,7822,DISK,IMAGE ENTERTAINMENT INC,,0.78,0.79,0.78,33247,-0.025,0.78,0.789,21856,0.78,43,-0.025,-0.024016,-0.030507
11873,20091029,7822,DISK,IMAGE ENTERTAINMENT INC,5,0.75,0.782,0.77,97508,-0.012821,0.77,0.79,21856,0.78,85,-0.012821,0.023717,0.020269
11873,20091030,7822,DISK,IMAGE ENTERTAINMENT INC,5,0.78,0.85,0.82,174387,0.064935,0.82,0.86,21856,0.85,211,0.064935,-0.028014,-0.023906
11873,20091102,7822,DISK,IMAGE ENTERTAINMENT INC,,0.75,0.8301,0.78,56502,-0.048781,0.78,0.79,21856,0.83,75,-0.048781,0.005046,-0.001091
11873,20091103,7822,DISK,IMAGE ENTERTAINMENT INC,,0.75,0.79,0.77,32300,-0.012821,0.77,0.78,21856,0.79,24,-0.012821,0.005715,0.009361
11873,20091104,7822,DISK,IMAGE ENTERTAINMENT INC,,0.751,0.79,0.78,27480,0.012987,0.78,0.79,21856,0.77,31,0.012987,0.000573,-0.002537
11873,20091105,7822,DISK,IMAGE ENTERTAINMENT INC,5,0.78,0.79,0.78,10670,0,0.78,0.79,21856,0.79,12,0,0.01927,0.020203
11873,20091106,7822,DISK,IMAGE ENTERTAINMENT INC,,0.78,0.81,0.81,4500,0.038462,0.78,0.81,21856,0.79,16,0.038462,0.001449,-0.000677
11873,20091109,7822,DISK,IMAGE ENTERTAINMENT INC,,0.78,0.82,0.81,25856,0,0.785,0.81,21856,0.82,33,0,0.023071,0.01561
11873,20091110,7822,DISK,IMAGE ENTERTAINMENT INC,5,0.7505,0.82,0.78,49300,-0.037037,0.76,0.78,21856,0.81,38,-0.037037,-0.00089,-0.006625
11873,20091111,7822,DISK,IMAGE ENTERTAINMENT INC,,0.75,0.801,0.77,36425,-0.012821,0.771,0.8,21856,0.75,46,-0.012821,0.005482,0.005813
11873,20091112,7822,DISK,IMAGE ENTERTAINMENT INC,5,0.75,0.84,0.82,95118,0.064935,0.78,0.83,21856,0.75,102,0.064935,-0.011834,-0.014165
11873,20091113,7822,DISK,IMAGE ENTERTAINMENT INC,5,0.55,0.85,0.65,617470,-0.207317,0.63,0.65,21856,0.85,802,-0.207317,0.006805,0.007858
11873,20091116,7822,DISK,IMAGE ENTERTAINMENT INC,,0.5626,0.63,0.63,108866,-0.030769,0.61,0.64,21856,0.6,132,-0.030769,0.015456,0.016677
11873,20091117,7822,DISK,IMAGE ENTERTAINMENT INC,,0.63,0.69,0.67,99786,0.063492,0.64,0.67,21856,0.69,102,0.063492,0.001121,-0.001859
11873,20091118,7822,DISK,IMAGE ENTERTAINMENT INC,,0.61,0.65,0.62,41571,-0.074627,0.62,0.65,21856,0.631,70,-0.074627,-0.001161,-0.001495
11873,20091119,7822,DISK,IMAGE ENTERTAINMENT INC,,0.6,0.66,0.63,17939,0.016129,0.63,0.64,21856,0.62,31,0.016129,-0.014042,-0.01478
11873,20091120,7822,DISK,IMAGE ENTERTAINMENT INC,,0.63,0.685,0.6401,32686,0.016032,0.64,0.65,21856,0.63,76,0.016032,-0.004073,-0.00149
11873,20091123,7822,DISK,IMAGE ENTERTAINMENT INC,,0.6001,0.67,0.61,49183,-0.047024,0.59,0.62,21856,0.651,61,-0.047024,0.012915,0.010613
11873,20091124,7822,DISK,IMAGE ENTERTAINMENT INC,,0.6,0.64,0.63,64475,0.032787,0.62,0.63,21856,0.6,77,0.032787,-0.001354,-0.002342
11873,20091125,7822,DISK,IMAGE ENTERTAINMENT INC,5,0.6016,0.64,0.6201,29150,-0.015714,0.62,0.63,21856,0.64,25,-0.015714,0.005708,0.003603
11873,20091127,7822,DISK,IMAGE ENTERTAINMENT INC,5,0.61,0.63,0.6212,11892,0.001774,0.62,0.63,21856,0.63,18,0.001774,-0.018763,-0.016937
11873,20091130,7822,DISK,IMAGE ENTERTAINMENT INC,,0.6001,0.62,0.61,31187,-0.01803,0.6,0.63,21856,0.62,40,-0.01803,0.003836,0.002409
11873,20091201,7822,DISK,IMAGE ENTERTAINMENT INC,5,0.6,0.615,0.6,67977,-0.016393,0.6,0.608,21856,0.61,142,-0.016393,0.013955,0.012471
11873,20091202,7822,DISK,IMAGE ENTERTAINMENT INC,,0.5595,0.6,0.56,78567,-0.066667,0.55,0.56,21856,0.6,135,-0.066667,0.002238,0.005799
11873,20091203,7822,DISK,IMAGE ENTERTAINMENT INC,,0.52,0.6301,0.63,156835,0.125,0.6,0.63,21856,0.52,151,0.125,-0.008846,-0.006883
11873,20091204,7822,DISK,IMAGE ENTERTAINMENT INC,,0.61,0.65,0.63,67316,0,0.62,0.63,21856,0.64,55,0,0.005348,0.011062
11873,20091207,7822,DISK,IMAGE ENTERTAINMENT INC,,0.59,0.6599,0.63,71386,0,0.63,0.64,21856,0.6599,62,0,-0.001611,0.001938
11873,20091208,7822,DISK,IMAGE ENTERTAINMENT INC,5,0.6,0.64,0.61,33500,-0.031746,0.6,0.62,21856,0.62,50,-0.031746,-0.010691,-0.007994
11873,20091209,7822,DISK,IMAGE ENTERTAINMENT INC,5,0.53,0.59,0.53,75481,-0.131148,0.53,0.56,21856,0.59,93,-0.131148,0.003409,0.002074
11873,20091210,7822,DISK,IMAGE ENTERTAINMENT INC,5,0.54,0.6,0.56,15682,0.056604,0.57,0.59,21856,0.54,48,0.056604,0.005219,-0.001239
11873,20091211,7822,DISK,IMAGE ENTERTAINMENT INC,5,0.53,0.56,0.5499,11702,-0.018036,0.53,0.56,21856,0.5503,24,-0.018036,0.002973,0.004861
11873,20091214,7822,DISK,IMAGE ENTERTAINMENT INC,5,0.4802,0.55,0.51,168400,-0.072559,0.5,0.51,21856,0.55,153,-0.072559,0.008384,0.009792
11873,20091215,7822,DISK,IMAGE ENTERTAINMENT INC,5,0.1999,0.439,0.21,2338244,-0.588235,0.21,0.2189,21856,0.439,1182,-0.588235,-0.004635,-0.004327
11873,20091216,7822,DISK,IMAGE ENTERTAINMENT INC,,0.21,0.27,0.23,1085994,0.095238,0.22,0.23,21856,0.22,695,0.095238,0.003259,0.004849
11873,20091217,7822,DISK,IMAGE ENTERTAINMENT INC,5,0.22,0.26,0.255,494400,0.108696,0.255,0.28,21856,0.22,234,0.108696,-0.0126,-0.010388
11873,20091218,7822,DISK,IMAGE ENTERTAINMENT INC,5,0.239,0.27,0.2595,463377,0.017647,0.2595,0.26,21856,0.241,189,0.017647,0.006016,0.004816
11873,20091221,7822,DISK,IMAGE ENTERTAINMENT INC,5,0.25,0.286,0.2799,169128,0.078613,0.275,0.2799,21856,0.26,133,0.078613,0.009701,0.009236
11873,20091222,7822,DISK,IMAGE ENTERTAINMENT INC,5,0.2432,0.31,0.28,448459,0.000357,0.27,0.31,21856,0.29,245,0.000357,0.004463,0.005508
11873,20091223,7822,DISK,IMAGE ENTERTAINMENT INC,5,0.223,0.29,0.24,572342,-0.142857,0.24,0.255,21856,0.29,245,-0.142857,0.004476,0.008398
11873,20091224,7822,DISK,IMAGE ENTERTAINMENT INC,,0.23,0.258,0.255,68783,0.0625,0.2408,0.255,21856,0.25,41,0.0625,0.005125,0.005212
11873,20091228,7822,DISK,IMAGE ENTERTAINMENT INC,5,0.23,0.27,0.268,144215,0.05098,0.248,0.268,21856,0.26,107,0.05098,0.000886,-0.000222
11873,20091229,7822,DISK,IMAGE ENTERTAINMENT INC,,0.235,0.2501,0.25,45227,-0.067164,0.24,0.26,21856,0.25,61,-0.067164,-0.001165,0.001206
11873,20091230,7822,DISK,IMAGE ENTERTAINMENT INC,5,0.2,0.2402,0.215,464276,-0.14,0.215,0.22,21856,0.24,235,-0.14,-0.000749,0.000454
11873,20091231,7822,DISK,IMAGE ENTERTAINMENT INC,5,0.21,0.2749,0.25,679453,0.162791,0.25,0.2694,21856,0.21,312,0.162791,-0.008694,-0.002666
11873,20100104,7822,DISK,IMAGE ENTERTAINMENT INC,5,0.26,0.36,0.307,1843324,0.228,0.307,0.31,21856,0.26,1226,0.228,0.017043,0.019077
11873,20100105,7822,DISK,IMAGE ENTERTAINMENT INC,,0.27,0.307,0.284,330283,-0.074919,0.27,0.3,21856,0.3,323,-0.074919,0.003363,0.002451
11873,20100106,7822,DISK,IMAGE ENTERTAINMENT INC,5,0.27,0.2928,0.275,115318,-0.03169,0.275,0.29,21856,0.27,135,-0.03169,0.001768,0.00318
11873,20100107,7822,DISK,IMAGE ENTERTAINMENT INC,,0.25,0.2898,0.2505,301572,-0.089091,0.2505,0.261,21856,0.285,321,-0.089091,0.002817,0.006834
11873,20100108,7822,DISK,IMAGE ENTERTAINMENT INC,5,0.2221,0.2601,0.25,382340,-0.001996,0.231,0.245,25356,0.26,180,-0.001996,0.004161,0.007224
11873,20100111,7822,DISK,IMAGE ENTERTAINMENT INC,5,0.25,0.3096,0.281,1080759,0.124,0.28,0.285,25356,0.28,778,0.124,0.001121,0.003547
11873,20100112,7822,DISK,IMAGE ENTERTAINMENT INC,,0.2551,0.29,0.26,304424,-0.074733,0.25,0.27,25356,0.289,256,-0.074733,-0.011001,-0.010224
11873,20100113,7822,DISK,IMAGE ENTERTAINMENT INC,5,0.2579,0.34,0.3,804175,0.153846,0.3,0.31,25356,0.265,575,0.153846,0.008535,0.008648
11873,20100114,7822,DISK,IMAGE ENTERTAINMENT INC,,0.282,0.3899,0.354,1427307,0.18,0.3537,0.36,25356,0.29,1049,0.18,0.002296,0.004398
11873,20100115,7822,DISK,IMAGE ENTERTAINMENT INC,5,0.321,0.38,0.35,566250,-0.011299,0.33,0.35,25356,0.36,460,-0.011299,-0.011346,-0.008675
11873,20100119,7822,DISK,IMAGE ENTERTAINMENT INC,,0.31,0.3775,0.3218,336881,-0.080571,0.3218,0.325,25356,0.3775,266,-0.080571,0.01205,0.011274
11873,20100120,7822,DISK,IMAGE ENTERTAINMENT INC,,0.3036,0.3372,0.315,86986,-0.021131,0.311,0.315,25356,0.323,179,-0.021131,-0.011168,-0.00915
11873,20100121,7822,DISK,IMAGE ENTERTAINMENT INC,5,0.31,0.35,0.339,214218,0.07619,0.3238,0.337,25356,0.35,232,0.07619,-0.017759,-0.014217
11873,20100122,7822,DISK,IMAGE ENTERTAINMENT INC,5,0.31,0.35,0.31,158687,-0.085546,0.31,0.329,25356,0.35,186,-0.085546,-0.021031,-0.014439
11873,20100125,7822,DISK,IMAGE ENTERTAINMENT INC,,0.27,0.319,0.27,298495,-0.129032,0.2733,0.282,25356,0.312,240,-0.129032,0.003882,0.000966
11873,20100126,7822,DISK,IMAGE ENTERTAINMENT INC,,0.26,0.282,0.278,159561,0.02963,0.27,0.278,25356,0.282,136,0.02963,-0.004918,-0.006019
11873,20100127,7822,DISK,IMAGE ENTERTAINMENT INC,5,0.26,0.2866,0.27,68293,-0.028777,0.26,0.27,25356,0.27,74,-0.028777,0.004048,0.001787
11873,20100128,7822,DISK,IMAGE ENTERTAINMENT INC,5,0.26,0.279,0.2611,54192,-0.032963,0.2611,0.27,25356,0.274,68,-0.032963,-0.011402,-0.008945
11873,20100129,7822,DISK,IMAGE ENTERTAINMENT INC,5,0.2612,0.29,0.2612,56474,0.000383,0.2612,0.29,25356,0.27,59,0.000383,-0.010306,-0.008227
11873,20100201,7822,DISK,IMAGE ENTERTAINMENT INC,5,0.27,0.29,0.27,54202,0.033691,0.27,0.2795,25356,0.28,42,0.033691,0.01506,0.011288
11873,20100202,7822,DISK,IMAGE ENTERTAINMENT INC,5,0.17,0.309,0.2251,1926795,-0.166296,0.225,0.23,25356,0.211,1449,-0.166296,0.012219,0.008635
11873,20100203,7822,DISK,IMAGE ENTERTAINMENT INC,5,,,,,,,,,,,,-0.005243,-0.003951
