PERMNO,date,SICCD,TICKER,COMNAM,NMSIND,BIDLO,ASKHI,PRC,VOL,RET,BID,ASK,SHROUT,OPENPRC,NUMTRD,RETX,vwretx,ewretx
12557,20150901,6399,EMG,EMERGENT CAPITAL INC,,5.6,5.87,5.7,7543,0.023339,5.6,5.68,28131,5.6,,0.023339,-0.028234,-0.020407
12557,20150902,6399,EMG,EMERGENT CAPITAL INC,,5.53,5.82,5.82,42317,0.021053,5.68,5.7,28131,5.55,,0.021053,0.016215,0.008571
12557,20150903,6399,EMG,EMERGENT CAPITAL INC,,5.58,5.81,5.58,21607,-0.041237,5.59,5.64,28131,5.81,,-0.041237,0.001803,0.002018
12557,20150904,6399,EMG,EMERGENT CAPITAL INC,,5.54,5.63,5.63,22648,0.008961,5.56,5.62,28131,5.55,,0.008961,-0.013815,-0.007399
12557,20150908,6399,EMG,EMERGENT CAPITAL INC,,5.446,5.79,5.55,16530,-0.01421,5.47,5.55,28131,5.76,,-0.01421,0.023572,0.015891
12557,20150909,6399,EMG,EMERGENT CAPITAL INC,,5.281,5.57,5.41,28988,-0.025225,5.38,5.4,28131,5.55,,-0.025225,-0.012871,-0.008108
12557,20150910,6399,EMG,EMERGENT CAPITAL INC,,5.28,5.42,5.33,17476,-0.014787,5.3,5.32,28131,5.41,,-0.014787,0.004323,0.002606
12557,20150911,6399,EMG,EMERGENT CAPITAL INC,,5.26,5.39,5.39,11864,0.011257,5.34,5.37,28131,5.35,,0.011257,0.003131,0.000047
12557,20150914,6399,EMG,EMERGENT CAPITAL INC,,5.27,5.39,5.36,11982,-0.005566,5.33,5.37,28131,5.39,,-0.005566,-0.004282,-0.004846
12557,20150915,6399,EMG,EMERGENT CAPITAL INC,,5.32,5.41,5.41,20852,0.009328,5.38,5.4,28131,5.36,,0.009328,0.011414,0.007139
12557,20150916,6399,EMG,EMERGENT CAPITAL INC,,5.31,5.42,5.37,29588,-0.007394,5.33,5.37,28131,5.4,,-0.007394,0.009488,0.010065
12557,20150917,6399,EMG,EMERGENT CAPITAL INC,,5.25,5.44,5.26,19181,-0.020484,5.26,5.3,28131,5.39,,-0.020484,-0.00081,0.003864
12557,20150918,6399,EMG,EMERGENT CAPITAL INC,,5.26,5.38,5.35,18542,0.01711,5.27,5.32,28131,5.26,,0.01711,-0.015461,-0.005472
12557,20150921,6399,EMG,EMERGENT CAPITAL INC,,5.17,5.3,5.19,38515,-0.029907,5.17,5.19,28131,5.29,,-0.029907,0.003237,-0.002935
12557,20150922,6399,EMG,EMERGENT CAPITAL INC,,5.19,5.31,5.25,12918,0.011561,5.23,5.25,28131,5.19,,0.011561,-0.013644,-0.013961
12557,20150923,6399,EMG,EMERGENT CAPITAL INC,,4.98,5.32,5.01,134834,-0.045714,4.99,5,28131,5.24,,-0.045714,-0.003591,-0.005949
12557,20150924,6399,EMG,EMERGENT CAPITAL INC,,4.9,5.075,4.99,42718,-0.003992,4.95,4.98,28131,5,,-0.003992,-0.003714,-0.002104
12557,20150925,6399,EMG,EMERGENT CAPITAL INC,,4.94,5.13,5.0699,69724,0.016012,4.99,5.07,28131,4.99,,0.016012,-0.00224,-0.009782
12557,20150928,6399,EMG,EMERGENT CAPITAL INC,,4.85,5.16,4.94,33162,-0.025622,4.88,4.94,28131,5.06,,-0.025622,-0.027359,-0.02624
12557,20150929,6399,EMG,EMERGENT CAPITAL INC,,4.93,5.28,4.99,41569,0.010121,4.95,5,28131,5.01,,0.010121,-0.000955,-0.006711
12557,20150930,6399,EMG,EMERGENT CAPITAL INC,,5.05,5.45,5.45,28217,0.092184,5.25,5.28,28131,5.08,,0.092184,0.019378,0.014106
12557,20151001,6399,EMG,EMERGENT CAPITAL INC,,4.88,5.44,5.02,47511,-0.078899,4.99,5,28131,5.43,,-0.078899,0.001861,-0.001856
12557,20151002,6399,EMG,EMERGENT CAPITAL INC,,4.44,5.06,4.76,69379,-0.051793,4.96,5,28131,4.78,,-0.051793,0.015079,0.016137
12557,20151005,6399,EMG,EMERGENT CAPITAL INC,,4.8,5.1,5.06,27015,0.063025,5.05,5.06,28131,4.94,,0.063025,0.018729,0.021282
12557,20151006,6399,EMG,EMERGENT CAPITAL INC,,4.9,5,4.93,19453,-0.025692,4.93,4.98,28131,4.94,,-0.025692,-0.0031,0.002228
12557,20151007,6399,EMG,EMERGENT CAPITAL INC,,4.9,5.04,4.96,15744,0.006085,4.97,5,28131,4.9,,0.006085,0.009508,0.011747
12557,20151008,6399,EMG,EMERGENT CAPITAL INC,,4.94,5.02,4.98,15027,0.004032,4.98,5.01,28131,4.962,,0.004032,0.008501,0.009199
12557,20151009,6399,EMG,EMERGENT CAPITAL INC,,4.94,5.01,4.98,7406,0,4.94,5,28131,4.95,,0,0.001408,0.003558
12557,20151012,6399,EMG,EMERGENT CAPITAL INC,,4.93,4.99,4.96,21412,-0.004016,4.94,4.96,28131,4.98,,-0.004016,-0.000223,-0.002943
12557,20151013,6399,EMG,EMERGENT CAPITAL INC,,4.91,5,4.91,12547,-0.010081,4.91,4.94,28131,4.94,,-0.010081,-0.007884,-0.009306
12557,20151014,6399,EMG,EMERGENT CAPITAL INC,,4.71,4.93,4.76,92670,-0.03055,4.74,4.76,28131,4.93,,-0.03055,-0.004342,-0.003109
12557,20151015,6399,EMG,EMERGENT CAPITAL INC,,4.5,4.7195,4.58,96595,-0.037815,4.56,4.59,28131,4.7195,,-0.037815,0.014665,0.015878
12557,20151016,6399,EMG,EMERGENT CAPITAL INC,,4.56,4.65,4.65,50437,0.015284,4.61,4.62,28131,4.64,,0.015284,0.003393,-0.000462
12557,20151019,6399,EMG,EMERGENT CAPITAL INC,,4.55,4.63,4.57,47928,-0.017204,4.57,4.59,28131,4.61,,-0.017204,-0.000687,-0.002584
12557,20151020,6399,EMG,EMERGENT CAPITAL INC,,4.47,4.57,4.56,67693,-0.002188,4.52,4.55,28131,4.55,,-0.002188,-0.001193,0.000571
12557,20151021,6399,EMG,EMERGENT CAPITAL INC,,4.37,4.59,4.4,71631,-0.035088,4.4,4.42,28131,4.53,,-0.035088,-0.008124,-0.010995
12557,20151022,6399,EMG,EMERGENT CAPITAL INC,,4.2333,4.49,4.4,179577,0,4.4,4.45,28131,4.43,,0,0.013886,0.006532
12557,20151023,6399,EMG,EMERGENT CAPITAL INC,,4.35,4.46,4.39,178814,-0.002273,4.38,4.4,28131,4.41,,-0.002273,0.009494,0.005913
12557,20151026,6399,EMG,EMERGENT CAPITAL INC,,4.48,4.65,4.56,108151,0.038724,4.56,4.57,28131,4.49,,0.038724,-0.002832,-0.005896
12557,20151027,6399,EMG,EMERGENT CAPITAL INC,,4.3999,4.56,4.5,177123,-0.013158,4.52,4.54,28131,4.46,,-0.013158,-0.00449,-0.010881
12557,20151028,6399,EMG,EMERGENT CAPITAL INC,,4.5472,4.825,4.73,105214,0.051111,4.74,4.76,28131,4.57,,0.051111,0.013501,0.016439
12557,20151029,6399,EMG,EMERGENT CAPITAL INC,,4.67,4.952,4.95,65224,0.046512,4.92,4.95,28131,4.73,,0.046512,-0.002362,-0.005813
12557,20151030,6399,EMG,EMERGENT CAPITAL INC,,4.85,5,4.96,77880,0.00202,4.97,4.99,28131,4.96,,0.00202,-0.00402,-0.001265
12557,20151102,6399,EMG,EMERGENT CAPITAL INC,,4.94,5.02,5.02,210962,0.012097,5.01,5.02,28131,4.94,,0.012097,0.012413,0.015111
12557,20151103,6399,EMG,EMERGENT CAPITAL INC,,4.99,5.07,5,20836,-0.003984,5,5.02,28131,4.99,,-0.003984,0.003057,0.005924
12557,20151104,6399,EMG,EMERGENT CAPITAL INC,,4.97,5.04,5,72476,0,4.99,5,28131,5,,0,-0.003677,-0.002343
12557,20151105,6399,EMG,EMERGENT CAPITAL INC,,4.93,5.08,4.95,232122,-0.01,4.93,4.95,28131,5,,-0.01,-0.001566,-0.003333
12557,20151106,6399,EMG,EMERGENT CAPITAL INC,,4.89,4.9599,4.92,170940,-0.006061,4.92,4.95,28131,4.95,,-0.006061,-0.000491,0.000517
12557,20151109,6399,EMG,EMERGENT CAPITAL INC,,4.75,4.95,4.89,233088,-0.006098,4.87,4.89,28131,4.87,,-0.006098,-0.009776,-0.009183
12557,20151110,6399,EMG,EMERGENT CAPITAL INC,,4.61,4.9786,4.67,221144,-0.04499,4.65,4.67,28131,4.8,,-0.04499,0.001073,-0.002715
12557,20151111,6399,EMG,EMERGENT CAPITAL INC,,4.37,4.64,4.52,187639,-0.03212,4.51,4.52,28131,4.64,,-0.03212,-0.004133,-0.006487
12557,20151112,6399,EMG,EMERGENT CAPITAL INC,,4.13,4.43,4.35,119890,-0.037611,4.35,4.36,28131,4.43,,-0.037611,-0.014706,-0.013714
12557,20151113,6399,EMG,EMERGENT CAPITAL INC,,4.21,4.43,4.38,74535,0.006897,4.38,4.4,28131,4.25,,0.006897,-0.009789,-0.005667
12557,20151116,6399,EMG,EMERGENT CAPITAL INC,,4.15,4.338,4.18,49637,-0.045662,4.17,4.19,28131,4.29,,-0.045662,0.013613,0.006234
12557,20151117,6399,EMG,EMERGENT CAPITAL INC,,4.05,4.23,4.17,240158,-0.002392,4.16,4.17,28131,4.21,,-0.002392,-0.001526,-0.004381
12557,20151118,6399,EMG,EMERGENT CAPITAL INC,,4.075,4.27,4.22,86431,0.01199,4.22,4.24,28131,4.246,,0.01199,0.015198,0.009419
12557,20151119,6399,EMG,EMERGENT CAPITAL INC,,4.15,4.29,4.25,49904,0.007109,4.25,4.26,28131,4.2,,0.007109,-0.001038,-0.000878
12557,20151120,6399,EMG,EMERGENT CAPITAL INC,,4.125,4.25,4.22,88728,-0.007059,4.22,4.24,28131,4.25,,-0.007059,0.002894,0.002415
12557,20151123,6399,EMG,EMERGENT CAPITAL INC,,4.18,4.2625,4.2,102952,-0.004739,4.2,4.21,28131,4.22,,-0.004739,-0.000717,0.002138
12557,20151124,6399,EMG,EMERGENT CAPITAL INC,,4.18,4.31,4.3,48546,0.02381,4.28,4.3,28131,4.2,,0.02381,0.002332,0.005581
12557,20151125,6399,EMG,EMERGENT CAPITAL INC,,4.14,4.3344,4.24,42773,-0.013954,4.23,4.25,28131,4.3,,-0.013954,0.001052,0.004919
12557,20151127,6399,EMG,EMERGENT CAPITAL INC,,4.2,4.2925,4.21,17478,-0.007075,4.22,4.25,28131,4.218,,-0.007075,0.000595,0.002004
12557,20151130,6399,EMG,EMERGENT CAPITAL INC,,4.2,4.3,4.28,87866,0.016627,4.28,4.3,28131,4.22,,0.016627,-0.003962,-0.000319
12557,20151201,6399,EMG,EMERGENT CAPITAL INC,,4.29,4.4,4.31,70956,0.007009,4.31,4.32,28131,4.3,,0.007009,0.009426,0.006104
12557,20151202,6399,EMG,EMERGENT CAPITAL INC,,4.16,4.344,4.22,86865,-0.020882,4.22,4.25,28131,4.3,,-0.020882,-0.010922,-0.00954
12557,20151203,6399,EMG,EMERGENT CAPITAL INC,,3.95,4.25,3.99,1056504,-0.054502,3.99,4.01,28131,4.25,,-0.054502,-0.014352,-0.010795
12557,20151204,6399,EMG,EMERGENT CAPITAL INC,,3.92,4.17,4.07,238487,0.02005,4.04,4.07,28131,4.11,,0.02005,0.016432,0.00404
12557,20151207,6399,EMG,EMERGENT CAPITAL INC,,3.73,4.12,3.73,244274,-0.083538,3.73,3.75,28131,4.12,,-0.083538,-0.00984,-0.01644
12557,20151208,6399,EMG,EMERGENT CAPITAL INC,,3.65,3.86,3.83,125427,0.02681,3.81,3.83,28131,3.68,,0.02681,-0.006194,-0.004669
12557,20151209,6399,EMG,EMERGENT CAPITAL INC,,3.86,4.03,3.97,145418,0.036554,3.97,3.98,28131,3.89,,0.036554,-0.006675,-0.00448
12557,20151210,6399,EMG,EMERGENT CAPITAL INC,,3.94,4.06,3.94,52676,-0.007557,3.94,3.96,28131,4,,-0.007557,0.001942,0.002146
12557,20151211,6399,EMG,EMERGENT CAPITAL INC,,3.89,4,4,46187,0.015228,3.97,4,28131,3.904,,0.015228,-0.020011,-0.019727
12557,20151214,6399,EMG,EMERGENT CAPITAL INC,,3.75,3.92,3.75,472974,-0.0625,3.77,3.79,28131,3.91,,-0.0625,0.001549,-0.009662
12557,20151215,6399,EMG,EMERGENT CAPITAL INC,,3.76,3.93,3.93,46484,0.048,3.91,3.93,28131,3.76,,0.048,0.011283,0.010057
12557,20151216,6399,EMG,EMERGENT CAPITAL INC,,3.87,3.99,3.89,76624,-0.010178,3.89,3.91,28131,3.91,,-0.010178,0.014802,0.013144
12557,20151217,6399,EMG,EMERGENT CAPITAL INC,,3.82,3.99,3.87,19448,-0.005141,3.88,3.89,28131,3.89,,-0.005141,-0.014729,-0.008276
12557,20151218,6399,EMG,EMERGENT CAPITAL INC,,3.82,3.89,3.82,61180,-0.01292,3.84,3.85,28131,3.881,,-0.01292,-0.015171,-0.005374
12557,20151221,6399,EMG,EMERGENT CAPITAL INC,,3.8301,3.905,3.86,29886,0.010471,3.86,3.89,28131,3.87,,0.010471,0.006872,0.004141
12557,20151222,6399,EMG,EMERGENT CAPITAL INC,,3.86,3.92,3.88,68197,0.005181,3.87,3.89,28131,3.86,,0.005181,0.008755,0.007876
12557,20151223,6399,EMG,EMERGENT CAPITAL INC,,3.86,3.93,3.86,252279,-0.005155,3.87,3.89,28131,3.88,,-0.005155,0.013562,0.016175
12557,20151224,6399,EMG,EMERGENT CAPITAL INC,,3.85,3.91,3.85,20308,-0.002591,3.89,3.9,28131,3.86,,-0.002591,-0.000945,0.001552
12557,20151228,6399,EMG,EMERGENT CAPITAL INC,,3.84,3.89,3.84,63739,-0.002597,3.84,3.85,28131,3.85,,-0.002597,-0.003343,-0.007581
12557,20151229,6399,EMG,EMERGENT CAPITAL INC,,3.81,3.89,3.8305,77084,-0.002474,3.83,3.85,28131,3.85,,-0.002474,0.009723,0.005367
12557,20151230,6399,EMG,EMERGENT CAPITAL INC,,3.78,3.87,3.79,59930,-0.010573,3.78,3.79,28131,3.83,,-0.010573,-0.007485,-0.006843
12557,20151231,6399,EMG,EMERGENT CAPITAL INC,,3.69,3.84,3.69,643071,-0.026385,3.69,3.7,28131,3.79,,-0.026385,-0.008217,-0.002051
