PERMNO,date,SICCD,TICKER,COMNAM,NMSIND,BIDLO,ASKHI,PRC,VOL,RET,BID,ASK,SHROUT,OPENPRC,NUMTRD,RETX,vwretx,ewretx
12532,20110112,6726,EWAC,RYDEX E T F TRUST,,40.51,40.51,40.51,500,C,40.34,40.6,100,40.51,,C,0.008909,0.007994
12532,20110113,6726,EWAC,RYDEX E T F TRUST,,40.65,40.78,40.73,1600,0.005431,40.26,40.65,100,40.65,,0.005431,-0.001891,-0.000523
12532,20110114,6726,EWAC,RYDEX E T F TRUST,,39.01,40.995,40.995,1200,0.006506,40.49,40.86,100,39.01,,0.006506,0.006614,0.00472
12532,20110118,6726,EWAC,RYDEX E T F TRUST,,40.8799,40.962,40.92,1700,-0.00183,40.65,40.97,100,40.962,,-0.00183,0.002144,0.002508
12532,20110119,6726,EWAC,RYDEX E T F TRUST,,40.56,40.56,40.56,100,-0.008798,40.15,40.58,100,40.56,,-0.008798,-0.012322,-0.016145
12532,20110120,6726,EWAC,RYDEX E T F TRUST,,39.83,40.88,40.26,1900,-0.007397,39.89,40.29,100,40.88,,-0.007397,-0.003828,-0.007638
12532,20110121,6726,EWAC,RYDEX E T F TRUST,,40.287,41.04,40.287,3300,0.000671,40.26,40.3,100,41.04,,0.000671,0.001252,-0.000159
12532,20110124,6726,EWAC,RYDEX E T F TRUST,,40.29,41.5,40.49,1600,0.005039,40.2,40.51,100,41.5,,0.005039,0.006245,0.006038
12532,20110125,6726,EWAC,RYDEX E T F TRUST,,40.29,40.43,40.397,2300,-0.002297,40.2,40.65,100,40.29,,-0.002297,-0.000454,-0.001084
12532,20110126,6726,EWAC,RYDEX E T F TRUST,,40.4,40.64,40.6399,400,0.006013,40.56,40.7,100,40.4,,0.006013,0.007299,0.011678
12532,20110127,6726,EWAC,RYDEX E T F TRUST,,40.64,40.78,-40.71,0,0.001725,40.64,40.78,100,,,0.001725,0.002018,0.001559
12532,20110128,6726,EWAC,RYDEX E T F TRUST,,39.89,40.96,39.91,1400,-0.019651,39.61,39.92,100,40.96,,-0.019651,-0.017268,-0.017827
12532,20110131,6726,EWAC,RYDEX E T F TRUST,,40.17,40.48,40.41,2300,0.012528,39.85,40.41,100,40.48,,0.012528,0.007617,0.005202
12532,20110201,6726,EWAC,RYDEX E T F TRUST,,40.6,42.3,40.79,2200,0.009404,40.48,40.79,100,42.3,,0.009404,0.016978,0.014685
12532,20110202,6726,EWAC,RYDEX E T F TRUST,,40.7399,40.92,40.92,1500,0.003187,40.42,40.77,100,40.74,,0.003187,-0.002365,-0.000625
12532,20110203,6726,EWAC,RYDEX E T F TRUST,,40.53,41.4,41,1300,0.001955,40.52,40.78,100,41.4,,0.001955,0.002781,0.001862
12532,20110204,6726,EWAC,RYDEX E T F TRUST,,40.56,40.76,40.76,1700,-0.005854,40.42,40.76,100,40.56,,-0.005854,0.002148,0.001303
12532,20110207,6726,EWAC,RYDEX E T F TRUST,,40.68,41.66,40.97,2200,0.005152,40.64,40.96,100,41.66,,0.005152,0.006108,0.006716
12532,20110208,6726,EWAC,RYDEX E T F TRUST,,40.92,41.1,41.1,1400,0.003173,40.78,41.1,100,40.92,,0.003173,0.004356,0.00385
12532,20110209,6726,EWAC,RYDEX E T F TRUST,,40.73,41.85,40.77,1000,-0.008029,40.4,40.78,100,41.85,,-0.008029,-0.003549,-0.003712
12532,20110210,6726,EWAC,RYDEX E T F TRUST,,40.35,40.92,40.5,1600,-0.006623,40.15,40.49,100,40.92,,-0.006623,0.001271,0.000427
12532,20110211,6726,EWAC,RYDEX E T F TRUST,,40.25,41.46,40.96,5600,0.011358,40.5,40.97,100,40.54,,0.011358,0.005944,0.006336
12532,20110214,6726,EWAC,RYDEX E T F TRUST,,40.64,40.9,40.6473,1000,-0.007634,40.38,40.75,100,40.9,,-0.007634,0.003258,0.003171
12532,20110215,6726,EWAC,RYDEX E T F TRUST,,40.46,41.13,40.65,2100,0.000066,40.5,40.66,100,41.13,,0.000066,-0.003277,-0.003053
12532,20110216,6726,EWAC,RYDEX E T F TRUST,,40.75,41.13,41.02,3100,0.009102,40.67,41.02,100,41.13,,0.009102,0.007352,0.006185
12532,20110217,6726,EWAC,RYDEX E T F TRUST,,41.07,41.23,41.19,800,0.004144,40.83,41.52,100,41.23,,0.004144,0.003847,0.005578
12532,20110218,6726,EWAC,RYDEX E T F TRUST,,41.14,41.55,41.27,3700,0.001942,40.92,41.28,100,41.4,,0.001942,0.001209,0.001068
12532,20110222,6726,EWAC,RYDEX E T F TRUST,,40.22,41.25,40.22,1800,-0.025442,39.74,40.21,100,41.25,,-0.025442,-0.021049,-0.020656
12532,20110223,6726,EWAC,RYDEX E T F TRUST,,40,40.96,40.41,4000,0.004724,39.74,40.41,100,40.96,,0.004724,-0.006585,-0.008523
12532,20110224,6726,EWAC,RYDEX E T F TRUST,,39.6001,39.89,39.89,700,-0.012868,39.61,40.19,100,39.6001,,-0.012868,-0.000306,0.002575
12532,20110225,6726,EWAC,RYDEX E T F TRUST,,40.64,40.79,40.79,3100,0.022562,40.65,41.09,100,40.64,,0.022562,0.012721,0.014965
12532,20110228,6726,EWAC,RYDEX E T F TRUST,,41.5199,41.6,41.5199,2400,0.017894,40.92,41.57,100,41.6,,0.017894,0.005287,0.002837
12532,20110301,6726,EWAC,RYDEX E T F TRUST,,40.92,41.7,40.92,2100,-0.014449,40.5,40.92,100,41.7,,-0.014449,-0.014923,-0.011221
12532,20110302,6726,EWAC,RYDEX E T F TRUST,,41.16,41.45,41.16,3100,0.005865,40.45,41.13,100,41.25,,0.005865,0.002685,0.002902
12532,20110303,6726,EWAC,RYDEX E T F TRUST,,41.53,41.79,41.73,2200,0.013848,41.12,41.74,100,41.79,,0.013848,0.016024,0.013322
12532,20110304,6726,EWAC,RYDEX E T F TRUST,,41.14,41.67,41.63,2200,-0.002396,41,41.62,100,41.67,,-0.002396,-0.005904,-0.003372
12532,20110307,6726,EWAC,RYDEX E T F TRUST,,41,41.0001,41.0001,300,-0.015131,40.8,41.11,100,41,,-0.015131,-0.009425,-0.009735
12532,20110308,6726,EWAC,RYDEX E T F TRUST,,40.8,41.69,41.54,2500,0.013168,41.15,41.51,100,41.69,,0.013168,0.007933,0.008887
12532,20110309,6726,EWAC,RYDEX E T F TRUST,,41.44,41.61,41.44,1900,-0.002407,41.15,41.54,100,41.47,,-0.002407,-0.002584,-0.003229
12532,20110310,6726,EWAC,RYDEX E T F TRUST,,40.19,41.15,40.4,2800,-0.025096,40.15,40.6,100,41.15,,-0.025096,-0.019782,-0.019569
12532,20110311,6726,EWAC,RYDEX E T F TRUST,,40.46,40.89,40.61,1100,0.005198,40.15,40.68,100,40.89,,0.005198,0.006644,0.002503
12532,20110314,6726,EWAC,RYDEX E T F TRUST,,40,40.84,40.36,2000,-0.006156,40,40.33,100,40.84,,-0.006156,-0.00551,-0.006698
12532,20110315,6726,EWAC,RYDEX E T F TRUST,,37.13,39.574,39.574,1800,-0.019475,38.99,39.66,100,37.13,,-0.019475,-0.011168,-0.010854
12532,20110316,6726,EWAC,RYDEX E T F TRUST,,38.43,39.18,38.82,4500,-0.019053,37.38,39.03,100,38.8,,-0.019053,-0.016679,-0.010217
12532,20110317,6726,EWAC,RYDEX E T F TRUST,,38.31,39.85,39.45,4800,0.016229,38.79,39.45,100,39.67,,0.016229,0.012179,0.007182
12532,20110318,6726,EWAC,RYDEX E T F TRUST,,39.21,39.83,-39.52,0,0.002478,39.21,39.83,100,,,0.001774,0.004809,0.00798
12532,20110321,6726,EWAC,RYDEX E T F TRUST,,40.5,40.54,40.54,300,0.02581,39.92,40.54,100,40.5,,0.02581,0.016415,0.015689
12532,20110322,6726,EWAC,RYDEX E T F TRUST,,39.8,41.15,40.49,2200,-0.001233,39.85,40.5,100,41.15,,-0.001233,-0.003326,-0.001307
12532,20110323,6726,EWAC,RYDEX E T F TRUST,,39.74,39.75,39.74,700,-0.018523,40.02,40.67,100,39.75,,-0.018523,0.00285,0.002852
12532,20110324,6726,EWAC,RYDEX E T F TRUST,,40.43,41.09,-40.76,0,0.025667,40.43,41.09,100,,,0.025667,0.008486,0.005781
12532,20110325,6726,EWAC,RYDEX E T F TRUST,,40.37,40.99,-40.68,0,-0.001963,40.37,40.99,100,,,-0.001963,0.003095,0.003864
12532,20110328,6726,EWAC,RYDEX E T F TRUST,,40.43,40.93,40.69,11500,0.000246,40.03,40.69,100,40.43,,0.000246,-0.003328,-0.001807
12532,20110329,6726,EWAC,RYDEX E T F TRUST,,40.31,40.31,40.31,100,-0.009339,40.32,40.98,100,40.31,,-0.009339,0.006919,0.005339
12532,20110330,6726,EWAC,RYDEX E T F TRUST,,41.3,41.5,41.5,3900,0.029521,41,41.5,100,41.3,,0.029521,0.008136,0.007839
12532,20110331,6726,EWAC,RYDEX E T F TRUST,,40.87,41.53,-41.2,0,-0.007229,40.87,41.53,100,,,-0.007229,-0.000605,0.002389
12532,20110401,6726,EWAC,RYDEX E T F TRUST,,41.5,41.9,41.79,3300,0.01432,41.35,41.78,100,41.5,,0.01432,0.005358,0.003443
12532,20110404,6726,EWAC,RYDEX E T F TRUST,,41.45,41.75,41.45,2600,-0.008136,41.42,41.78,100,41.75,,-0.008136,0.00108,0.000924
12532,20110405,6726,EWAC,RYDEX E T F TRUST,,41.88,41.88,41.88,600,0.010374,41.22,41.75,100,41.88,,0.010374,0.001321,0.001908
12532,20110406,6726,EWAC,RYDEX E T F TRUST,,41.82,41.89,41.89,2100,0.000239,41.7,41.87,100,41.82,,0.000239,0.00147,0.002592
12532,20110407,6726,EWAC,RYDEX E T F TRUST,,41.75,41.86,41.8599,2900,-0.000718,41.45,41.85,100,41.75,,-0.000718,-0.002301,-0.002599
12532,20110408,6726,EWAC,RYDEX E T F TRUST,,41.9899,42.06,42.06,500,0.00478,41.52,42.1,100,41.9899,,0.00478,-0.003391,-0.004756
12532,20110411,6726,EWAC,RYDEX E T F TRUST,,41.95,42.05,42.05,5400,-0.000238,41.27,41.83,100,41.95,,-0.000238,-0.004738,-0.006511
12532,20110412,6726,EWAC,RYDEX E T F TRUST,,40.75,40.89,40.75,500,-0.030916,40.79,41.34,100,40.89,,-0.030916,-0.009248,-0.010351
12532,20110413,6726,EWAC,RYDEX E T F TRUST,,41.1901,41.8,41.61,1600,0.021104,41.08,41.58,100,41.1901,,0.021104,0.001181,0.001341
12532,20110414,6726,EWAC,RYDEX E T F TRUST,,41.45,41.84,41.67,10100,0.001442,41.6,41.85,100,41.45,,0.001442,0.000527,0.002603
12532,20110415,6726,EWAC,RYDEX E T F TRUST,,41.88,41.92,41.88,1300,0.00504,41.32,41.88,100,41.92,,0.00504,0.003953,0.004923
12532,20110418,6726,EWAC,RYDEX E T F TRUST,,40.84,41.41,40.84,1000,-0.024833,40.52,41.08,100,41.41,,-0.024833,-0.01162,-0.011509
12532,20110419,6726,EWAC,RYDEX E T F TRUST,,41.208,41.33,41.33,700,0.011998,40.83,41.4,100,41.28,,0.011998,0.005689,0.00343
12532,20110420,6726,EWAC,RYDEX E T F TRUST,,41.55,42.22,-41.885,0,0.013428,41.55,42.22,100,,,0.013428,0.014244,0.012611
12532,20110421,6726,EWAC,RYDEX E T F TRUST,,41.5,42.123,42.123,700,0.005682,41.87,42.45,100,41.5,,0.005682,0.005815,0.004929
12532,20110425,6726,EWAC,RYDEX E T F TRUST,,42.24,42.35,42.33,1100,0.004914,41.77,42.31,100,42.24,,0.004914,-0.001848,-0.000578
12532,20110426,6726,EWAC,RYDEX E T F TRUST,,42.09,42.64,-42.365,0,0.000827,42.09,42.64,100,,,0.000827,0.008137,0.005391
12532,20110427,6726,EWAC,RYDEX E T F TRUST,,42.642,42.66,42.642,500,0.006538,42.3,42.84,100,42.66,,0.006538,0.005975,0.00516
12532,20110428,6726,EWAC,RYDEX E T F TRUST,,42.35,42.93,-42.64,0,-0.000047,42.35,42.93,100,,,-0.000047,0.002854,0.001861
12532,20110429,6726,EWAC,RYDEX E T F TRUST,,42.09,42.14,42.14,5000,-0.011726,42.11,44.12,150,42.14,,-0.011726,0.0031,0.003633
12532,20110502,6726,EWAC,RYDEX E T F TRUST,,42.96,42.96,42.96,300,0.019459,42.44,43.04,150,42.96,,0.019459,-0.003618,-0.006083
12532,20110503,6726,EWAC,RYDEX E T F TRUST,,42.35,42.39,42.35,1400,-0.014199,41.97,42.57,150,42.39,,-0.014199,-0.006658,-0.009186
12532,20110504,6726,EWAC,RYDEX E T F TRUST,,42.06,42.32,42.06,800,-0.006848,41.68,42.44,150,42.26,,-0.006848,-0.008141,-0.008905
12532,20110505,6726,EWAC,RYDEX E T F TRUST,,41.36,41.9199,41.36,6000,-0.016643,41.12,41.4,150,41.4,,-0.016643,-0.009519,-0.00626
12532,20110506,6726,EWAC,RYDEX E T F TRUST,,41.71,42.42,42.42,5200,0.025629,41.39,42,150,41.71,,0.025629,0.004513,0.004511
12532,20110509,6726,EWAC,RYDEX E T F TRUST,,42.05,42.05,42.05,400,-0.008722,41.6,42.05,150,42.05,,-0.008722,0.006133,0.006933
12532,20110510,6726,EWAC,RYDEX E T F TRUST,,42.29,42.5,42.497,1800,0.01063,42.02,42.5,150,42.29,,0.01063,0.008442,0.009807
12532,20110511,6726,EWAC,RYDEX E T F TRUST,,41.84,43.06,41.84,1700,-0.01546,41.37,41.96,150,42.87,,-0.01546,-0.012697,-0.011871
12532,20110512,6726,EWAC,RYDEX E T F TRUST,,41.7699,42.538,41.9499,1300,0.002627,41.8,42.11,150,42.538,,0.002627,0.003922,0.004131
12532,20110513,6726,EWAC,RYDEX E T F TRUST,,41.46,41.8,41.49,1000,-0.010963,40.88,41.5,150,41.8,,-0.010963,-0.008946,-0.009053
12532,20110516,6726,EWAC,RYDEX E T F TRUST,,41.29,42.24,41.432,1900,-0.001398,41,41.37,150,42.24,,-0.001398,-0.007001,-0.010404
12532,20110517,6726,EWAC,RYDEX E T F TRUST,,41.06,41.27,41.27,1800,-0.00391,41,41.39,150,41.18,,-0.00391,-0.000818,-0.004082
12532,20110518,6726,EWAC,RYDEX E T F TRUST,,41.12,41.71,41.71,1100,0.010661,41.21,41.82,150,41.27,,0.010661,0.01059,0.010852
12532,20110519,6726,EWAC,RYDEX E T F TRUST,,41.6,41.67,41.67,300,-0.000959,41.18,41.78,150,41.6,,-0.000959,0.002278,0.000801
12532,20110520,6726,EWAC,RYDEX E T F TRUST,,41.46,41.53,41.53,700,-0.00336,40.88,41.38,150,41.46,,-0.00336,-0.006833,-0.004492
12532,20110523,6726,EWAC,RYDEX E T F TRUST,,40.8,41.32,40.89,11400,-0.015411,40.09,40.87,150,41.32,,-0.015411,-0.013016,-0.013197
12532,20110524,6726,EWAC,RYDEX E T F TRUST,,40.56,40.7,-40.63,0,-0.006358,40.56,40.7,150,,,-0.006358,-0.000402,-0.001059
12532,20110525,6726,EWAC,RYDEX E T F TRUST,,40.61,41.46,41.1,4700,0.011568,40.7,41.1,150,41.46,,0.011568,0.005021,0.005777
12532,20110526,6726,EWAC,RYDEX E T F TRUST,,40.9799,40.9799,40.9799,1000,-0.002922,40.64,41.22,150,40.9799,,-0.002922,0.005146,0.007715
12532,20110527,6726,EWAC,RYDEX E T F TRUST,,40.83,41.49,41.49,5700,0.012448,41,41.52,150,40.83,,0.012448,0.004895,0.006001
12532,20110531,6726,EWAC,RYDEX E T F TRUST,,41.85,42.02,42.02,1300,0.012774,41.85,42.16,150,41.99,,0.012774,0.010268,0.009344
12532,20110601,6726,EWAC,RYDEX E T F TRUST,,41.82,42.86,41.8675,900,-0.003629,41.29,41.35,150,42.86,,-0.003629,-0.023195,-0.019748
12532,20110602,6726,EWAC,RYDEX E T F TRUST,,40.75,41.65,40.75,2200,-0.026691,40.99,41.6,150,41.65,,-0.026691,-0.000674,-0.0001
12532,20110603,6726,EWAC,RYDEX E T F TRUST,,41.4,41.7199,41.4,2600,0.015951,40.76,41.58,150,41.6699,,0.015951,-0.009321,-0.009517
12532,20110606,6726,EWAC,RYDEX E T F TRUST,,40.92,41.26,41.13,1000,-0.006522,40.41,41.06,150,40.92,,-0.006522,-0.01248,-0.01336
12532,20110607,6726,EWAC,RYDEX E T F TRUST,,40.87,41.35,40.87,1400,-0.006321,40.82,41.33,150,41.35,,-0.006321,0.000244,0.001398
12532,20110608,6726,EWAC,RYDEX E T F TRUST,,40.24,40.8,40.72,900,-0.00367,40.24,40.74,150,40.24,,-0.00367,-0.00614,-0.010785
12532,20110609,6726,EWAC,RYDEX E T F TRUST,,40.65,40.9715,40.65,2500,-0.001719,40.65,41.21,150,40.9,,-0.001719,0.007438,0.00544
12532,20110610,6726,EWAC,RYDEX E T F TRUST,,40,41.46,40,2400,-0.01599,40,40.63,150,41.46,,-0.01599,-0.014092,-0.011787
12532,20110613,6726,EWAC,RYDEX E T F TRUST,,40,40.18,40.18,1700,0.0045,40.08,40.36,150,40,,0.0045,-0.001256,-0.006066
12532,20110614,6726,EWAC,RYDEX E T F TRUST,,40.79,41.06,40.79,200,0.015182,40.17,40.79,150,41.06,,0.015182,0.013809,0.014324
12532,20110615,6726,EWAC,RYDEX E T F TRUST,,39.2047,40,39.78,1100,-0.024761,39.26,39.85,150,40,,-0.024761,-0.01735,-0.014182
12532,20110616,6726,EWAC,RYDEX E T F TRUST,,39.26,39.65,39.65,500,-0.003268,39.01,39.64,150,39.54,,-0.003268,-0.000231,-0.000882
12532,20110617,6726,EWAC,RYDEX E T F TRUST,,39.15,39.92,-39.535,0,-0.001649,39.15,39.92,150,,,-0.0029,0.002107,0.001134
12532,20110620,6726,EWAC,RYDEX E T F TRUST,,38.66,39.42,-39.04,0,-0.012521,38.66,39.42,150,,,-0.012521,0.005327,0.002448
12532,20110621,6726,EWAC,RYDEX E T F TRUST,,40.6099,40.77,40.77,400,0.044314,39.81,40.63,150,40.6099,,0.044314,0.01578,0.015986
12532,20110622,6726,EWAC,RYDEX E T F TRUST,,40.484,44.49,40.6,4500,-0.00417,39.69,40.53,150,44.49,,-0.00417,-0.005628,-0.003323
12532,20110623,6726,EWAC,RYDEX E T F TRUST,,39.23,43.046,43.046,1800,0.060246,39.3,40.52,150,40.07,,0.060246,-0.002604,-0.000903
12532,20110624,6726,EWAC,RYDEX E T F TRUST,,39.22,39.4,39.4,600,-0.0847,39.27,39.91,150,39.22,,-0.0847,-0.010604,-0.002482
12532,20110627,6726,EWAC,RYDEX E T F TRUST,,40.2,40.26,40.2,300,0.020305,39.57,40.2,150,40.26,,0.020305,0.008064,0.00543
12532,20110628,6726,EWAC,RYDEX E T F TRUST,,40.5,40.79,40.55,700,0.008706,39.96,40.61,150,40.5,,0.008706,0.013434,0.010381
12532,20110629,6726,EWAC,RYDEX E T F TRUST,,40.85,41.02,41.01,4300,0.011344,40.75,41.09,150,40.89,,0.011344,0.008625,0.004894
12532,20110630,6726,EWAC,RYDEX E T F TRUST,,40.93,41.23,41.21,1100,0.004877,40.94,41.55,150,40.93,,0.004877,0.009669,0.008367
12532,20110701,6726,EWAC,RYDEX E T F TRUST,,41.39,41.79,41.426,1700,0.005241,41.41,42.01,150,41.67,,0.005241,0.013321,0.009964
12532,20110705,6726,EWAC,RYDEX E T F TRUST,,41.99,42.22,41.99,2500,0.013615,41.06,42.06,150,42.06,,0.013615,-0.000055,0.000779
12532,20110706,6726,EWAC,RYDEX E T F TRUST,,41.85,42.16,42.128,900,0.003286,41.24,42.56,150,41.85,,0.003286,0.000902,0.002824
12532,20110707,6726,EWAC,RYDEX E T F TRUST,,42.39,42.68,42.68,1500,0.013103,42.22,42.59,150,42.39,,0.013103,0.010562,0.011633
12532,20110708,6726,EWAC,RYDEX E T F TRUST,,42.2,43.06,42.2,400,-0.011246,41.33,41.96,150,43.06,,-0.011246,-0.006331,-0.004814
12532,20110711,6726,EWAC,RYDEX E T F TRUST,,40.5,42,40.89,2000,-0.031043,40.75,41,150,42,,-0.031043,-0.019355,-0.016329
12532,20110712,6726,EWAC,RYDEX E T F TRUST,,40.83,41.64,41.09,1400,0.004891,40.13,40.95,150,41.64,,0.004891,-0.003815,-0.002258
12532,20110713,6726,EWAC,RYDEX E T F TRUST,,41.34,41.47,41.34,600,0.006084,40.44,41.27,150,41.47,,0.006084,0.004893,0.007214
12532,20110714,6726,EWAC,RYDEX E T F TRUST,,40.32,41.35,40.32,2400,-0.024673,40.12,40.89,150,41.35,,-0.024673,-0.008057,-0.009562
12532,20110715,6726,EWAC,RYDEX E T F TRUST,,40.98,40.98,40.98,200,0.016369,40.26,41.12,150,40.98,,0.016369,0.006171,0.004208
12532,20110718,6726,EWAC,RYDEX E T F TRUST,,39.83,40.59,-40.21,0,-0.01879,39.83,40.59,150,,,-0.01879,-0.009499,-0.011087
12532,20110719,6726,EWAC,RYDEX E T F TRUST,,40.235,40.95,40.41,1400,0.004974,40.41,41.11,150,40.235,,0.004974,0.016152,0.013498
12532,20110720,6726,EWAC,RYDEX E T F TRUST,,40.6,41.29,-40.945,0,0.013239,40.6,41.29,150,,,0.013239,-0.000043,0.000894
12532,20110721,6726,EWAC,RYDEX E T F TRUST,,40.772,41.81,41.11,800,0.00403,41.15,41.35,150,40.772,,0.00403,0.012197,0.008868
12532,20110722,6726,EWAC,RYDEX E T F TRUST,,41.23,42.03,41.2301,1700,0.002921,41.3,42.08,150,41.33,,0.002921,0.001382,0.001569
12532,20110725,6726,EWAC,RYDEX E T F TRUST,,41.73,41.73,41.73,100,0.012125,40.99,41.77,150,41.73,,0.012125,-0.00628,-0.007896
12532,20110726,6726,EWAC,RYDEX E T F TRUST,,41.8692,41.94,41.8692,300,0.003336,41.03,41.87,150,41.94,,0.003336,-0.004541,-0.004074
12532,20110727,6726,EWAC,RYDEX E T F TRUST,,40.5301,41.14,41.14,400,-0.017416,40.3,41.2,150,40.5301,,-0.017416,-0.021724,-0.021165
12532,20110728,6726,EWAC,RYDEX E T F TRUST,,40.14,41.07,-40.605,0,-0.013004,40.14,41.07,150,,,-0.013004,-0.003041,-0.001498
12532,20110729,6726,EWAC,RYDEX E T F TRUST,,40.2501,40.2701,40.2501,900,-0.00874,40.15,41.05,150,40.27,,-0.00874,-0.005649,-0.003083
12532,20110801,6726,EWAC,RYDEX E T F TRUST,,39.89,41.02,40.74,1400,0.012171,40.01,41,150,41.02,,0.012171,-0.00364,-0.000943
12532,20110802,6726,EWAC,RYDEX E T F TRUST,,39.75,41.85,40.35,3100,-0.009573,39.2,40.06,150,41.85,,-0.009573,-0.025654,-0.021105
12532,20110803,6726,EWAC,RYDEX E T F TRUST,,38.52,39.86,39.56,2900,-0.019579,38.86,39.59,150,39.86,,-0.019579,0.004643,0.002141
12532,20110804,6726,EWAC,RYDEX E T F TRUST,,36.91,38,36.91,16600,-0.066987,36.57,37.49,150,37.52,,-0.066987,-0.050395,-0.047471
12532,20110805,6726,EWAC,RYDEX E T F TRUST,,36.11,38.75,38.75,1500,0.049851,35.67,38.75,150,36.4,,0.049851,-0.004807,-0.01258
12532,20110808,6726,EWAC,RYDEX E T F TRUST,,32.58,36.66,33,16900,-0.148387,32.51,33,150,36.66,,-0.148387,-0.068767,-0.072433
12532,20110809,6726,EWAC,RYDEX E T F TRUST,,35.06,36.33,36.33,2700,0.100909,36,36.5,150,35.74,,0.100909,0.051179,0.047104
12532,20110810,6726,EWAC,RYDEX E T F TRUST,,34.65,35.26,35.26,300,-0.029452,34.04,35.2,150,34.65,,-0.029452,-0.038886,-0.029925
12532,20110811,6726,EWAC,RYDEX E T F TRUST,,34.64,35.52,35.49,4700,0.006523,35.71,36.29,150,34.648,,0.006523,0.045039,0.037071
12532,20110812,6726,EWAC,RYDEX E T F TRUST,,35.97,36.2,36.2,1600,0.020006,35.91,36.82,150,36.12,,0.020006,0.004744,0.004153
12532,20110815,6726,EWAC,RYDEX E T F TRUST,,36.53,37.55,37.55,500,0.037293,36.77,37.57,150,36.53,,0.037293,0.02273,0.022971
12532,20110816,6726,EWAC,RYDEX E T F TRUST,,36.07,36.07,36.07,100,-0.039414,36.31,37.15,150,36.07,,-0.039414,-0.011038,-0.012961
12532,20110817,6726,EWAC,RYDEX E T F TRUST,,37.2199,37.25,37.25,1700,0.032714,36.45,37.25,150,37.22,,0.032714,0.000641,0.000567
12532,20110818,6726,EWAC,RYDEX E T F TRUST,,34.89,35.9,35.9,1100,-0.036242,34.82,35.92,150,35.84,,-0.036242,-0.045349,-0.041372
12532,20110819,6726,EWAC,RYDEX E T F TRUST,,35.43,35.43,35.43,100,-0.013092,34.37,35.29,150,35.43,,-0.013092,-0.015399,-0.012245
12532,20110822,6726,EWAC,RYDEX E T F TRUST,,35.31,35.31,35.31,100,-0.003387,34.38,35.35,150,35.31,,-0.003387,-0.000001,-0.002681
12532,20110823,6726,EWAC,RYDEX E T F TRUST,,35.31,36.21,36.19,900,0.024922,35.41,36.18,150,35.31,,0.024922,0.033725,0.028999
12532,20110824,6726,EWAC,RYDEX E T F TRUST,,35.26,35.26,35.26,100,-0.025698,35.45,36.24,150,35.26,,-0.025698,0.011433,0.007909
12532,20110825,6726,EWAC,RYDEX E T F TRUST,,34.75,35.918,35.7,1400,0.012479,34.81,35.7,150,35.04,,0.012479,-0.015922,-0.015405
12532,20110826,6726,EWAC,RYDEX E T F TRUST,,35.37,35.95,35.95,200,0.007003,35.37,36.25,150,35.37,,0.007003,0.01634,0.015529
12532,20110829,6726,EWAC,RYDEX E T F TRUST,,36.22,36.79,36.29,600,0.009458,36.31,37.26,150,36.76,,0.009458,0.029507,0.031448
12532,20110830,6726,EWAC,RYDEX E T F TRUST,,36.18,36.38,36.38,500,0.00248,36.4,37.21,150,36.18,,0.00248,0.00357,0.004626
12532,20110831,6726,EWAC,RYDEX E T F TRUST,,37.06,37.06,37.06,100,0.018692,36.97,37.57,150,37.06,,0.018692,0.004997,0.002966
12532,20110901,6726,EWAC,RYDEX E T F TRUST,,36.63,37.4,-37.015,0,-0.001214,36.63,37.4,150,,,-0.001214,-0.012218,-0.013873
12532,20110902,6726,EWAC,RYDEX E T F TRUST,,36.74,36.74,36.74,100,-0.007429,35.78,36.74,150,36.74,,-0.007429,-0.024662,-0.022485
12532,20110906,6726,EWAC,RYDEX E T F TRUST,,34.5,35.95,35.95,600,-0.021502,35.07,36,150,34.5,,-0.021502,-0.00817,-0.009007
12532,20110907,6726,EWAC,RYDEX E T F TRUST,,35.71,35.94,35.94,300,-0.000278,35.97,37,150,35.72,,-0.000278,0.028946,0.027053
12532,20110908,6726,EWAC,RYDEX E T F TRUST,,36.39,36.39,36.39,100,0.012521,35.55,36.39,150,36.39,,0.012521,-0.010911,-0.012366
12532,20110909,6726,EWAC,RYDEX E T F TRUST,,34.45,35.33,35.33,200,-0.029129,34.34,35.29,150,34.45,,-0.029129,-0.02659,-0.021064
12532,20110912,6726,EWAC,RYDEX E T F TRUST,,34.2298,35.09,35.09,1400,-0.006793,34.25,35.09,150,34.92,,-0.006793,0.004088,-0.000512
12532,20110913,6726,EWAC,RYDEX E T F TRUST,,34.44,35.11,-34.775,0,-0.008977,34.44,35.11,150,,,-0.008977,0.010437,0.011502
12532,20110914,6726,EWAC,RYDEX E T F TRUST,,34.83,35.4,-35.115,0,0.009777,34.83,35.4,150,,,0.009777,0.012749,0.011627
12532,20110915,6726,EWAC,RYDEX E T F TRUST,,35.11,35.33,35.25,2700,0.003844,35.27,36,150,35.11,,0.003844,0.015329,0.008742
12532,20110916,6726,EWAC,RYDEX E T F TRUST,,34.68,35.57,-35.125,0,0.010336,34.68,35.57,150,,,-0.003546,0.003486,0.001369
12532,20110919,6726,EWAC,RYDEX E T F TRUST,,33.8,35.25,34.81,500,-0.008968,34.13,34.81,150,35.25,,-0.008968,-0.010944,-0.014332
12532,20110920,6726,EWAC,RYDEX E T F TRUST,,34.346,35,35,500,0.005458,34.29,35,150,35,,0.005458,-0.004135,-0.009129
12532,20110921,6726,EWAC,RYDEX E T F TRUST,,34.08,34.08,34.08,100,-0.026286,33.8,34.02,150,34.08,,-0.026286,-0.029484,-0.024804
12532,20110922,6726,EWAC,RYDEX E T F TRUST,,31.54,32.53,32.53,1000,-0.045481,31.32,32.61,150,31.54,,-0.045481,-0.034404,-0.03289
12532,20110923,6726,EWAC,RYDEX E T F TRUST,,31.51,32.5,32.2,4400,-0.010144,31.76,32.19,150,31.54,,-0.010144,0.005628,0.007186
12532,20110926,6726,EWAC,RYDEX E T F TRUST,,32.01,33.14,33.14,600,0.029193,32.21,33.11,150,32.01,,0.029193,0.021538,0.009785
12532,20110927,6726,EWAC,RYDEX E T F TRUST,,33.42,33.51,33.51,300,0.011165,33.13,33.88,150,33.42,,0.011165,0.012834,0.015723
12532,20110928,6726,EWAC,RYDEX E T F TRUST,,33.02,33.16,33.16,1100,-0.010445,32.24,33.17,150,33.07,,-0.010445,-0.023992,-0.025641
12532,20110929,6726,EWAC,RYDEX E T F TRUST,,33.54,33.54,33.54,100,0.01146,32.61,33.35,150,33.54,,0.01146,0.008163,0.006593
12532,20110930,6726,EWAC,RYDEX E T F TRUST,,32.072,32.072,32.072,100,-0.043769,31.5,32.48,150,32.072,,-0.043769,-0.024662,-0.01885
12532,20111003,6726,EWAC,RYDEX E T F TRUST,,30.62,31.52,31.52,1000,-0.017211,30.65,31.28,150,30.62,,-0.017211,-0.032029,-0.041389
12532,20111004,6726,EWAC,RYDEX E T F TRUST,,31.89,31.89,31.89,100,0.011739,30.9,31.91,150,31.89,,0.011739,0.023523,0.027271
12532,20111005,6726,EWAC,RYDEX E T F TRUST,,31.4,31.4,31.4,100,-0.015365,31.7,32.9,150,31.4,,-0.015365,0.019306,0.017052
12532,20111006,6726,EWAC,RYDEX E T F TRUST,,31.89,32.92,32.28,5400,0.028025,32.33,33.34,150,32.42,,0.028025,0.02048,0.020302
12532,20111007,6726,EWAC,RYDEX E T F TRUST,,32.14,32.426,32.14,1400,-0.004337,32.07,34.2,150,32.41,,-0.004337,-0.010945,-0.013558
12532,20111010,6726,EWAC,RYDEX E T F TRUST,,32.89,34.33,-33.61,0,0.045737,32.89,34.33,150,,,0.045737,0.034255,0.029485
12532,20111011,6726,EWAC,RYDEX E T F TRUST,,32.4,33.2,33.2,1300,-0.012199,32.98,34,150,32.4,,-0.012199,0.001038,0.005045
12532,20111012,6726,EWAC,RYDEX E T F TRUST,,33.89,34.04,34.04,600,0.025301,33.3,34.81,150,33.89,,0.025301,0.011647,0.015032
12532,20111013,6726,EWAC,RYDEX E T F TRUST,,32.64,34.41,-33.525,0,-0.015129,32.64,34.41,150,,,-0.015129,-0.003016,-0.000785
12532,20111014,6726,EWAC,RYDEX E T F TRUST,,34.75,34.75,34.75,500,0.03654,33.07,37.05,150,34.75,,0.03654,0.017724,0.014636
12532,20111017,6726,EWAC,RYDEX E T F TRUST,,34.73,34.73,34.73,200,-0.000576,33.52,34.72,150,34.73,,-0.000576,-0.020866,-0.02031
12532,20111018,6726,EWAC,RYDEX E T F TRUST,,34.3,35.12,-34.71,0,-0.000576,34.3,35.12,150,,,-0.000576,0.020777,0.018455
12532,20111019,6726,EWAC,RYDEX E T F TRUST,,33.977,34.23,33.977,900,-0.021118,33.82,34.64,150,34.01,,-0.021118,-0.014271,-0.012823
12532,20111020,6726,EWAC,RYDEX E T F TRUST,,33.44,34.43,-33.935,0,-0.001236,33.44,34.43,150,,,-0.001236,0.003855,0.000346
12532,20111021,6726,EWAC,RYDEX E T F TRUST,,34.3,35.31,-34.805,0,0.025637,34.3,35.31,150,,,0.025637,0.019233,0.016308
12532,20111024,6726,EWAC,RYDEX E T F TRUST,,34.68,36.48,-35.58,0,0.022267,34.68,36.48,150,,,0.022267,0.016704,0.021862
12532,20111025,6726,EWAC,RYDEX E T F TRUST,,34.46,35.48,-34.97,0,-0.017144,34.46,35.48,150,,,-0.017144,-0.019819,-0.017923
12532,20111026,6726,EWAC,RYDEX E T F TRUST,,34.46,36.45,-35.455,0,0.013869,34.46,36.45,150,,,0.013869,0.011488,0.013112
12532,20111027,6726,EWAC,RYDEX E T F TRUST,,36.4201,37.7,37.7,1200,0.06332,36.74,38.07,150,36.4201,,0.06332,0.036079,0.036164
12532,20111028,6726,EWAC,RYDEX E T F TRUST,,36.69,36.69,36.69,200,-0.026791,36.13,38.17,150,36.69,,-0.026791,0.00019,0.00033
12532,20111031,6726,EWAC,RYDEX E T F TRUST,,35.63,35.98,35.98,400,-0.019351,35.28,36.21,100,35.63,,-0.019351,-0.02465,-0.019074
12532,20111101,6726,EWAC,RYDEX E T F TRUST,,34.39,34.49,34.39,300,-0.044191,34.16,34.51,100,34.49,,-0.044191,-0.028634,-0.025608
12532,20111102,6726,EWAC,RYDEX E T F TRUST,,34.41,36.2,-35.305,0,0.026607,34.41,36.2,100,,,0.026607,0.016945,0.017805
12532,20111103,6726,EWAC,RYDEX E T F TRUST,,35,36.86,-35.93,0,0.017703,35,36.86,100,,,0.017703,0.019006,0.01579
12532,20111104,6726,EWAC,RYDEX E T F TRUST,,35.83,35.83,35.83,100,-0.002783,34.69,36.67,100,35.83,,-0.002783,-0.005583,-0.00431
12532,20111107,6726,EWAC,RYDEX E T F TRUST,,35.26,35.26,35.26,100,-0.015909,35.54,36.19,100,35.26,,-0.015909,0.004856,0.000102
12532,20111108,6726,EWAC,RYDEX E T F TRUST,,36.01,36.79,-36.4,0,0.032331,36.01,36.79,100,,,0.032331,0.01077,0.010293
12532,20111109,6726,EWAC,RYDEX E T F TRUST,,34.24,34.67,34.24,600,-0.059341,34.3,35.48,100,34.6,,-0.059341,-0.037935,-0.033721
12532,20111110,6726,EWAC,RYDEX E T F TRUST,,34.636,35.07,35.07,200,0.024241,34.54,35.7,100,34.636,,0.024241,0.007259,0.004295
12532,20111111,6726,EWAC,RYDEX E T F TRUST,,34.9,35.33,35.23,1600,0.004562,34.6,35.68,100,35.29,,0.004562,0.019767,0.016413
12532,20111114,6726,EWAC,RYDEX E T F TRUST,,35.26,35.26,35.26,300,0.000852,33.93,36.15,100,35.26,,0.000852,-0.009495,-0.011298
12532,20111115,6726,EWAC,RYDEX E T F TRUST,,34.16,35.45,34.67,600,-0.016733,34.03,36.3,100,34.42,,-0.016733,0.004354,0.005009
12532,20111116,6726,EWAC,RYDEX E T F TRUST,,34.246,34.476,34.476,700,-0.005596,33.25,35.13,100,34.246,,-0.005596,-0.015294,-0.010514
12532,20111117,6726,EWAC,RYDEX E T F TRUST,,33.2001,34,33.21,400,-0.036721,32.69,34.8,100,34,,-0.036721,-0.017226,-0.013572
12532,20111118,6726,EWAC,RYDEX E T F TRUST,,33.43,34.67,-34.05,0,0.025294,33.43,34.67,100,,,0.025294,-0.00036,0.00091
12532,20111121,6726,EWAC,RYDEX E T F TRUST,,32.48,32.48,32.48,200,-0.046109,32.22,32.84,100,32.48,,-0.046109,-0.018747,-0.019219
12532,20111122,6726,EWAC,RYDEX E T F TRUST,,33.01,33.01,33.01,1000,0.016318,32.1,33.12,100,33.01,,0.016318,-0.004178,-0.004975
12532,20111123,6726,EWAC,RYDEX E T F TRUST,,32,32,32,100,-0.030597,30.76,32.66,100,32,,-0.030597,-0.023265,-0.022619
12532,20111125,6726,EWAC,RYDEX E T F TRUST,,31.05,32.19,-31.62,0,-0.011875,31.05,32.19,100,,,-0.011875,-0.003742,-0.004938
12532,20111128,6726,EWAC,RYDEX E T F TRUST,,32.93,32.93,32.93,100,0.041429,31.85,33.72,100,32.93,,0.041429,0.030371,0.027825
12532,20111129,6726,EWAC,RYDEX E T F TRUST,,32.47,33.81,-33.14,0,0.006377,32.47,33.81,100,,,0.006377,0.001993,-0.002277
12532,20111130,6726,EWAC,RYDEX E T F TRUST,,33.96,34.63,34.0901,800,0.028669,33.62,35.49,100,34.01,,0.028669,0.043756,0.038087
12532,20111201,6726,EWAC,RYDEX E T F TRUST,,32.41,36.65,-34.53,0,0.012904,32.41,36.65,100,,,0.012904,-0.002335,-0.003719
12532,20111202,6726,EWAC,RYDEX E T F TRUST,,33.44,36.33,-34.885,0,0.010281,33.44,36.33,100,,,0.010281,0.000065,0.004847
12532,20111205,6726,EWAC,RYDEX E T F TRUST,,34.99,35,35,9900,0.003297,34.09,35.25,100,34.99,,0.003297,0.010254,0.009643
12532,20111206,6726,EWAC,RYDEX E T F TRUST,,34.03,35.36,-34.695,0,-0.008714,34.03,35.36,100,,,-0.008714,0.000367,-0.000547
12532,20111207,6726,EWAC,RYDEX E T F TRUST,,34.5,34.5,34.5,100,-0.00562,34.11,34.75,100,34.5,,-0.00562,0.001647,0.00065
12532,20111208,6726,EWAC,RYDEX E T F TRUST,,33.1901,33.1901,33.1901,200,-0.037968,33.19,33.89,100,33.1901,,-0.037968,-0.022946,-0.02281
12532,20111209,6726,EWAC,RYDEX E T F TRUST,,33.74,34.5,-34.12,0,0.028017,33.74,34.5,100,,,0.028017,0.01772,0.018867
12532,20111212,6726,EWAC,RYDEX E T F TRUST,,32.59,34.09,-33.34,0,-0.02286,32.59,34.09,100,,,-0.02286,-0.015582,-0.013633
12532,20111213,6726,EWAC,RYDEX E T F TRUST,,31.55,33.63,-32.59,0,-0.022496,31.55,33.63,100,,,-0.022496,-0.011498,-0.012977
12532,20111214,6726,EWAC,RYDEX E T F TRUST,,31.16,33.21,-32.185,0,-0.012427,31.16,33.21,100,,,-0.012427,-0.012833,-0.009275
12532,20111215,6726,EWAC,RYDEX E T F TRUST,,31.88,33.32,-32.6,0,0.012894,31.88,33.32,100,,,0.012894,0.003637,0.002408
12532,20111216,6726,EWAC,RYDEX E T F TRUST,,32.3299,32.3299,32.3299,100,0.007995,31.41,32.36,100,32.3299,,-0.008285,0.004859,0.003314
12532,20111219,6726,EWAC,RYDEX E T F TRUST,,31.95,31.95,31.95,200,-0.011751,30.9,32,100,31.95,,-0.011751,-0.012671,-0.014777
12532,20111220,6726,EWAC,RYDEX E T F TRUST,,32,32.07,32.07,300,0.003756,31.92,32.25,100,32,,0.003756,0.029812,0.026714
12532,20111221,6726,EWAC,RYDEX E T F TRUST,,31.84,31.84,31.84,200,-0.007172,31.79,32.25,100,31.84,,-0.007172,0.001868,0.001089
12532,20111222,6726,EWAC,RYDEX E T F TRUST,,32.25,32.4999,32.315,600,0.014918,32.31,32.5,100,32.25,,0.014918,0.008685,0.008057
12532,20111223,6726,EWAC,RYDEX E T F TRUST,,32.49,33.71,-33.1,0,0.024292,32.49,33.71,100,,,0.024292,0.007787,0.003873
12532,20111227,6726,EWAC,RYDEX E T F TRUST,,33.424,33.424,33.424,700,0.009789,32.8,33.81,100,33.424,,0.009789,-0.000047,-0.001196
12532,20111228,6726,EWAC,RYDEX E T F TRUST,,31.82,32.93,32.81,1700,-0.01837,31.8,32.87,100,32.93,,-0.01837,-0.013924,-0.014109
12532,20111229,6726,EWAC,RYDEX E T F TRUST,,32.2,33.35,-32.775,0,-0.001067,32.2,33.35,100,,,-0.001067,0.010708,0.008676
12532,20111230,6726,EWAC,RYDEX E T F TRUST,,31.86,32.23,31.86,700,-0.027918,32.9,33.28,100,32.23,,-0.027918,-0.002615,0.002135
12532,20120103,6726,EWAC,RYDEX E T F TRUST,,33.2501,34.02,34.02,300,0.067797,33.07,34.2,100,33.2501,,0.067797,0.016088,0.016986
12532,20120104,6726,EWAC,RYDEX E T F TRUST,,32.86,33.97,-33.415,0,-0.017784,32.86,33.97,100,,,-0.017784,-0.000589,-0.001452
12532,20120105,6726,EWAC,RYDEX E T F TRUST,,32.66,33.85,-33.255,0,-0.004788,32.66,33.85,100,,,-0.004788,0.002924,0.004036
12532,20120106,6726,EWAC,RYDEX E T F TRUST,,33.2,33.47,-33.335,0,0.002406,33.2,33.47,100,,,0.002406,-0.003156,-0.000628
12532,20120109,6726,EWAC,RYDEX E T F TRUST,,32.5,33.16,33,400,-0.010049,32.9,33.53,100,32.5,,-0.010049,0.002795,0.004414
12532,20120110,6726,EWAC,RYDEX E T F TRUST,,33.16,34.3,-33.73,0,0.022121,33.16,34.3,100,,,0.022121,0.010411,0.011106
12532,20120111,6726,EWAC,RYDEX E T F TRUST,,33.395,33.395,33.395,200,-0.009932,33.29,34.2,100,33.395,,-0.009932,0.00085,0.004343
12532,20120112,6726,EWAC,RYDEX E T F TRUST,,33.54,34.34,-33.94,0,0.01632,33.54,34.34,100,,,0.01632,0.003016,0.005018
12532,20120113,6726,EWAC,RYDEX E T F TRUST,,33.18,34.24,-33.71,0,-0.006777,33.18,34.24,100,,,-0.006777,-0.005316,-0.005025
12532,20120117,6726,EWAC,RYDEX E T F TRUST,,33.701,33.701,33.701,100,-0.000267,33.61,34.71,100,33.701,,-0.000267,0.003896,0.003736
12532,20120118,6726,EWAC,RYDEX E T F TRUST,,33.83,33.83,33.83,200,0.003828,34.21,35.26,100,33.83,,0.003828,0.012182,0.013639
12532,20120119,6726,EWAC,RYDEX E T F TRUST,,35.35,35.42,35.35,1300,0.04493,34.57,35.76,100,35.42,,0.04493,0.005555,0.005428
12532,20120120,6726,EWAC,RYDEX E T F TRUST,,34.75,35.83,-35.29,0,-0.001697,34.75,35.83,100,,,-0.001697,0.000859,0.003648
12532,20120123,6726,EWAC,RYDEX E T F TRUST,,34.61,36,-35.305,0,0.000425,34.61,36,100,,,0.000425,0.001594,0.001815
12532,20120124,6726,EWAC,RYDEX E T F TRUST,,34.78,35.86,-35.32,0,0.000425,34.78,35.86,100,,,0.000425,-0.000865,0.003335
12532,20120125,6726,EWAC,RYDEX E T F TRUST,,35.18,36,-35.59,0,0.007644,35.18,36,100,,,0.007644,0.009939,0.009521
12532,20120126,6726,EWAC,RYDEX E T F TRUST,,35.15,35.33,35.15,700,-0.012363,35.12,36,100,35.33,,-0.012363,-0.004942,-0.001108
12532,20120127,6726,EWAC,RYDEX E T F TRUST,,34.39,36,-35.195,0,0.00128,34.39,36,100,,,0.00128,0.000576,0.006083
12532,20120130,6726,EWAC,RYDEX E T F TRUST,,35.5,35.91,35.84,3400,0.018326,34.87,35.97,100,35.91,,0.018326,-0.003788,-0.004873
12532,20120131,6726,EWAC,RYDEX E T F TRUST,,34.8,35.64,35.18,4700,-0.018415,35.05,36.05,100,35.64,,-0.018415,-0.000083,0.00176
12532,20120201,6726,EWAC,RYDEX E T F TRUST,,35.56,36.69,-36.125,0,0.026862,35.56,36.69,100,,,0.026862,0.010979,0.013626
12532,20120202,6726,EWAC,RYDEX E T F TRUST,,35.81,35.876,35.876,700,-0.006893,35.79,36.82,100,35.81,,-0.006893,0.001769,0.004356
12532,20120203,6726,EWAC,RYDEX E T F TRUST,,36.5,37.1138,37.1138,2100,0.034502,37.03,37.35,100,36.5,,0.034502,0.014518,0.014863
12532,20120206,6726,EWAC,RYDEX E T F TRUST,,35.64,36.52,36.52,6700,-0.015999,36.57,37.15,100,35.64,,-0.015999,-0.001007,-0.000468
12532,20120207,6726,EWAC,RYDEX E T F TRUST,,36.7,37.18,-36.94,0,0.0115,36.7,37.18,100,,,0.0115,0.001371,0.001456
12532,20120208,6726,EWAC,RYDEX E T F TRUST,,36.97,37.44,-37.205,0,0.007174,36.97,37.44,100,,,0.007174,0.001945,0.003403
12532,20120209,6726,EWAC,RYDEX E T F TRUST,,37.06,37.53,-37.295,0,0.002419,37.06,37.53,100,,,0.002419,0.000975,0.000305
12532,20120210,6726,EWAC,RYDEX E T F TRUST,,36.35,36.86,-36.605,0,-0.018501,36.35,36.86,100,,,-0.018501,-0.008403,-0.009804
12532,20120213,6726,EWAC,RYDEX E T F TRUST,,36.88,37.2,-37.04,0,0.011884,36.88,37.2,100,,,0.011884,0.007227,0.00919
12532,20120214,6726,EWAC,RYDEX E T F TRUST,,36.54,36.97,-36.755,0,-0.007694,36.54,36.97,100,,,-0.007694,-0.001719,-0.004104
12532,20120215,6726,EWAC,RYDEX E T F TRUST,,36.18,37.46,-36.82,0,0.001768,36.18,37.46,100,,,0.001768,-0.004492,-0.003297
12532,20120216,6726,EWAC,RYDEX E T F TRUST,,37.01,37.41,-37.21,0,0.010592,37.01,37.41,100,,,0.010592,0.012339,0.011434
12532,20120217,6726,EWAC,RYDEX E T F TRUST,,37.09,37.55,-37.32,0,0.002956,37.09,37.55,100,,,0.002956,0.001314,0.002643
12532,20120221,6726,EWAC,RYDEX E T F TRUST,,37.1,37.5,-37.3,0,-0.000536,37.1,37.5,100,,,-0.000536,0.000131,-0.00227
12532,20120222,6726,EWAC,RYDEX E T F TRUST,,37.11,37.48,-37.295,0,-0.000134,37.11,37.48,100,,,-0.000134,-0.003181,-0.004243
12532,20120223,6726,EWAC,RYDEX E T F TRUST,,37.25,37.48,-37.365,0,0.001877,37.25,37.48,100,,,0.001877,0.005573,0.008018
12532,20120224,6726,EWAC,RYDEX E T F TRUST,,37.47,37.75,-37.61,0,0.006557,37.47,37.75,100,,,0.006557,0.001408,0.000398
12532,20120227,6726,EWAC,RYDEX E T F TRUST,,37.22,37.56,-37.39,0,-0.00585,37.22,37.56,100,,,-0.00585,0.000735,-0.000826
12532,20120228,6726,EWAC,RYDEX E T F TRUST,,37.21,37.41,37.34,400,-0.001337,37.38,38.1,100,37.41,,-0.001337,0.002771,0.000473
12532,20120229,6726,EWAC,RYDEX E T F TRUST,,37.48,37.55,37.55,2600,0.005624,37.22,37.82,100,37.55,,0.005624,-0.005792,-0.009222
12532,20120301,6726,EWAC,RYDEX E T F TRUST,,37.37,37.742,37.742,2300,0.005113,37.5,37.8,100,37.37,,0.005113,0.006707,0.004577
12532,20120302,6726,EWAC,RYDEX E T F TRUST,,37.33,37.8,-37.565,0,-0.00469,37.33,37.8,100,,,-0.00469,-0.004969,-0.008092
12532,20120305,6726,EWAC,RYDEX E T F TRUST,,36.98,37.64,-37.31,0,-0.006788,36.98,37.64,100,,,-0.006788,-0.004618,-0.003572
12532,20120306,6726,EWAC,RYDEX E T F TRUST,,35.9,36.52,-36.21,0,-0.029483,35.9,36.52,100,,,-0.029483,-0.017408,-0.017324
12532,20120307,6726,EWAC,RYDEX E T F TRUST,,36.3,37.01,-36.655,0,0.012289,36.3,37.01,100,,,0.012289,0.007703,0.009368
12532,20120308,6726,EWAC,RYDEX E T F TRUST,,37.66,37.66,37.66,200,0.027418,36.87,37.68,100,37.66,,0.027418,0.010707,0.01057
12532,20120309,6726,EWAC,RYDEX E T F TRUST,,36.83,37.68,-37.255,0,-0.010754,36.83,37.68,100,,,-0.010754,0.004494,0.007759
12532,20120312,6726,EWAC,RYDEX E T F TRUST,,36.73,37.46,-37.095,0,-0.004295,36.73,37.46,100,,,-0.004295,-0.001423,-0.001807
12532,20120313,6726,EWAC,RYDEX E T F TRUST,,37.46,38.07,-37.765,0,0.018062,37.46,38.07,100,,,0.018062,0.017258,0.014083
12532,20120314,6726,EWAC,RYDEX E T F TRUST,,37.14,37.76,-37.45,0,-0.008341,37.14,37.76,100,,,-0.008341,-0.003961,-0.00684
12532,20120315,6726,EWAC,RYDEX E T F TRUST,,37.41,38.05,-37.73,0,0.007477,37.41,38.05,100,,,0.007477,0.006468,0.004775
12532,20120316,6726,EWAC,RYDEX E T F TRUST,,37.49,37.87,37.49,2100,-0.006361,37.45,37.98,100,37.67,,-0.006361,0.001252,0.001174
12532,20120319,6726,EWAC,RYDEX E T F TRUST,,36.97,37.8101,36.97,11100,-0.01387,37.47,37.67,100,37.5099,,-0.01387,0.003981,0.004725
12532,20120320,6726,EWAC,RYDEX E T F TRUST,,36.97,37.34,37.1,7400,0.003516,37.05,37.78,100,36.97,,0.003516,-0.004522,-0.005376
12532,20120321,6726,EWAC,RYDEX E T F TRUST,,37.69,37.69,37.69,100,0.015903,36.94,37.72,100,37.69,,0.015903,-0.001166,0.000988
12532,20120322,6726,EWAC,RYDEX E T F TRUST,,36.67,37.21,36.7862,4000,-0.02398,36.48,37.21,100,36.67,,-0.02398,-0.008155,-0.008314
12532,20120323,6726,EWAC,RYDEX E T F TRUST,,36.77,36.77,36.77,500,-0.00044,36.78,37.58,100,36.77,,-0.00044,0.004456,0.007128
12532,20120326,6726,EWAC,RYDEX E T F TRUST,,,,,,,,,,,,,0.013895,0.01128
