PERMNO,date,SICCD,TICKER,COMNAM,NMSIND,BIDLO,ASKHI,PRC,VOL,RET,BID,ASK,SHROUT,OPENPRC,NUMTRD,RETX,vwretx,ewretx
11389,20080102,6020,FCTR,FIRST CHARTER CORP,6,29.21,29.87,29.85,229430,0.006196,29.82,29.83,35005,29.6,1203,-0.000335,-0.011965,-0.006655
11389,20080103,6020,FCTR,FIRST CHARTER CORP,6,29.48,29.9,29.51,171730,-0.01139,29.52,29.53,35005,29.9,988,-0.01139,-0.000957,-0.004569
11389,20080104,6020,FCTR,FIRST CHARTER CORP,6,28.75,29.49,28.84,348637,-0.022704,28.8,28.81,35005,29.3,1790,-0.022704,-0.025651,-0.022428
11389,20080107,6020,FCTR,FIRST CHARTER CORP,,27.87,29,28.5,353307,-0.011789,28.5,28.51,35005,28.97,1795,-0.011789,0.000177,-0.001906
11389,20080108,6020,FCTR,FIRST CHARTER CORP,,27.16,28.64,27.16,272487,-0.047018,27.16,27.2,35005,28.58,1138,-0.047018,-0.017246,-0.014073
11389,20080109,6020,FCTR,FIRST CHARTER CORP,6,27.02,28.09,28,358854,0.030928,27.99,28,35005,27.06,1434,0.030928,0.009933,-0.000568
11389,20080110,6020,FCTR,FIRST CHARTER CORP,6,27.31,28.05,27.84,185610,-0.005714,27.84,27.85,35005,27.73,1070,-0.005714,0.008375,0.009638
11389,20080111,6020,FCTR,FIRST CHARTER CORP,6,27.23,27.82,27.38,195541,-0.016523,27.38,27.43,35005,27.68,1315,-0.016523,-0.013966,-0.011448
11389,20080114,6020,FCTR,FIRST CHARTER CORP,6,27.33,27.99,27.57,86673,0.006939,27.57,27.6,35005,27.6,668,0.006939,0.010449,0.007768
11389,20080115,6020,FCTR,FIRST CHARTER CORP,6,22.69,25.96,24.29,832112,-0.11897,24.3,24.34,35005,25.8,3714,-0.11897,-0.024743,-0.018449
11389,20080116,6020,FCTR,FIRST CHARTER CORP,,23.8,25.05,24.73,364810,0.018114,24.76,24.8,35005,24.13,1914,0.018114,-0.006756,-0.000147
11389,20080117,6020,FCTR,FIRST CHARTER CORP,6,23.28,24.9799,23.37,307211,-0.054994,23.38,23.42,35005,24.91,2025,-0.054994,-0.027749,-0.021664
11389,20080118,6020,FCTR,FIRST CHARTER CORP,6,23.26,25.09,24.57,556978,0.051348,24.6,24.64,35005,23.26,2545,0.051348,-0.005592,-0.007332
11389,20080122,6020,FCTR,FIRST CHARTER CORP,6,23.6,26,25.81,360573,0.050468,25.8,25.83,35005,23.81,1889,0.050468,-0.009456,-0.010386
11389,20080123,6020,FCTR,FIRST CHARTER CORP,,25.25,26.99,26.94,235205,0.043782,26.96,26.99,35005,25.26,1525,0.043782,0.019772,0.018187
11389,20080124,6020,FCTR,FIRST CHARTER CORP,6,26.51,27.35,27.11,144135,0.00631,27.11,27.15,35005,26.93,1148,0.00631,0.012535,0.011062
11389,20080125,6020,FCTR,FIRST CHARTER CORP,6,27.15,27.69,27.5,170078,0.014386,27.46,27.5,35005,27.21,1156,0.014386,-0.013001,-0.001545
11389,20080128,6020,FCTR,FIRST CHARTER CORP,,27.01,27.81,27.55,176609,0.001818,27.54,27.58,35005,27.56,1087,0.001818,0.017161,0.013493
11389,20080129,6020,FCTR,FIRST CHARTER CORP,6,27,27.99,27.31,274121,-0.008711,27.21,27.23,35005,27.77,1168,-0.008711,0.006287,0.007579
11389,20080130,6020,FCTR,FIRST CHARTER CORP,,26.55,27.5,26.76,552078,-0.020139,26.76,26.8,35005,27.14,1942,-0.020139,-0.005471,-0.002636
11389,20080131,6020,FCTR,FIRST CHARTER CORP,,26.75,27.51,27.41,278142,0.02429,27.29,27.39,35005,26.75,1448,0.02429,0.014823,0.015102
11389,20080201,6020,FCTR,FIRST CHARTER CORP,,26.92,27.61,27.08,231015,-0.012039,27.04,27.07,35005,27.52,959,-0.012039,0.015966,0.015673
11389,20080204,6020,FCTR,FIRST CHARTER CORP,,26.98,27.54,27.34,194432,0.009601,27.26,27.35,35005,27.41,1068,0.009601,-0.009007,-0.003053
11389,20080205,6020,FCTR,FIRST CHARTER CORP,,26.73,27.39,27.06,204793,-0.010241,27,27.04,35005,26.73,924,-0.010241,-0.030929,-0.021632
11389,20080206,6020,FCTR,FIRST CHARTER CORP,,26.1,27.2,26.21,277318,-0.031412,26.14,26.18,35005,27.2,1000,-0.031412,-0.008268,-0.007339
11389,20080207,6020,FCTR,FIRST CHARTER CORP,,25.72,26.88,26.88,298205,0.025563,26.85,26.88,35005,26,1559,0.025563,0.007562,0.005105
11389,20080208,6020,FCTR,FIRST CHARTER CORP,,25.52,26.88,26.24,441446,-0.02381,26.15,26.19,35005,26.73,1719,-0.02381,-0.002103,-0.002793
11389,20080211,6020,FCTR,FIRST CHARTER CORP,6,26.15,26.69,26.21,101132,-0.001143,26.21,26.27,35005,26.26,559,-0.001143,0.005764,0.002776
11389,20080212,6020,FCTR,FIRST CHARTER CORP,6,26.25,26.8899,26.48,123782,0.010301,26.41,26.48,35005,26.29,592,0.010301,0.00623,0.004074
11389,20080213,6020,FCTR,FIRST CHARTER CORP,6,26.4,26.87,26.8,98653,0.012085,26.76,26.77,35005,26.79,479,0.012085,0.014027,0.01276
11389,20080214,6020,FCTR,FIRST CHARTER CORP,6,26.14,26.88,26.14,220845,-0.024627,26.14,26.19,35005,26.88,1538,-0.024627,-0.013234,-0.013663
11389,20080215,6020,FCTR,FIRST CHARTER CORP,6,26,26.6,26.23,172825,0.003443,26.22,26.26,35005,26,569,0.003443,-0.000498,-0.004099
11389,20080219,6020,FCTR,FIRST CHARTER CORP,6,25.43,26.6,25.57,255444,-0.025162,25.57,25.58,35005,26.53,1051,-0.025162,0.000535,0.002507
11389,20080220,6020,FCTR,FIRST CHARTER CORP,,24.44,25.66,24.78,187848,-0.030896,24.79,24.82,35005,25.41,1041,-0.030896,0.008783,0.00497
11389,20080221,6020,FCTR,FIRST CHARTER CORP,,23.9,25,24.26,168361,-0.020985,24.27,24.3,35005,24.98,848,-0.020985,-0.012067,-0.009713
11389,20080222,6020,FCTR,FIRST CHARTER CORP,,24.16,24.5,24.29,456655,0.001237,24.28,24.34,35005,24.35,2017,0.001237,0.006707,0.000367
11389,20080225,6020,FCTR,FIRST CHARTER CORP,,23.95,24.52,24.27,356949,-0.000823,24.24,24.34,35005,24.35,1935,-0.000823,0.015038,0.013319
11389,20080226,6020,FCTR,FIRST CHARTER CORP,,24.1,25.25,25.08,302529,0.033375,25.08,25.1,35005,24.2,1497,0.033375,0.008214,0.009566
11389,20080227,6020,FCTR,FIRST CHARTER CORP,6,24.88,25.64,25.38,248997,0.011962,25.37,25.42,35005,24.88,1508,0.011962,-0.000963,-0.000165
11389,20080228,6020,FCTR,FIRST CHARTER CORP,,24.5,25.35,25.12,155368,-0.010244,25.07,25.12,35005,25.35,904,-0.010244,-0.007812,-0.008768
11389,20080229,6020,FCTR,FIRST CHARTER CORP,,24.07,25.45,24.21,600320,-0.036226,24.21,24.28,35005,25.01,898,-0.036226,-0.026168,-0.020187
11389,20080303,6020,FCTR,FIRST CHARTER CORP,6,23.83,24.33,24.33,290606,0.004957,24.31,24.33,35005,24.16,1284,0.004957,-0.000485,-0.005238
11389,20080304,6020,FCTR,FIRST CHARTER CORP,,23.66,24.42,24.16,364977,-0.006987,24.16,24.17,35005,24.12,956,-0.006987,-0.004804,-0.006747
11389,20080305,6020,FCTR,FIRST CHARTER CORP,,23.81,25.1,24.47,236360,0.012831,24.43,24.47,35005,24.3,821,0.012831,0.006594,0.003172
11389,20080306,6020,FCTR,FIRST CHARTER CORP,,24.04,24.57,24.46,289556,-0.000409,24.44,24.48,35005,24.35,924,-0.000409,-0.022149,-0.021506
11389,20080307,6020,FCTR,FIRST CHARTER CORP,,24.29,25.37,25.2,269102,0.030254,25.2,25.23,35005,24.29,943,0.030254,-0.008779,-0.007707
11389,20080310,6020,FCTR,FIRST CHARTER CORP,6,25,26.34,26.23,233875,0.040873,26.22,26.28,35005,25.32,1059,0.040873,-0.01825,-0.020884
11389,20080311,6020,FCTR,FIRST CHARTER CORP,6,26.58,28.04,28.02,362016,0.068243,27.96,28.03,35005,26.94,1863,0.068243,0.035732,0.026985
11389,20080312,6020,FCTR,FIRST CHARTER CORP,6,27.14,28.75,27.21,464956,-0.028908,27.21,27.23,35005,28,1861,-0.028908,-0.00733,-0.00462
11389,20080313,6020,FCTR,FIRST CHARTER CORP,6,26.7,27.9,27.79,469634,0.021316,27.75,27.79,35005,27,1369,0.021316,0.007226,0.007298
11389,20080314,6020,FCTR,FIRST CHARTER CORP,6,26.31,27.93,26.96,256063,-0.029867,26.95,26.96,35005,27.93,1184,-0.029867,-0.020023,-0.018222
11389,20080317,6020,FCTR,FIRST CHARTER CORP,,26.24,27.1799,26.27,236821,-0.025593,26.39,26.41,35005,26.5,1217,-0.025593,-0.015035,-0.020983
11389,20080318,6020,FCTR,FIRST CHARTER CORP,6,26.54,27.75,27.67,225170,0.053293,27.63,27.66,35005,26.84,1256,0.053293,0.039537,0.028376
11389,20080319,6020,FCTR,FIRST CHARTER CORP,,26.83,27.67,27.39,178339,-0.010119,27.42,27.45,35005,27.5,1201,-0.010119,-0.026107,-0.017168
11389,20080320,6020,FCTR,FIRST CHARTER CORP,,27.135,27.72,27.5,818526,0.004016,27.5,27.54,35005,27.67,1938,0.004016,0.021158,0.014501
11389,20080324,6020,FCTR,FIRST CHARTER CORP,,27.43,27.84,27.45,306225,-0.001818,27.43,27.48,35005,27.64,1152,-0.001818,0.017582,0.021668
11389,20080325,6020,FCTR,FIRST CHARTER CORP,,27.02,27.66,27.32,346391,-0.004736,27.34,27.37,35005,27.5,1183,-0.004736,0.005698,0.010797
11389,20080326,6020,FCTR,FIRST CHARTER CORP,,26.92,27.31,27.02,270342,-0.010981,26.96,27,35005,27.15,1145,-0.010981,-0.006485,-0.002807
11389,20080327,6020,FCTR,FIRST CHARTER CORP,,26.9,27.19,26.99,213405,-0.00111,26.99,27,35005,27.16,1382,-0.00111,-0.010373,-0.004944
11389,20080328,6020,FCTR,FIRST CHARTER CORP,,26.54,27.09,27.08,468776,0.003335,27.05,27.08,35005,27.05,1590,0.003335,-0.008038,-0.007315
11389,20080331,6020,FCTR,FIRST CHARTER CORP,6,26.16,27.04,26.71,232699,-0.006462,26.71,26.75,35004,27.02,1358,-0.013663,0.005286,0.005196
11389,20080401,6020,FCTR,FIRST CHARTER CORP,6,26.27,27.27,26.5,168966,-0.007862,26.46,26.5,35004,27.22,1120,-0.007862,0.032086,0.020874
11389,20080402,6020,FCTR,FIRST CHARTER CORP,6,25.6,26.77,25.9,273535,-0.022642,25.83,25.9,35004,26.45,1285,-0.022642,0.000222,0.003193
11389,20080403,6020,FCTR,FIRST CHARTER CORP,6,24.9,25.82,25.4,536608,-0.019305,25.4,25.41,35004,25.8,2057,-0.019305,0.002665,0.001693
11389,20080404,6020,FCTR,FIRST CHARTER CORP,,24.39,26.06,25.8,706554,0.015748,25.8,25.81,35004,25.52,3719,0.015748,0.00195,0.002778
11389,20080407,6020,FCTR,FIRST CHARTER CORP,6,25.81,26.32,26,133204,0.007752,25.99,26,35004,26.32,796,0.007752,0.001712,0.0018
11389,20080408,6020,FCTR,FIRST CHARTER CORP,,25.72,26.32,25.86,119184,-0.005385,25.86,25.9,35004,26.32,764,-0.005385,-0.003404,-0.002727
11389,20080409,6020,FCTR,FIRST CHARTER CORP,,24.57,25.94,24.86,340145,-0.03867,24.86,24.88,35004,25.94,1074,-0.03867,-0.009046,-0.011542
11389,20080410,6020,FCTR,FIRST CHARTER CORP,,24.72,25.15,24.97,111090,0.004425,24.92,24.96,35004,24.9,730,0.004425,0.005403,0.005008
11389,20080411,6020,FCTR,FIRST CHARTER CORP,,23.95,24.99,24.08,231850,-0.035643,24.08,24.13,35004,24.87,1205,-0.035643,-0.019628,-0.01591
11389,20080414,6020,FCTR,FIRST CHARTER CORP,,22.45,24.04,22.59,193411,-0.061877,22.59,22.64,35004,24.03,1113,-0.061877,-0.002586,-0.004434
11389,20080415,6020,FCTR,FIRST CHARTER CORP,6,22.7,29.8,28.37,3212436,0.255865,28.3,28.35,35004,22.7,10488,0.255865,0.005073,0.002118
11389,20080416,6020,FCTR,FIRST CHARTER CORP,6,29.65,30.22,29.8,1581546,0.050405,29.77,29.78,35004,29.74,4855,0.050405,0.024085,0.017852
11389,20080417,6020,FCTR,FIRST CHARTER CORP,,29.6,29.88,29.86,396010,0.002013,29.85,29.86,35004,29.68,2008,0.002013,-0.001228,-0.002075
11389,20080418,6020,FCTR,FIRST CHARTER CORP,6,29.86,30.07,29.96,548860,0.003349,29.92,29.96,35004,30,2028,0.003349,0.016548,0.012443
11389,20080421,6020,FCTR,FIRST CHARTER CORP,6,29.65,30,29.7,326607,-0.008678,29.7,29.7,35004,29.74,1456,-0.008678,-0.000578,-0.001629
11389,20080422,6020,FCTR,FIRST CHARTER CORP,6,29.72,30.11,30.08,445625,0.012795,30.07,30.08,35004,29.72,1516,0.012795,-0.009319,-0.01285
11389,20080423,6020,FCTR,FIRST CHARTER CORP,6,29.91,30.15,29.98,302580,-0.003324,29.98,29.99,35004,30.09,1752,-0.003324,0.00111,0.002084
11389,20080424,6020,FCTR,FIRST CHARTER CORP,6,29.77,30.24,29.85,342244,-0.004336,29.8,29.84,35004,29.99,1611,-0.004336,0.005058,0.007845
11389,20080425,6020,FCTR,FIRST CHARTER CORP,,29.49,30.03,29.7,298901,-0.005025,29.65,29.69,35004,30.03,1079,-0.005025,0.006915,0.005692
11389,20080428,6020,FCTR,FIRST CHARTER CORP,,29.58,29.93,29.67,204536,-0.00101,29.64,29.66,35004,29.75,597,-0.00101,0.000154,0.003586
11389,20080429,6020,FCTR,FIRST CHARTER CORP,6,29.99,30.26,30.11,423785,0.01483,30.15,30.18,35004,30.1,1259,0.01483,-0.005712,-0.004917
11389,20080430,6020,FCTR,FIRST CHARTER CORP,6,30.1,30.38,30.38,631716,0.008967,30.33,30.38,35004,30.14,1921,0.008967,-0.001607,0.00166
11389,20080501,6020,FCTR,FIRST CHARTER CORP,6,30.36,30.5,30.41,283260,0.000988,30.41,30.45,35004,30.36,1090,0.000988,0.01437,0.010829
11389,20080502,6020,FCTR,FIRST CHARTER CORP,6,30.31,30.53,30.31,400312,-0.003288,30.36,30.39,35004,30.43,1428,-0.003288,0.00324,0.000327
11389,20080505,6020,FCTR,FIRST CHARTER CORP,6,30.13,30.37,30.14,246178,-0.005609,30.08,30.14,35004,30.3,960,-0.005609,-0.002711,-0.001239
11389,20080506,6020,FCTR,FIRST CHARTER CORP,6,30.02,30.27,30.19,185229,0.001659,30.12,30.16,35004,30.02,679,0.001659,0.008366,0.006164
11389,20080507,6020,FCTR,FIRST CHARTER CORP,6,30.1,30.6,30.1,1314467,-0.002981,30.11,30.12,35004,30.1,1920,-0.002981,-0.016185,-0.011755
11389,20080508,6020,FCTR,FIRST CHARTER CORP,,30.1,30.24,30.2,514631,0.003322,30.15,30.19,35004,30.24,977,0.003322,0.004532,0.001917
11389,20080509,6020,FCTR,FIRST CHARTER CORP,,30.08,30.2,30.2,338108,0,30.17,30.2,35004,30.08,617,0,-0.004717,-0.000676
11389,20080512,6020,FCTR,FIRST CHARTER CORP,6,30.22,30.38,30.34,1020870,0.004636,30.3,30.32,35004,30.25,1574,0.004636,0.010944,0.010765
11389,20080513,6020,FCTR,FIRST CHARTER CORP,6,30.3,30.48,30.44,414418,0.003296,30.44,30.47,35004,30.3,909,0.003296,0.000545,0.002291
11389,20080514,6020,FCTR,FIRST CHARTER CORP,,30.36,30.7,30.5,281010,0.001971,30.5,30.53,35004,30.36,1292,0.001971,0.00289,0.00187
11389,20080515,6020,FCTR,FIRST CHARTER CORP,,30.43,30.67,30.55,248241,0.001639,30.55,30.56,35004,30.44,1319,0.001639,0.011029,0.008057
11389,20080516,6020,FCTR,FIRST CHARTER CORP,6,30.46,30.58,30.52,562021,-0.000982,30.52,30.54,35004,30.58,2464,-0.000982,0.002414,0.001076
11389,20080519,6020,FCTR,FIRST CHARTER CORP,6,30.41,30.64,30.46,324874,-0.001966,30.46,30.49,35004,30.52,1410,-0.001966,-0.000322,-0.000502
11389,20080520,6020,FCTR,FIRST CHARTER CORP,6,30.3,30.48,30.34,178407,-0.00394,30.35,30.41,35004,30.3,829,-0.00394,-0.005988,-0.003529
11389,20080521,6020,FCTR,FIRST CHARTER CORP,6,30.09,30.48,30.1,478641,-0.00791,30.09,30.12,35004,30.36,1422,-0.00791,-0.015421,-0.009184
11389,20080522,6020,FCTR,FIRST CHARTER CORP,6,30.1,30.4,30.2,403108,0.003322,30.26,30.3,35004,30.15,1554,0.003322,0.002786,0.003248
11389,20080523,6020,FCTR,FIRST CHARTER CORP,,30.06,30.27,30.21,169696,0.000331,30.21,30.26,35004,30.06,654,0.000331,-0.011557,-0.007309
11389,20080527,6020,FCTR,FIRST CHARTER CORP,,30.15,30.39,30.24,295625,0.000993,30.25,30.27,35004,30.3,1126,0.000993,0.004893,0.006116
11389,20080528,6020,FCTR,FIRST CHARTER CORP,,30.21,30.39,30.28,327730,0.001323,30.32,30.33,35004,30.3,1240,0.001323,0.005529,0.003347
11389,20080529,6020,FCTR,FIRST CHARTER CORP,,30.22,30.55,30.48,622550,0.006605,30.49,30.5,35004,30.22,2065,0.006605,0.004276,0.005167
11389,20080530,6020,FCTR,FIRST CHARTER CORP,,30.42,30.78,30.78,442266,0.009843,30.7,30.72,35004,30.46,1703,0.009843,0.003063,0.004872
11389,20080602,6020,FCTR,FIRST CHARTER CORP,,30.54,30.77,30.74,189357,-0.0013,30.73,30.74,35004,30.72,713,-0.0013,-0.009077,-0.008391
11389,20080603,6020,FCTR,FIRST CHARTER CORP,6,30.44,30.79,30.57,201292,-0.00553,30.57,30.58,35004,30.64,835,-0.00553,-0.00488,-0.001854
11389,20080604,6020,FCTR,FIRST CHARTER CORP,,30.41,30.85,30.76,213690,0.006215,30.69,30.7,35004,30.41,959,0.006215,-0.001235,0.001266
11389,20080605,6020,FCTR,FIRST CHARTER CORP,6,30.55,30.95,30.72,369669,-0.0013,30.73,30.78,35004,30.8,1476,-0.0013,0.020182,0.014676
11389,20080606,6020,FCTR,FIRST CHARTER CORP,6,29.24,30.78,30.02,345284,-0.022786,30.06,30.07,35004,30.71,1553,-0.022786,-0.026786,-0.019893
11389,20080609,6020,FCTR,FIRST CHARTER CORP,6,,,,,,,,,,,,-0.000607,-0.007792
