PERMNO,date,SICCD,TICKER,COMNAM,NMSIND,BIDLO,ASKHI,PRC,VOL,RET,BID,ASK,SHROUT,OPENPRC,NUMTRD,RETX,vwretx,ewretx
12398,20101111,9999,GNOM,COMPLETE GENOMICS INC,5,7.73,8.98,8.03,2455092,C,8,8.06,25809,8.5,5267,C,-0.00362,-0.00441
12398,20101112,9999,GNOM,COMPLETE GENOMICS INC,,7.12,8.01,7.69,262222,-0.042341,7.17,7.6,25809,8.01,1112,-0.042341,-0.013452,-0.012579
12398,20101115,9999,GNOM,COMPLETE GENOMICS INC,5,7,8,7.19,162705,-0.06502,7.04,7.2,25809,8,685,-0.06502,-0.00138,-0.001347
12398,20101116,9999,GNOM,COMPLETE GENOMICS INC,,6.82,7.32,6.95,133659,-0.03338,6.9,7,25809,7.02,495,-0.03338,-0.017052,-0.016765
12398,20101117,9999,GNOM,COMPLETE GENOMICS INC,,6.9,7.25,6.94,84217,-0.001439,6.94,6.99,25809,7,345,-0.001439,0.001488,0.002706
12398,20101118,9999,GNOM,COMPLETE GENOMICS INC,,6.97,7.38,7.25,103498,0.044669,7.15,7.27,25809,7.07,517,0.044669,0.01552,0.012447
12398,20101119,9999,GNOM,COMPLETE GENOMICS INC,,7.25,7.53,7.25,160040,0,7.25,7.32,25809,7.4,486,0,0.00361,0.003801
12398,20101122,9999,GNOM,COMPLETE GENOMICS INC,,7.277,8.45,7.84,127708,0.081379,7.83,7.9,25809,7.28,592,0.081379,-0.000324,0.00099
12398,20101123,9999,GNOM,COMPLETE GENOMICS INC,,7.82,8,7.91,36172,0.008929,7.91,7.95,25809,7.95,206,0.008929,-0.014162,-0.010262
12398,20101124,9999,GNOM,COMPLETE GENOMICS INC,,7.89,8.27,7.95,203170,0.005057,7.95,7.97,25809,7.91,612,0.005057,0.015629,0.014286
12398,20101126,9999,GNOM,COMPLETE GENOMICS INC,,7.7,8,7.76,15712,-0.023899,7.76,7.82,25809,7.95,76,-0.023899,-0.007051,-0.002619
12398,20101129,9999,GNOM,COMPLETE GENOMICS INC,,7.371,7.77,7.7,29892,-0.007732,7.66,7.7,25809,7.77,161,-0.007732,-0.001141,-0.000769
12398,20101130,9999,GNOM,COMPLETE GENOMICS INC,5,7.4,7.75,7.75,43471,0.006494,7.65,7.74,25916,7.68,169,0.006494,-0.005822,-0.005372
12398,20101201,9999,GNOM,COMPLETE GENOMICS INC,,7.5001,8.18,7.85,343982,0.012903,7.78,7.95,25916,7.79,878,0.012903,0.020652,0.013113
12398,20101202,9999,GNOM,COMPLETE GENOMICS INC,,7.68,7.97,7.86,31844,0.001274,7.81,7.9,25916,7.93,125,0.001274,0.012191,0.008898
12398,20101203,9999,GNOM,COMPLETE GENOMICS INC,5,7,7.86,7.07,206979,-0.100509,7.06,7.11,25916,7.77,592,-0.100509,0.003859,0.005069
12398,20101206,9999,GNOM,COMPLETE GENOMICS INC,5,7.11,7.5028,7.4,56350,0.046676,7.33,7.44,25916,7.11,271,0.046676,-0.000021,0.002934
12398,20101207,9999,GNOM,COMPLETE GENOMICS INC,5,7.0401,7.5099,7.09,71959,-0.041892,7.05,7.09,25916,7.29,285,-0.041892,0.000148,0.000127
12398,20101208,9999,GNOM,COMPLETE GENOMICS INC,5,7.01,7.3,7.15,41890,0.008463,7.15,7.17,25916,7.04,137,0.008463,0.001313,-0.001094
12398,20101209,9999,GNOM,COMPLETE GENOMICS INC,,7.1,7.56,7.25,46696,0.013986,7.19,7.26,25916,7.56,212,0.013986,0.003498,0.003391
12398,20101210,9999,GNOM,COMPLETE GENOMICS INC,,7.01,7.57,7.57,49384,0.044138,7.5,7.57,25916,7.21,243,0.044138,0.006395,0.006767
12398,20101213,9999,GNOM,COMPLETE GENOMICS INC,,7.3,7.72,7.38,66058,-0.025099,7.35,7.44,25916,7.66,241,-0.025099,-0.000075,-0.001966
12398,20101214,9999,GNOM,COMPLETE GENOMICS INC,5,6.85,7.4,6.95,173664,-0.058266,6.92,6.95,25916,7.33,482,-0.058266,0.000237,-0.001566
12398,20101215,9999,GNOM,COMPLETE GENOMICS INC,,6.72,7.04,6.97,95034,0.002878,6.9,6.98,25916,6.95,365,0.002878,-0.005299,-0.004319
12398,20101216,9999,GNOM,COMPLETE GENOMICS INC,,6.8,7.06,6.85,115415,-0.017217,6.85,6.88,25916,7.04,378,-0.017217,0.005693,0.007742
12398,20101217,9999,GNOM,COMPLETE GENOMICS INC,5,6.66,6.88,6.86,561628,0.00146,6.79,6.88,25916,6.88,769,0.00146,0.001482,0.003413
12398,20101220,9999,GNOM,COMPLETE GENOMICS INC,5,6.6,7.31,6.89,59080,0.004373,6.85,6.88,25916,7.31,338,0.004373,0.001793,0.000634
12398,20101221,9999,GNOM,COMPLETE GENOMICS INC,,7,7.52,7.47,274231,0.08418,7.44,7.47,25916,7.09,1024,0.08418,0.006978,0.008329
12398,20101222,9999,GNOM,COMPLETE GENOMICS INC,,7.43,7.72,7.5,69969,0.004016,7.47,7.5,25916,7.54,371,0.004016,0.002927,0.003093
12398,20101223,9999,GNOM,COMPLETE GENOMICS INC,,7.41,7.57,7.43,73970,-0.009333,7.42,7.45,25916,7.47,390,-0.009333,-0.001292,0.000234
12398,20101227,9999,GNOM,COMPLETE GENOMICS INC,5,7.35,7.5,7.44,30289,0.001346,7.42,7.44,25916,7.35,112,0.001346,0.000629,0.003358
12398,20101228,9999,GNOM,COMPLETE GENOMICS INC,,7.3601,7.5897,7.46,57569,0.002688,7.46,7.5,25916,7.51,289,0.002688,0.000729,-0.000344
12398,20101229,9999,GNOM,COMPLETE GENOMICS INC,,7.43,7.52,7.5,41479,0.005362,7.47,7.5,25916,7.5,195,0.005362,0.002491,0.003657
12398,20101230,9999,GNOM,COMPLETE GENOMICS INC,,7.4495,7.54,7.5,38581,0,7.5,7.53,25916,7.52,129,0,-0.000834,0.001279
12398,20101231,9999,GNOM,COMPLETE GENOMICS INC,5,7.45,7.52,7.47,47006,-0.004,7.47,7.51,25923,7.5,206,-0.004,-0.000271,0.000864
12398,20110103,9999,GNOM,COMPLETE GENOMICS INC,,7.5,8,7.89,243195,0.056225,7.88,7.89,25923,7.52,640,0.056225,0.011174,0.012516
12398,20110104,9999,GNOM,COMPLETE GENOMICS INC,,7.6901,8.25,7.89,72721,0,7.91,7.95,25923,7.95,485,0,-0.003932,-0.006774
12398,20110105,9999,GNOM,COMPLETE GENOMICS INC,,7.84,8.22,8.04,151027,0.019011,7.99,8.04,25923,8,507,0.019011,0.005291,0.007917
12398,20110106,9999,GNOM,COMPLETE GENOMICS INC,,7.89,8.055,7.99,32828,-0.006219,7.97,7.99,25923,7.99,202,-0.006219,-0.002761,-0.001248
12398,20110107,9999,GNOM,COMPLETE GENOMICS INC,,7.69,8.03,7.95,58563,-0.005006,7.94,7.95,25923,8,349,-0.005006,-0.001948,-0.00285
12398,20110110,9999,GNOM,COMPLETE GENOMICS INC,,7.6,8.27,7.6,69364,-0.044025,7.6,7.62,25923,7.96,466,-0.044025,-0.000719,0.002271
12398,20110111,9999,GNOM,COMPLETE GENOMICS INC,,7.48,8.06,8,126212,0.052632,7.98,8.06,25923,7.6,427,0.052632,0.005019,0.005921
12398,20110112,9999,GNOM,COMPLETE GENOMICS INC,,7.821,8.17,7.91,83812,-0.01125,7.87,7.92,25923,8,265,-0.01125,0.008909,0.007994
12398,20110113,9999,GNOM,COMPLETE GENOMICS INC,,7.65,8.04,7.78,274256,-0.016435,7.78,7.8,25923,7.8,821,-0.016435,-0.001891,-0.000523
12398,20110114,9999,GNOM,COMPLETE GENOMICS INC,,7.76,8,7.93,79358,0.01928,7.91,7.93,25923,8,345,0.01928,0.006614,0.00472
12398,20110118,9999,GNOM,COMPLETE GENOMICS INC,,7.9,8.06,8,258769,0.008827,7.96,8,25923,8,1089,0.008827,0.002144,0.002508
12398,20110119,9999,GNOM,COMPLETE GENOMICS INC,,7.9,8.03,7.92,45535,-0.01,7.91,7.94,25923,7.97,122,-0.01,-0.012322,-0.016145
12398,20110120,9999,GNOM,COMPLETE GENOMICS INC,,7.72,7.97,7.9,108429,-0.002525,7.89,7.91,25923,7.85,550,-0.002525,-0.003828,-0.007638
12398,20110121,9999,GNOM,COMPLETE GENOMICS INC,,7.85,8.06,7.87,131629,-0.003797,7.85,7.93,25923,7.92,744,-0.003797,0.001252,-0.000159
12398,20110124,9999,GNOM,COMPLETE GENOMICS INC,,7.76,8.1,7.95,191573,0.010165,7.94,7.95,25923,7.9,972,0.010165,0.006245,0.006038
12398,20110125,9999,GNOM,COMPLETE GENOMICS INC,,7.84,8.04,7.9,22516,-0.006289,7.9,7.92,25923,8,116,-0.006289,-0.000454,-0.001084
12398,20110126,9999,GNOM,COMPLETE GENOMICS INC,,7.8,8.04,7.94,80666,0.005063,7.9,7.93,25923,7.9,390,0.005063,0.007299,0.011678
12398,20110127,9999,GNOM,COMPLETE GENOMICS INC,,7.85,8.03,7.91,60015,-0.003778,7.9,7.91,25923,7.89,334,-0.003778,0.002018,0.001559
12398,20110128,9999,GNOM,COMPLETE GENOMICS INC,,7.62,7.9101,7.63,63853,-0.035398,7.63,7.64,25923,7.91,345,-0.035398,-0.017268,-0.017827
12398,20110131,9999,GNOM,COMPLETE GENOMICS INC,,7.36,7.8,7.58,159624,-0.006553,7.57,7.67,25923,7.8,727,-0.006553,0.007617,0.005202
12398,20110201,9999,GNOM,COMPLETE GENOMICS INC,5,7.411,7.8,7.6,93484,0.002639,7.58,7.6,25923,7.55,585,0.002639,0.016978,0.014685
12398,20110202,9999,GNOM,COMPLETE GENOMICS INC,5,7.51,7.62,7.53,76615,-0.00921,7.51,7.54,25923,7.57,355,-0.00921,-0.002365,-0.000625
12398,20110203,9999,GNOM,COMPLETE GENOMICS INC,,7.62,7.9,7.82,54909,0.038513,7.78,7.85,25923,7.9,318,0.038513,0.002781,0.001862
12398,20110204,9999,GNOM,COMPLETE GENOMICS INC,,7.75,8.02,7.98,43671,0.02046,7.96,7.98,25923,7.79,182,0.02046,0.002148,0.001303
12398,20110207,9999,GNOM,COMPLETE GENOMICS INC,5,7.97,8.06,8,111260,0.002506,7.98,8,25923,8,536,0.002506,0.006108,0.006716
12398,20110208,9999,GNOM,COMPLETE GENOMICS INC,5,7.95,8.02,8.02,71237,0.0025,7.99,8.02,25923,8,260,0.0025,0.004356,0.00385
12398,20110209,9999,GNOM,COMPLETE GENOMICS INC,,7.76,8.02,8,13005,-0.002494,7.97,8,25923,7.95,92,-0.002494,-0.003549,-0.003712
12398,20110210,9999,GNOM,COMPLETE GENOMICS INC,,7.85,8.04,7.99,28422,-0.00125,8.01,8.03,25923,7.91,143,-0.00125,0.001271,0.000427
12398,20110211,9999,GNOM,COMPLETE GENOMICS INC,,7.86,8.02,7.95,64074,-0.005006,7.93,7.95,25923,7.97,388,-0.005006,0.005944,0.006336
12398,20110214,9999,GNOM,COMPLETE GENOMICS INC,,7.87,8.06,7.9,51809,-0.006289,7.9,7.92,25923,7.96,255,-0.006289,0.003258,0.003171
12398,20110215,9999,GNOM,COMPLETE GENOMICS INC,,7.85,7.93,7.89,19015,-0.001266,7.89,7.91,25923,7.89,87,-0.001266,-0.003277,-0.003053
12398,20110216,9999,GNOM,COMPLETE GENOMICS INC,,7.85,7.95,7.87,15764,-0.002535,7.85,7.87,25923,7.95,79,-0.002535,0.007352,0.006185
12398,20110217,9999,GNOM,COMPLETE GENOMICS INC,,7.8,7.9,7.84,12750,-0.003812,7.81,7.84,25923,7.9,73,-0.003812,0.003847,0.005578
12398,20110218,9999,GNOM,COMPLETE GENOMICS INC,,7.66,7.9,7.76,41881,-0.010204,7.76,7.77,25923,7.9,182,-0.010204,0.001209,0.001068
12398,20110222,9999,GNOM,COMPLETE GENOMICS INC,,7.6,7.81,7.61,44639,-0.01933,7.61,7.63,25923,7.81,248,-0.01933,-0.021049,-0.020656
12398,20110223,9999,GNOM,COMPLETE GENOMICS INC,,7.61,7.76,7.68,18451,0.009198,7.68,7.72,25923,7.61,157,0.009198,-0.006585,-0.008523
12398,20110224,9999,GNOM,COMPLETE GENOMICS INC,,7.35,7.7,7.38,138147,-0.039062,7.36,7.38,25923,7.7,487,-0.039062,-0.000306,0.002575
12398,20110225,9999,GNOM,COMPLETE GENOMICS INC,,7.1706,7.49,7.32,33334,-0.00813,7.3,7.32,25923,7.42,258,-0.00813,0.012721,0.014965
12398,20110228,9999,GNOM,COMPLETE GENOMICS INC,5,7.2,7.39,7.3,61073,-0.002732,7.26,7.29,25977,7.39,234,-0.002732,0.005287,0.002837
12398,20110301,9999,GNOM,COMPLETE GENOMICS INC,5,7.23,7.36,7.25,52937,-0.006849,7.23,7.25,25977,7.33,296,-0.006849,-0.014923,-0.011221
12398,20110302,9999,GNOM,COMPLETE GENOMICS INC,5,7.21,7.27,7.27,18755,0.002759,7.25,7.28,25977,7.21,106,0.002759,0.002685,0.002902
12398,20110303,9999,GNOM,COMPLETE GENOMICS INC,,7.21,7.33,7.32,26230,0.006878,7.3,7.32,25977,7.33,140,0.006878,0.016024,0.013322
12398,20110304,9999,GNOM,COMPLETE GENOMICS INC,,7.23,7.34,7.25,19635,-0.009563,7.25,7.27,25977,7.34,124,-0.009563,-0.005904,-0.003372
12398,20110307,9999,GNOM,COMPLETE GENOMICS INC,,7,7.59,7.03,83280,-0.030345,7.03,7.04,25977,7.58,404,-0.030345,-0.009425,-0.009735
12398,20110308,9999,GNOM,COMPLETE GENOMICS INC,,6.91,7.16,7.13,70771,0.014225,7.11,7.13,25977,7.05,276,0.014225,0.007933,0.008887
12398,20110309,9999,GNOM,COMPLETE GENOMICS INC,,7.07,7.19,7.11,51364,-0.002805,7.09,7.11,25977,7.11,250,-0.002805,-0.002584,-0.003229
12398,20110310,9999,GNOM,COMPLETE GENOMICS INC,5,7.06,7.56,7.46,294042,0.049226,7.46,7.48,25977,7.07,768,0.049226,-0.019782,-0.019569
12398,20110311,9999,GNOM,COMPLETE GENOMICS INC,,7.38,7.9,7.4,134353,-0.008043,7.37,7.39,25977,7.9,639,-0.008043,0.006644,0.002503
12398,20110314,9999,GNOM,COMPLETE GENOMICS INC,5,7.01,7.38,7.15,65724,-0.033784,7.16,7.18,25977,7.36,368,-0.033784,-0.00551,-0.006698
12398,20110315,9999,GNOM,COMPLETE GENOMICS INC,,6.99,7.25,7.14,35627,-0.001399,7.14,7.15,25977,6.99,170,-0.001399,-0.011168,-0.010854
12398,20110316,9999,GNOM,COMPLETE GENOMICS INC,,7.1,7.25,7.15,157101,0.001401,7.15,7.18,25977,7.2,436,0.001401,-0.016679,-0.010217
12398,20110317,9999,GNOM,COMPLETE GENOMICS INC,5,7.22,7.48,7.32,227990,0.023776,7.3,7.32,25977,7.28,1175,0.023776,0.012179,0.007182
12398,20110318,9999,GNOM,COMPLETE GENOMICS INC,,7.29,7.68,7.54,91250,0.030055,7.55,7.57,25977,7.39,419,0.030055,0.004809,0.00798
12398,20110321,9999,GNOM,COMPLETE GENOMICS INC,,7.7,7.85,7.81,51079,0.035809,7.79,7.81,25977,7.7,305,0.035809,0.016415,0.015689
12398,20110322,9999,GNOM,COMPLETE GENOMICS INC,,7.71,7.89,7.78,41082,-0.003841,7.78,7.8,25977,7.89,187,-0.003841,-0.003326,-0.001307
12398,20110323,9999,GNOM,COMPLETE GENOMICS INC,,7.67,7.85,7.76,74606,-0.002571,7.74,7.76,25977,7.75,353,-0.002571,0.00285,0.002852
12398,20110324,9999,GNOM,COMPLETE GENOMICS INC,,7.703,7.89,7.89,62463,0.016753,7.86,7.89,25977,7.77,238,0.016753,0.008486,0.005781
12398,20110325,9999,GNOM,COMPLETE GENOMICS INC,5,7.84,8.65,8.46,115719,0.072243,8.41,8.45,25977,7.9,418,0.072243,0.003095,0.003864
12398,20110328,9999,GNOM,COMPLETE GENOMICS INC,,8.48,9,8.57,121149,0.013002,8.57,8.58,25977,8.56,578,0.013002,-0.003328,-0.001807
12398,20110329,9999,GNOM,COMPLETE GENOMICS INC,5,8.3,8.8,8.77,60003,0.023337,8.75,8.77,25977,8.4,360,0.023337,0.006919,0.005339
12398,20110330,9999,GNOM,COMPLETE GENOMICS INC,,8.4,9,8.9,172734,0.014823,8.88,8.91,25977,8.8,1096,0.014823,0.008136,0.007839
12398,20110331,9999,GNOM,COMPLETE GENOMICS INC,5,8.83,9.16,9.03,164330,0.014607,8.99,9.04,25989,8.92,1019,0.014607,-0.000605,0.002389
12398,20110401,9999,GNOM,COMPLETE GENOMICS INC,,9.01,9.75,9.75,147296,0.079734,9.72,9.74,25989,9.17,731,0.079734,0.005358,0.003443
12398,20110404,9999,GNOM,COMPLETE GENOMICS INC,,9.5101,10.189,9.7,148347,-0.005128,9.67,9.7,25989,9.8,388,-0.005128,0.00108,0.000924
12398,20110405,9999,GNOM,COMPLETE GENOMICS INC,,9.4,9.88,9.67,80959,-0.003093,9.67,9.73,25989,9.66,262,-0.003093,0.001321,0.001908
12398,20110406,9999,GNOM,COMPLETE GENOMICS INC,,9.7,10.85,10.57,230920,0.093071,10.57,10.69,25989,9.7,1075,0.093071,0.00147,0.002592
12398,20110407,9999,GNOM,COMPLETE GENOMICS INC,5,10.35,10.8,10.66,124418,0.008515,10.61,10.66,25989,10.7,780,0.008515,-0.002301,-0.002599
12398,20110408,9999,GNOM,COMPLETE GENOMICS INC,,10.5,11.46,11.18,271256,0.048781,11.14,11.18,25989,10.66,1204,0.048781,-0.003391,-0.004756
12398,20110411,9999,GNOM,COMPLETE GENOMICS INC,,11.02,11.61,11.13,205823,-0.004472,11.13,11.16,25989,11.02,905,-0.004472,-0.004738,-0.006511
12398,20110412,9999,GNOM,COMPLETE GENOMICS INC,,10.56,11.32,11.23,147791,0.008985,11.27,11.33,25989,11.12,833,0.008985,-0.009248,-0.010351
12398,20110413,9999,GNOM,COMPLETE GENOMICS INC,,11.23,11.76,11.27,171724,0.003562,11.27,11.28,25989,11.49,879,0.003562,0.001181,0.001341
12398,20110414,9999,GNOM,COMPLETE GENOMICS INC,,11.17,11.7,11.7,243476,0.038154,11.66,11.69,25989,11.27,1201,0.038154,0.000527,0.002603
12398,20110415,9999,GNOM,COMPLETE GENOMICS INC,,11.64,14.21,13.44,522076,0.148718,13.4,13.44,25989,11.78,2511,0.148718,0.003953,0.004923
12398,20110418,9999,GNOM,COMPLETE GENOMICS INC,,13.56,15.05,14.75,505485,0.09747,14.75,14.79,25989,13.85,3011,0.09747,-0.01162,-0.011509
12398,20110419,9999,GNOM,COMPLETE GENOMICS INC,5,13.6,15.19,13.64,489285,-0.075254,13.63,13.68,25989,15.19,2487,-0.075254,0.005689,0.00343
12398,20110420,9999,GNOM,COMPLETE GENOMICS INC,,13.7813,14.79,14.69,295140,0.076979,14.68,14.69,25989,13.95,1426,0.076979,0.014244,0.012611
12398,20110421,9999,GNOM,COMPLETE GENOMICS INC,5,14.69,15.71,15.6,399107,0.061947,15.6,15.63,25989,14.76,1976,0.061947,0.005815,0.004929
12398,20110425,9999,GNOM,COMPLETE GENOMICS INC,,14.75,15.66,15.11,267223,-0.03141,15.06,15.11,25989,15.56,1536,-0.03141,-0.001848,-0.000578
12398,20110426,9999,GNOM,COMPLETE GENOMICS INC,5,15.5,16.5,15.88,418942,0.05096,15.85,15.87,25989,15.61,2365,0.05096,0.008137,0.005391
12398,20110427,9999,GNOM,COMPLETE GENOMICS INC,5,15.56,16.06,15.83,225733,-0.003149,15.79,15.83,25989,15.81,1377,-0.003149,0.005975,0.00516
12398,20110428,9999,GNOM,COMPLETE GENOMICS INC,5,15.81,16.64,16.5,257349,0.042325,16.48,16.5,25989,15.84,1510,0.042325,0.002854,0.001861
12398,20110429,9999,GNOM,COMPLETE GENOMICS INC,5,16.15,17.25,16.48,206639,-0.001212,16.45,16.48,26011,17,1201,-0.001212,0.0031,0.003633
12398,20110502,9999,GNOM,COMPLETE GENOMICS INC,,15.29,17.01,15.67,208246,-0.04915,15.68,15.7,26011,16.5,1294,-0.04915,-0.003618,-0.006083
12398,20110503,9999,GNOM,COMPLETE GENOMICS INC,,13.66,15.55,14.18,314756,-0.095086,14.17,14.23,26011,15.55,1867,-0.095086,-0.006658,-0.009186
12398,20110504,9999,GNOM,COMPLETE GENOMICS INC,5,12.64,14.17,14.05,298437,-0.009168,14.04,14.06,26011,13.76,1672,-0.009168,-0.008141,-0.008905
12398,20110505,9999,GNOM,COMPLETE GENOMICS INC,5,13.59,14.4,13.84,91821,-0.014947,13.79,13.84,26011,13.95,594,-0.014947,-0.009519,-0.00626
12398,20110506,9999,GNOM,COMPLETE GENOMICS INC,,13.81,14.92,14.78,130433,0.067919,14.72,14.81,26011,13.9,736,0.067919,0.004513,0.004511
12398,20110509,9999,GNOM,COMPLETE GENOMICS INC,,13.92,14.7,14.02,305245,-0.051421,14.02,14.04,26011,14.7,1490,-0.051421,0.006133,0.006933
12398,20110510,9999,GNOM,COMPLETE GENOMICS INC,5,12.51,15.9,15.16,373024,0.081312,15.15,15.17,26011,12.72,2356,0.081312,0.008442,0.009807
12398,20110511,9999,GNOM,COMPLETE GENOMICS INC,5,14.42,15.16,14.44,141746,-0.047493,14.44,14.45,26011,15.13,950,-0.047493,-0.012697,-0.011871
12398,20110512,9999,GNOM,COMPLETE GENOMICS INC,,14.11,14.73,14.6,75283,0.01108,14.57,14.6,26011,14.43,638,0.01108,0.003922,0.004131
12398,20110513,9999,GNOM,COMPLETE GENOMICS INC,,14.58,15,14.74,137163,0.009589,14.74,14.75,26011,14.59,943,0.009589,-0.008946,-0.009053
12398,20110516,9999,GNOM,COMPLETE GENOMICS INC,,14.4,14.9099,14.45,108624,-0.019674,14.41,14.47,26011,14.69,807,-0.019674,-0.007001,-0.010404
12398,20110517,9999,GNOM,COMPLETE GENOMICS INC,,14.37,15.05,14.85,191140,0.027682,14.85,14.87,26011,14.38,1507,0.027682,-0.000818,-0.004082
12398,20110518,9999,GNOM,COMPLETE GENOMICS INC,,14.27,15.25,14.72,395673,-0.008754,14.71,14.72,26011,14.65,2294,-0.008754,0.01059,0.010852
12398,20110519,9999,GNOM,COMPLETE GENOMICS INC,5,14.61,15.2,14.95,353707,0.015625,14.93,14.95,26011,14.88,2562,0.015625,0.002278,0.000801
12398,20110520,9999,GNOM,COMPLETE GENOMICS INC,,14.48,14.95,14.71,161973,-0.016053,14.68,14.7,26011,14.9,1085,-0.016053,-0.006833,-0.004492
12398,20110523,9999,GNOM,COMPLETE GENOMICS INC,,13.79,14.65,14.13,294155,-0.039429,14.1,14.13,26011,14.6,1757,-0.039429,-0.013016,-0.013197
12398,20110524,9999,GNOM,COMPLETE GENOMICS INC,,13.37,14.14,13.43,256304,-0.04954,13.43,13.45,26011,14.08,1829,-0.04954,-0.000402,-0.001059
12398,20110525,9999,GNOM,COMPLETE GENOMICS INC,5,13.14,13.87,13.32,413202,-0.008191,13.32,13.36,26011,13.14,2596,-0.008191,0.005021,0.005777
12398,20110526,9999,GNOM,COMPLETE GENOMICS INC,5,13.5,14.55,14.08,2515610,0.057057,14.08,14.13,26011,13.68,11938,0.057057,0.005146,0.007715
12398,20110527,9999,GNOM,COMPLETE GENOMICS INC,5,13.985,14.45,14.33,316877,0.017756,14.3,14.34,26011,14.1,1959,0.017756,0.004895,0.006001
12398,20110531,9999,GNOM,COMPLETE GENOMICS INC,5,14.4,16.52,15.98,1277043,0.115143,15.97,15.98,26011,14.48,4756,0.115143,0.010268,0.009344
12398,20110601,9999,GNOM,COMPLETE GENOMICS INC,5,15.51,17.36,16.73,606336,0.046934,16.73,16.75,32336,15.95,3787,0.046934,-0.023195,-0.019748
12398,20110602,9999,GNOM,COMPLETE GENOMICS INC,5,16.09,17.5,17.42,340289,0.041243,17.38,17.42,32336,16.87,2005,0.041243,-0.000674,-0.0001
12398,20110603,9999,GNOM,COMPLETE GENOMICS INC,5,16.9,17.72,17.11,223929,-0.017796,17.11,17.14,32336,17.3,1595,-0.017796,-0.009321,-0.009517
12398,20110606,9999,GNOM,COMPLETE GENOMICS INC,,16.96,18.55,17.11,385514,0,17.13,17.15,32336,17.69,2657,0,-0.01248,-0.01336
12398,20110607,9999,GNOM,COMPLETE GENOMICS INC,5,15.72,17.05,16.6,595046,-0.029807,16.6,16.62,32336,16.65,3706,-0.029807,0.000244,0.001398
12398,20110608,9999,GNOM,COMPLETE GENOMICS INC,,15.97,16.97,16.62,495151,0.001205,16.62,16.65,32336,16.45,3597,0.001205,-0.00614,-0.010785
12398,20110609,9999,GNOM,COMPLETE GENOMICS INC,,15.26,16.77,15.32,325000,-0.078219,15.29,15.32,32336,16.77,2583,-0.078219,0.007438,0.00544
12398,20110610,9999,GNOM,COMPLETE GENOMICS INC,5,14.71,15.74,15.03,341101,-0.01893,15,15.03,32336,15.38,2636,-0.01893,-0.014092,-0.011787
12398,20110613,9999,GNOM,COMPLETE GENOMICS INC,,15.15,16.03,15.93,363426,0.05988,15.9,15.93,32336,15.16,2457,0.05988,-0.001256,-0.006066
12398,20110614,9999,GNOM,COMPLETE GENOMICS INC,,15.5,16.74,16.71,276031,0.048964,16.69,16.71,32336,16.23,1933,0.048964,0.013809,0.014324
12398,20110615,9999,GNOM,COMPLETE GENOMICS INC,,15.98,16.44,16.25,263022,-0.027528,16.23,16.25,32336,16.4,1958,-0.027528,-0.01735,-0.014182
12398,20110616,9999,GNOM,COMPLETE GENOMICS INC,,15.09,16.76,15.42,264181,-0.051077,15.4,15.42,32336,16.23,1893,-0.051077,-0.000231,-0.000882
12398,20110617,9999,GNOM,COMPLETE GENOMICS INC,5,14.8,15.83,15.19,368289,-0.014916,15.19,15.22,32336,15.51,1866,-0.014916,0.002107,0.001134
12398,20110620,9999,GNOM,COMPLETE GENOMICS INC,5,14.49,15.531,15.21,132655,0.001317,15.19,15.21,32336,15.21,962,0.001317,0.005327,0.002448
12398,20110621,9999,GNOM,COMPLETE GENOMICS INC,,15.26,15.93,15.67,137397,0.030243,15.66,15.67,32336,15.33,1033,0.030243,0.01578,0.015986
12398,20110622,9999,GNOM,COMPLETE GENOMICS INC,,14.95,15.8799,15.01,229850,-0.042119,15.01,15.02,32336,15.68,1465,-0.042119,-0.005628,-0.003323
12398,20110623,9999,GNOM,COMPLETE GENOMICS INC,5,14.222,15.47,14.51,503930,-0.033311,14.51,14.53,32336,14.91,2854,-0.033311,-0.002604,-0.000903
12398,20110624,9999,GNOM,COMPLETE GENOMICS INC,,14.5,15.3,15.23,873323,0.049621,15.22,15.23,32336,14.66,2113,0.049621,-0.010604,-0.002482
12398,20110627,9999,GNOM,COMPLETE GENOMICS INC,,15.05,15.5,15.2,148572,-0.00197,15.17,15.2,32336,15.25,1181,-0.00197,0.008064,0.00543
12398,20110628,9999,GNOM,COMPLETE GENOMICS INC,5,15.13,15.81,15.64,189442,0.028947,15.63,15.64,32336,15.37,1506,0.028947,0.013434,0.010381
12398,20110629,9999,GNOM,COMPLETE GENOMICS INC,5,15.1,15.93,15.15,252976,-0.03133,15.15,15.17,32336,15.79,1859,-0.03133,0.008625,0.004894
12398,20110630,9999,GNOM,COMPLETE GENOMICS INC,5,15.17,15.74,15.28,178889,0.008581,15.26,15.28,33061,15.25,984,0.008581,0.009669,0.008367
12398,20110701,9999,GNOM,COMPLETE GENOMICS INC,5,15.0209,15.4,15.18,172605,-0.006544,15.17,15.18,33061,15.3,764,-0.006544,0.013321,0.009964
12398,20110705,9999,GNOM,COMPLETE GENOMICS INC,,15.02,15.54,15.18,148547,0,15.16,15.18,33061,15.23,985,0,-0.000055,0.000779
12398,20110706,9999,GNOM,COMPLETE GENOMICS INC,,14.55,15.25,15.25,226556,0.004611,15.23,15.25,33061,15.08,964,0.004611,0.000902,0.002824
12398,20110707,9999,GNOM,COMPLETE GENOMICS INC,5,14.96,15.7,15.25,223398,0,15.23,15.25,33061,15.25,1492,0,0.010562,0.011633
12398,20110708,9999,GNOM,COMPLETE GENOMICS INC,,14.23,15.1999,14.76,181800,-0.032131,14.78,14.8,33061,15.09,1198,-0.032131,-0.006331,-0.004814
12398,20110711,9999,GNOM,COMPLETE GENOMICS INC,5,14.27,14.9,14.38,129016,-0.025745,14.38,14.4,33061,14.61,973,-0.025745,-0.019355,-0.016329
12398,20110712,9999,GNOM,COMPLETE GENOMICS INC,5,14,14.46,14.1,246028,-0.019471,14.1,14.11,33061,14.28,1137,-0.019471,-0.003815,-0.002258
12398,20110713,9999,GNOM,COMPLETE GENOMICS INC,5,14.22,15.04,14.86,159466,0.053901,14.85,14.86,33061,14.22,1098,0.053901,0.004893,0.007214
12398,20110714,9999,GNOM,COMPLETE GENOMICS INC,5,14.45,15,14.72,145457,-0.009421,14.75,14.75,33061,14.86,1112,-0.009421,-0.008057,-0.009562
12398,20110715,9999,GNOM,COMPLETE GENOMICS INC,,14.3,14.79,14.7,351387,-0.001359,14.67,14.7,33061,14.79,1009,-0.001359,0.006171,0.004208
12398,20110718,9999,GNOM,COMPLETE GENOMICS INC,5,14.6,15.05,14.96,285678,0.017687,14.96,14.98,33061,14.6,1639,0.017687,-0.009499,-0.011087
12398,20110719,9999,GNOM,COMPLETE GENOMICS INC,,14.9901,15.6,15.28,242615,0.02139,15.24,15.27,33061,15.05,1223,0.02139,0.016152,0.013498
12398,20110720,9999,GNOM,COMPLETE GENOMICS INC,,14.76,15.22,14.81,101894,-0.030759,14.81,14.83,33061,15.22,732,-0.030759,-0.000043,0.000894
12398,20110721,9999,GNOM,COMPLETE GENOMICS INC,5,14.6,14.9666,14.78,140623,-0.002026,14.75,14.78,33061,14.8,1065,-0.002026,0.012197,0.008868
12398,20110722,9999,GNOM,COMPLETE GENOMICS INC,5,14.291,14.82,14.36,121742,-0.028417,14.34,14.35,33061,14.79,778,-0.028417,0.001382,0.001569
12398,20110725,9999,GNOM,COMPLETE GENOMICS INC,,14,14.31,14.15,223234,-0.014624,14.14,14.15,33061,14.25,1020,-0.014624,-0.00628,-0.007896
12398,20110726,9999,GNOM,COMPLETE GENOMICS INC,,12.66,14.1,13.21,443426,-0.066431,13.2,13.21,33061,14.09,2837,-0.066431,-0.004541,-0.004074
12398,20110727,9999,GNOM,COMPLETE GENOMICS INC,,11.8,13.19,11.84,414640,-0.103709,11.84,11.87,33061,13.08,2766,-0.103709,-0.021724,-0.021165
12398,20110728,9999,GNOM,COMPLETE GENOMICS INC,5,11.45,12.01,11.52,318061,-0.027027,11.5,11.51,33061,11.91,1255,-0.027027,-0.003041,-0.001498
12398,20110729,9999,GNOM,COMPLETE GENOMICS INC,5,11.42,12.46,12.39,171390,0.075521,12.39,12.41,33061,11.42,1132,0.075521,-0.005649,-0.003083
12398,20110801,9999,GNOM,COMPLETE GENOMICS INC,5,11.8,12.74,12.31,187180,-0.006457,12.31,12.32,33070,12.49,1249,-0.006457,-0.00364,-0.000943
12398,20110802,9999,GNOM,COMPLETE GENOMICS INC,5,11.45,12.26,11.46,215231,-0.06905,11.46,11.48,33070,12.22,1338,-0.06905,-0.025654,-0.021105
12398,20110803,9999,GNOM,COMPLETE GENOMICS INC,,10.78,11.54,11.25,186509,-0.018325,11.25,11.27,33070,11.45,1181,-0.018325,0.004643,0.002141
12398,20110804,9999,GNOM,COMPLETE GENOMICS INC,5,7.57,10,7.71,1607895,-0.314667,7.7,7.71,33070,9.29,8543,-0.314667,-0.050395,-0.047471
12398,20110805,9999,GNOM,COMPLETE GENOMICS INC,,7,8.41,8.41,907334,0.090791,8.4,8.41,33070,8.02,4344,0.090791,-0.004807,-0.01258
12398,20110808,9999,GNOM,COMPLETE GENOMICS INC,,7,8.78,7.5,739184,-0.108204,7.5,7.51,33070,8.21,4714,-0.108204,-0.068767,-0.072433
12398,20110809,9999,GNOM,COMPLETE GENOMICS INC,,7.58,8.6,8.32,493564,0.109333,8.28,8.32,33070,7.83,2950,0.109333,0.051179,0.047104
12398,20110810,9999,GNOM,COMPLETE GENOMICS INC,,7.66,8.58,8.22,377592,-0.012019,8.2,8.22,33070,8.1,2492,-0.012019,-0.038886,-0.029925
12398,20110811,9999,GNOM,COMPLETE GENOMICS INC,,7.77,8.43,8.03,338389,-0.023114,8.01,8.03,33070,8.29,2485,-0.023114,0.045039,0.037071
12398,20110812,9999,GNOM,COMPLETE GENOMICS INC,,8.11,9.2,8.62,282580,0.073474,8.62,8.66,33070,8.17,1780,0.073474,0.004744,0.004153
12398,20110815,9999,GNOM,COMPLETE GENOMICS INC,,9.1,10.71,10.04,606108,0.164733,10.01,10.04,33070,9.19,4165,0.164733,0.02273,0.022971
12398,20110816,9999,GNOM,COMPLETE GENOMICS INC,5,8.81,9.79,8.93,418683,-0.110558,8.92,8.93,33070,9.79,2951,-0.110558,-0.011038,-0.012961
12398,20110817,9999,GNOM,COMPLETE GENOMICS INC,,8.4,9.13,8.55,190272,-0.042553,8.53,8.54,33070,9.03,1262,-0.042553,0.000641,0.000567
12398,20110818,9999,GNOM,COMPLETE GENOMICS INC,,7.5,8.49,7.6,343572,-0.111111,7.6,7.61,33070,8.29,1942,-0.111111,-0.045349,-0.041372
12398,20110819,9999,GNOM,COMPLETE GENOMICS INC,,7.39,7.99,7.51,214403,-0.011842,7.51,7.55,33070,7.61,1349,-0.011842,-0.015399,-0.012245
12398,20110822,9999,GNOM,COMPLETE GENOMICS INC,,7.44,7.96,7.89,322944,0.050599,7.87,7.89,33070,7.8,2076,0.050599,-0.000001,-0.002681
12398,20110823,9999,GNOM,COMPLETE GENOMICS INC,,7.9,8.7,8.59,235226,0.08872,8.58,8.59,33070,7.96,1578,0.08872,0.033725,0.028999
12398,20110824,9999,GNOM,COMPLETE GENOMICS INC,,8.02,8.575,8.13,445654,-0.053551,8.11,8.12,33070,8.55,2784,-0.053551,0.011433,0.007909
12398,20110825,9999,GNOM,COMPLETE GENOMICS INC,,7.61,8.47,8.25,387078,0.01476,8.24,8.28,33070,7.88,2502,0.01476,-0.015922,-0.015405
12398,20110826,9999,GNOM,COMPLETE GENOMICS INC,,7.88,9.18,8.96,280042,0.086061,8.96,9,33070,8.22,1773,0.086061,0.01634,0.015529
12398,20110829,9999,GNOM,COMPLETE GENOMICS INC,,9.06,9.6,9.51,157772,0.061384,9.49,9.51,33070,9.15,1018,0.061384,0.029507,0.031448
12398,20110830,9999,GNOM,COMPLETE GENOMICS INC,,9.28,9.95,9.93,273645,0.044164,9.89,9.92,33070,9.48,1990,0.044164,0.00357,0.004626
12398,20110831,9999,GNOM,COMPLETE GENOMICS INC,,8.94,9.99,9.06,282488,-0.087613,9.06,9.07,33070,9.99,1941,-0.087613,0.004997,0.002966
12398,20110901,9999,GNOM,COMPLETE GENOMICS INC,5,8.77,9.82,9.08,363173,0.002207,9.06,9.09,33070,9,2275,0.002207,-0.012218,-0.013873
12398,20110902,9999,GNOM,COMPLETE GENOMICS INC,,8.25,8.94,8.41,258954,-0.073789,8.41,8.43,33070,8.94,1657,-0.073789,-0.024662,-0.022485
12398,20110906,9999,GNOM,COMPLETE GENOMICS INC,5,8.115,8.7,8.64,304563,0.027348,8.66,8.67,33070,8.31,1655,0.027348,-0.00817,-0.009007
12398,20110907,9999,GNOM,COMPLETE GENOMICS INC,,8.78,9.15,9.08,183579,0.050926,9.07,9.08,33070,8.9,1142,0.050926,0.028946,0.027053
12398,20110908,9999,GNOM,COMPLETE GENOMICS INC,,8.5,9.24,8.6,330496,-0.052863,8.6,8.62,33070,9.05,1959,-0.052863,-0.010911,-0.012366
12398,20110909,9999,GNOM,COMPLETE GENOMICS INC,,8.04,8.63,8.18,207935,-0.048837,8.18,8.21,33070,8.57,1447,-0.048837,-0.02659,-0.021064
12398,20110912,9999,GNOM,COMPLETE GENOMICS INC,,7.86,8.39,8.15,186634,-0.003668,8.15,8.17,33070,8,1277,-0.003668,0.004088,-0.000512
12398,20110913,9999,GNOM,COMPLETE GENOMICS INC,,7.906,8.93,8.85,253522,0.08589,8.84,8.85,33070,8.17,1581,0.08589,0.010437,0.011502
12398,20110914,9999,GNOM,COMPLETE GENOMICS INC,,8.49,9.1,8.99,164643,0.015819,8.97,8.99,33070,8.9,1072,0.015819,0.012749,0.011627
12398,20110915,9999,GNOM,COMPLETE GENOMICS INC,,8.2725,9.26,8.34,508679,-0.072303,8.34,8.37,33070,9.26,2997,-0.072303,0.015329,0.008742
12398,20110916,9999,GNOM,COMPLETE GENOMICS INC,,7.51,8.5,7.73,517073,-0.073142,7.73,7.76,33070,8.45,2628,-0.073142,0.003486,0.001369
12398,20110919,9999,GNOM,COMPLETE GENOMICS INC,5,7.05,7.7301,7.13,329302,-0.07762,7.1,7.13,33070,7.64,1982,-0.07762,-0.010944,-0.014332
12398,20110920,9999,GNOM,COMPLETE GENOMICS INC,,6.63,7.45,6.96,646235,-0.023843,6.96,6.97,33070,7.24,3512,-0.023843,-0.004135,-0.009129
12398,20110921,9999,GNOM,COMPLETE GENOMICS INC,,6.55,7.13,6.6,302305,-0.051724,6.59,6.6,33070,6.94,1757,-0.051724,-0.029484,-0.024804
12398,20110922,9999,GNOM,COMPLETE GENOMICS INC,,5.955,6.39,6.07,366710,-0.080303,6.08,6.11,33070,6.3,2098,-0.080303,-0.034404,-0.03289
12398,20110923,9999,GNOM,COMPLETE GENOMICS INC,,5.885,6.24,6.06,364806,-0.001647,6.05,6.06,33070,6.05,2299,-0.001647,0.005628,0.007186
12398,20110926,9999,GNOM,COMPLETE GENOMICS INC,,6.005,6.47,6.39,309433,0.054455,6.37,6.39,33070,6.13,2068,0.054455,0.021538,0.009785
12398,20110927,9999,GNOM,COMPLETE GENOMICS INC,,6.37,6.8,6.6,320945,0.032864,6.58,6.59,33070,6.62,1853,0.032864,0.012834,0.015723
12398,20110928,9999,GNOM,COMPLETE GENOMICS INC,,5.981,6.68,5.99,241181,-0.092424,6,6.03,33070,6.68,1311,-0.092424,-0.023992,-0.025641
12398,20110929,9999,GNOM,COMPLETE GENOMICS INC,,5.48,6.17,5.97,304216,-0.003339,5.97,5.99,33070,6.17,1631,-0.003339,0.008163,0.006593
12398,20110930,9999,GNOM,COMPLETE GENOMICS INC,5,5.7601,6.151,5.87,299489,-0.01675,5.87,5.9,33101,5.93,1792,-0.01675,-0.024662,-0.01885
12398,20111003,9999,GNOM,COMPLETE GENOMICS INC,,5.3,6.19,5.3,308406,-0.097104,5.3,5.31,33101,5.83,1908,-0.097104,-0.032029,-0.041389
12398,20111004,9999,GNOM,COMPLETE GENOMICS INC,,4.76,5.5,5.48,414279,0.033962,5.47,5.49,33101,5.24,2357,0.033962,0.023523,0.027271
12398,20111005,9999,GNOM,COMPLETE GENOMICS INC,,5.32,5.68,5.66,216022,0.032847,5.63,5.64,33101,5.47,1398,0.032847,0.019306,0.017052
12398,20111006,9999,GNOM,COMPLETE GENOMICS INC,,5.55,5.92,5.88,221513,0.038869,5.87,5.88,33101,5.65,1057,0.038869,0.02048,0.020302
12398,20111007,9999,GNOM,COMPLETE GENOMICS INC,,5.14,5.9,5.23,312300,-0.110544,5.2,5.22,33101,5.88,1675,-0.110544,-0.010945,-0.013558
12398,20111010,9999,GNOM,COMPLETE GENOMICS INC,,5.32,5.96,5.75,174766,0.099426,5.74,5.75,33101,5.32,1126,0.099426,0.034255,0.029485
12398,20111011,9999,GNOM,COMPLETE GENOMICS INC,,5.33,5.71,5.37,302017,-0.066087,5.35,5.37,33101,5.71,1746,-0.066087,0.001038,0.005045
12398,20111012,9999,GNOM,COMPLETE GENOMICS INC,,4.94,5.42,4.95,473263,-0.078212,4.95,4.96,33101,5.42,2912,-0.078212,0.011647,0.015032
12398,20111013,9999,GNOM,COMPLETE GENOMICS INC,,4.7,5.08,4.72,571727,-0.046465,4.7,4.72,33101,4.94,3404,-0.046465,-0.003016,-0.000785
12398,20111014,9999,GNOM,COMPLETE GENOMICS INC,5,4.8,5.8,5.5,936070,0.165254,5.48,5.5,33101,4.85,4230,0.165254,0.017724,0.014636
12398,20111017,9999,GNOM,COMPLETE GENOMICS INC,,5.1,5.63,5.5,356803,0,5.5,5.51,33101,5.38,2015,0,-0.020866,-0.02031
12398,20111018,9999,GNOM,COMPLETE GENOMICS INC,,5.22,5.62,5.4,348946,-0.018182,5.38,5.4,33101,5.49,1550,-0.018182,0.020777,0.018455
12398,20111019,9999,GNOM,COMPLETE GENOMICS INC,,5.08,5.42,5.11,493417,-0.053704,5.11,5.12,33101,5.42,2086,-0.053704,-0.014271,-0.012823
12398,20111020,9999,GNOM,COMPLETE GENOMICS INC,,4.97,5.35,5.01,312415,-0.019569,5.01,5.02,33101,5.14,1896,-0.019569,0.003855,0.000346
12398,20111021,9999,GNOM,COMPLETE GENOMICS INC,,5.01,5.4,5.3,279519,0.057884,5.3,5.32,33101,5.17,1796,0.057884,0.019233,0.016308
12398,20111024,9999,GNOM,COMPLETE GENOMICS INC,,5.18,5.6,5.2,392294,-0.018868,5.19,5.2,33101,5.34,2724,-0.018868,0.016704,0.021862
12398,20111025,9999,GNOM,COMPLETE GENOMICS INC,,4.93,5.29,5.01,335304,-0.036538,5.01,5.02,33101,5.17,2196,-0.036538,-0.019819,-0.017923
12398,20111026,9999,GNOM,COMPLETE GENOMICS INC,,4.93,5.26,5.19,267536,0.035928,5.18,5.19,33101,5.18,1793,0.035928,0.011488,0.013112
12398,20111027,9999,GNOM,COMPLETE GENOMICS INC,,5.12,5.48,5.21,271616,0.003854,5.2,5.21,33101,5.46,1836,0.003854,0.036079,0.036164
12398,20111028,9999,GNOM,COMPLETE GENOMICS INC,5,4.96,5.32,5,210956,-0.040307,5,5.01,33101,5.19,1506,-0.040307,0.00019,0.00033
12398,20111031,9999,GNOM,COMPLETE GENOMICS INC,,4.9,5.8,5.7,451556,0.14,5.69,5.71,33101,5,2391,0.14,-0.02465,-0.019074
12398,20111101,9999,GNOM,COMPLETE GENOMICS INC,5,5.24,5.63,5.42,466020,-0.049123,5.42,5.43,33183,5.29,2869,-0.049123,-0.028634,-0.025608
12398,20111102,9999,GNOM,COMPLETE GENOMICS INC,,5.13,5.62,5.21,237890,-0.038745,5.21,5.22,33183,5.62,1493,-0.038745,0.016945,0.017805
12398,20111103,9999,GNOM,COMPLETE GENOMICS INC,,4.984,5.61,5.52,262303,0.059501,5.5,5.52,33183,5.31,1763,0.059501,0.019006,0.01579
12398,20111104,9999,GNOM,COMPLETE GENOMICS INC,,5.25,5.6,5.39,245692,-0.023551,5.38,5.39,33183,5.43,1495,-0.023551,-0.005583,-0.00431
12398,20111107,9999,GNOM,COMPLETE GENOMICS INC,,4.97,5.49,5.05,377843,-0.06308,5.04,5.05,33183,5.49,2200,-0.06308,0.004856,0.000102
12398,20111108,9999,GNOM,COMPLETE GENOMICS INC,,4.6,5.12,4.84,613970,-0.041584,4.83,4.84,33183,5.01,4034,-0.041584,0.01077,0.010293
12398,20111109,9999,GNOM,COMPLETE GENOMICS INC,,4.37,4.68,4.38,623117,-0.095041,4.38,4.4,33183,4.61,3896,-0.095041,-0.037935,-0.033721
12398,20111110,9999,GNOM,COMPLETE GENOMICS INC,,4.22,4.64,4.43,494593,0.011415,4.41,4.43,33183,4.5,2945,0.011415,0.007259,0.004295
12398,20111111,9999,GNOM,COMPLETE GENOMICS INC,,4.54,5.139,4.97,380304,0.121896,4.96,4.97,33183,4.56,2581,0.121896,0.019767,0.016413
12398,20111114,9999,GNOM,COMPLETE GENOMICS INC,,4.3099,4.97,4.48,400283,-0.098592,4.46,4.48,33183,4.97,2312,-0.098592,-0.009495,-0.011298
12398,20111115,9999,GNOM,COMPLETE GENOMICS INC,,4.32,4.62,4.53,263834,0.011161,4.52,4.53,33183,4.45,1911,0.011161,0.004354,0.005009
12398,20111116,9999,GNOM,COMPLETE GENOMICS INC,,4.33,4.67,4.41,464997,-0.02649,4.38,4.41,33183,4.44,3247,-0.02649,-0.015294,-0.010514
12398,20111117,9999,GNOM,COMPLETE GENOMICS INC,,4.18,4.5,4.35,363172,-0.013605,4.35,4.37,33183,4.39,2626,-0.013605,-0.017226,-0.013572
12398,20111118,9999,GNOM,COMPLETE GENOMICS INC,,4.36,4.56,4.4,217073,0.011494,4.39,4.4,33183,4.38,1580,0.011494,-0.00036,0.00091
12398,20111121,9999,GNOM,COMPLETE GENOMICS INC,,3.94,4.24,4.02,297619,-0.086364,4.01,4.03,33183,4.24,1553,-0.086364,-0.018747,-0.019219
12398,20111122,9999,GNOM,COMPLETE GENOMICS INC,,3.96,4.68,4.59,387167,0.141791,4.59,4.61,33183,4.02,2075,0.141791,-0.004178,-0.004975
12398,20111123,9999,GNOM,COMPLETE GENOMICS INC,,4.06,4.54,4.07,259717,-0.11329,4.07,4.09,33183,4.52,1554,-0.11329,-0.023265,-0.022619
12398,20111125,9999,GNOM,COMPLETE GENOMICS INC,,4,4.12,4.01,32848,-0.014742,4,4.01,33183,4.07,202,-0.014742,-0.003742,-0.004938
12398,20111128,9999,GNOM,COMPLETE GENOMICS INC,,3.781,4.44,3.88,386526,-0.032419,3.87,3.88,33183,4.16,2024,-0.032419,0.030371,0.027825
12398,20111129,9999,GNOM,COMPLETE GENOMICS INC,,3.49,3.97,3.52,378220,-0.092784,3.49,3.51,33183,3.87,2134,-0.092784,0.001993,-0.002277
12398,20111130,9999,GNOM,COMPLETE GENOMICS INC,,3.6,3.91,3.7,448536,0.051136,3.67,3.7,33183,3.7,1896,0.051136,0.043756,0.038087
12398,20111201,9999,GNOM,COMPLETE GENOMICS INC,,3.56,3.77,3.64,149881,-0.016216,3.63,3.65,33183,3.68,922,-0.016216,-0.002335,-0.003719
12398,20111202,9999,GNOM,COMPLETE GENOMICS INC,,3.43,3.74,3.49,551749,-0.041209,3.46,3.49,33183,3.66,1071,-0.041209,0.000065,0.004847
12398,20111205,9999,GNOM,COMPLETE GENOMICS INC,,3.29,3.589,3.32,305433,-0.048711,3.29,3.3,33183,3.55,1349,-0.048711,0.010254,0.009643
12398,20111206,9999,GNOM,COMPLETE GENOMICS INC,,2.99,3.31,3.11,608667,-0.063253,3.1,3.12,33183,3.3,2439,-0.063253,0.000367,-0.000547
12398,20111207,9999,GNOM,COMPLETE GENOMICS INC,,2.99,3.22,3.04,527854,-0.022508,3.03,3.04,33183,3.1,2487,-0.022508,0.001647,0.00065
12398,20111208,9999,GNOM,COMPLETE GENOMICS INC,,2.93,3.06,2.94,333978,-0.032895,2.94,2.95,33183,3,1152,-0.032895,-0.022946,-0.02281
12398,20111209,9999,GNOM,COMPLETE GENOMICS INC,,2.93,3.01,3,333225,0.020408,2.98,3,33183,2.94,1409,0.020408,0.01772,0.018867
12398,20111212,9999,GNOM,COMPLETE GENOMICS INC,5,2.91,3.01,2.97,274539,-0.01,2.96,2.97,33183,2.95,1548,-0.01,-0.015582,-0.013633
12398,20111213,9999,GNOM,COMPLETE GENOMICS INC,5,2.9,3.1,2.97,223023,0,2.94,2.96,33183,2.97,1195,0,-0.011498,-0.012977
12398,20111214,9999,GNOM,COMPLETE GENOMICS INC,,2.71,3.239,2.81,636045,-0.053872,2.81,2.83,33183,3.04,2459,-0.053872,-0.012833,-0.009275
12398,20111215,9999,GNOM,COMPLETE GENOMICS INC,,2.69,3.15,2.73,358902,-0.02847,2.71,2.73,33183,2.87,2181,-0.02847,0.003637,0.002408
12398,20111216,9999,GNOM,COMPLETE GENOMICS INC,,2.57,2.795,2.63,363829,-0.03663,2.67,2.68,33183,2.77,1617,-0.03663,0.004859,0.003314
12398,20111219,9999,GNOM,COMPLETE GENOMICS INC,,2.7,2.9,2.76,291985,0.04943,2.76,2.78,33183,2.7,1562,0.04943,-0.012671,-0.014777
12398,20111220,9999,GNOM,COMPLETE GENOMICS INC,,2.85,3.08,3.04,250891,0.101449,3.02,3.04,33183,2.85,973,0.101449,0.029812,0.026714
12398,20111221,9999,GNOM,COMPLETE GENOMICS INC,,2.94,3.18,3.1,150071,0.019737,3.09,3.1,33183,3.03,691,0.019737,0.001868,0.001089
12398,20111222,9999,GNOM,COMPLETE GENOMICS INC,,3.01,3.29,3.18,280985,0.025807,3.15,3.18,33183,3.11,1524,0.025807,0.008685,0.008057
12398,20111223,9999,GNOM,COMPLETE GENOMICS INC,,2.81,3.14,2.85,171290,-0.103774,2.84,2.85,33183,3.14,745,-0.103774,0.007787,0.003873
12398,20111227,9999,GNOM,COMPLETE GENOMICS INC,,2.67,2.85,2.72,111008,-0.045614,2.71,2.72,33183,2.85,504,-0.045614,-0.000047,-0.001196
12398,20111228,9999,GNOM,COMPLETE GENOMICS INC,,2.57,2.75,2.63,173959,-0.033088,2.63,2.64,33183,2.75,890,-0.033088,-0.013924,-0.014109
12398,20111229,9999,GNOM,COMPLETE GENOMICS INC,,2.6,3.04,2.88,597596,0.095057,2.86,2.88,33183,2.65,1190,0.095057,0.010708,0.008676
12398,20111230,9999,GNOM,COMPLETE GENOMICS INC,5,2.75,3.1,2.93,391528,0.017361,2.9,2.91,33410,2.86,1475,0.017361,-0.002615,0.002135
12398,20120103,9999,GNOM,COMPLETE GENOMICS INC,,2.82,3.0193,2.9,113013,-0.010239,2.89,2.9,33410,3.01,504,-0.010239,0.016088,0.016986
12398,20120104,9999,GNOM,COMPLETE GENOMICS INC,5,2.97,3.67,3.51,1121950,0.210345,3.51,3.54,33410,3.08,3708,0.210345,-0.000589,-0.001452
12398,20120105,9999,GNOM,COMPLETE GENOMICS INC,,3.3,3.74,3.38,618154,-0.037037,3.35,3.38,33410,3.53,2061,-0.037037,0.002924,0.004036
12398,20120106,9999,GNOM,COMPLETE GENOMICS INC,,3.275,3.882,3.71,664024,0.097633,3.69,3.7,33410,3.38,2361,0.097633,-0.003156,-0.000628
12398,20120109,9999,GNOM,COMPLETE GENOMICS INC,,3.75,4.18,3.89,1084667,0.048518,3.88,3.89,33410,3.75,4241,0.048518,0.002795,0.004414
12398,20120110,9999,GNOM,COMPLETE GENOMICS INC,,2.87,3.75,2.94,2074912,-0.244216,2.92,2.93,33410,3.75,6427,-0.244216,0.010411,0.011106
12398,20120111,9999,GNOM,COMPLETE GENOMICS INC,,2.9,3.1,2.99,786694,0.017007,2.98,2.99,33410,2.95,2300,0.017007,0.00085,0.004343
12398,20120112,9999,GNOM,COMPLETE GENOMICS INC,,2.7,3.0499,2.86,575223,-0.043478,2.87,2.88,33410,2.99,1958,-0.043478,0.003016,0.005018
12398,20120113,9999,GNOM,COMPLETE GENOMICS INC,,2.76,3,2.86,566386,0,2.86,2.87,33410,2.83,2130,0,-0.005316,-0.005025
12398,20120117,9999,GNOM,COMPLETE GENOMICS INC,,2.67,2.96,2.71,532241,-0.052448,2.7,2.71,33410,2.94,1506,-0.052448,0.003896,0.003736
12398,20120118,9999,GNOM,COMPLETE GENOMICS INC,,2.49,2.71,2.52,1780561,-0.070111,2.49,2.52,33410,2.7,4791,-0.070111,0.012182,0.013639
12398,20120119,9999,GNOM,COMPLETE GENOMICS INC,,2.5,2.7,2.58,589342,0.02381,2.57,2.58,33410,2.52,1945,0.02381,0.005555,0.005428
12398,20120120,9999,GNOM,COMPLETE GENOMICS INC,,2.36,2.644,2.39,880382,-0.073643,2.39,2.4,33410,2.62,2803,-0.073643,0.000859,0.003648
12398,20120123,9999,GNOM,COMPLETE GENOMICS INC,,2.21,2.47,2.42,459460,0.012552,2.42,2.44,33410,2.41,1714,0.012552,0.001594,0.001815
12398,20120124,9999,GNOM,COMPLETE GENOMICS INC,,2.351,2.55,2.5,440733,0.033058,2.5,2.51,33410,2.41,1116,0.033058,-0.000865,0.003335
12398,20120125,9999,GNOM,COMPLETE GENOMICS INC,,2.73,3.3,2.99,3688928,0.196,2.98,2.99,33410,2.9,10018,0.196,0.009939,0.009521
12398,20120126,9999,GNOM,COMPLETE GENOMICS INC,,2.8,3.0002,2.84,733021,-0.050167,2.83,2.84,33410,3,1963,-0.050167,-0.004942,-0.001108
12398,20120127,9999,GNOM,COMPLETE GENOMICS INC,5,2.81,3.05,2.98,1084159,0.049296,2.97,2.98,33410,2.85,3391,0.049296,0.000576,0.006083
12398,20120130,9999,GNOM,COMPLETE GENOMICS INC,5,2.8,3.11,2.97,1493318,-0.003356,2.97,2.98,33410,2.95,4303,-0.003356,-0.003788,-0.004873
12398,20120131,9999,GNOM,COMPLETE GENOMICS INC,,2.88,3.07,2.96,742474,-0.003367,2.95,2.96,33410,2.94,2324,-0.003367,-0.000083,0.00176
12398,20120201,9999,GNOM,COMPLETE GENOMICS INC,,2.911,3.1,3,1669899,0.013514,2.99,3,33410,3,5201,0.013514,0.010979,0.013626
12398,20120202,9999,GNOM,COMPLETE GENOMICS INC,,2.9,3.06,3,456077,0,2.99,3,33410,3,1694,0,0.001769,0.004356
12398,20120203,9999,GNOM,COMPLETE GENOMICS INC,,2.95,3.0599,3.01,631703,0.003333,2.99,3.01,33410,3.05,2208,0.003333,0.014518,0.014863
12398,20120206,9999,GNOM,COMPLETE GENOMICS INC,,3.11,3.63,3.5,3606474,0.162791,3.48,3.5,33410,3.12,10511,0.162791,-0.001007,-0.000468
12398,20120207,9999,GNOM,COMPLETE GENOMICS INC,,3.22,3.54,3.29,1835964,-0.06,3.28,3.29,33410,3.5,5375,-0.06,0.001371,0.001456
12398,20120208,9999,GNOM,COMPLETE GENOMICS INC,,3.18,3.3799,3.28,559901,-0.00304,3.26,3.28,33410,3.3,1853,-0.00304,0.001945,0.003403
12398,20120209,9999,GNOM,COMPLETE GENOMICS INC,,3.22,3.55,3.54,875453,0.079268,3.53,3.54,33410,3.33,2483,0.079268,0.000975,0.000305
12398,20120210,9999,GNOM,COMPLETE GENOMICS INC,,3.27,3.72,3.29,1257320,-0.070621,3.28,3.29,33410,3.52,4127,-0.070621,-0.008403,-0.009804
12398,20120213,9999,GNOM,COMPLETE GENOMICS INC,5,3.93,5.42,4.66,27438963,0.416413,4.64,4.66,33410,4.06,70214,0.416413,0.007227,0.00919
12398,20120214,9999,GNOM,COMPLETE GENOMICS INC,5,4.01,4.75,4.04,6444944,-0.133047,4.02,4.04,33410,4.41,17075,-0.133047,-0.001719,-0.004104
12398,20120215,9999,GNOM,COMPLETE GENOMICS INC,,4,4.49,4.05,4385672,0.002475,4.04,4.05,33410,4.19,11010,0.002475,-0.004492,-0.003297
12398,20120216,9999,GNOM,COMPLETE GENOMICS INC,5,3.82,4.19,4,2224964,-0.012346,3.99,4,33410,3.93,5907,-0.012346,0.012339,0.011434
12398,20120217,9999,GNOM,COMPLETE GENOMICS INC,5,3.84,4.05,3.92,1434823,-0.02,3.9,3.92,33410,4.05,4532,-0.02,0.001314,0.002643
12398,20120221,9999,GNOM,COMPLETE GENOMICS INC,,3.85,4.2,4.03,5086471,0.028061,4.01,4.03,33410,3.93,12624,0.028061,0.000131,-0.00227
12398,20120222,9999,GNOM,COMPLETE GENOMICS INC,,4.11,4.53,4.3,4183231,0.066998,4.28,4.3,33410,4.25,10335,0.066998,-0.003181,-0.004243
12398,20120223,9999,GNOM,COMPLETE GENOMICS INC,,4.02,4.3545,4.16,1725497,-0.032558,4.15,4.16,33410,4.32,6658,-0.032558,0.005573,0.008018
12398,20120224,9999,GNOM,COMPLETE GENOMICS INC,,4.0601,4.34,4.12,1192073,-0.009615,4.1,4.12,33410,4.18,4055,-0.009615,0.001408,0.000398
12398,20120227,9999,GNOM,COMPLETE GENOMICS INC,,3.84,4.17,3.9,1495996,-0.053398,3.89,3.9,33410,4.1,4306,-0.053398,0.000735,-0.000826
12398,20120228,9999,GNOM,COMPLETE GENOMICS INC,,3.68,3.95,3.78,1028443,-0.030769,3.75,3.78,33410,3.95,3248,-0.030769,0.002771,0.000473
12398,20120229,9999,GNOM,COMPLETE GENOMICS INC,5,3.56,3.85,3.72,1198878,-0.015873,3.72,3.74,33419,3.75,3656,-0.015873,-0.005792,-0.009222
12398,20120301,9999,GNOM,COMPLETE GENOMICS INC,,3.58,3.77,3.68,799113,-0.010753,3.66,3.68,33419,3.77,3233,-0.010753,0.006707,0.004577
12398,20120302,9999,GNOM,COMPLETE GENOMICS INC,5,3.65,4.19,4,2769269,0.086957,4,4.01,33419,3.66,9219,0.086957,-0.004969,-0.008092
12398,20120305,9999,GNOM,COMPLETE GENOMICS INC,,3.92,4.25,4.12,1814535,0.03,4.12,4.14,33419,4.02,6350,0.03,-0.004618,-0.003572
12398,20120306,9999,GNOM,COMPLETE GENOMICS INC,,3.7,4.08,3.74,1501534,-0.092233,3.73,3.75,33419,4.08,4266,-0.092233,-0.017408,-0.017324
12398,20120307,9999,GNOM,COMPLETE GENOMICS INC,,3.65,3.91,3.69,717795,-0.013369,3.67,3.69,33419,3.79,2338,-0.013369,0.007703,0.009368
12398,20120308,9999,GNOM,COMPLETE GENOMICS INC,,3.77,3.95,3.83,1082953,0.03794,3.81,3.83,33419,3.78,3993,0.03794,0.010707,0.01057
12398,20120309,9999,GNOM,COMPLETE GENOMICS INC,,3.34,3.74,3.49,2185758,-0.088773,3.48,3.49,33419,3.7,6369,-0.088773,0.004494,0.007759
12398,20120312,9999,GNOM,COMPLETE GENOMICS INC,,3.04,3.55,3.09,1344185,-0.114613,3.1,3.13,33419,3.55,3810,-0.114613,-0.001423,-0.001807
12398,20120313,9999,GNOM,COMPLETE GENOMICS INC,,3.1,3.29,3.19,1207929,0.032363,3.18,3.19,33419,3.11,5044,0.032363,0.017258,0.014083
12398,20120314,9999,GNOM,COMPLETE GENOMICS INC,,2.98,3.2201,3.03,1502328,-0.050157,3.03,3.04,33419,3.21,6151,-0.050157,-0.003961,-0.00684
12398,20120315,9999,GNOM,COMPLETE GENOMICS INC,,2.84,3.0799,2.86,1465980,-0.056106,2.86,2.87,33419,3.04,5057,-0.056106,0.006468,0.004775
12398,20120316,9999,GNOM,COMPLETE GENOMICS INC,,2.76,3.01,2.91,1749997,0.017483,2.91,2.93,33419,2.85,6967,0.017483,0.001252,0.001174
12398,20120319,9999,GNOM,COMPLETE GENOMICS INC,,2.82,3.0045,2.89,1107472,-0.006873,2.89,2.91,33419,2.97,4054,-0.006873,0.003981,0.004725
12398,20120320,9999,GNOM,COMPLETE GENOMICS INC,,2.83,3.02,2.89,1317869,0,2.87,2.89,33419,2.89,4941,0,-0.004522,-0.005376
12398,20120321,9999,GNOM,COMPLETE GENOMICS INC,,2.82,2.95,2.87,611767,-0.00692,2.86,2.87,33419,2.87,2827,-0.00692,-0.001166,0.000988
12398,20120322,9999,GNOM,COMPLETE GENOMICS INC,,2.62,2.97,2.73,1087910,-0.04878,2.71,2.73,33419,2.97,3055,-0.04878,-0.008155,-0.008314
12398,20120323,9999,GNOM,COMPLETE GENOMICS INC,,2.612,2.8,2.77,423329,0.014652,2.75,2.76,33419,2.7,1619,0.014652,0.004456,0.007128
12398,20120326,9999,GNOM,COMPLETE GENOMICS INC,,2.72,2.85,2.82,566710,0.018051,2.82,2.83,33419,2.8,2780,0.018051,0.013895,0.01128
12398,20120327,9999,GNOM,COMPLETE GENOMICS INC,,2.75,2.99,2.93,897391,0.039007,2.92,2.93,33419,2.85,3291,0.039007,-0.003741,-0.002922
12398,20120328,9999,GNOM,COMPLETE GENOMICS INC,,2.77,2.98,2.77,698519,-0.054608,2.77,2.79,33419,2.94,2008,-0.054608,-0.00579,-0.005661
12398,20120329,9999,GNOM,COMPLETE GENOMICS INC,,2.75,2.85,2.81,378623,0.01444,2.8,2.81,33419,2.85,1475,0.01444,-0.001927,-0.001684
12398,20120330,9999,GNOM,COMPLETE GENOMICS INC,5,2.77,2.88,2.82,301483,0.003559,2.81,2.82,33704,2.84,1105,0.003559,0.00329,0.001961
12398,20120402,9999,GNOM,COMPLETE GENOMICS INC,,2.8,3.01,3.01,1128267,0.067376,3,3.01,33704,2.88,3470,0.067376,0.007941,0.007247
12398,20120403,9999,GNOM,COMPLETE GENOMICS INC,,3.01,3.46,3.36,3312935,0.116279,3.34,3.36,33704,3.01,8514,0.116279,-0.004612,-0.006652
12398,20120404,9999,GNOM,COMPLETE GENOMICS INC,,3.21,3.5,3.25,1125651,-0.032738,3.22,3.24,33704,3.33,3254,-0.032738,-0.011834,-0.011988
12398,20120405,9999,GNOM,COMPLETE GENOMICS INC,5,2.94,3.23,2.97,1113864,-0.086154,2.97,2.98,33704,3.21,3285,-0.086154,-0.001053,-0.000752
12398,20120409,9999,GNOM,COMPLETE GENOMICS INC,,2.8,3.04,2.92,759389,-0.016835,2.92,2.97,33704,2.92,3227,-0.016835,-0.011387,-0.011952
12398,20120410,9999,GNOM,COMPLETE GENOMICS INC,,2.65,2.98,2.75,811966,-0.058219,2.74,2.76,33704,2.93,3210,-0.058219,-0.018025,-0.016297
12398,20120411,9999,GNOM,COMPLETE GENOMICS INC,,2.71,2.97,2.75,735300,0,2.73,2.74,33704,2.76,3515,0,0.008376,0.011324
12398,20120412,9999,GNOM,COMPLETE GENOMICS INC,,2.67,2.89,2.75,416826,0,2.74,2.75,33704,2.74,2166,0,0.015043,0.012911
12398,20120413,9999,GNOM,COMPLETE GENOMICS INC,,2.7,3.1,2.83,1177289,0.029091,2.8,2.83,33704,2.79,3544,0.029091,-0.012399,-0.010688
12398,20120416,9999,GNOM,COMPLETE GENOMICS INC,,2.65,2.95,2.72,1792619,-0.038869,2.71,2.72,33704,2.89,4268,-0.038869,-0.000595,-0.000054
12398,20120417,9999,GNOM,COMPLETE GENOMICS INC,,2.67,2.77,2.68,697161,-0.014706,2.67,2.68,33704,2.75,2483,-0.014706,0.014944,0.010745
12398,20120418,9999,GNOM,COMPLETE GENOMICS INC,,2.58,2.86,2.6,2795032,-0.029851,2.61,2.62,33704,2.65,6827,-0.029851,-0.00404,-0.006206
12398,20120419,9999,GNOM,COMPLETE GENOMICS INC,,2.68,2.95,2.72,3781603,0.046154,2.7,2.71,33704,2.8,11041,0.046154,-0.004708,-0.002428
12398,20120420,9999,GNOM,COMPLETE GENOMICS INC,,2.75,2.91,2.8,1248973,0.029412,2.79,2.8,33704,2.85,4742,0.029412,0.001613,0.003775
12398,20120423,9999,GNOM,COMPLETE GENOMICS INC,,2.67,2.82,2.74,638336,-0.021429,2.72,2.73,33704,2.8,3165,-0.021429,-0.009589,-0.009782
12398,20120424,9999,GNOM,COMPLETE GENOMICS INC,5,2.75,2.88,2.82,460537,0.029197,2.81,2.82,33886,2.88,1642,0.029197,0.003243,0.005758
12398,20120425,9999,GNOM,COMPLETE GENOMICS INC,,2.72,2.86,2.82,553974,0,2.81,2.82,33886,2.86,1982,0,0.013724,0.010255
12398,20120426,9999,GNOM,COMPLETE GENOMICS INC,,2.76,2.83,2.78,281846,-0.014184,2.77,2.78,33886,2.8,1297,-0.014184,0.006688,0.005672
12398,20120427,9999,GNOM,COMPLETE GENOMICS INC,,2.65,2.8,2.71,613347,-0.02518,2.71,2.72,33886,2.8,1829,-0.02518,0.003835,0.005222
12398,20120430,9999,GNOM,COMPLETE GENOMICS INC,5,2.65,2.75,2.7,393337,-0.00369,2.69,2.7,33886,2.65,1230,-0.00369,-0.004337,-0.004102
12398,20120501,9999,GNOM,COMPLETE GENOMICS INC,,2.62,2.72,2.64,1409998,-0.022222,2.64,2.65,33886,2.69,2915,-0.022222,0.004837,0.001615
12398,20120502,9999,GNOM,COMPLETE GENOMICS INC,,2.51,2.701,2.54,682972,-0.037879,2.53,2.54,33886,2.67,2192,-0.037879,-0.002169,-0.000587
12398,20120503,9999,GNOM,COMPLETE GENOMICS INC,5,2.32,2.64,2.53,790386,-0.003937,2.53,2.54,33886,2.51,1814,-0.003937,-0.010087,-0.010968
12398,20120504,9999,GNOM,COMPLETE GENOMICS INC,,2.41,2.54,2.45,263132,-0.031621,2.45,2.46,33886,2.53,1023,-0.031621,-0.015729,-0.012771
12398,20120507,9999,GNOM,COMPLETE GENOMICS INC,5,2.4,2.69,2.68,719997,0.093878,2.68,2.69,33886,2.45,2490,0.093878,0.000516,0.001052
12398,20120508,9999,GNOM,COMPLETE GENOMICS INC,,2.22,2.6,2.24,1353171,-0.164179,2.23,2.24,33886,2.6,3708,-0.164179,-0.00546,-0.004518
12398,20120509,9999,GNOM,COMPLETE GENOMICS INC,,2,2.3,2.02,1134074,-0.098214,2.02,2.03,33886,2.21,3282,-0.098214,-0.0063,-0.004224
12398,20120510,9999,GNOM,COMPLETE GENOMICS INC,,2.04,2.2,2.05,671109,0.014851,2.05,2.06,33886,2.04,1795,0.014851,0.002666,0.002531
12398,20120511,9999,GNOM,COMPLETE GENOMICS INC,,1.79,2.08,1.98,1191821,-0.034146,1.97,1.98,33886,2.05,3539,-0.034146,-0.002942,-0.003938
12398,20120514,9999,GNOM,COMPLETE GENOMICS INC,,1.83,1.97,1.87,488307,-0.055556,1.86,1.87,33886,1.93,1405,-0.055556,-0.012243,-0.012493
12398,20120515,9999,GNOM,COMPLETE GENOMICS INC,,1.63,1.84,1.69,902907,-0.096257,1.68,1.69,33886,1.84,2090,-0.096257,-0.006167,-0.006623
12398,20120516,9999,GNOM,COMPLETE GENOMICS INC,5,1.68,1.93,1.75,941067,0.035503,1.75,1.76,33886,1.68,2609,0.035503,-0.005159,-0.007936
12398,20120517,9999,GNOM,COMPLETE GENOMICS INC,,1.6401,1.78,1.69,299889,-0.034286,1.67,1.69,33886,1.78,1014,-0.034286,-0.015942,-0.016
12398,20120518,9999,GNOM,COMPLETE GENOMICS INC,,1.57,1.7,1.64,370294,-0.029586,1.64,1.66,33886,1.7,1256,-0.029586,-0.008152,-0.009713
12398,20120521,9999,GNOM,COMPLETE GENOMICS INC,5,1.57,1.67,1.65,450746,0.006098,1.63,1.65,33886,1.65,1062,0.006098,0.017725,0.016239
12398,20120522,9999,GNOM,COMPLETE GENOMICS INC,,1.63,1.83,1.75,495868,0.060606,1.73,1.75,33886,1.63,948,0.060606,-0.000537,-0.004098
12398,20120523,9999,GNOM,COMPLETE GENOMICS INC,5,1.72,1.9,1.84,540196,0.051429,1.83,1.84,33886,1.77,1515,0.051429,0.002735,0.002348
12398,20120524,9999,GNOM,COMPLETE GENOMICS INC,5,1.88,2.59,2.33,8200088,0.266304,2.32,2.33,33886,1.88,21685,0.266304,0.00089,0.00165
12398,20120525,9999,GNOM,COMPLETE GENOMICS INC,,2.72,3.32,3,16220428,0.287554,2.98,3,33886,2.8,38317,0.287554,-0.001556,0.001189
12398,20120529,9999,GNOM,COMPLETE GENOMICS INC,,2.6,3.2,2.61,6808910,-0.13,2.6,2.61,33886,3.08,18345,-0.13,0.011087,0.00989
12398,20120530,9999,GNOM,COMPLETE GENOMICS INC,,2.25,2.55,2.31,2530676,-0.114943,2.29,2.3,33886,2.55,8185,-0.114943,-0.015727,-0.01451
12398,20120531,9999,GNOM,COMPLETE GENOMICS INC,,2.26,2.46,2.33,1243316,0.008658,2.32,2.33,33886,2.31,3835,0.008658,-0.00205,-0.000549
12398,20120601,9999,GNOM,COMPLETE GENOMICS INC,,2.17,2.44,2.19,1970052,-0.060086,2.19,2.21,33886,2.24,5420,-0.060086,-0.024626,-0.02054
12398,20120604,9999,GNOM,COMPLETE GENOMICS INC,,1.9299,2.24,2.04,1184957,-0.068493,2.04,2.05,33886,2.2,3314,-0.068493,-0.001032,-0.002296
12398,20120605,9999,GNOM,COMPLETE GENOMICS INC,,2.0599,2.39,2.18,2451067,0.068628,2.15,2.17,33886,2.25,6121,0.068628,0.007817,0.008022
12398,20120606,9999,GNOM,COMPLETE GENOMICS INC,,2.06,2.2001,2.14,1965551,-0.018349,2.12,2.14,33886,2.19,4587,-0.018349,0.022479,0.019578
12398,20120607,9999,GNOM,COMPLETE GENOMICS INC,,1.87,2.18,1.91,817308,-0.107477,1.9,1.91,33886,2.15,2437,-0.107477,-0.00144,-0.002134
12398,20120608,9999,GNOM,COMPLETE GENOMICS INC,,1.83,1.98,1.88,704204,-0.015707,1.87,1.88,33886,1.88,1904,-0.015707,0.007106,0.00539
12398,20120611,9999,GNOM,COMPLETE GENOMICS INC,,1.82,1.95,1.82,474279,-0.031915,1.82,1.83,33886,1.93,1323,-0.031915,-0.01399,-0.013517
12398,20120612,9999,GNOM,COMPLETE GENOMICS INC,,1.7,1.85,1.8,618291,-0.010989,1.79,1.8,33886,1.85,1850,-0.010989,0.011638,0.008853
12398,20120613,9999,GNOM,COMPLETE GENOMICS INC,,1.71,1.8401,1.79,507247,-0.005556,1.79,1.8,33886,1.82,2083,-0.005556,-0.007339,-0.007641
12398,20120614,9999,GNOM,COMPLETE GENOMICS INC,,1.75,2.07,2.02,1350775,0.128492,2.01,2.02,33886,1.8,4236,0.128492,0.009466,0.00785
12398,20120615,9999,GNOM,COMPLETE GENOMICS INC,,1.89,2.02,1.96,434892,-0.029703,1.96,1.97,33886,2.02,1294,-0.029703,0.01003,0.008481
12398,20120618,9999,GNOM,COMPLETE GENOMICS INC,,1.85,2.28,2.2,2004708,0.122449,2.2,2.21,33886,1.9,5195,0.122449,0.002173,0.001733
12398,20120619,9999,GNOM,COMPLETE GENOMICS INC,,2.1,2.35,2.13,1681902,-0.031818,2.11,2.13,33886,2.23,4286,-0.031818,0.011545,0.012798
12398,20120620,9999,GNOM,COMPLETE GENOMICS INC,,2,2.24,2.03,729242,-0.046948,2.01,2.02,33886,2.11,2717,-0.046948,-0.001541,-0.000687
12398,20120621,9999,GNOM,COMPLETE GENOMICS INC,,1.88,2.09,1.91,805473,-0.059113,1.91,1.92,33886,2.08,2413,-0.059113,-0.023661,-0.018777
12398,20120622,9999,GNOM,COMPLETE GENOMICS INC,,1.9,1.98,1.91,2040016,0,1.89,1.9,33886,1.91,2653,0,0.007238,0.007544
12398,20120625,9999,GNOM,COMPLETE GENOMICS INC,,1.9,1.95,1.9,239858,-0.005236,1.9,1.91,33886,1.95,893,-0.005236,-0.015536,-0.012052
12398,20120626,9999,GNOM,COMPLETE GENOMICS INC,,1.88,2.07,1.89,1059139,-0.005263,1.89,1.9,33886,1.89,2556,-0.005263,0.004818,0.002861
12398,20120627,9999,GNOM,COMPLETE GENOMICS INC,,1.82,1.93,1.85,430123,-0.021164,1.83,1.84,33886,1.92,1458,-0.021164,0.008732,0.009343
12398,20120628,9999,GNOM,COMPLETE GENOMICS INC,,1.82,1.9,1.82,251757,-0.016216,1.82,1.85,33886,1.82,457,-0.016216,-0.002172,-0.002573
12398,20120629,9999,GNOM,COMPLETE GENOMICS INC,5,1.85,1.93,1.87,230401,0.027472,1.86,1.87,34273,1.9,573,0.027472,0.025451,0.023253
12398,20120702,9999,GNOM,COMPLETE GENOMICS INC,5,1.87,2.09,2.07,469127,0.106952,2.07,2.08,34273,1.87,1172,0.106952,0.003733,0.006515
12398,20120703,9999,GNOM,COMPLETE GENOMICS INC,5,1.96,2.16,1.97,355393,-0.048309,1.96,1.97,34273,2.1,894,-0.048309,0.00878,0.01071
12398,20120705,9999,GNOM,COMPLETE GENOMICS INC,,1.88,1.9899,1.9,285563,-0.035533,1.9,1.91,34273,1.95,793,-0.035533,-0.004134,-0.000756
12398,20120706,9999,GNOM,COMPLETE GENOMICS INC,,1.88,2.09,2.06,507021,0.084211,2.06,2.08,34273,1.9,1392,0.084211,-0.010191,-0.007735
12398,20120709,9999,GNOM,COMPLETE GENOMICS INC,,1.97,2.33,2.18,2667322,0.058252,2.17,2.18,34273,2.07,5340,0.058252,-0.002207,-0.002372
12398,20120710,9999,GNOM,COMPLETE GENOMICS INC,5,2.02,2.26,2.04,608672,-0.06422,2.03,2.04,34273,2.26,1414,-0.06422,-0.008819,-0.008379
12398,20120711,9999,GNOM,COMPLETE GENOMICS INC,,2.02,3.03,2.93,9720568,0.436275,2.92,2.93,34273,2.02,18953,0.436275,-0.000419,-0.000427
12398,20120712,9999,GNOM,COMPLETE GENOMICS INC,,2.47,3.34,2.55,11745588,-0.129693,2.51,2.55,34273,3.18,22482,-0.129693,-0.004912,-0.004265
12398,20120713,9999,GNOM,COMPLETE GENOMICS INC,,2.32,2.74,2.44,5000506,-0.043137,2.41,2.43,34273,2.5,13593,-0.043137,0.015232,0.010622
12398,20120716,9999,GNOM,COMPLETE GENOMICS INC,,2.35,2.68,2.55,4211592,0.045082,2.55,2.56,34273,2.5,7030,0.045082,-0.002468,-0.003517
12398,20120717,9999,GNOM,COMPLETE GENOMICS INC,,2.48,3.07,2.81,5713877,0.101961,2.79,2.8,34273,2.6,9883,0.101961,0.006705,0.002432
12398,20120718,9999,GNOM,COMPLETE GENOMICS INC,,2.76,3.13,2.88,4271453,0.024911,2.86,2.88,34273,2.81,7588,0.024911,0.00614,0.003807
12398,20120719,9999,GNOM,COMPLETE GENOMICS INC,,2.75,3,2.87,1396670,-0.003472,2.87,2.88,34273,2.95,2367,-0.003472,0.002743,-0.000006
12398,20120720,9999,GNOM,COMPLETE GENOMICS INC,5,2.65,2.94,2.94,1546750,0.02439,2.91,2.93,34273,2.87,2168,0.02439,-0.009933,-0.008788
12398,20120723,9999,GNOM,COMPLETE GENOMICS INC,,2.7401,3.1,2.92,2054644,-0.006803,2.89,2.9,34273,2.88,3417,-0.006803,-0.010161,-0.012016
12398,20120724,9999,GNOM,COMPLETE GENOMICS INC,,2.74,3.1,2.77,2026374,-0.05137,2.76,2.77,34273,2.97,3343,-0.05137,-0.009459,-0.009281
12398,20120725,9999,GNOM,COMPLETE GENOMICS INC,5,2.7401,3.01,2.83,1774136,0.021661,2.83,2.85,34273,2.8,3660,0.021661,0.000691,0.002445
12398,20120726,9999,GNOM,COMPLETE GENOMICS INC,5,2.83,3.02,2.87,1815803,0.014134,2.87,2.9,34273,2.91,3352,0.014134,0.015475,0.008601
12398,20120727,9999,GNOM,COMPLETE GENOMICS INC,5,2.65,2.9,2.7,1170313,-0.059233,2.7,2.73,34273,2.9,2064,-0.059233,0.018789,0.016403
12398,20120730,9999,GNOM,COMPLETE GENOMICS INC,5,2.5,2.76,2.5,778600,-0.074074,2.5,2.51,34293,2.7,1580,-0.074074,-0.000858,-0.002895
12398,20120731,9999,GNOM,COMPLETE GENOMICS INC,5,2.25,2.5,2.27,1196559,-0.092,2.28,2.29,34293,2.5,2332,-0.092,-0.004977,-0.003227
12398,20120801,9999,GNOM,COMPLETE GENOMICS INC,,2.1,2.3498,2.25,518029,-0.008811,2.23,2.24,34293,2.31,1519,-0.008811,-0.004649,-0.009215
12398,20120802,9999,GNOM,COMPLETE GENOMICS INC,5,2.1,2.25,2.13,433367,-0.053333,2.13,2.14,34293,2.25,1382,-0.053333,-0.007394,-0.005728
12398,20120803,9999,GNOM,COMPLETE GENOMICS INC,5,2.13,2.3,2.26,404460,0.061033,2.25,2.26,34293,2.2,1183,0.061033,0.019079,0.017674
12398,20120806,9999,GNOM,COMPLETE GENOMICS INC,,2.2,2.49,2.39,1393871,0.057522,2.39,2.41,34293,2.25,3084,0.057522,0.003504,0.006599
12398,20120807,9999,GNOM,COMPLETE GENOMICS INC,,2.29,2.45,2.33,359341,-0.025105,2.31,2.33,34293,2.4,1177,-0.025105,0.006321,0.0062
12398,20120808,9999,GNOM,COMPLETE GENOMICS INC,,2.25,2.39,2.35,278921,0.008584,2.35,2.37,34293,2.3,772,0.008584,-0.0001,-0.001097
12398,20120809,9999,GNOM,COMPLETE GENOMICS INC,,2.5,2.78,2.72,1799833,0.157447,2.69,2.71,34293,2.5,3776,0.157447,0.00133,0.003304
12398,20120810,9999,GNOM,COMPLETE GENOMICS INC,5,2.54,2.7,2.66,363908,-0.022059,2.65,2.67,34293,2.7,1104,-0.022059,0.001845,-0.000758
12398,20120813,9999,GNOM,COMPLETE GENOMICS INC,5,2.47,2.75,2.5,424030,-0.06015,2.5,2.51,34293,2.68,1248,-0.06015,-0.0021,-0.002392
12398,20120814,9999,GNOM,COMPLETE GENOMICS INC,,2.41,2.59,2.48,366220,-0.008,2.48,2.51,34293,2.54,1130,-0.008,-0.000139,-0.002297
12398,20120815,9999,GNOM,COMPLETE GENOMICS INC,5,2.4,2.5,2.48,177447,0,2.48,2.49,34293,2.47,528,0,0.002475,0.0044
12398,20120816,9999,GNOM,COMPLETE GENOMICS INC,,2.45,2.6,2.53,253354,0.020161,2.52,2.53,34293,2.47,773,0.020161,0.007841,0.008012
12398,20120817,9999,GNOM,COMPLETE GENOMICS INC,,2.45,2.5499,2.54,195522,0.003953,2.53,2.54,34293,2.51,692,0.003953,0.00262,0.004733
12398,20120820,9999,GNOM,COMPLETE GENOMICS INC,,2.47,2.64,2.51,538602,-0.011811,2.51,2.52,34293,2.52,1241,-0.011811,-0.000643,-0.001632
12398,20120821,9999,GNOM,COMPLETE GENOMICS INC,,2.52,2.62,2.53,292925,0.007968,2.53,2.54,34293,2.52,1233,0.007968,-0.002371,-0.00066
12398,20120822,9999,GNOM,COMPLETE GENOMICS INC,,2.52,2.6,2.54,178418,0.003953,2.54,2.55,34293,2.53,508,0.003953,-0.000167,-0.001911
12398,20120823,9999,GNOM,COMPLETE GENOMICS INC,,2.57,2.78,2.66,927277,0.047244,2.66,2.67,34293,2.57,2827,0.047244,-0.007352,-0.00456
12398,20120824,9999,GNOM,COMPLETE GENOMICS INC,,2.51,2.74,2.63,370851,-0.011278,2.63,2.65,34293,2.65,1299,-0.011278,0.005368,0.0032
12398,20120827,9999,GNOM,COMPLETE GENOMICS INC,,2.55,2.67,2.62,241742,-0.003802,2.61,2.62,34293,2.67,794,-0.003802,-0.000575,-0.000593
12398,20120828,9999,GNOM,COMPLETE GENOMICS INC,,2.5601,2.79,2.74,456135,0.045802,2.73,2.74,34293,2.6,1391,0.045802,0.000208,0.002364
12398,20120829,9999,GNOM,COMPLETE GENOMICS INC,,2.71,2.95,2.85,1386379,0.040146,2.82,2.85,34293,2.78,3359,0.040146,0.000747,0.001643
12398,20120830,9999,GNOM,COMPLETE GENOMICS INC,,2.82,3.17,3.1,2616856,0.087719,3.1,3.11,34293,2.85,5616,0.087719,-0.007942,-0.007645
12398,20120831,9999,GNOM,COMPLETE GENOMICS INC,,2.9101,3.22,3.04,2490430,-0.019355,3.03,3.04,34293,3.13,5636,-0.019355,0.005857,0.005276
12398,20120904,9999,GNOM,COMPLETE GENOMICS INC,5,2.92,3.16,3.1,717981,0.019737,3.06,3.07,34293,3.02,1891,0.019737,0.000576,0.003103
12398,20120905,9999,GNOM,COMPLETE GENOMICS INC,,2.95,3.14,3.08,723022,-0.006452,3.07,3.08,34293,3.1,2315,-0.006452,-0.000794,-0.000793
12398,20120906,9999,GNOM,COMPLETE GENOMICS INC,,3.02,3.3,3.04,1749026,-0.012987,3.03,3.04,34293,3.09,3974,-0.012987,0.01932,0.013613
12398,20120907,9999,GNOM,COMPLETE GENOMICS INC,,2.98,3.24,3.15,887741,0.036184,3.13,3.14,34293,3.1,2532,0.036184,0.005609,0.006393
12398,20120910,9999,GNOM,COMPLETE GENOMICS INC,,2.97,3.148,3.04,1034164,-0.034921,3.01,3.03,34293,3.13,3309,-0.034921,-0.005723,-0.001868
12398,20120911,9999,GNOM,COMPLETE GENOMICS INC,5,2.6,2.9,2.69,1827080,-0.115132,2.66,2.67,34293,2.9,4602,-0.115132,0.003408,0.004897
12398,20120912,9999,GNOM,COMPLETE GENOMICS INC,,2.7,2.83,2.8,606418,0.040892,2.78,2.8,34293,2.73,2033,0.040892,0.00232,0.003495
12398,20120913,9999,GNOM,COMPLETE GENOMICS INC,,2.62,2.85,2.7,973001,-0.035714,2.7,2.71,34293,2.85,2678,-0.035714,0.015179,0.011148
12398,20120914,9999,GNOM,COMPLETE GENOMICS INC,,2.6,2.75,2.67,596379,-0.011111,2.67,2.69,34293,2.7,1881,-0.011111,0.006128,0.008127
12398,20120917,9999,GNOM,COMPLETE GENOMICS INC,5,3.02,3.09,3.02,7445151,0.131086,3.02,3.03,34293,3.09,9017,0.131086,-0.004582,-0.004204
12398,20120918,9999,GNOM,COMPLETE GENOMICS INC,,3.03,3.07,3.04,2697913,0.006623,3.04,3.05,34293,3.03,5790,0.006623,-0.001814,-0.000369
12398,20120919,9999,GNOM,COMPLETE GENOMICS INC,,3.04,3.07,3.06,2217279,0.006579,3.05,3.06,34293,3.06,3535,0.006579,0.001262,0.001704
12398,20120920,9999,GNOM,COMPLETE GENOMICS INC,,3.05,3.07,3.07,1870895,0.003268,3.06,3.07,34293,3.06,2204,0.003268,-0.002056,-0.003733
12398,20120921,9999,GNOM,COMPLETE GENOMICS INC,,3.06,3.14,3.09,1605373,0.006515,3.08,3.12,34293,3.07,2760,0.006515,0.000373,0.004826
12398,20120924,9999,GNOM,COMPLETE GENOMICS INC,,3.07,3.11,3.0899,398662,-0.000032,3.08,3.09,34293,3.08,967,-0.000032,-0.003196,-0.003377
12398,20120925,9999,GNOM,COMPLETE GENOMICS INC,,3.09,3.11,3.1,917632,0.003269,3.09,3.1,34293,3.09,1558,0.003269,-0.010896,-0.009693
12398,20120926,9999,GNOM,COMPLETE GENOMICS INC,,3.05,3.1,3.09,416612,-0.003226,3.09,3.1,34293,3.09,1198,-0.003226,-0.005756,-0.005113
12398,20120927,9999,GNOM,COMPLETE GENOMICS INC,,3.08,3.1,3.095,830671,0.001618,3.09,3.1,34293,3.1,1507,0.001618,0.009947,0.00892
12398,20120928,9999,GNOM,COMPLETE GENOMICS INC,5,3.08,3.11,3.105,801082,0.003231,3.09,3.11,34457,3.09,1427,0.003231,-0.004535,-0.003469
12398,20121001,9999,GNOM,COMPLETE GENOMICS INC,,3.085,3.11,3.1,884795,-0.00161,3.09,3.1,34457,3.11,1655,-0.00161,0.002709,0.002595
12398,20121002,9999,GNOM,COMPLETE GENOMICS INC,,3.04,3.11,3.1,2119045,0,3.09,3.1,34457,3.1,2579,0,0.001139,0.00035
12398,20121003,9999,GNOM,COMPLETE GENOMICS INC,,3.07,3.1,3.08,648192,-0.006452,3.08,3.09,34457,3.08,1145,-0.006452,0.002362,-0.000138
12398,20121004,9999,GNOM,COMPLETE GENOMICS INC,,3.08,3.1,3.1,598423,0.006494,3.09,3.1,34457,3.09,1357,0.006494,0.007652,0.006541
12398,20121005,9999,GNOM,COMPLETE GENOMICS INC,,3.09,3.1,3.09,361944,-0.003226,3.09,3.1,34457,3.1,864,-0.003226,-0.000369,-0.000848
12398,20121008,9999,GNOM,COMPLETE GENOMICS INC,,2.99,3.095,3.08,841554,-0.003236,3.07,3.08,34457,3.09,1214,-0.003236,-0.003573,-0.003513
12398,20121009,9999,GNOM,COMPLETE GENOMICS INC,,3.06,3.08,3.08,401409,0,3.06,3.07,34457,3.07,1053,0,-0.009804,-0.009159
12398,20121010,9999,GNOM,COMPLETE GENOMICS INC,,3.05,3.09,3.06,567524,-0.006494,3.05,3.06,34457,3.07,1010,-0.006494,-0.005611,-0.004178
12398,20121011,9999,GNOM,COMPLETE GENOMICS INC,,3.02,3.07,3.04,1702242,-0.006536,3.03,3.04,34457,3.07,1771,-0.006536,0.001582,0.004311
12398,20121012,9999,GNOM,COMPLETE GENOMICS INC,,3.01,3.07,3.055,439994,0.004934,3.05,3.06,34457,3.01,994,0.004934,-0.003527,-0.004332
12398,20121015,9999,GNOM,COMPLETE GENOMICS INC,,3.04,3.065,3.05,184032,-0.001637,3.04,3.05,34457,3.05,517,-0.001637,0.007228,0.004164
12398,20121016,9999,GNOM,COMPLETE GENOMICS INC,,3.04,3.07,3.07,230456,0.006557,3.04,3.05,34457,3.04,678,0.006557,0.009926,0.007031
12398,20121017,9999,GNOM,COMPLETE GENOMICS INC,,3.04,3.08,3.04,255552,-0.009772,3.04,3.05,34457,3.08,554,-0.009772,0.004993,0.005563
12398,20121018,9999,GNOM,COMPLETE GENOMICS INC,,3.04,3.06,3.0598,368065,0.006513,3.05,3.06,34457,3.06,689,0.006513,-0.002776,-0.003914
12398,20121019,9999,GNOM,COMPLETE GENOMICS INC,5,3.03,3.05,3.03,159085,-0.009739,3.03,3.04,34457,3.04,517,-0.009739,-0.015646,-0.013008
12398,20121022,9999,GNOM,COMPLETE GENOMICS INC,,2.86,3.04,2.96,519448,-0.023102,2.95,2.96,34457,3.03,1540,-0.023102,0.000165,-0.000325
12398,20121023,9999,GNOM,COMPLETE GENOMICS INC,,2.94,2.98,2.98,159263,0.006757,2.97,2.98,34457,2.94,705,0.006757,-0.012991,-0.00699
12398,20121024,9999,GNOM,COMPLETE GENOMICS INC,,2.88,2.99,2.98,81820,0,2.97,2.98,34457,2.88,367,0,-0.002626,-0.001419
12398,20121025,9999,GNOM,COMPLETE GENOMICS INC,,2.9,2.99,2.92,126380,-0.020134,2.91,2.92,34457,2.99,721,-0.020134,0.003279,0.002125
12398,20121026,9999,GNOM,COMPLETE GENOMICS INC,,2.91,2.98,2.92,95666,0,2.91,2.92,34457,2.93,503,0,-0.001384,-0.001858
12398,20121031,9999,GNOM,COMPLETE GENOMICS INC,5,2.95,3.02,3,395759,0.027397,2.98,3,34489,2.99,1184,0.027397,0.002192,0.003228
12398,20121101,9999,GNOM,COMPLETE GENOMICS INC,5,2.98,3.02,3.02,135841,0.006667,3,3.01,34489,2.98,536,0.006667,0.011076,0.009557
12398,20121102,9999,GNOM,COMPLETE GENOMICS INC,5,2.99,3.03,3.01,233959,-0.003311,3,3.01,34489,3.01,741,-0.003311,-0.009797,-0.008813
12398,20121105,9999,GNOM,COMPLETE GENOMICS INC,,2.98,3.02,3.01,194572,0,3,3.01,34489,3,602,0,0.00207,0.00308
12398,20121106,9999,GNOM,COMPLETE GENOMICS INC,,2.99,3.01,3.01,169273,0,3,3.01,34489,2.99,403,0,0.007713,0.005972
12398,20121107,9999,GNOM,COMPLETE GENOMICS INC,,3,3.02,3.01,84780,0,3,3.01,34489,3.01,241,0,-0.021697,-0.018066
12398,20121108,9999,GNOM,COMPLETE GENOMICS INC,,2.99,3.01,3,282745,-0.003322,2.99,3,34489,3.01,632,-0.003322,-0.011597,-0.009684
12398,20121109,9999,GNOM,COMPLETE GENOMICS INC,,2.95,3,2.96,252853,-0.013333,2.95,2.96,34489,2.98,579,-0.013333,0.000895,-0.000668
12398,20121112,9999,GNOM,COMPLETE GENOMICS INC,,2.95,3.02,3.02,189223,0.02027,3.01,3.02,34489,2.95,635,0.02027,-0.00022,-0.001908
12398,20121113,9999,GNOM,COMPLETE GENOMICS INC,,3.09,3.17,3.11,1279949,0.029801,3.1,3.11,34489,3.12,2754,0.029801,-0.004436,-0.006196
12398,20121114,9999,GNOM,COMPLETE GENOMICS INC,,3.03,3.09,3.08,160925,-0.009646,3.07,3.08,34489,3.04,676,-0.009646,-0.014976,-0.01576
12398,20121115,9999,GNOM,COMPLETE GENOMICS INC,,3.05,3.08,3.07,104816,-0.003247,3.06,3.07,34489,3.08,591,-0.003247,-0.003108,-0.006326
12398,20121116,9999,GNOM,COMPLETE GENOMICS INC,,3.01,3.05,3.02,659969,-0.016287,3.02,3.03,34489,3.03,1467,-0.016287,0.006103,0.005619
12398,20121119,9999,GNOM,COMPLETE GENOMICS INC,,3.07,3.14,3.09,962461,0.023179,3.08,3.09,34489,3.12,3303,0.023179,0.019049,0.016446
12398,20121120,9999,GNOM,COMPLETE GENOMICS INC,,3.04,3.105,3.09,598781,0,3.08,3.09,34489,3.04,2196,0,0.000901,0.00074
12398,20121121,9999,GNOM,COMPLETE GENOMICS INC,,3.11,3.185,3.16,1704646,0.022654,3.14,3.15,34489,3.11,3536,0.022654,0.003088,0.004732
12398,20121123,9999,GNOM,COMPLETE GENOMICS INC,,3.13,3.155,3.14,217588,-0.006329,3.14,3.15,34489,3.13,410,-0.006329,0.012618,0.010054
12398,20121126,9999,GNOM,COMPLETE GENOMICS INC,,3.07,3.15,3.14,326174,0,3.13,3.14,34489,3.07,1109,0,-0.001693,0.001119
12398,20121127,9999,GNOM,COMPLETE GENOMICS INC,5,3.1,3.14,3.13,318360,-0.003185,3.13,3.14,34489,3.1,1540,-0.003185,-0.00451,-0.000963
12398,20121128,9999,GNOM,COMPLETE GENOMICS INC,,3.11,3.14,3.12,288570,-0.003195,3.12,3.13,34489,3.11,995,-0.003195,0.007189,0.004772
12398,20121129,9999,GNOM,COMPLETE GENOMICS INC,,3.12,3.17,3.15,635497,0.009615,3.14,3.15,34489,3.12,1356,0.009615,0.004978,0.008425
12398,20121130,9999,GNOM,COMPLETE GENOMICS INC,,3.13,3.16,3.16,623911,0.003175,3.14,3.16,34489,3.15,1188,0.003175,0.000252,0.000901
12398,20121203,9999,GNOM,COMPLETE GENOMICS INC,,3.135,3.17,3.16,350415,0,3.14,3.15,34489,3.16,1178,0,-0.004297,-0.002236
12398,20121204,9999,GNOM,COMPLETE GENOMICS INC,,3.13,3.15,3.13,243576,-0.009494,3.13,3.14,34489,3.15,776,-0.009494,-0.001371,-0.001161
12398,20121205,9999,GNOM,COMPLETE GENOMICS INC,,3.11,3.14,3.13,237245,0,3.12,3.13,34489,3.14,891,0,0.001404,-0.000275
12398,20121206,9999,GNOM,COMPLETE GENOMICS INC,,3.12,3.13,3.12,175048,-0.003195,3.12,3.13,34489,3.12,588,-0.003195,0.002338,0.000448
12398,20121207,9999,GNOM,COMPLETE GENOMICS INC,,3.11,3.135,3.12,328847,0,3.11,3.12,34489,3.13,1320,0,0.00246,0.001127
12398,20121210,9999,GNOM,COMPLETE GENOMICS INC,,3.11,3.13,3.11,337214,-0.003205,3.11,3.12,34489,3.12,779,-0.003205,0.001425,0.002594
12398,20121211,9999,GNOM,COMPLETE GENOMICS INC,,3.11,3.13,3.12,316044,0.003215,3.12,3.13,34489,3.11,689,0.003215,0.006128,0.007206
12398,20121212,9999,GNOM,COMPLETE GENOMICS INC,,3.12,3.13,3.12,132470,0,3.12,3.13,34489,3.12,535,0,-0.000097,-0.000931
12398,20121213,9999,GNOM,COMPLETE GENOMICS INC,,3.13,3.145,3.13,779506,0.003205,3.13,3.14,34489,3.13,1590,0.003205,-0.006196,-0.004505
12398,20121214,9999,GNOM,COMPLETE GENOMICS INC,,3.13,3.14,3.13,113110,0,3.13,3.14,34489,3.13,386,0,-0.003192,0.000757
12398,20121217,9999,GNOM,COMPLETE GENOMICS INC,,3.13,3.14,3.13,238912,0,3.13,3.14,34489,3.13,485,0,0.010147,0.006348
12398,20121218,9999,GNOM,COMPLETE GENOMICS INC,,3.13,3.14,3.13,179074,0,3.13,3.14,34489,3.13,399,0,0.010818,0.00905
12398,20121219,9999,GNOM,COMPLETE GENOMICS INC,,3.13,3.14,3.13,140463,0,3.13,3.14,34489,3.13,367,0,-0.004829,0.000447
12398,20121220,9999,GNOM,COMPLETE GENOMICS INC,,3.11,3.14,3.12,451289,-0.003195,3.12,3.13,34489,3.13,885,-0.003195,0.004651,0.004035
12398,20121221,9999,GNOM,COMPLETE GENOMICS INC,,3.1,3.13,3.12,573303,0,3.11,3.13,34489,3.12,1006,0,-0.008636,-0.006072
12398,20121224,9999,GNOM,COMPLETE GENOMICS INC,,3.1,3.11,3.1,79812,-0.00641,3.1,3.11,34489,3.1,182,-0.00641,-0.002399,-0.003032
12398,20121226,9999,GNOM,COMPLETE GENOMICS INC,,3.09,3.12,3.1,237036,0,3.09,3.1,34489,3.11,515,0,-0.005058,-0.003441
12398,20121227,9999,GNOM,COMPLETE GENOMICS INC,,3.08,3.13,3.13,864503,0.009677,3.12,3.13,34489,3.08,2123,0.009677,-0.000918,-0.002331
12398,20121228,9999,GNOM,COMPLETE GENOMICS INC,,3.08,3.13,3.1299,427331,-0.000032,3.12,3.13,34489,3.13,1113,-0.000032,-0.00939,-0.004243
12398,20121231,9999,GNOM,COMPLETE GENOMICS INC,,3.14,3.19,3.15,1701146,0.006422,3.15,3.16,34489,3.15,2917,0.006422,0.016416,0.014957
12398,20130102,9999,GNOM,COMPLETE GENOMICS INC,,3.14,3.17,3.15,1748169,0,3.15,3.16,34489,3.15,1604,0,0.02482,0.024095
12398,20130103,9999,GNOM,COMPLETE GENOMICS INC,,3.14,3.16,3.14,375422,-0.003175,3.14,3.15,34489,3.15,959,-0.003175,-0.001909,0.000456
12398,20130104,9999,GNOM,COMPLETE GENOMICS INC,,3.14,3.16,3.14,275906,0,3.14,3.15,34489,3.14,866,0,0.005624,0.007403
12398,20130107,9999,GNOM,COMPLETE GENOMICS INC,,3.17,3.25,3.1997,1262936,0.019013,3.18,3.2,34489,3.17,2915,0.019013,-0.002555,-0.000452
12398,20130108,9999,GNOM,COMPLETE GENOMICS INC,,3.12,3.2,3.15,3924272,-0.015533,3.14,3.15,34489,3.2,4896,-0.015533,-0.002437,-0.000547
12398,20130109,9999,GNOM,COMPLETE GENOMICS INC,,3.14,3.15,3.15,369708,0,3.14,3.15,34489,3.14,467,0,0.003388,0.005259
12398,20130110,9999,GNOM,COMPLETE GENOMICS INC,,3.14,3.15,3.145,104594,-0.001587,3.14,3.15,34489,3.14,209,-0.001587,0.006792,0.003818
12398,20130111,9999,GNOM,COMPLETE GENOMICS INC,,3.13,3.1401,3.14,1090341,-0.00159,3.13,3.14,34489,3.14,843,-0.00159,0.000152,0.00062
12398,20130114,9999,GNOM,COMPLETE GENOMICS INC,,3.13,3.15,3.15,76645,0.003185,3.13,3.15,34489,3.13,227,0.003185,-0.000351,0.000439
12398,20130115,9999,GNOM,COMPLETE GENOMICS INC,,3.13,3.15,3.15,83260,0,3.14,3.15,34489,3.13,154,0,0.001943,0.001872
12398,20130116,9999,GNOM,COMPLETE GENOMICS INC,,3.13,3.15,3.14,84024,-0.003175,3.13,3.14,34489,3.14,215,-0.003175,-0.000814,-0.001536
12398,20130117,9999,GNOM,COMPLETE GENOMICS INC,5,3.13,3.15,3.14,98036,0,3.13,3.14,34489,3.14,243,0,0.005906,0.006745
12398,20130118,9999,GNOM,COMPLETE GENOMICS INC,,3.13,3.15,3.15,53830,0.003185,3.14,3.15,34489,3.14,160,0.003185,0.002922,0.002357
12398,20130122,9999,GNOM,COMPLETE GENOMICS INC,,3.13,3.14,3.13,193928,-0.006349,3.13,3.14,34489,3.13,305,-0.006349,0.005109,0.0061
12398,20130123,9999,GNOM,COMPLETE GENOMICS INC,5,3.13,3.14,3.13,210772,0,3.13,3.14,34489,3.13,205,0,0.000261,-0.000793
12398,20130124,9999,GNOM,COMPLETE GENOMICS INC,,3.13,3.14,3.13,49568,0,3.13,3.14,34489,3.13,63,0,0.000619,0.00151
12398,20130125,9999,GNOM,COMPLETE GENOMICS INC,,3.13,3.14,3.13,68186,0,3.13,3.14,34489,3.13,97,0,0.005238,0.002817
12398,20130128,9999,GNOM,COMPLETE GENOMICS INC,,3.12,3.14,3.14,190470,0.003195,3.12,3.14,34489,3.13,274,0.003195,-0.001345,0.000399
12398,20130129,9999,GNOM,COMPLETE GENOMICS INC,,3.1,3.14,3.13,85703,-0.003185,3.12,3.13,34489,3.11,174,-0.003185,0.003509,0.002696
12398,20130130,9999,GNOM,COMPLETE GENOMICS INC,,3.11,3.12,3.12,485012,-0.003195,3.11,3.12,34489,3.12,834,-0.003195,-0.0041,-0.004937
12398,20130131,9999,GNOM,COMPLETE GENOMICS INC,,3.11,3.12,3.12,60556,0,3.11,3.12,34489,3.11,326,0,-0.00084,0.002841
12398,20130201,9999,GNOM,COMPLETE GENOMICS INC,,3.1,3.12,3.12,143069,0,3.11,3.12,34489,3.115,526,0,0.00921,0.00816
12398,20130204,9999,GNOM,COMPLETE GENOMICS INC,,3.11,3.14,3.13,94130,0.003205,3.12,3.13,34489,3.11,368,0.003205,-0.011063,-0.009387
12398,20130205,9999,GNOM,COMPLETE GENOMICS INC,,3.12,3.135,3.12,212364,-0.003195,3.12,3.13,34489,3.12,435,-0.003195,0.009121,0.007036
12398,20130206,9999,GNOM,COMPLETE GENOMICS INC,,3.12,3.13,3.12,51498,0,3.12,3.13,34489,3.12,118,0,0.001182,0.002261
12398,20130207,9999,GNOM,COMPLETE GENOMICS INC,,3.1,3.13,3.13,238821,0.003205,3.12,3.13,34489,3.12,405,0.003205,-0.002407,-0.002495
12398,20130208,9999,GNOM,COMPLETE GENOMICS INC,,3.11,3.13,3.13,51992,0,3.12,3.13,34489,3.13,148,0,0.005381,0.003908
12398,20130211,9999,GNOM,COMPLETE GENOMICS INC,,3.11,3.13,3.12,198952,-0.003195,3.11,3.13,34489,3.13,409,-0.003195,-0.001048,-0.000209
12398,20130212,9999,GNOM,COMPLETE GENOMICS INC,,3.12,3.13,3.13,203923,0.003205,3.12,3.13,34489,3.12,395,0.003205,0.002137,0.003477
12398,20130213,9999,GNOM,COMPLETE GENOMICS INC,,3.11,3.13,3.13,223858,0,3.11,3.13,34489,3.12,223,0,0.001023,0.001107
12398,20130214,9999,GNOM,COMPLETE GENOMICS INC,,3.12,3.13,3.13,59497,0,3.12,3.13,34489,3.13,125,0,0.00072,0.001495
12398,20130215,9999,GNOM,COMPLETE GENOMICS INC,,3.12,3.13,3.12,117031,-0.003195,3.12,3.13,34489,3.13,170,-0.003195,-0.002089,-0.001758
12398,20130219,9999,GNOM,COMPLETE GENOMICS INC,,3.12,3.14,3.13,85862,0.003205,3.13,3.14,34489,3.12,181,0.003205,0.006794,0.006107
12398,20130220,9999,GNOM,COMPLETE GENOMICS INC,,3.12,3.14,3.12,64925,-0.003195,3.12,3.13,34489,3.12,142,-0.003195,-0.013355,-0.013123
12398,20130221,9999,GNOM,COMPLETE GENOMICS INC,,3.11,3.13,3.12,152494,0,3.11,3.12,34489,3.12,325,0,-0.007201,-0.007363
12398,20130222,9999,GNOM,COMPLETE GENOMICS INC,,3.11,3.12,3.11,104212,-0.003205,3.11,3.12,34489,3.11,270,-0.003205,0.008582,0.00751
12398,20130225,9999,GNOM,COMPLETE GENOMICS INC,,3.11,3.12,3.11,17319,0,3.11,3.12,34489,3.11,77,0,-0.017155,-0.01411
12398,20130226,9999,GNOM,COMPLETE GENOMICS INC,,3.13,3.14,3.14,52273,0.009646,3.13,3.14,34489,3.13,111,0.009646,0.005532,0.003545
12398,20130227,9999,GNOM,COMPLETE GENOMICS INC,,3.13,3.14,3.13,19374,-0.003185,3.13,3.14,34489,3.135,50,-0.003185,0.012064,0.007339
12398,20130228,9999,GNOM,COMPLETE GENOMICS INC,,3.13,3.14,3.13,112742,0,3.13,3.14,34489,3.13,163,0,-0.000698,-0.000139
12398,20130301,9999,GNOM,COMPLETE GENOMICS INC,,3.13,3.14,3.13,90074,0,3.13,3.14,34489,3.13,268,0,0.001712,0.001483
12398,20130304,9999,GNOM,COMPLETE GENOMICS INC,,3.12,3.14,3.12,177632,-0.003195,3.12,3.13,34489,3.13,259,-0.003195,0.00364,0.001122
12398,20130305,9999,GNOM,COMPLETE GENOMICS INC,,3.12,3.14,3.12,358030,0,3.12,3.13,34489,3.13,475,0,0.009155,0.00725
12398,20130306,9999,GNOM,COMPLETE GENOMICS INC,,3.13,3.14,3.13,75956,0.003205,3.13,3.14,34489,3.13,245,0.003205,0.001458,0.002844
12398,20130307,9999,GNOM,COMPLETE GENOMICS INC,,3.13,3.14,3.13,35175,0,3.13,3.14,34489,3.135,144,0,0.002233,0.004062
12398,20130308,9999,GNOM,COMPLETE GENOMICS INC,,3.12,3.14,3.12,60756,-0.003195,3.12,3.13,34489,3.13,226,-0.003195,0.00481,0.006138
12398,20130311,9999,GNOM,COMPLETE GENOMICS INC,,3.12,3.13,3.12,40954,0,3.12,3.13,34489,3.13,112,0,0.002626,0.002097
12398,20130312,9999,GNOM,COMPLETE GENOMICS INC,,3.14,3.15,3.14,99772,0.00641,3.14,3.15,34489,3.14,209,0.00641,-0.001991,-0.00158
12398,20130313,9999,GNOM,COMPLETE GENOMICS INC,,3.14,3.16,3.15,231138,0.003185,3.15,3.16,34489,3.145,412,0.003185,0.000436,-0.00026
12398,20130314,9999,GNOM,COMPLETE GENOMICS INC,,3.14,3.15,3.14,121555,-0.003175,3.14,3.15,34489,3.14,141,-0.003175,0.005907,0.00476
12398,20130315,9999,GNOM,COMPLETE GENOMICS INC,,3.14,3.16,3.15,472246,0.003185,3.15,3.16,34489,3.145,968,0.003185,-0.001575,-0.00138
12398,20130318,9999,GNOM,COMPLETE GENOMICS INC,5,3.14,3.16,3.14,55235,-0.003175,3.14,3.15,34489,3.15,122,-0.003175,-0.005369,-0.002769
12398,20130319,9999,GNOM,COMPLETE GENOMICS INC,5,,,,,,,,,,,,-0.002941,-0.003625
