PERMNO,date,SICCD,TICKER,COMNAM,NMSIND,BIDLO,ASKHI,PRC,VOL,RET,BID,ASK,SHROUT,OPENPRC,NUMTRD,RETX,vwretx,ewretx
11993,20100722,5171,LPH,LONGWEI PETROLEUM INVT HLDG LTD,,1.85,2.39,2.24,310300,C,2.2,2.24,90972,2.39,,C,0.023485,0.023285
11993,20100723,5171,LPH,LONGWEI PETROLEUM INVT HLDG LTD,,2.16,2.24,2.22,212800,-0.008929,2.2,2.24,90972,2.24,,-0.008929,0.009617,0.013513
11993,20100726,5171,LPH,LONGWEI PETROLEUM INVT HLDG LTD,,2.03,2.28,2.168,226100,-0.023423,2.12,2.18,90972,2.28,,-0.023423,0.011601,0.013828
11993,20100727,5171,LPH,LONGWEI PETROLEUM INVT HLDG LTD,,2.08,2.15,2.1,287100,-0.031365,2.1,2.15,90972,2.1,,-0.031365,-0.002526,-0.00217
11993,20100728,5171,LPH,LONGWEI PETROLEUM INVT HLDG LTD,,2.12,2.25,2.19,86700,0.042857,2.18,2.19,90972,2.25,,0.042857,-0.007595,-0.00792
11993,20100729,5171,LPH,LONGWEI PETROLEUM INVT HLDG LTD,,2.16,2.23,2.1601,62500,-0.013653,2.16,2.18,90972,2.17,,-0.013653,-0.002762,0.000388
11993,20100730,5171,LPH,LONGWEI PETROLEUM INVT HLDG LTD,,2.11,2.22,2.22,219100,0.02773,2.2,2.22,90972,2.15,,0.02773,0.001504,0.003345
11993,20100802,5171,LPH,LONGWEI PETROLEUM INVT HLDG LTD,,2.15,2.34,2.18,280400,-0.018018,2.18,2.23,90972,2.24,,-0.018018,0.020508,0.013541
11993,20100803,5171,LPH,LONGWEI PETROLEUM INVT HLDG LTD,,2.18,2.25,2.22,79500,0.018349,2.22,2.25,90972,2.18,,0.018349,-0.005172,-0.004602
11993,20100804,5171,LPH,LONGWEI PETROLEUM INVT HLDG LTD,,2.14,2.22,2.19,83100,-0.013514,2.17,2.19,90972,2.22,,-0.013514,0.007179,0.007186
11993,20100805,5171,LPH,LONGWEI PETROLEUM INVT HLDG LTD,,2.16,2.21,2.17,45800,-0.009132,2.17,2.18,90972,2.21,,-0.009132,-0.002557,-0.004169
11993,20100806,5171,LPH,LONGWEI PETROLEUM INVT HLDG LTD,,2.14,2.22,2.14,164600,-0.013825,2.14,2.19,90972,2.16,,-0.013825,-0.003632,-0.002719
11993,20100809,5171,LPH,LONGWEI PETROLEUM INVT HLDG LTD,,2.1,2.16,2.14,140700,0,2.13,2.14,90972,2.14,,0,0.005824,0.006781
11993,20100810,5171,LPH,LONGWEI PETROLEUM INVT HLDG LTD,,2,2.15,2.07,145300,-0.03271,2.07,2.08,90972,2.15,,-0.03271,-0.008041,-0.011658
11993,20100811,5171,LPH,LONGWEI PETROLEUM INVT HLDG LTD,,1.95,2.15,1.99,279200,-0.038647,1.99,2,90972,2.15,,-0.038647,-0.02961,-0.02871
11993,20100812,5171,LPH,LONGWEI PETROLEUM INVT HLDG LTD,,1.9,2,1.99,226100,0,1.98,2,90972,1.97,,0,-0.004788,-0.003225
11993,20100813,5171,LPH,LONGWEI PETROLEUM INVT HLDG LTD,,1.95,2,2,88500,0.005025,1.97,2,90972,1.95,,0.005025,-0.003919,-0.004256
11993,20100816,5171,LPH,LONGWEI PETROLEUM INVT HLDG LTD,,2,2.36,2.09,254400,0.045,2.07,2.09,90972,2,,0.045,0.001406,0.00359
11993,20100817,5171,LPH,LONGWEI PETROLEUM INVT HLDG LTD,,2.1,2.19,2.14,69200,0.023924,2.13,2.14,90972,2.1,,0.023924,0.01367,0.012296
11993,20100818,5171,LPH,LONGWEI PETROLEUM INVT HLDG LTD,,2.12,2.2,2.13,103300,-0.004673,2.12,2.13,90972,2.14,,-0.004673,0.002197,0.00177
11993,20100819,5171,LPH,LONGWEI PETROLEUM INVT HLDG LTD,,2.05,2.1499,2.07,42500,-0.028169,2.07,2.1,90972,2.05,,-0.028169,-0.016716,-0.016616
11993,20100820,5171,LPH,LONGWEI PETROLEUM INVT HLDG LTD,,2.02,2.1,2.02,102700,-0.024155,2.02,2.03,90972,2.07,,-0.024155,-0.003352,-0.001693
11993,20100823,5171,LPH,LONGWEI PETROLEUM INVT HLDG LTD,,2,2.08,2.0295,118300,0.004703,2,2.03,90972,2.08,,0.004703,-0.004882,-0.008747
11993,20100824,5171,LPH,LONGWEI PETROLEUM INVT HLDG LTD,,1.968,2.03,2.01,280100,-0.009608,2,2.01,90972,2,,-0.009608,-0.014441,-0.011875
11993,20100825,5171,LPH,LONGWEI PETROLEUM INVT HLDG LTD,,1.92,2,1.97,140000,-0.0199,1.97,2,90972,2,,-0.0199,0.00449,0.005646
11993,20100826,5171,LPH,LONGWEI PETROLEUM INVT HLDG LTD,,1.97,2.04,1.99,78800,0.010152,1.99,2.01,90972,1.99,,0.010152,-0.006657,-0.004978
11993,20100827,5171,LPH,LONGWEI PETROLEUM INVT HLDG LTD,,1.93,2.01,1.98,132800,-0.005025,1.96,1.98,90972,1.96,,-0.005025,0.018226,0.018475
11993,20100830,5171,LPH,LONGWEI PETROLEUM INVT HLDG LTD,,1.94,2.01,1.98,159400,0,1.98,1.99,90972,1.96,,0,-0.014372,-0.013847
11993,20100831,5171,LPH,LONGWEI PETROLEUM INVT HLDG LTD,,1.94,2,1.96,133700,-0.010101,1.96,1.99,90972,1.96,,-0.010101,0.00009,0.00034
11993,20100901,5171,LPH,LONGWEI PETROLEUM INVT HLDG LTD,,1.96,2.02,1.96,80100,0,1.97,2,90972,1.98,,0,0.028966,0.024797
11993,20100902,5171,LPH,LONGWEI PETROLEUM INVT HLDG LTD,,1.98,2.1,2.0499,69300,0.045867,2.02,2.05,90972,1.99,,0.045867,0.009461,0.008251
11993,20100903,5171,LPH,LONGWEI PETROLEUM INVT HLDG LTD,,2.01,2.1,2.0305,85000,-0.009464,2.05,2.08,90972,2.1,,-0.009464,0.012943,0.011716
11993,20100907,5171,LPH,LONGWEI PETROLEUM INVT HLDG LTD,,2.06,2.27,2.08,372400,0.024378,2.1,2.11,90972,2.15,,0.024378,-0.011917,-0.012448
11993,20100908,5171,LPH,LONGWEI PETROLEUM INVT HLDG LTD,,2.06,2.17,2.15,135700,0.033654,2.15,2.18,90972,2.06,,0.033654,0.006123,0.00598
11993,20100909,5171,LPH,LONGWEI PETROLEUM INVT HLDG LTD,,2.12,2.2,2.16,122900,0.004651,2.15,2.16,90972,2.2,,0.004651,0.00361,0.002264
11993,20100910,5171,LPH,LONGWEI PETROLEUM INVT HLDG LTD,,2.1,2.18,2.18,37800,0.009259,2.13,2.18,90972,2.12,,0.009259,0.004462,0.004058
11993,20100913,5171,LPH,LONGWEI PETROLEUM INVT HLDG LTD,,2.14,2.19,2.15,88100,-0.013761,2.15,2.17,90972,2.19,,-0.013761,0.012501,0.015255
11993,20100914,5171,LPH,LONGWEI PETROLEUM INVT HLDG LTD,,2.11,2.1899,2.15,83300,0,2.13,2.15,90972,2.14,,0,-0.00013,-0.000818
11993,20100915,5171,LPH,LONGWEI PETROLEUM INVT HLDG LTD,,2,2.17,2.06,205800,-0.041861,2.06,2.1,90972,2.14,,-0.041861,0.002925,0.001315
11993,20100916,5171,LPH,LONGWEI PETROLEUM INVT HLDG LTD,,2.01,2.09,2.08,132300,0.009709,2.07,2.1,90972,2.09,,0.009709,-0.000865,-0.002752
11993,20100917,5171,LPH,LONGWEI PETROLEUM INVT HLDG LTD,,2,2.07,2.06,118700,-0.009615,2.05,2.06,90972,2.02,,-0.009615,0.001083,0.003064
11993,20100920,5171,LPH,LONGWEI PETROLEUM INVT HLDG LTD,,2.04,2.16,2.0501,155400,-0.004806,2.05,2.09,90972,2.04,,-0.004806,0.015141,0.017138
11993,20100921,5171,LPH,LONGWEI PETROLEUM INVT HLDG LTD,,2.0301,2.09,2.06,70300,0.004829,2.06,2.09,90972,2.05,,0.004829,-0.00312,-0.003087
11993,20100922,5171,LPH,LONGWEI PETROLEUM INVT HLDG LTD,,1.99,2.15,2.02,110600,-0.019417,2.02,2.05,90972,2.1,,-0.019417,-0.005124,-0.005344
11993,20100923,5171,LPH,LONGWEI PETROLEUM INVT HLDG LTD,,1.99,2.08,2,123700,-0.009901,2,2.02,90972,2,,-0.009901,-0.008122,-0.006179
11993,20100924,5171,LPH,LONGWEI PETROLEUM INVT HLDG LTD,,1.92,2.04,1.98,308600,-0.01,1.96,2,90972,2.01,,-0.01,0.021117,0.020025
11993,20100927,5171,LPH,LONGWEI PETROLEUM INVT HLDG LTD,,1.92,2.07,2.05,409400,0.035354,2.02,2.05,90972,1.95,,0.035354,-0.004462,-0.001503
11993,20100928,5171,LPH,LONGWEI PETROLEUM INVT HLDG LTD,,2.05,2.15,2.15,344100,0.048781,2.11,2.15,90972,2.13,,0.048781,0.005582,0.007182
11993,20100929,5171,LPH,LONGWEI PETROLEUM INVT HLDG LTD,,2.15,2.35,2.2,1151500,0.023256,2.26,2.27,90972,2.16,,0.023256,-0.001172,0.001965
11993,20100930,5171,LPH,LONGWEI PETROLEUM INVT HLDG LTD,,2.21,2.3,2.29,291200,0.040909,2.27,2.29,93267,2.21,,0.040909,-0.00204,0.001154
11993,20101001,5171,LPH,LONGWEI PETROLEUM INVT HLDG LTD,,2.25,2.38,2.29,162600,0,2.27,2.29,93267,2.35,,0,0.004823,0.004384
11993,20101004,5171,LPH,LONGWEI PETROLEUM INVT HLDG LTD,,2.27,2.5505,2.54,965100,0.10917,2.53,2.55,93267,2.29,,0.10917,-0.008629,-0.009105
11993,20101005,5171,LPH,LONGWEI PETROLEUM INVT HLDG LTD,,2.51,2.68,2.52,503200,-0.007874,2.51,2.52,93267,2.57,,-0.007874,0.020546,0.018538
11993,20101006,5171,LPH,LONGWEI PETROLEUM INVT HLDG LTD,,2.41,2.56,2.41,286000,-0.043651,2.41,2.45,93267,2.56,,-0.043651,-0.000677,-0.000573
11993,20101007,5171,LPH,LONGWEI PETROLEUM INVT HLDG LTD,,2.4,2.5501,2.47,173100,0.024896,2.47,2.49,93267,2.4,,0.024896,-0.002143,-0.001675
11993,20101008,5171,LPH,LONGWEI PETROLEUM INVT HLDG LTD,,2.49,2.59,2.5799,350900,0.044494,2.56,2.58,93267,2.55,,0.044494,0.007603,0.009937
11993,20101011,5171,LPH,LONGWEI PETROLEUM INVT HLDG LTD,,2.75,3.04,3.04,1985500,0.17834,3,3.04,93267,2.81,,0.17834,0.000551,0.001862
11993,20101012,5171,LPH,LONGWEI PETROLEUM INVT HLDG LTD,,2.86,3.08,3.0499,961300,0.003257,3.03,3.05,93267,2.87,,0.003257,0.003645,0.003757
11993,20101013,5171,LPH,LONGWEI PETROLEUM INVT HLDG LTD,,2.99,3.24,2.99,960800,-0.01964,2.99,3,93267,3.12,,-0.01964,0.008644,0.010886
11993,20101014,5171,LPH,LONGWEI PETROLEUM INVT HLDG LTD,,2.9,3.19,2.9,784900,-0.0301,2.9,2.94,93267,3.08,,-0.0301,-0.003675,-0.001741
11993,20101015,5171,LPH,LONGWEI PETROLEUM INVT HLDG LTD,,2.86,3.16,2.9699,414500,0.024103,2.95,2.97,93267,3.16,,0.024103,0.000695,-0.000616
11993,20101018,5171,LPH,LONGWEI PETROLEUM INVT HLDG LTD,,2.945,3.1,3.03,457200,0.020236,3.02,3.03,93267,2.99,,0.020236,0.006269,0.005678
11993,20101019,5171,LPH,LONGWEI PETROLEUM INVT HLDG LTD,,2.81,3.11,2.8699,678400,-0.052838,2.85,2.87,93267,3.11,,-0.052838,-0.017203,-0.016764
11993,20101020,5171,LPH,LONGWEI PETROLEUM INVT HLDG LTD,,2.76,2.93,2.8499,422900,-0.006969,2.84,2.85,93267,2.92,,-0.006969,0.011143,0.010114
11993,20101021,5171,LPH,LONGWEI PETROLEUM INVT HLDG LTD,,2.85,2.97,2.86,256500,0.003544,2.86,2.9,93267,2.94,,0.003544,0.000239,-0.003026
11993,20101022,5171,LPH,LONGWEI PETROLEUM INVT HLDG LTD,,2.85,2.9,2.88,183300,0.006993,2.85,2.88,93267,2.85,,0.006993,0.002613,0.005049
11993,20101025,5171,LPH,LONGWEI PETROLEUM INVT HLDG LTD,,2.9,3.05,2.95,259500,0.024306,2.93,2.95,93267,3.05,,0.024306,0.003718,0.005161
11993,20101026,5171,LPH,LONGWEI PETROLEUM INVT HLDG LTD,,2.87,2.95,2.92,204200,-0.010169,2.91,2.92,93267,2.95,,-0.010169,-0.000428,0.00052
11993,20101027,5171,LPH,LONGWEI PETROLEUM INVT HLDG LTD,,2.84,2.95,2.87,205500,-0.017123,2.85,2.87,93267,2.9,,-0.017123,-0.003481,-0.004248
11993,20101028,5171,LPH,LONGWEI PETROLEUM INVT HLDG LTD,,2.78,2.89,2.83,244300,-0.013937,2.8,2.82,93267,2.89,,-0.013937,0.001032,-0.000908
11993,20101029,5171,LPH,LONGWEI PETROLEUM INVT HLDG LTD,,2.78,2.84,2.78,127500,-0.017668,2.78,2.8,93267,2.84,,-0.017668,0.001635,0.003524
11993,20101101,5171,LPH,LONGWEI PETROLEUM INVT HLDG LTD,,2.79,2.93,2.92,300500,0.05036,2.9,2.92,93267,2.81,,0.05036,0.000117,-0.003528
11993,20101102,5171,LPH,LONGWEI PETROLEUM INVT HLDG LTD,,2.8,3.05,2.84,1025900,-0.027397,2.8,2.86,93267,2.95,,-0.027397,0.009015,0.011655
11993,20101103,5171,LPH,LONGWEI PETROLEUM INVT HLDG LTD,,2.86,3.02,2.9899,704300,0.052782,2.96,2.99,93267,2.96,,0.052782,0.003291,0.002201
11993,20101104,5171,LPH,LONGWEI PETROLEUM INVT HLDG LTD,,3.01,3.25,3.19,1440400,0.066925,3.18,3.19,93267,3.09,,0.066925,0.019757,0.017191
11993,20101105,5171,LPH,LONGWEI PETROLEUM INVT HLDG LTD,,3.24,3.54,3.5001,1705200,0.09721,3.49,3.53,93267,3.25,,0.09721,0.003965,0.004472
11993,20101108,5171,LPH,LONGWEI PETROLEUM INVT HLDG LTD,,3.6,3.95,3.79,2101500,0.082826,3.79,3.8,93267,3.62,,0.082826,-0.001006,0.002028
11993,20101109,5171,LPH,LONGWEI PETROLEUM INVT HLDG LTD,,3.3,3.94,3.53,1679900,-0.068602,3.51,3.52,93267,3.93,,-0.068602,-0.008736,-0.009374
11993,20101110,5171,LPH,LONGWEI PETROLEUM INVT HLDG LTD,,3.4,3.79,3.6299,1202900,0.0283,3.61,3.64,93267,3.62,,0.0283,0.005222,0.005565
11993,20101111,5171,LPH,LONGWEI PETROLEUM INVT HLDG LTD,,3.44,3.68,3.44,721300,-0.052315,3.46,3.49,93267,3.6,,-0.052315,-0.00362,-0.00441
11993,20101112,5171,LPH,LONGWEI PETROLEUM INVT HLDG LTD,,3.21,3.45,3.38,1027700,-0.017442,3.36,3.39,93267,3.38,,-0.017442,-0.013452,-0.012579
11993,20101115,5171,LPH,LONGWEI PETROLEUM INVT HLDG LTD,,3.17,3.55,3.2,1143800,-0.053254,3.21,3.22,93267,3.55,,-0.053254,-0.00138,-0.001347
11993,20101116,5171,LPH,LONGWEI PETROLEUM INVT HLDG LTD,,2.62,2.94,2.8,2258800,-0.125,2.79,2.8,93267,2.9,,-0.125,-0.017052,-0.016765
11993,20101117,5171,LPH,LONGWEI PETROLEUM INVT HLDG LTD,,2.81,2.9556,2.87,679100,0.025,2.87,2.89,93267,2.85,,0.025,0.001488,0.002706
11993,20101118,5171,LPH,LONGWEI PETROLEUM INVT HLDG LTD,,2.91,3.02,2.97,614400,0.034843,2.96,2.97,93267,3.01,,0.034843,0.01552,0.012447
11993,20101119,5171,LPH,LONGWEI PETROLEUM INVT HLDG LTD,,2.88,2.95,2.88,378400,-0.030303,2.88,2.9,93267,2.9,,-0.030303,0.00361,0.003801
11993,20101122,5171,LPH,LONGWEI PETROLEUM INVT HLDG LTD,,2.71,2.92,2.77,598900,-0.038194,2.77,2.79,93267,2.92,,-0.038194,-0.000324,0.00099
11993,20101123,5171,LPH,LONGWEI PETROLEUM INVT HLDG LTD,,2.62,2.72,2.64,615000,-0.046931,2.64,2.66,93267,2.69,,-0.046931,-0.014162,-0.010262
11993,20101124,5171,LPH,LONGWEI PETROLEUM INVT HLDG LTD,,2.57,2.76,2.6,536200,-0.015152,2.6,2.61,93267,2.76,,-0.015152,0.015629,0.014286
11993,20101126,5171,LPH,LONGWEI PETROLEUM INVT HLDG LTD,,2.5778,2.79,2.79,303000,0.073077,2.75,2.79,93267,2.6,,0.073077,-0.007051,-0.002619
11993,20101129,5171,LPH,LONGWEI PETROLEUM INVT HLDG LTD,,2.6,2.8399,2.64,500000,-0.053763,2.64,2.65,93267,2.8,,-0.053763,-0.001141,-0.000769
11993,20101130,5171,LPH,LONGWEI PETROLEUM INVT HLDG LTD,,2.61,2.71,2.684,181200,0.016667,2.68,2.7,97568,2.62,,0.016667,-0.005822,-0.005372
11993,20101201,5171,LPH,LONGWEI PETROLEUM INVT HLDG LTD,,2.57,2.77,2.6,378700,-0.031297,2.6,2.62,97568,2.73,,-0.031297,0.020652,0.013113
11993,20101202,5171,LPH,LONGWEI PETROLEUM INVT HLDG LTD,,2.6,2.84,2.79,699500,0.073077,2.79,2.8,97568,2.625,,0.073077,0.012191,0.008898
11993,20101203,5171,LPH,LONGWEI PETROLEUM INVT HLDG LTD,,2.8,2.95,2.84,607000,0.017921,2.84,2.85,97568,2.82,,0.017921,0.003859,0.005069
11993,20101206,5171,LPH,LONGWEI PETROLEUM INVT HLDG LTD,,2.57,2.8,2.65,1159600,-0.066901,2.66,2.67,97568,2.8,,-0.066901,-0.000021,0.002934
11993,20101207,5171,LPH,LONGWEI PETROLEUM INVT HLDG LTD,,2.5,2.66,2.5,1076700,-0.056604,2.5,2.52,97568,2.63,,-0.056604,0.000148,0.000127
11993,20101208,5171,LPH,LONGWEI PETROLEUM INVT HLDG LTD,,2.43,2.59,2.57,413800,0.028,2.55,2.57,97568,2.59,,0.028,0.001313,-0.001094
11993,20101209,5171,LPH,LONGWEI PETROLEUM INVT HLDG LTD,,2.59,2.7301,2.6,674700,0.011673,2.6,2.63,97568,2.62,,0.011673,0.003498,0.003391
11993,20101210,5171,LPH,LONGWEI PETROLEUM INVT HLDG LTD,,2.55,2.68,2.56,309700,-0.015385,2.56,2.58,97568,2.56,,-0.015385,0.006395,0.006767
11993,20101213,5171,LPH,LONGWEI PETROLEUM INVT HLDG LTD,,2.56,2.72,2.6,534300,0.015625,2.58,2.6,97568,2.6,,0.015625,-0.000075,-0.001966
11993,20101214,5171,LPH,LONGWEI PETROLEUM INVT HLDG LTD,,2.42,2.68,2.65,1296400,0.019231,2.58,2.59,97568,2.5,,0.019231,0.000237,-0.001566
11993,20101215,5171,LPH,LONGWEI PETROLEUM INVT HLDG LTD,,2.51,2.63,2.53,396900,-0.045283,2.52,2.55,97568,2.6,,-0.045283,-0.005299,-0.004319
11993,20101216,5171,LPH,LONGWEI PETROLEUM INVT HLDG LTD,,2.45,2.57,2.47,641100,-0.023715,2.46,2.47,97568,2.53,,-0.023715,0.005693,0.007742
11993,20101217,5171,LPH,LONGWEI PETROLEUM INVT HLDG LTD,,2.4396,2.54,2.51,470800,0.016194,2.49,2.51,97568,2.47,,0.016194,0.001482,0.003413
11993,20101220,5171,LPH,LONGWEI PETROLEUM INVT HLDG LTD,,2.45,2.528,2.45,270500,-0.023904,2.45,2.46,97568,2.5,,-0.023904,0.001793,0.000634
11993,20101221,5171,LPH,LONGWEI PETROLEUM INVT HLDG LTD,,2.29,2.47,2.33,822700,-0.04898,2.32,2.33,97568,2.43,,-0.04898,0.006978,0.008329
11993,20101222,5171,LPH,LONGWEI PETROLEUM INVT HLDG LTD,,2.32,2.44,2.33,439200,0,2.33,2.35,97568,2.38,,0,0.002927,0.003093
11993,20101223,5171,LPH,LONGWEI PETROLEUM INVT HLDG LTD,,2.29,2.4,2.33,359500,0,2.32,2.34,97568,2.4,,0,-0.001292,0.000234
11993,20101227,5171,LPH,LONGWEI PETROLEUM INVT HLDG LTD,,2.3,2.42,2.41,256900,0.034335,2.4,2.42,97568,2.325,,0.034335,0.000629,0.003358
11993,20101228,5171,LPH,LONGWEI PETROLEUM INVT HLDG LTD,,2.37,2.45,2.45,194400,0.016597,2.44,2.45,97568,2.43,,0.016597,0.000729,-0.000344
11993,20101229,5171,LPH,LONGWEI PETROLEUM INVT HLDG LTD,,2.41,2.49,2.45,218500,0,2.42,2.45,97568,2.45,,0,0.002491,0.003657
11993,20101230,5171,LPH,LONGWEI PETROLEUM INVT HLDG LTD,,2.4,2.48,2.46,236600,0.004082,2.46,2.48,97568,2.4,,0.004082,-0.000834,0.001279
11993,20101231,5171,LPH,LONGWEI PETROLEUM INVT HLDG LTD,,2.44,2.65,2.59,638300,0.052845,2.59,2.6,97568,2.55,,0.052845,-0.000271,0.000864
11993,20110103,5171,LPH,LONGWEI PETROLEUM INVT HLDG LTD,,2.62,2.75,2.69,608900,0.03861,2.69,2.71,97568,2.62,,0.03861,0.011174,0.012516
11993,20110104,5171,LPH,LONGWEI PETROLEUM INVT HLDG LTD,,2.56,2.73,2.57,427300,-0.04461,2.57,2.6,97568,2.72,,-0.04461,-0.003932,-0.006774
11993,20110105,5171,LPH,LONGWEI PETROLEUM INVT HLDG LTD,,2.59,2.7,2.64,262000,0.027237,2.62,2.63,97568,2.59,,0.027237,0.005291,0.007917
11993,20110106,5171,LPH,LONGWEI PETROLEUM INVT HLDG LTD,,2.58,2.7,2.63,213500,-0.003788,2.58,2.6,97568,2.7,,-0.003788,-0.002761,-0.001248
11993,20110107,5171,LPH,LONGWEI PETROLEUM INVT HLDG LTD,,2.57,2.7,2.57,318100,-0.022814,2.57,2.59,97568,2.7,,-0.022814,-0.001948,-0.00285
11993,20110110,5171,LPH,LONGWEI PETROLEUM INVT HLDG LTD,,2.56,2.65,2.61,218300,0.015564,2.6,2.62,97568,2.61,,0.015564,-0.000719,0.002271
11993,20110111,5171,LPH,LONGWEI PETROLEUM INVT HLDG LTD,,2.66,2.78,2.69,1068000,0.030651,2.69,2.7,97568,2.73,,0.030651,0.005019,0.005921
11993,20110112,5171,LPH,LONGWEI PETROLEUM INVT HLDG LTD,,2.71,2.85,2.79,642300,0.037175,2.79,2.8,97568,2.71,,0.037175,0.008909,0.007994
11993,20110113,5171,LPH,LONGWEI PETROLEUM INVT HLDG LTD,,2.78,2.94,2.88,593600,0.032258,2.87,2.88,97568,2.84,,0.032258,-0.001891,-0.000523
11993,20110114,5171,LPH,LONGWEI PETROLEUM INVT HLDG LTD,,2.74,2.94,2.74,421400,-0.048611,2.74,2.76,97568,2.94,,-0.048611,0.006614,0.00472
11993,20110118,5171,LPH,LONGWEI PETROLEUM INVT HLDG LTD,,2.62,2.78,2.71,459000,-0.010949,2.7,2.71,97568,2.75,,-0.010949,0.002144,0.002508
11993,20110119,5171,LPH,LONGWEI PETROLEUM INVT HLDG LTD,,2.6,2.7,2.63,245100,-0.02952,2.62,2.63,97568,2.66,,-0.02952,-0.012322,-0.016145
11993,20110120,5171,LPH,LONGWEI PETROLEUM INVT HLDG LTD,,2.54,2.62,2.5795,260100,-0.019202,2.57,2.58,97568,2.6,,-0.019202,-0.003828,-0.007638
11993,20110121,5171,LPH,LONGWEI PETROLEUM INVT HLDG LTD,,2.58,2.65,2.58,193800,0.000194,2.58,2.6,97568,2.6,,0.000194,0.001252,-0.000159
11993,20110124,5171,LPH,LONGWEI PETROLEUM INVT HLDG LTD,,2.58,2.63,2.59,181800,0.003876,2.59,2.61,97568,2.63,,0.003876,0.006245,0.006038
11993,20110125,5171,LPH,LONGWEI PETROLEUM INVT HLDG LTD,,2.565,2.64,2.64,127300,0.019305,2.63,2.64,97568,2.6,,0.019305,-0.000454,-0.001084
11993,20110126,5171,LPH,LONGWEI PETROLEUM INVT HLDG LTD,,2.48,2.66,2.53,544800,-0.041667,2.53,2.55,97568,2.65,,-0.041667,0.007299,0.011678
11993,20110127,5171,LPH,LONGWEI PETROLEUM INVT HLDG LTD,,2.5,2.58,2.54,227100,0.003953,2.53,2.54,97568,2.51,,0.003953,0.002018,0.001559
11993,20110128,5171,LPH,LONGWEI PETROLEUM INVT HLDG LTD,,2.54,2.59,2.55,172100,0.003937,2.55,2.56,97568,2.56,,0.003937,-0.017268,-0.017827
11993,20110131,5171,LPH,LONGWEI PETROLEUM INVT HLDG LTD,,2.5,2.6,2.53,190200,-0.007843,2.53,2.54,100197,2.52,,-0.007843,0.007617,0.005202
11993,20110201,5171,LPH,LONGWEI PETROLEUM INVT HLDG LTD,,2.47,2.63,2.47,419300,-0.023715,2.48,2.49,100197,2.63,,-0.023715,0.016978,0.014685
11993,20110202,5171,LPH,LONGWEI PETROLEUM INVT HLDG LTD,,2.46,2.53,2.49,192900,0.008097,2.48,2.49,100197,2.5,,0.008097,-0.002365,-0.000625
11993,20110203,5171,LPH,LONGWEI PETROLEUM INVT HLDG LTD,,2.4,2.54,2.4,354700,-0.036145,2.41,2.44,100197,2.5,,-0.036145,0.002781,0.001862
11993,20110204,5171,LPH,LONGWEI PETROLEUM INVT HLDG LTD,,2.29,2.45,2.43,441700,0.0125,2.41,2.43,100197,2.45,,0.0125,0.002148,0.001303
11993,20110207,5171,LPH,LONGWEI PETROLEUM INVT HLDG LTD,,2.33,2.44,2.4,263300,-0.012346,2.38,2.4,100197,2.4,,-0.012346,0.006108,0.006716
11993,20110208,5171,LPH,LONGWEI PETROLEUM INVT HLDG LTD,,2.33,2.43,2.39,145400,-0.004167,2.39,2.42,100197,2.33,,-0.004167,0.004356,0.00385
11993,20110209,5171,LPH,LONGWEI PETROLEUM INVT HLDG LTD,,2.37,2.5,2.46,210400,0.029289,2.46,2.48,100197,2.39,,0.029289,-0.003549,-0.003712
11993,20110210,5171,LPH,LONGWEI PETROLEUM INVT HLDG LTD,,2.41,2.54,2.54,215200,0.03252,2.53,2.54,100197,2.47,,0.03252,0.001271,0.000427
11993,20110211,5171,LPH,LONGWEI PETROLEUM INVT HLDG LTD,,2.49,2.56,2.49,212800,-0.019685,2.49,2.53,100197,2.55,,-0.019685,0.005944,0.006336
11993,20110214,5171,LPH,LONGWEI PETROLEUM INVT HLDG LTD,,2.4882,2.6,2.59,516400,0.040161,2.56,2.59,100197,2.49,,0.040161,0.003258,0.003171
11993,20110215,5171,LPH,LONGWEI PETROLEUM INVT HLDG LTD,,2.48,2.79,2.51,1189600,-0.030888,2.49,2.5,100197,2.79,,-0.030888,-0.003277,-0.003053
11993,20110216,5171,LPH,LONGWEI PETROLEUM INVT HLDG LTD,,2.441,2.58,2.47,338900,-0.015936,2.45,2.47,100197,2.56,,-0.015936,0.007352,0.006185
11993,20110217,5171,LPH,LONGWEI PETROLEUM INVT HLDG LTD,,2.35,2.5,2.43,452200,-0.016194,2.41,2.46,100197,2.47,,-0.016194,0.003847,0.005578
11993,20110218,5171,LPH,LONGWEI PETROLEUM INVT HLDG LTD,,2.35,2.4428,2.44,362400,0.004115,2.41,2.45,100197,2.4,,0.004115,0.001209,0.001068
11993,20110222,5171,LPH,LONGWEI PETROLEUM INVT HLDG LTD,,2.3,2.45,2.3,590200,-0.057377,2.3,2.33,100197,2.45,,-0.057377,-0.021049,-0.020656
11993,20110223,5171,LPH,LONGWEI PETROLEUM INVT HLDG LTD,,2.25,2.4,2.25,389300,-0.021739,2.25,2.28,100197,2.38,,-0.021739,-0.006585,-0.008523
11993,20110224,5171,LPH,LONGWEI PETROLEUM INVT HLDG LTD,,2.2799,2.41,2.389,321700,0.061778,2.38,2.39,100197,2.36,,0.061778,-0.000306,0.002575
11993,20110225,5171,LPH,LONGWEI PETROLEUM INVT HLDG LTD,,2.31,2.39,2.3632,179000,-0.010799,2.34,2.37,100197,2.36,,-0.010799,0.012721,0.014965
11993,20110228,5171,LPH,LONGWEI PETROLEUM INVT HLDG LTD,,2.31,2.44,2.31,188000,-0.022512,2.31,2.32,100197,2.44,,-0.022512,0.005287,0.002837
11993,20110301,5171,LPH,LONGWEI PETROLEUM INVT HLDG LTD,,2.25,2.34,2.26,206600,-0.021645,2.26,2.27,100197,2.32,,-0.021645,-0.014923,-0.011221
11993,20110302,5171,LPH,LONGWEI PETROLEUM INVT HLDG LTD,,2.15,2.29,2.2,499000,-0.026549,2.2,2.21,100197,2.29,,-0.026549,0.002685,0.002902
11993,20110303,5171,LPH,LONGWEI PETROLEUM INVT HLDG LTD,,2.16,2.279,2.23,307700,0.013636,2.23,2.25,100197,2.21,,0.013636,0.016024,0.013322
11993,20110304,5171,LPH,LONGWEI PETROLEUM INVT HLDG LTD,,2.19,2.3,2.28,260900,0.022422,2.27,2.29,100197,2.29,,0.022422,-0.005904,-0.003372
11993,20110307,5171,LPH,LONGWEI PETROLEUM INVT HLDG LTD,,2.24,2.39,2.24,240200,-0.017544,2.24,2.25,100197,2.3,,-0.017544,-0.009425,-0.009735
11993,20110308,5171,LPH,LONGWEI PETROLEUM INVT HLDG LTD,,2.23,2.36,2.25,158700,0.004464,2.25,2.27,100197,2.36,,0.004464,0.007933,0.008887
11993,20110309,5171,LPH,LONGWEI PETROLEUM INVT HLDG LTD,,2.2,2.39,2.2,127800,-0.022222,2.2,2.21,100197,2.27,,-0.022222,-0.002584,-0.003229
11993,20110310,5171,LPH,LONGWEI PETROLEUM INVT HLDG LTD,,2,2.2,2.12,404700,-0.036364,2.12,2.14,100197,2.2,,-0.036364,-0.019782,-0.019569
11993,20110311,5171,LPH,LONGWEI PETROLEUM INVT HLDG LTD,,1.77,2.12,1.99,1909900,-0.061321,1.97,1.99,100197,2.12,,-0.061321,0.006644,0.002503
11993,20110314,5171,LPH,LONGWEI PETROLEUM INVT HLDG LTD,,1.89,2.18,2.035,969100,0.022613,2.04,2.08,100197,2.06,,0.022613,-0.00551,-0.006698
11993,20110315,5171,LPH,LONGWEI PETROLEUM INVT HLDG LTD,,1.77,2.08,1.99,1053500,-0.022113,1.96,1.99,100197,1.88,,-0.022113,-0.011168,-0.010854
11993,20110316,5171,LPH,LONGWEI PETROLEUM INVT HLDG LTD,,1.9092,2.12,2.08,930400,0.045226,2.04,2.07,100197,2.06,,0.045226,-0.016679,-0.010217
11993,20110317,5171,LPH,LONGWEI PETROLEUM INVT HLDG LTD,,1.97,2.16,2,452400,-0.038462,2,2.04,100197,2.16,,-0.038462,0.012179,0.007182
11993,20110318,5171,LPH,LONGWEI PETROLEUM INVT HLDG LTD,,1.93,2.03,1.94,751400,-0.03,1.94,1.98,100197,2,,-0.03,0.004809,0.00798
11993,20110321,5171,LPH,LONGWEI PETROLEUM INVT HLDG LTD,,1.9,2,2,638900,0.030928,1.99,2,100197,1.95,,0.030928,0.016415,0.015689
11993,20110322,5171,LPH,LONGWEI PETROLEUM INVT HLDG LTD,,1.95,2.02,2,360000,0,1.98,2,100197,2,,0,-0.003326,-0.001307
11993,20110323,5171,LPH,LONGWEI PETROLEUM INVT HLDG LTD,,1.9,2.02,1.96,695900,-0.02,1.93,1.96,100197,2.02,,-0.02,0.00285,0.002852
11993,20110324,5171,LPH,LONGWEI PETROLEUM INVT HLDG LTD,,1.85,1.99,1.88,368000,-0.040816,1.88,1.89,100197,1.91,,-0.040816,0.008486,0.005781
11993,20110325,5171,LPH,LONGWEI PETROLEUM INVT HLDG LTD,,1.85,1.95,1.93,203500,0.026596,1.92,1.93,100197,1.85,,0.026596,0.003095,0.003864
11993,20110328,5171,LPH,LONGWEI PETROLEUM INVT HLDG LTD,,1.9002,1.94,1.91,267600,-0.010363,1.91,1.92,100197,1.92,,-0.010363,-0.003328,-0.001807
11993,20110329,5171,LPH,LONGWEI PETROLEUM INVT HLDG LTD,,1.87,1.93,1.9,354100,-0.005236,1.9,1.91,100197,1.91,,-0.005236,0.006919,0.005339
11993,20110330,5171,LPH,LONGWEI PETROLEUM INVT HLDG LTD,,1.83,1.96,1.85,479600,-0.026316,1.85,1.86,100197,1.96,,-0.026316,0.008136,0.007839
11993,20110331,5171,LPH,LONGWEI PETROLEUM INVT HLDG LTD,,1.7,1.85,1.83,866500,-0.010811,1.81,1.83,100197,1.83,,-0.010811,-0.000605,0.002389
11993,20110401,5171,LPH,LONGWEI PETROLEUM INVT HLDG LTD,,1.75,1.85,1.77,442100,-0.032787,1.76,1.77,100197,1.81,,-0.032787,0.005358,0.003443
11993,20110404,5171,LPH,LONGWEI PETROLEUM INVT HLDG LTD,,1.69,1.84,1.7,548600,-0.039548,1.7,1.72,100197,1.73,,-0.039548,0.00108,0.000924
11993,20110405,5171,LPH,LONGWEI PETROLEUM INVT HLDG LTD,,1.5,1.7,1.54,1486300,-0.094118,1.53,1.54,100197,1.67,,-0.094118,0.001321,0.001908
11993,20110406,5171,LPH,LONGWEI PETROLEUM INVT HLDG LTD,,1.51,1.6,1.57,460400,0.019481,1.56,1.58,100197,1.6,,0.019481,0.00147,0.002592
11993,20110407,5171,LPH,LONGWEI PETROLEUM INVT HLDG LTD,,1.57,1.72,1.7,534300,0.082803,1.68,1.7,100197,1.57,,0.082803,-0.002301,-0.002599
11993,20110408,5171,LPH,LONGWEI PETROLEUM INVT HLDG LTD,,1.7,1.8,1.8,472500,0.058823,1.74,1.77,100197,1.7,,0.058823,-0.003391,-0.004756
11993,20110411,5171,LPH,LONGWEI PETROLEUM INVT HLDG LTD,,1.56,1.79,1.64,614500,-0.088889,1.64,1.65,100197,1.79,,-0.088889,-0.004738,-0.006511
11993,20110412,5171,LPH,LONGWEI PETROLEUM INVT HLDG LTD,,1.5,1.66,1.52,559600,-0.073171,1.51,1.53,100197,1.63,,-0.073171,-0.009248,-0.010351
11993,20110413,5171,LPH,LONGWEI PETROLEUM INVT HLDG LTD,,1.47,1.59,1.49,507700,-0.019737,1.49,1.52,100197,1.59,,-0.019737,0.001181,0.001341
11993,20110414,5171,LPH,LONGWEI PETROLEUM INVT HLDG LTD,,1.49,1.53,1.52,245800,0.020134,1.51,1.52,100197,1.49,,0.020134,0.000527,0.002603
11993,20110415,5171,LPH,LONGWEI PETROLEUM INVT HLDG LTD,,1.58,1.68,1.64,673600,0.078947,1.62,1.63,100197,1.68,,0.078947,0.003953,0.004923
11993,20110418,5171,LPH,LONGWEI PETROLEUM INVT HLDG LTD,,1.55,1.73,1.7,435200,0.036585,1.69,1.7,100197,1.63,,0.036585,-0.01162,-0.011509
11993,20110419,5171,LPH,LONGWEI PETROLEUM INVT HLDG LTD,,1.69,1.78,1.77,391300,0.041176,1.76,1.78,100197,1.7,,0.041176,0.005689,0.00343
11993,20110420,5171,LPH,LONGWEI PETROLEUM INVT HLDG LTD,,1.76,1.99,1.94,763900,0.096045,1.93,1.94,100197,1.79,,0.096045,0.014244,0.012611
11993,20110421,5171,LPH,LONGWEI PETROLEUM INVT HLDG LTD,,1.81,1.9699,1.86,282000,-0.041237,1.86,1.87,100197,1.95,,-0.041237,0.005815,0.004929
11993,20110425,5171,LPH,LONGWEI PETROLEUM INVT HLDG LTD,,1.87,1.97,1.91,289300,0.026882,1.91,1.94,100197,1.94,,0.026882,-0.001848,-0.000578
11993,20110426,5171,LPH,LONGWEI PETROLEUM INVT HLDG LTD,,1.75,1.95,1.76,313000,-0.078534,1.77,1.8,100197,1.95,,-0.078534,0.008137,0.005391
11993,20110427,5171,LPH,LONGWEI PETROLEUM INVT HLDG LTD,,1.75,1.94,1.92,488200,0.090909,1.92,1.93,100197,1.75,,0.090909,0.005975,0.00516
11993,20110428,5171,LPH,LONGWEI PETROLEUM INVT HLDG LTD,,1.86,1.94,1.86,186300,-0.03125,1.86,1.87,100197,1.92,,-0.03125,0.002854,0.001861
11993,20110429,5171,LPH,LONGWEI PETROLEUM INVT HLDG LTD,,1.8,1.89,1.8,138200,-0.032258,1.8,1.82,100197,1.85,,-0.032258,0.0031,0.003633
11993,20110502,5171,LPH,LONGWEI PETROLEUM INVT HLDG LTD,,1.75,1.84,1.84,203700,0.022222,1.82,1.84,100197,1.78,,0.022222,-0.003618,-0.006083
11993,20110503,5171,LPH,LONGWEI PETROLEUM INVT HLDG LTD,,1.75,1.8226,1.75,115700,-0.048913,1.75,1.76,100197,1.82,,-0.048913,-0.006658,-0.009186
11993,20110504,5171,LPH,LONGWEI PETROLEUM INVT HLDG LTD,,1.7,1.78,1.7,168600,-0.028571,1.7,1.72,100197,1.75,,-0.028571,-0.008141,-0.008905
11993,20110505,5171,LPH,LONGWEI PETROLEUM INVT HLDG LTD,,1.62,1.71,1.63,353100,-0.041177,1.63,1.65,100197,1.7,,-0.041177,-0.009519,-0.00626
11993,20110506,5171,LPH,LONGWEI PETROLEUM INVT HLDG LTD,,1.61,1.778,1.72,174700,0.055215,1.67,1.68,100197,1.61,,0.055215,0.004513,0.004511
11993,20110509,5171,LPH,LONGWEI PETROLEUM INVT HLDG LTD,,1.64,1.72,1.67,92300,-0.02907,1.68,1.72,100197,1.72,,-0.02907,0.006133,0.006933
11993,20110510,5171,LPH,LONGWEI PETROLEUM INVT HLDG LTD,,1.68,1.78,1.75,121700,0.047904,1.72,1.73,100197,1.68,,0.047904,0.008442,0.009807
11993,20110511,5171,LPH,LONGWEI PETROLEUM INVT HLDG LTD,,1.68,1.7336,1.6999,82900,-0.028629,1.68,1.7,100197,1.7336,,-0.028629,-0.012697,-0.011871
11993,20110512,5171,LPH,LONGWEI PETROLEUM INVT HLDG LTD,,1.66,1.75,1.67,432200,-0.017589,1.68,1.7,100197,1.66,,-0.017589,0.003922,0.004131
11993,20110513,5171,LPH,LONGWEI PETROLEUM INVT HLDG LTD,,1.6,1.75,1.64,579300,-0.017964,1.7,1.73,100197,1.67,,-0.017964,-0.008946,-0.009053
11993,20110516,5171,LPH,LONGWEI PETROLEUM INVT HLDG LTD,,1.66,1.82,1.73,173100,0.054878,1.7,1.73,100197,1.66,,0.054878,-0.007001,-0.010404
11993,20110517,5171,LPH,LONGWEI PETROLEUM INVT HLDG LTD,,1.7,1.88,1.8,461900,0.040462,1.78,1.8,100197,1.8,,0.040462,-0.000818,-0.004082
11993,20110518,5171,LPH,LONGWEI PETROLEUM INVT HLDG LTD,,1.76,1.84,1.77,168500,-0.016667,1.78,1.8,100197,1.78,,-0.016667,0.01059,0.010852
11993,20110519,5171,LPH,LONGWEI PETROLEUM INVT HLDG LTD,,1.68,1.75,1.68,188400,-0.050847,1.68,1.69,100197,1.75,,-0.050847,0.002278,0.000801
11993,20110520,5171,LPH,LONGWEI PETROLEUM INVT HLDG LTD,,1.66,1.71,1.7,88200,0.011905,1.68,1.7,100197,1.71,,0.011905,-0.006833,-0.004492
11993,20110523,5171,LPH,LONGWEI PETROLEUM INVT HLDG LTD,,1.63,1.73,1.67,202900,-0.017647,1.67,1.68,100197,1.7,,-0.017647,-0.013016,-0.013197
11993,20110524,5171,LPH,LONGWEI PETROLEUM INVT HLDG LTD,,1.6,1.71,1.6399,134600,-0.018024,1.63,1.64,100197,1.7,,-0.018024,-0.000402,-0.001059
11993,20110525,5171,LPH,LONGWEI PETROLEUM INVT HLDG LTD,,1.6,1.68,1.61,162700,-0.018233,1.61,1.62,100197,1.68,,-0.018233,0.005021,0.005777
11993,20110526,5171,LPH,LONGWEI PETROLEUM INVT HLDG LTD,,1.61,1.67,1.61,189400,0,1.61,1.62,100197,1.67,,0,0.005146,0.007715
11993,20110527,5171,LPH,LONGWEI PETROLEUM INVT HLDG LTD,,1.55,1.62,1.56,249000,-0.031056,1.55,1.56,100197,1.62,,-0.031056,0.004895,0.006001
11993,20110531,5171,LPH,LONGWEI PETROLEUM INVT HLDG LTD,,1.58,1.6801,1.63,276800,0.044872,1.6,1.61,100728,1.59,,0.044872,0.010268,0.009344
11993,20110601,5171,LPH,LONGWEI PETROLEUM INVT HLDG LTD,,1.61,1.67,1.64,72700,0.006135,1.62,1.65,100728,1.65,,0.006135,-0.023195,-0.019748
11993,20110602,5171,LPH,LONGWEI PETROLEUM INVT HLDG LTD,,1.55,1.67,1.56,254600,-0.048781,1.56,1.58,100728,1.67,,-0.048781,-0.000674,-0.0001
11993,20110603,5171,LPH,LONGWEI PETROLEUM INVT HLDG LTD,,1.52,1.64,1.54,288800,-0.012821,1.54,1.55,100728,1.55,,-0.012821,-0.009321,-0.009517
11993,20110606,5171,LPH,LONGWEI PETROLEUM INVT HLDG LTD,,1.5,1.61,1.52,290100,-0.012987,1.52,1.55,100728,1.56,,-0.012987,-0.01248,-0.01336
11993,20110607,5171,LPH,LONGWEI PETROLEUM INVT HLDG LTD,,1.5,1.6,1.51,267800,-0.006579,1.51,1.54,100728,1.6,,-0.006579,0.000244,0.001398
11993,20110608,5171,LPH,LONGWEI PETROLEUM INVT HLDG LTD,,1.5,1.56,1.54,216600,0.019868,1.5,1.51,100728,1.56,,0.019868,-0.00614,-0.010785
11993,20110609,5171,LPH,LONGWEI PETROLEUM INVT HLDG LTD,,1.47,1.5399,1.49,340700,-0.032468,1.48,1.5,100728,1.52,,-0.032468,0.007438,0.00544
11993,20110610,5171,LPH,LONGWEI PETROLEUM INVT HLDG LTD,,1.37,1.49,1.44,353600,-0.033557,1.44,1.45,100728,1.48,,-0.033557,-0.014092,-0.011787
11993,20110613,5171,LPH,LONGWEI PETROLEUM INVT HLDG LTD,,1.25,1.48,1.29,606300,-0.104167,1.27,1.29,100728,1.48,,-0.104167,-0.001256,-0.006066
11993,20110614,5171,LPH,LONGWEI PETROLEUM INVT HLDG LTD,,1.29,1.42,1.42,326000,0.100775,1.39,1.4,100728,1.29,,0.100775,0.013809,0.014324
11993,20110615,5171,LPH,LONGWEI PETROLEUM INVT HLDG LTD,,1.33,1.5,1.33,391400,-0.06338,1.33,1.4,100728,1.41,,-0.06338,-0.01735,-0.014182
11993,20110616,5171,LPH,LONGWEI PETROLEUM INVT HLDG LTD,,1.38,1.84,1.55,950100,0.165413,1.56,1.57,100728,1.38,,0.165413,-0.000231,-0.000882
11993,20110617,5171,LPH,LONGWEI PETROLEUM INVT HLDG LTD,,1.6,1.69,1.68,438300,0.083871,1.62,1.65,100728,1.6,,0.083871,0.002107,0.001134
11993,20110620,5171,LPH,LONGWEI PETROLEUM INVT HLDG LTD,,1.58,1.7,1.58,161300,-0.059524,1.58,1.6,100728,1.6,,-0.059524,0.005327,0.002448
11993,20110621,5171,LPH,LONGWEI PETROLEUM INVT HLDG LTD,,1.51,1.66,1.57,184400,-0.006329,1.57,1.6,100728,1.59,,-0.006329,0.01578,0.015986
11993,20110622,5171,LPH,LONGWEI PETROLEUM INVT HLDG LTD,,1.52,1.62,1.57,209900,0,1.53,1.56,100728,1.62,,0,-0.005628,-0.003323
11993,20110623,5171,LPH,LONGWEI PETROLEUM INVT HLDG LTD,,1.53,1.6,1.55,212700,-0.012739,1.55,1.56,100728,1.55,,-0.012739,-0.002604,-0.000903
11993,20110624,5171,LPH,LONGWEI PETROLEUM INVT HLDG LTD,,1.52,1.57,1.53,101900,-0.012903,1.53,1.55,100728,1.55,,-0.012903,-0.010604,-0.002482
11993,20110627,5171,LPH,LONGWEI PETROLEUM INVT HLDG LTD,,1.44,1.52,1.49,126100,-0.026144,1.49,1.51,100728,1.51,,-0.026144,0.008064,0.00543
11993,20110628,5171,LPH,LONGWEI PETROLEUM INVT HLDG LTD,,1.4208,1.54,1.5,119400,0.006711,1.5,1.53,100728,1.5,,0.006711,0.013434,0.010381
11993,20110629,5171,LPH,LONGWEI PETROLEUM INVT HLDG LTD,,1.35,1.69,1.52,319000,0.013333,1.49,1.5,100728,1.69,,0.013333,0.008625,0.004894
11993,20110630,5171,LPH,LONGWEI PETROLEUM INVT HLDG LTD,,1.44,1.55,1.48,98700,-0.026316,1.44,1.48,100728,1.5,,-0.026316,0.009669,0.008367
11993,20110701,5171,LPH,LONGWEI PETROLEUM INVT HLDG LTD,,1.4,1.49,1.49,124500,0.006757,1.46,1.49,100728,1.46,,0.006757,0.013321,0.009964
11993,20110705,5171,LPH,LONGWEI PETROLEUM INVT HLDG LTD,,1.38,1.54,1.49,151300,0,1.48,1.49,100728,1.54,,0,-0.000055,0.000779
11993,20110706,5171,LPH,LONGWEI PETROLEUM INVT HLDG LTD,,1.45,1.59,1.46,99600,-0.020134,1.46,1.48,100728,1.59,,-0.020134,0.000902,0.002824
11993,20110707,5171,LPH,LONGWEI PETROLEUM INVT HLDG LTD,,1.42,1.53,1.52,248600,0.041096,1.51,1.52,100728,1.42,,0.041096,0.010562,0.011633
11993,20110708,5171,LPH,LONGWEI PETROLEUM INVT HLDG LTD,,1.43,1.52,1.4799,196600,-0.026382,1.47,1.48,100728,1.49,,-0.026382,-0.006331,-0.004814
11993,20110711,5171,LPH,LONGWEI PETROLEUM INVT HLDG LTD,,1.41,1.51,1.46,243400,-0.013447,1.47,1.48,100728,1.44,,-0.013447,-0.019355,-0.016329
11993,20110712,5171,LPH,LONGWEI PETROLEUM INVT HLDG LTD,,1.42,1.46,1.45,100000,-0.006849,1.44,1.45,100728,1.45,,-0.006849,-0.003815,-0.002258
11993,20110713,5171,LPH,LONGWEI PETROLEUM INVT HLDG LTD,,1.451,1.55,1.5,296200,0.034483,1.5,1.51,100728,1.46,,0.034483,0.004893,0.007214
11993,20110714,5171,LPH,LONGWEI PETROLEUM INVT HLDG LTD,,1.51,1.55,1.51,106600,0.006667,1.51,1.52,100728,1.51,,0.006667,-0.008057,-0.009562
11993,20110715,5171,LPH,LONGWEI PETROLEUM INVT HLDG LTD,,1.5,1.69,1.62,292900,0.072848,1.62,1.63,100728,1.53,,0.072848,0.006171,0.004208
11993,20110718,5171,LPH,LONGWEI PETROLEUM INVT HLDG LTD,,1.55,1.67,1.6,206900,-0.012346,1.6,1.62,100728,1.67,,-0.012346,-0.009499,-0.011087
11993,20110719,5171,LPH,LONGWEI PETROLEUM INVT HLDG LTD,,1.6101,1.85,1.81,657300,0.13125,1.78,1.8,100728,1.6298,,0.13125,0.016152,0.013498
11993,20110720,5171,LPH,LONGWEI PETROLEUM INVT HLDG LTD,,1.6,1.84,1.75,375600,-0.033149,1.75,1.78,100728,1.76,,-0.033149,-0.000043,0.000894
11993,20110721,5171,LPH,LONGWEI PETROLEUM INVT HLDG LTD,,1.75,1.87,1.8399,319700,0.051371,1.81,1.84,100728,1.75,,0.051371,0.012197,0.008868
11993,20110722,5171,LPH,LONGWEI PETROLEUM INVT HLDG LTD,,1.79,1.88,1.81,153300,-0.016251,1.8,1.81,100728,1.88,,-0.016251,0.001382,0.001569
11993,20110725,5171,LPH,LONGWEI PETROLEUM INVT HLDG LTD,,1.7,1.81,1.75,201000,-0.033149,1.75,1.78,100728,1.8,,-0.033149,-0.00628,-0.007896
11993,20110726,5171,LPH,LONGWEI PETROLEUM INVT HLDG LTD,,1.75,1.819,1.77,108300,0.011429,1.76,1.78,100728,1.75,,0.011429,-0.004541,-0.004074
11993,20110727,5171,LPH,LONGWEI PETROLEUM INVT HLDG LTD,,1.63,1.811,1.6484,170900,-0.068701,1.64,1.65,100728,1.77,,-0.068701,-0.021724,-0.021165
11993,20110728,5171,LPH,LONGWEI PETROLEUM INVT HLDG LTD,,1.63,1.74,1.69,84200,0.025237,1.68,1.69,100728,1.68,,0.025237,-0.003041,-0.001498
11993,20110729,5171,LPH,LONGWEI PETROLEUM INVT HLDG LTD,,1.56,1.67,1.63,106100,-0.035503,1.62,1.66,100728,1.67,,-0.035503,-0.005649,-0.003083
11993,20110801,5171,LPH,LONGWEI PETROLEUM INVT HLDG LTD,,1.63,1.711,1.65,112900,0.01227,1.64,1.65,100728,1.67,,0.01227,-0.00364,-0.000943
11993,20110802,5171,LPH,LONGWEI PETROLEUM INVT HLDG LTD,,1.64,1.7,1.65,89200,0,1.64,1.66,100728,1.65,,0,-0.025654,-0.021105
11993,20110803,5171,LPH,LONGWEI PETROLEUM INVT HLDG LTD,,1.551,1.7,1.62,101500,-0.018182,1.6,1.66,100728,1.68,,-0.018182,0.004643,0.002141
11993,20110804,5171,LPH,LONGWEI PETROLEUM INVT HLDG LTD,,1.48,1.649,1.48,307000,-0.08642,1.52,1.55,100728,1.6,,-0.08642,-0.050395,-0.047471
11993,20110805,5171,LPH,LONGWEI PETROLEUM INVT HLDG LTD,,1.42,1.58,1.48,251900,0,1.46,1.48,100728,1.46,,0,-0.004807,-0.01258
11993,20110808,5171,LPH,LONGWEI PETROLEUM INVT HLDG LTD,,1.1,1.4,1.15,632400,-0.222973,1.1,1.2,100728,1.4,,-0.222973,-0.068767,-0.072433
11993,20110809,5171,LPH,LONGWEI PETROLEUM INVT HLDG LTD,,1.2,1.35,1.32,445900,0.147826,1.29,1.32,100728,1.24,,0.147826,0.051179,0.047104
11993,20110810,5171,LPH,LONGWEI PETROLEUM INVT HLDG LTD,,1.253,1.37,1.31,155400,-0.007576,1.31,1.34,100728,1.3,,-0.007576,-0.038886,-0.029925
11993,20110811,5171,LPH,LONGWEI PETROLEUM INVT HLDG LTD,,1.3,1.43,1.42,199000,0.083969,1.36,1.4,100728,1.3,,0.083969,0.045039,0.037071
11993,20110812,5171,LPH,LONGWEI PETROLEUM INVT HLDG LTD,,1.37,1.46,1.38,48300,-0.028169,1.38,1.41,100728,1.46,,-0.028169,0.004744,0.004153
11993,20110815,5171,LPH,LONGWEI PETROLEUM INVT HLDG LTD,,1.3899,1.44,1.43,71100,0.036232,1.43,1.44,100728,1.44,,0.036232,0.02273,0.022971
11993,20110816,5171,LPH,LONGWEI PETROLEUM INVT HLDG LTD,,1.34,1.42,1.36,72700,-0.048951,1.36,1.4,100728,1.42,,-0.048951,-0.011038,-0.012961
11993,20110817,5171,LPH,LONGWEI PETROLEUM INVT HLDG LTD,,1.28,1.3985,1.34,122800,-0.014706,1.34,1.38,100728,1.33,,-0.014706,0.000641,0.000567
11993,20110818,5171,LPH,LONGWEI PETROLEUM INVT HLDG LTD,,1.25,1.338,1.29,64900,-0.037313,1.28,1.29,100728,1.3,,-0.037313,-0.045349,-0.041372
11993,20110819,5171,LPH,LONGWEI PETROLEUM INVT HLDG LTD,,1.15,1.31,1.16,317400,-0.100775,1.16,1.19,100728,1.28,,-0.100775,-0.015399,-0.012245
11993,20110822,5171,LPH,LONGWEI PETROLEUM INVT HLDG LTD,,1.12,1.23,1.12,264500,-0.034483,1.12,1.13,100728,1.23,,-0.034483,-0.000001,-0.002681
11993,20110823,5171,LPH,LONGWEI PETROLEUM INVT HLDG LTD,,1.1,1.1899,1.16,136100,0.035714,1.16,1.18,100728,1.12,,0.035714,0.033725,0.028999
11993,20110824,5171,LPH,LONGWEI PETROLEUM INVT HLDG LTD,,1.1,1.2,1.14,531100,-0.017241,1.14,1.15,100728,1.19,,-0.017241,0.011433,0.007909
11993,20110825,5171,LPH,LONGWEI PETROLEUM INVT HLDG LTD,,1.14,1.23,1.14,436700,0,1.14,1.15,100728,1.16,,0,-0.015922,-0.015405
11993,20110826,5171,LPH,LONGWEI PETROLEUM INVT HLDG LTD,,1.08,1.16,1.09,442200,-0.04386,1.09,1.1,100728,1.12,,-0.04386,0.01634,0.015529
11993,20110829,5171,LPH,LONGWEI PETROLEUM INVT HLDG LTD,,1.08,1.13,1.1,477100,0.009174,1.09,1.1,100728,1.13,,0.009174,0.029507,0.031448
11993,20110830,5171,LPH,LONGWEI PETROLEUM INVT HLDG LTD,,1.09,1.1699,1.11,587600,0.009091,1.11,1.11,100728,1.1,,0.009091,0.00357,0.004626
11993,20110831,5171,LPH,LONGWEI PETROLEUM INVT HLDG LTD,,1.1,1.15,1.15,314900,0.036036,1.14,1.15,100728,1.12,,0.036036,0.004997,0.002966
11993,20110901,5171,LPH,LONGWEI PETROLEUM INVT HLDG LTD,,1.07,1.15,1.1,301200,-0.043478,1.09,1.1,100728,1.15,,-0.043478,-0.012218,-0.013873
11993,20110902,5171,LPH,LONGWEI PETROLEUM INVT HLDG LTD,,1.04,1.11,1.0501,311000,-0.045364,1.05,1.07,100728,1.1,,-0.045364,-0.024662,-0.022485
11993,20110906,5171,LPH,LONGWEI PETROLEUM INVT HLDG LTD,,0.99,1.04,1.03,377500,-0.019141,1.01,1.03,100728,1.01,,-0.019141,-0.00817,-0.009007
11993,20110907,5171,LPH,LONGWEI PETROLEUM INVT HLDG LTD,,1.01,1.07,1.03,239800,0,1.02,1.03,100728,1.05,,0,0.028946,0.027053
11993,20110908,5171,LPH,LONGWEI PETROLEUM INVT HLDG LTD,,0.95,1.08,0.96,603300,-0.067961,0.957,0.96,100728,1.02,,-0.067961,-0.010911,-0.012366
11993,20110909,5171,LPH,LONGWEI PETROLEUM INVT HLDG LTD,,0.925,1.05,1.03,556000,0.072917,1.03,1.05,100728,0.96,,0.072917,-0.02659,-0.021064
11993,20110912,5171,LPH,LONGWEI PETROLEUM INVT HLDG LTD,,1.02,1.13,1.06,526000,0.029126,1.04,1.07,100728,1.02,,0.029126,0.004088,-0.000512
11993,20110913,5171,LPH,LONGWEI PETROLEUM INVT HLDG LTD,,1.08,1.25,1.15,877600,0.084906,1.14,1.15,100728,1.1,,0.084906,0.010437,0.011502
11993,20110914,5171,LPH,LONGWEI PETROLEUM INVT HLDG LTD,,1.09,1.21,1.11,514800,-0.034783,1.1,1.13,100728,1.21,,-0.034783,0.012749,0.011627
11993,20110915,5171,LPH,LONGWEI PETROLEUM INVT HLDG LTD,,1.0599,1.15,1.1,447300,-0.009009,1.1,1.12,100728,1.11,,-0.009009,0.015329,0.008742
11993,20110916,5171,LPH,LONGWEI PETROLEUM INVT HLDG LTD,,1.11,1.15,1.14,114800,0.036364,1.14,1.15,100728,1.14,,0.036364,0.003486,0.001369
11993,20110919,5171,LPH,LONGWEI PETROLEUM INVT HLDG LTD,,1.08,1.14,1.13,147900,-0.008772,1.12,1.13,100728,1.09,,-0.008772,-0.010944,-0.014332
11993,20110920,5171,LPH,LONGWEI PETROLEUM INVT HLDG LTD,,1.07,1.15,1.07,327000,-0.053097,1.07,1.1,100728,1.15,,-0.053097,-0.004135,-0.009129
11993,20110921,5171,LPH,LONGWEI PETROLEUM INVT HLDG LTD,,1.06,1.1,1.08,239000,0.009346,1.06,1.08,100728,1.06,,0.009346,-0.029484,-0.024804
11993,20110922,5171,LPH,LONGWEI PETROLEUM INVT HLDG LTD,,1.02,1.09,1.04,535300,-0.037037,1.04,1.07,100728,1.07,,-0.037037,-0.034404,-0.03289
11993,20110923,5171,LPH,LONGWEI PETROLEUM INVT HLDG LTD,,1.01,1.08,1.01,514800,-0.028846,1.01,1.05,100728,1.06,,-0.028846,0.005628,0.007186
11993,20110926,5171,LPH,LONGWEI PETROLEUM INVT HLDG LTD,,0.92,1.06,0.96,531300,-0.049505,0.96,0.97,100728,1.06,,-0.049505,0.021538,0.009785
11993,20110927,5171,LPH,LONGWEI PETROLEUM INVT HLDG LTD,,0.95,1.04,0.96,504700,0,0.96,0.96,100728,0.97,,0,0.012834,0.015723
11993,20110928,5171,LPH,LONGWEI PETROLEUM INVT HLDG LTD,,0.93,1,0.93,313300,-0.03125,0.93,0.93,100728,0.96,,-0.03125,-0.023992,-0.025641
11993,20110929,5171,LPH,LONGWEI PETROLEUM INVT HLDG LTD,,0.8267,0.95,0.9,402400,-0.032258,0.84,0.9,100728,0.93,,-0.032258,0.008163,0.006593
11993,20110930,5171,LPH,LONGWEI PETROLEUM INVT HLDG LTD,,0.83,0.92,0.8994,526900,-0.000667,0.88,0.8995,100752,0.9,,-0.000667,-0.024662,-0.01885
11993,20111003,5171,LPH,LONGWEI PETROLEUM INVT HLDG LTD,,0.88,0.93,0.8944,351300,-0.005559,0.8943,0.8944,100752,0.9,,-0.005559,-0.032029,-0.041389
11993,20111004,5171,LPH,LONGWEI PETROLEUM INVT HLDG LTD,,0.82,0.9201,0.9,336600,0.006261,0.89,0.9,100752,0.82,,0.006261,0.023523,0.027271
11993,20111005,5171,LPH,LONGWEI PETROLEUM INVT HLDG LTD,,0.89,0.9799,0.909,205600,0.01,0.885,0.9,100752,0.9,,0.01,0.019306,0.017052
11993,20111006,5171,LPH,LONGWEI PETROLEUM INVT HLDG LTD,,0.885,0.92,0.9,227100,-0.009901,0.89,0.9,100752,0.886,,-0.009901,0.02048,0.020302
11993,20111007,5171,LPH,LONGWEI PETROLEUM INVT HLDG LTD,,0.87,0.92,0.8999,240300,-0.000111,0.892,0.9,100752,0.9,,-0.000111,-0.010945,-0.013558
11993,20111010,5171,LPH,LONGWEI PETROLEUM INVT HLDG LTD,,0.8911,0.93,0.925,160300,0.027892,0.9,0.91,100752,0.9,,0.027892,0.034255,0.029485
11993,20111011,5171,LPH,LONGWEI PETROLEUM INVT HLDG LTD,,0.8826,0.9712,0.89,115400,-0.037838,0.89,0.8901,100752,0.92,,-0.037838,0.001038,0.005045
11993,20111012,5171,LPH,LONGWEI PETROLEUM INVT HLDG LTD,,0.8836,0.92,0.91,142500,0.022472,0.895,0.9,100752,0.92,,0.022472,0.011647,0.015032
11993,20111013,5171,LPH,LONGWEI PETROLEUM INVT HLDG LTD,,0.892,1,0.9386,172700,0.031429,0.95,0.99,100752,0.92,,0.031429,-0.003016,-0.000785
11993,20111014,5171,LPH,LONGWEI PETROLEUM INVT HLDG LTD,,0.91,1,0.92,219200,-0.019817,0.91,0.9101,100752,1,,-0.019817,0.017724,0.014636
11993,20111017,5171,LPH,LONGWEI PETROLEUM INVT HLDG LTD,,0.89,0.95,0.89,187600,-0.032609,0.89,0.894,100752,0.95,,-0.032609,-0.020866,-0.02031
11993,20111018,5171,LPH,LONGWEI PETROLEUM INVT HLDG LTD,,0.92,0.95,0.921,68000,0.034831,0.92,0.94,100752,0.93,,0.034831,0.020777,0.018455
11993,20111019,5171,LPH,LONGWEI PETROLEUM INVT HLDG LTD,,0.93,1,0.93,330100,0.009772,0.93,0.94,100752,0.94,,0.009772,-0.014271,-0.012823
11993,20111020,5171,LPH,LONGWEI PETROLEUM INVT HLDG LTD,,0.9135,0.94,0.93,92800,0,0.93,0.94,100752,0.93,,0,0.003855,0.000346
11993,20111021,5171,LPH,LONGWEI PETROLEUM INVT HLDG LTD,,0.9201,0.94,0.939,34700,0.009677,0.931,0.939,100752,0.9201,,0.009677,0.019233,0.016308
11993,20111024,5171,LPH,LONGWEI PETROLEUM INVT HLDG LTD,,0.9201,0.9599,0.94,132900,0.001065,0.94,0.949,100752,0.9201,,0.001065,0.016704,0.021862
11993,20111025,5171,LPH,LONGWEI PETROLEUM INVT HLDG LTD,,0.92,0.95,0.935,75500,-0.005319,0.93,0.935,100752,0.934,,-0.005319,-0.019819,-0.017923
11993,20111026,5171,LPH,LONGWEI PETROLEUM INVT HLDG LTD,,0.9228,1,0.97,244100,0.037433,0.97,0.98,100752,0.93,,0.037433,0.011488,0.013112
11993,20111027,5171,LPH,LONGWEI PETROLEUM INVT HLDG LTD,,0.9822,1.041,1.01,300600,0.041237,1.01,1.02,100752,1.01,,0.041237,0.036079,0.036164
11993,20111028,5171,LPH,LONGWEI PETROLEUM INVT HLDG LTD,,0.9822,1.17,1.16,649800,0.148515,1.14,1.16,100752,1.02,,0.148515,0.00019,0.00033
11993,20111031,5171,LPH,LONGWEI PETROLEUM INVT HLDG LTD,,1.1,1.25,1.2,571500,0.034483,1.2,1.22,100752,1.13,,0.034483,-0.02465,-0.019074
11993,20111101,5171,LPH,LONGWEI PETROLEUM INVT HLDG LTD,,1.1,1.25,1.18,443700,-0.016667,1.17,1.19,100752,1.15,,-0.016667,-0.028634,-0.025608
11993,20111102,5171,LPH,LONGWEI PETROLEUM INVT HLDG LTD,,1.17,1.25,1.22,194200,0.033898,1.23,1.25,100752,1.19,,0.033898,0.016945,0.017805
11993,20111103,5171,LPH,LONGWEI PETROLEUM INVT HLDG LTD,,1.22,1.37,1.31,521200,0.07377,1.31,1.32,100752,1.22,,0.07377,0.019006,0.01579
11993,20111104,5171,LPH,LONGWEI PETROLEUM INVT HLDG LTD,,1.31,1.53,1.53,709900,0.167939,1.5,1.51,100752,1.31,,0.167939,-0.005583,-0.00431
11993,20111107,5171,LPH,LONGWEI PETROLEUM INVT HLDG LTD,,1.44,1.7,1.55,934500,0.013072,1.54,1.56,100752,1.58,,0.013072,0.004856,0.000102
11993,20111108,5171,LPH,LONGWEI PETROLEUM INVT HLDG LTD,,1.48,1.6,1.55,343800,0,1.54,1.55,100752,1.55,,0,0.01077,0.010293
11993,20111109,5171,LPH,LONGWEI PETROLEUM INVT HLDG LTD,,1.38,1.51,1.41,535300,-0.090323,1.41,1.43,100752,1.44,,-0.090323,-0.037935,-0.033721
11993,20111110,5171,LPH,LONGWEI PETROLEUM INVT HLDG LTD,,1.36,1.4999,1.38,185700,-0.021277,1.38,1.4,100752,1.47,,-0.021277,0.007259,0.004295
11993,20111111,5171,LPH,LONGWEI PETROLEUM INVT HLDG LTD,,1.35,1.49,1.41,186900,0.021739,1.43,1.45,100752,1.37,,0.021739,0.019767,0.016413
11993,20111114,5171,LPH,LONGWEI PETROLEUM INVT HLDG LTD,,1.34,1.4436,1.37,150900,-0.028369,1.37,1.38,100752,1.36,,-0.028369,-0.009495,-0.011298
11993,20111115,5171,LPH,LONGWEI PETROLEUM INVT HLDG LTD,,1.28,1.3585,1.3,338700,-0.051095,1.31,1.33,100752,1.35,,-0.051095,0.004354,0.005009
11993,20111116,5171,LPH,LONGWEI PETROLEUM INVT HLDG LTD,,1.26,1.4,1.35,254200,0.038462,1.34,1.35,100752,1.29,,0.038462,-0.015294,-0.010514
11993,20111117,5171,LPH,LONGWEI PETROLEUM INVT HLDG LTD,,1.32,1.4,1.35,187100,0,1.34,1.36,100752,1.34,,0,-0.017226,-0.013572
11993,20111118,5171,LPH,LONGWEI PETROLEUM INVT HLDG LTD,,1.32,1.34,1.32,60500,-0.022222,1.32,1.33,100752,1.33,,-0.022222,-0.00036,0.00091
11993,20111121,5171,LPH,LONGWEI PETROLEUM INVT HLDG LTD,,1.2,1.34,1.24,234400,-0.060606,1.24,1.26,100752,1.28,,-0.060606,-0.018747,-0.019219
11993,20111122,5171,LPH,LONGWEI PETROLEUM INVT HLDG LTD,,1.23,1.2892,1.28,57200,0.032258,1.26,1.27,100752,1.23,,0.032258,-0.004178,-0.004975
11993,20111123,5171,LPH,LONGWEI PETROLEUM INVT HLDG LTD,,1.23,1.3,1.26,125200,-0.015625,1.26,1.27,100752,1.3,,-0.015625,-0.023265,-0.022619
11993,20111125,5171,LPH,LONGWEI PETROLEUM INVT HLDG LTD,,1.23,1.3,1.27,51400,0.007937,1.25,1.27,100752,1.24,,0.007937,-0.003742,-0.004938
11993,20111128,5171,LPH,LONGWEI PETROLEUM INVT HLDG LTD,,1.26,1.35,1.33,111500,0.047244,1.31,1.33,100752,1.33,,0.047244,0.030371,0.027825
11993,20111129,5171,LPH,LONGWEI PETROLEUM INVT HLDG LTD,,1.27,1.35,1.31,103400,-0.015038,1.29,1.31,100752,1.32,,-0.015038,0.001993,-0.002277
11993,20111130,5171,LPH,LONGWEI PETROLEUM INVT HLDG LTD,,1.31,1.38,1.38,185800,0.053435,1.38,1.39,100767,1.35,,0.053435,0.043756,0.038087
11993,20111201,5171,LPH,LONGWEI PETROLEUM INVT HLDG LTD,,1.39,1.48,1.47,218100,0.065217,1.43,1.44,100767,1.4,,0.065217,-0.002335,-0.003719
11993,20111202,5171,LPH,LONGWEI PETROLEUM INVT HLDG LTD,,1.43,1.53,1.47,171400,0,1.46,1.47,100767,1.48,,0,0.000065,0.004847
11993,20111205,5171,LPH,LONGWEI PETROLEUM INVT HLDG LTD,,1.38,1.51,1.41,148500,-0.040816,1.38,1.39,100767,1.47,,-0.040816,0.010254,0.009643
11993,20111206,5171,LPH,LONGWEI PETROLEUM INVT HLDG LTD,,1.34,1.41,1.41,100300,0,1.37,1.38,100767,1.36,,0,0.000367,-0.000547
11993,20111207,5171,LPH,LONGWEI PETROLEUM INVT HLDG LTD,,1.35,1.41,1.38,130100,-0.021277,1.37,1.38,100767,1.41,,-0.021277,0.001647,0.00065
11993,20111208,5171,LPH,LONGWEI PETROLEUM INVT HLDG LTD,,1.26,1.37,1.29,180200,-0.065217,1.29,1.3,100767,1.36,,-0.065217,-0.022946,-0.02281
11993,20111209,5171,LPH,LONGWEI PETROLEUM INVT HLDG LTD,,1.28,1.33,1.3,69800,0.007752,1.31,1.33,100767,1.29,,0.007752,0.01772,0.018867
11993,20111212,5171,LPH,LONGWEI PETROLEUM INVT HLDG LTD,,1.3,1.3599,1.3,119100,0,1.3,1.31,100767,1.3,,0,-0.015582,-0.013633
11993,20111213,5171,LPH,LONGWEI PETROLEUM INVT HLDG LTD,,1.22,1.31,1.22,238600,-0.061538,1.24,1.25,100767,1.3,,-0.061538,-0.011498,-0.012977
11993,20111214,5171,LPH,LONGWEI PETROLEUM INVT HLDG LTD,,1.11,1.22,1.16,300600,-0.04918,1.16,1.17,100767,1.2,,-0.04918,-0.012833,-0.009275
11993,20111215,5171,LPH,LONGWEI PETROLEUM INVT HLDG LTD,,1.13,1.23,1.23,184800,0.060345,1.17,1.19,100767,1.18,,0.060345,0.003637,0.002408
11993,20111216,5171,LPH,LONGWEI PETROLEUM INVT HLDG LTD,,1.22,1.27,1.22,146400,-0.00813,1.25,1.26,100767,1.24,,-0.00813,0.004859,0.003314
11993,20111219,5171,LPH,LONGWEI PETROLEUM INVT HLDG LTD,,1.19,1.27,1.26,48700,0.032787,1.23,1.25,100767,1.22,,0.032787,-0.012671,-0.014777
11993,20111220,5171,LPH,LONGWEI PETROLEUM INVT HLDG LTD,,1.25,1.3,1.25,122200,-0.007937,1.26,1.27,100767,1.26,,-0.007937,0.029812,0.026714
11993,20111221,5171,LPH,LONGWEI PETROLEUM INVT HLDG LTD,,1.25,1.3,1.3,90000,0.04,1.29,1.3,100767,1.26,,0.04,0.001868,0.001089
11993,20111222,5171,LPH,LONGWEI PETROLEUM INVT HLDG LTD,,1.26,1.33,1.33,114700,0.023077,1.32,1.33,100767,1.3,,0.023077,0.008685,0.008057
11993,20111223,5171,LPH,LONGWEI PETROLEUM INVT HLDG LTD,,1.28,1.35,1.32,38800,-0.007519,1.3,1.32,100767,1.32,,-0.007519,0.007787,0.003873
11993,20111227,5171,LPH,LONGWEI PETROLEUM INVT HLDG LTD,,1.27,1.47,1.29,108400,-0.022727,1.28,1.29,100767,1.31,,-0.022727,-0.000047,-0.001196
11993,20111228,5171,LPH,LONGWEI PETROLEUM INVT HLDG LTD,,1.22,1.2601,1.24,115500,-0.03876,1.22,1.24,100767,1.25,,-0.03876,-0.013924,-0.014109
11993,20111229,5171,LPH,LONGWEI PETROLEUM INVT HLDG LTD,,1.2,1.27,1.27,173500,0.024194,1.24,1.25,100767,1.22,,0.024194,0.010708,0.008676
11993,20111230,5171,LPH,LONGWEI PETROLEUM INVT HLDG LTD,,1.2201,1.3,1.3,202800,0.023622,1.26,1.27,100767,1.25,,0.023622,-0.002615,0.002135
11993,20120103,5171,LPH,LONGWEI PETROLEUM INVT HLDG LTD,,1.26,1.32,1.29,116200,-0.007692,1.28,1.29,100767,1.29,,-0.007692,0.016088,0.016986
11993,20120104,5171,LPH,LONGWEI PETROLEUM INVT HLDG LTD,,1.26,1.32,1.31,183200,0.015504,1.3,1.31,100767,1.29,,0.015504,-0.000589,-0.001452
11993,20120105,5171,LPH,LONGWEI PETROLEUM INVT HLDG LTD,,1.27,1.32,1.32,96500,0.007634,1.29,1.3,100767,1.29,,0.007634,0.002924,0.004036
11993,20120106,5171,LPH,LONGWEI PETROLEUM INVT HLDG LTD,,1.26,1.33,1.26,94500,-0.045455,1.28,1.29,100767,1.32,,-0.045455,-0.003156,-0.000628
11993,20120109,5171,LPH,LONGWEI PETROLEUM INVT HLDG LTD,,1.24,1.28,1.27,49500,0.007937,1.26,1.27,100767,1.24,,0.007937,0.002795,0.004414
11993,20120110,5171,LPH,LONGWEI PETROLEUM INVT HLDG LTD,,1.26,1.32,1.31,66500,0.031496,1.31,1.32,100767,1.28,,0.031496,0.010411,0.011106
11993,20120111,5171,LPH,LONGWEI PETROLEUM INVT HLDG LTD,,1.3,1.34,1.3,119500,-0.007634,1.3,1.31,100767,1.3,,-0.007634,0.00085,0.004343
11993,20120112,5171,LPH,LONGWEI PETROLEUM INVT HLDG LTD,,1.32,1.35,1.34,163700,0.030769,1.33,1.34,100767,1.329,,0.030769,0.003016,0.005018
11993,20120113,5171,LPH,LONGWEI PETROLEUM INVT HLDG LTD,,1.31,1.34,1.32,69700,-0.014925,1.32,1.33,100767,1.33,,-0.014925,-0.005316,-0.005025
11993,20120117,5171,LPH,LONGWEI PETROLEUM INVT HLDG LTD,,1.32,1.4,1.34,164700,0.015151,1.33,1.34,100767,1.34,,0.015151,0.003896,0.003736
11993,20120118,5171,LPH,LONGWEI PETROLEUM INVT HLDG LTD,,1.34,1.4,1.39,82000,0.037313,1.37,1.38,100767,1.38,,0.037313,0.012182,0.013639
11993,20120119,5171,LPH,LONGWEI PETROLEUM INVT HLDG LTD,,1.35,1.51,1.45,677900,0.043166,1.45,1.46,100767,1.39,,0.043166,0.005555,0.005428
11993,20120120,5171,LPH,LONGWEI PETROLEUM INVT HLDG LTD,,1.45,1.5,1.49,215200,0.027586,1.46,1.48,100767,1.48,,0.027586,0.000859,0.003648
11993,20120123,5171,LPH,LONGWEI PETROLEUM INVT HLDG LTD,,1.46,1.66,1.65,686200,0.107383,1.65,1.67,100767,1.46,,0.107383,0.001594,0.001815
11993,20120124,5171,LPH,LONGWEI PETROLEUM INVT HLDG LTD,,1.54,1.7,1.55,483700,-0.060606,1.54,1.55,100767,1.68,,-0.060606,-0.000865,0.003335
11993,20120125,5171,LPH,LONGWEI PETROLEUM INVT HLDG LTD,,1.44,1.56,1.56,324600,0.006452,1.53,1.54,100767,1.56,,0.006452,0.009939,0.009521
11993,20120126,5171,LPH,LONGWEI PETROLEUM INVT HLDG LTD,,1.45,1.56,1.46,229600,-0.064103,1.45,1.46,100767,1.56,,-0.064103,-0.004942,-0.001108
11993,20120127,5171,LPH,LONGWEI PETROLEUM INVT HLDG LTD,,1.45,1.52,1.51,169000,0.034247,1.5,1.52,100767,1.46,,0.034247,0.000576,0.006083
11993,20120130,5171,LPH,LONGWEI PETROLEUM INVT HLDG LTD,,1.48,1.54,1.49,135900,-0.013245,1.49,1.5,100767,1.49,,-0.013245,-0.003788,-0.004873
11993,20120131,5171,LPH,LONGWEI PETROLEUM INVT HLDG LTD,,1.45,1.5267,1.49,138900,0,1.47,1.48,100767,1.48,,0,-0.000083,0.00176
11993,20120201,5171,LPH,LONGWEI PETROLEUM INVT HLDG LTD,,1.46,1.54,1.46,190600,-0.020134,1.48,1.49,100767,1.49,,-0.020134,0.010979,0.013626
11993,20120202,5171,LPH,LONGWEI PETROLEUM INVT HLDG LTD,,1.45,1.52,1.5,110600,0.027397,1.5,1.51,100767,1.46,,0.027397,0.001769,0.004356
11993,20120203,5171,LPH,LONGWEI PETROLEUM INVT HLDG LTD,,1.49,1.54,1.5,171500,0,1.5,1.51,100767,1.5,,0,0.014518,0.014863
11993,20120206,5171,LPH,LONGWEI PETROLEUM INVT HLDG LTD,,1.45,1.53,1.45,179000,-0.033333,1.45,1.46,100767,1.53,,-0.033333,-0.001007,-0.000468
11993,20120207,5171,LPH,LONGWEI PETROLEUM INVT HLDG LTD,,1.45,1.5,1.5,118300,0.034483,1.48,1.49,100767,1.45,,0.034483,0.001371,0.001456
11993,20120208,5171,LPH,LONGWEI PETROLEUM INVT HLDG LTD,,1.46,1.53,1.51,159000,0.006667,1.5,1.51,100767,1.5,,0.006667,0.001945,0.003403
11993,20120209,5171,LPH,LONGWEI PETROLEUM INVT HLDG LTD,,1.54,1.73,1.62,1231000,0.072848,1.62,1.64,100767,1.55,,0.072848,0.000975,0.000305
11993,20120210,5171,LPH,LONGWEI PETROLEUM INVT HLDG LTD,,1.25,1.64,1.45,790400,-0.104938,1.4,1.41,100767,1.64,,-0.104938,-0.008403,-0.009804
11993,20120213,5171,LPH,LONGWEI PETROLEUM INVT HLDG LTD,,1.44,1.52,1.52,486300,0.048276,1.49,1.5,100767,1.49,,0.048276,0.007227,0.00919
11993,20120214,5171,LPH,LONGWEI PETROLEUM INVT HLDG LTD,,1.48,1.54,1.48,239400,-0.026316,1.5,1.51,100767,1.52,,-0.026316,-0.001719,-0.004104
11993,20120215,5171,LPH,LONGWEI PETROLEUM INVT HLDG LTD,,1.48,1.6,1.52,560500,0.027027,1.52,1.53,100767,1.5,,0.027027,-0.004492,-0.003297
11993,20120216,5171,LPH,LONGWEI PETROLEUM INVT HLDG LTD,,1.5,1.62,1.6,351300,0.052632,1.59,1.6,100767,1.51,,0.052632,0.012339,0.011434
11993,20120217,5171,LPH,LONGWEI PETROLEUM INVT HLDG LTD,,1.5598,1.65,1.58,337500,-0.0125,1.57,1.58,100767,1.61,,-0.0125,0.001314,0.002643
11993,20120221,5171,LPH,LONGWEI PETROLEUM INVT HLDG LTD,,1.57,1.71,1.71,672900,0.082278,1.69,1.7,100767,1.62,,0.082278,0.000131,-0.00227
11993,20120222,5171,LPH,LONGWEI PETROLEUM INVT HLDG LTD,,1.68,1.79,1.77,654600,0.035088,1.76,1.77,100767,1.72,,0.035088,-0.003181,-0.004243
11993,20120223,5171,LPH,LONGWEI PETROLEUM INVT HLDG LTD,,1.65,1.8,1.67,278500,-0.056497,1.68,1.69,100767,1.8,,-0.056497,0.005573,0.008018
11993,20120224,5171,LPH,LONGWEI PETROLEUM INVT HLDG LTD,,1.5,1.69,1.57,572000,-0.05988,1.58,1.59,100767,1.64,,-0.05988,0.001408,0.000398
11993,20120227,5171,LPH,LONGWEI PETROLEUM INVT HLDG LTD,,1.52,1.63,1.54,343400,-0.019108,1.52,1.55,100767,1.6,,-0.019108,0.000735,-0.000826
11993,20120228,5171,LPH,LONGWEI PETROLEUM INVT HLDG LTD,,1.51,1.559,1.53,145100,-0.006494,1.52,1.53,100767,1.51,,-0.006494,0.002771,0.000473
11993,20120229,5171,LPH,LONGWEI PETROLEUM INVT HLDG LTD,,1.49,1.54,1.5,252600,-0.019608,1.5,1.52,100767,1.52,,-0.019608,-0.005792,-0.009222
11993,20120301,5171,LPH,LONGWEI PETROLEUM INVT HLDG LTD,,1.38,1.55,1.42,619000,-0.053333,1.43,1.45,100767,1.49,,-0.053333,0.006707,0.004577
11993,20120302,5171,LPH,LONGWEI PETROLEUM INVT HLDG LTD,,1.4,1.48,1.44,222900,0.014085,1.43,1.44,100767,1.42,,0.014085,-0.004969,-0.008092
11993,20120305,5171,LPH,LONGWEI PETROLEUM INVT HLDG LTD,,1.42,1.5,1.46,141700,0.013889,1.41,1.42,100767,1.49,,0.013889,-0.004618,-0.003572
11993,20120306,5171,LPH,LONGWEI PETROLEUM INVT HLDG LTD,,1.36,1.46,1.39,297300,-0.047945,1.39,1.4,100767,1.46,,-0.047945,-0.017408,-0.017324
11993,20120307,5171,LPH,LONGWEI PETROLEUM INVT HLDG LTD,,1.36,1.429,1.39,103600,0,1.39,1.4,100767,1.39,,0,0.007703,0.009368
11993,20120308,5171,LPH,LONGWEI PETROLEUM INVT HLDG LTD,,1.39,1.46,1.46,185500,0.05036,1.45,1.46,100767,1.43,,0.05036,0.010707,0.01057
11993,20120309,5171,LPH,LONGWEI PETROLEUM INVT HLDG LTD,,1.44,1.5,1.47,95800,0.006849,1.47,1.49,100767,1.46,,0.006849,0.004494,0.007759
11993,20120312,5171,LPH,LONGWEI PETROLEUM INVT HLDG LTD,,1.42,1.5,1.48,66500,0.006803,1.48,1.49,100767,1.47,,0.006803,-0.001423,-0.001807
11993,20120313,5171,LPH,LONGWEI PETROLEUM INVT HLDG LTD,,1.45,1.49,1.48,135300,0,1.48,1.49,100767,1.45,,0,0.017258,0.014083
11993,20120314,5171,LPH,LONGWEI PETROLEUM INVT HLDG LTD,,1.42,1.49,1.42,99700,-0.040541,1.43,1.44,100767,1.48,,-0.040541,-0.003961,-0.00684
11993,20120315,5171,LPH,LONGWEI PETROLEUM INVT HLDG LTD,,1.45,1.72,1.6199,1608300,0.140775,1.61,1.62,100767,1.46,,0.140775,0.006468,0.004775
11993,20120316,5171,LPH,LONGWEI PETROLEUM INVT HLDG LTD,,1.6,1.77,1.69,642500,0.043274,1.62,1.63,100767,1.6,,0.043274,0.001252,0.001174
11993,20120319,5171,LPH,LONGWEI PETROLEUM INVT HLDG LTD,,1.67,1.79,1.79,612100,0.059172,1.78,1.79,100767,1.67,,0.059172,0.003981,0.004725
11993,20120320,5171,LPH,LONGWEI PETROLEUM INVT HLDG LTD,,1.7,1.79,1.74,233100,-0.027933,1.73,1.74,100767,1.79,,-0.027933,-0.004522,-0.005376
11993,20120321,5171,LPH,LONGWEI PETROLEUM INVT HLDG LTD,,1.7,1.78,1.71,169100,-0.017241,1.71,1.73,100767,1.74,,-0.017241,-0.001166,0.000988
11993,20120322,5171,LPH,LONGWEI PETROLEUM INVT HLDG LTD,,1.64,1.79,1.71,252600,0,1.68,1.69,100767,1.77,,0,-0.008155,-0.008314
11993,20120323,5171,LPH,LONGWEI PETROLEUM INVT HLDG LTD,,1.66,1.7699,1.72,152800,0.005848,1.74,1.76,100767,1.71,,0.005848,0.004456,0.007128
11993,20120326,5171,LPH,LONGWEI PETROLEUM INVT HLDG LTD,,1.66,1.75,1.68,225700,-0.023256,1.68,1.69,100767,1.72,,-0.023256,0.013895,0.01128
11993,20120327,5171,LPH,LONGWEI PETROLEUM INVT HLDG LTD,,1.66,1.72,1.68,120800,0,1.67,1.68,100767,1.7,,0,-0.003741,-0.002922
11993,20120328,5171,LPH,LONGWEI PETROLEUM INVT HLDG LTD,,1.65,1.72,1.68,98800,0,1.67,1.68,100767,1.72,,0,-0.00579,-0.005661
11993,20120329,5171,LPH,LONGWEI PETROLEUM INVT HLDG LTD,,1.65,1.6903,1.65,149900,-0.017857,1.65,1.66,100767,1.68,,-0.017857,-0.001927,-0.001684
11993,20120330,5171,LPH,LONGWEI PETROLEUM INVT HLDG LTD,,1.64,1.695,1.68,120400,0.018182,1.67,1.68,100767,1.67,,0.018182,0.00329,0.001961
11993,20120402,5171,LPH,LONGWEI PETROLEUM INVT HLDG LTD,,1.68,1.83,1.7,518600,0.011905,1.72,1.73,100767,1.7,,0.011905,0.007941,0.007247
11993,20120403,5171,LPH,LONGWEI PETROLEUM INVT HLDG LTD,,1.63,1.74,1.63,209900,-0.041177,1.63,1.66,100767,1.72,,-0.041177,-0.004612,-0.006652
11993,20120404,5171,LPH,LONGWEI PETROLEUM INVT HLDG LTD,,1.521,1.68,1.66,327400,0.018405,1.63,1.64,100767,1.62,,0.018405,-0.011834,-0.011988
11993,20120405,5171,LPH,LONGWEI PETROLEUM INVT HLDG LTD,,1.66,1.72,1.71,135900,0.030121,1.67,1.69,100767,1.67,,0.030121,-0.001053,-0.000752
11993,20120409,5171,LPH,LONGWEI PETROLEUM INVT HLDG LTD,,1.59,1.67,1.61,159000,-0.05848,1.61,1.63,100767,1.66,,-0.05848,-0.011387,-0.011952
11993,20120410,5171,LPH,LONGWEI PETROLEUM INVT HLDG LTD,,1.52,1.69,1.58,130600,-0.018634,1.55,1.59,100767,1.67,,-0.018634,-0.018025,-0.016297
11993,20120411,5171,LPH,LONGWEI PETROLEUM INVT HLDG LTD,,1.53,1.6,1.54,82400,-0.025317,1.54,1.56,100767,1.58,,-0.025317,0.008376,0.011324
11993,20120412,5171,LPH,LONGWEI PETROLEUM INVT HLDG LTD,,1.53,1.6,1.53,65000,-0.006494,1.55,1.56,100767,1.57,,-0.006494,0.015043,0.012911
11993,20120413,5171,LPH,LONGWEI PETROLEUM INVT HLDG LTD,,1.51,1.74,1.7,714000,0.111111,1.69,1.7,100767,1.51,,0.111111,-0.012399,-0.010688
11993,20120416,5171,LPH,LONGWEI PETROLEUM INVT HLDG LTD,,1.67,1.74,1.67,258100,-0.017647,1.68,1.69,100767,1.73,,-0.017647,-0.000595,-0.000054
11993,20120417,5171,LPH,LONGWEI PETROLEUM INVT HLDG LTD,,1.67,1.71,1.68,98500,0.005988,1.68,1.7,100767,1.71,,0.005988,0.014944,0.010745
11993,20120418,5171,LPH,LONGWEI PETROLEUM INVT HLDG LTD,,1.62,1.72,1.62,232500,-0.035714,1.62,1.64,100767,1.7,,-0.035714,-0.00404,-0.006206
11993,20120419,5171,LPH,LONGWEI PETROLEUM INVT HLDG LTD,,1.56,1.64,1.58,145100,-0.024691,1.57,1.58,100767,1.64,,-0.024691,-0.004708,-0.002428
11993,20120420,5171,LPH,LONGWEI PETROLEUM INVT HLDG LTD,,1.57,1.6,1.6,89200,0.012658,1.57,1.59,100767,1.58,,0.012658,0.001613,0.003775
11993,20120423,5171,LPH,LONGWEI PETROLEUM INVT HLDG LTD,,1.55,1.61,1.55,70200,-0.03125,1.57,1.58,100767,1.61,,-0.03125,-0.009589,-0.009782
11993,20120424,5171,LPH,LONGWEI PETROLEUM INVT HLDG LTD,,1.56,1.6,1.57,57900,0.012903,1.58,1.59,100767,1.57,,0.012903,0.003243,0.005758
11993,20120425,5171,LPH,LONGWEI PETROLEUM INVT HLDG LTD,,1.57,1.6496,1.57,139700,0,1.58,1.6,100767,1.61,,0,0.013724,0.010255
11993,20120426,5171,LPH,LONGWEI PETROLEUM INVT HLDG LTD,,1.5499,1.64,1.62,187900,0.031847,1.6,1.61,100767,1.58,,0.031847,0.006688,0.005672
11993,20120427,5171,LPH,LONGWEI PETROLEUM INVT HLDG LTD,,1.57,1.62,1.6,81100,-0.012346,1.58,1.59,100767,1.62,,-0.012346,0.003835,0.005222
11993,20120430,5171,LPH,LONGWEI PETROLEUM INVT HLDG LTD,,1.55,1.59,1.56,89700,-0.025,1.55,1.56,100767,1.58,,-0.025,-0.004337,-0.004102
11993,20120501,5171,LPH,LONGWEI PETROLEUM INVT HLDG LTD,,1.54,1.58,1.54,83800,-0.012821,1.54,1.55,100767,1.55,,-0.012821,0.004837,0.001615
11993,20120502,5171,LPH,LONGWEI PETROLEUM INVT HLDG LTD,,1.49,1.554,1.5,126700,-0.025974,1.5,1.52,100767,1.54,,-0.025974,-0.002169,-0.000587
11993,20120503,5171,LPH,LONGWEI PETROLEUM INVT HLDG LTD,,1.43,1.5,1.44,185400,-0.04,1.44,1.46,100767,1.5,,-0.04,-0.010087,-0.010968
11993,20120504,5171,LPH,LONGWEI PETROLEUM INVT HLDG LTD,,1.43,1.48,1.45,102300,0.006944,1.44,1.45,100767,1.44,,0.006944,-0.015729,-0.012771
11993,20120507,5171,LPH,LONGWEI PETROLEUM INVT HLDG LTD,,1.35,1.469,1.44,154700,-0.006897,1.42,1.44,100767,1.4,,-0.006897,0.000516,0.001052
11993,20120508,5171,LPH,LONGWEI PETROLEUM INVT HLDG LTD,,1.39,1.46,1.44,114600,0,1.41,1.43,100767,1.4,,0,-0.00546,-0.004518
11993,20120509,5171,LPH,LONGWEI PETROLEUM INVT HLDG LTD,,1.35,1.44,1.41,62100,-0.020833,1.39,1.41,100767,1.41,,-0.020833,-0.0063,-0.004224
11993,20120510,5171,LPH,LONGWEI PETROLEUM INVT HLDG LTD,,1.4,1.43,1.43,86200,0.014184,1.41,1.43,100767,1.4,,0.014184,0.002666,0.002531
11993,20120511,5171,LPH,LONGWEI PETROLEUM INVT HLDG LTD,,1.35,1.41,1.37,171200,-0.041958,1.38,1.4,100767,1.35,,-0.041958,-0.002942,-0.003938
11993,20120514,5171,LPH,LONGWEI PETROLEUM INVT HLDG LTD,,1.31,1.4,1.33,231800,-0.029197,1.33,1.34,100767,1.38,,-0.029197,-0.012243,-0.012493
11993,20120515,5171,LPH,LONGWEI PETROLEUM INVT HLDG LTD,,1.28,1.37,1.29,190100,-0.030075,1.31,1.32,100767,1.32,,-0.030075,-0.006167,-0.006623
11993,20120516,5171,LPH,LONGWEI PETROLEUM INVT HLDG LTD,,1.17,1.32,1.21,319900,-0.062015,1.22,1.23,100767,1.27,,-0.062015,-0.005159,-0.007936
11993,20120517,5171,LPH,LONGWEI PETROLEUM INVT HLDG LTD,,1.07,1.21,1.17,261500,-0.033058,1.17,1.19,100767,1.09,,-0.033058,-0.015942,-0.016
11993,20120518,5171,LPH,LONGWEI PETROLEUM INVT HLDG LTD,,1.17,1.28,1.28,179400,0.094017,1.27,1.28,100767,1.2,,0.094017,-0.008152,-0.009713
11993,20120521,5171,LPH,LONGWEI PETROLEUM INVT HLDG LTD,,1.22,1.34,1.3,132600,0.015625,1.29,1.3,100767,1.22,,0.015625,0.017725,0.016239
11993,20120522,5171,LPH,LONGWEI PETROLEUM INVT HLDG LTD,,1.2,1.3,1.25,167300,-0.038462,1.21,1.22,100767,1.29,,-0.038462,-0.000537,-0.004098
11993,20120523,5171,LPH,LONGWEI PETROLEUM INVT HLDG LTD,,1.19,1.28,1.23,121100,-0.016,1.26,1.28,100767,1.22,,-0.016,0.002735,0.002348
11993,20120524,5171,LPH,LONGWEI PETROLEUM INVT HLDG LTD,,1.25,1.29,1.25,38400,0.01626,1.27,1.29,100767,1.25,,0.01626,0.00089,0.00165
11993,20120525,5171,LPH,LONGWEI PETROLEUM INVT HLDG LTD,,1.25,1.3,1.27,56300,0.016,1.27,1.29,100767,1.26,,0.016,-0.001556,0.001189
11993,20120529,5171,LPH,LONGWEI PETROLEUM INVT HLDG LTD,,1.27,1.32,1.3,73000,0.023622,1.3,1.31,100767,1.31,,0.023622,0.011087,0.00989
11993,20120530,5171,LPH,LONGWEI PETROLEUM INVT HLDG LTD,,1.2,1.282,1.21,85000,-0.069231,1.21,1.23,100767,1.28,,-0.069231,-0.015727,-0.01451
11993,20120531,5171,LPH,LONGWEI PETROLEUM INVT HLDG LTD,,1.16,1.22,1.16,105100,-0.041322,1.16,1.18,100767,1.21,,-0.041322,-0.00205,-0.000549
11993,20120601,5171,LPH,LONGWEI PETROLEUM INVT HLDG LTD,,0.99,1.2,1.04,352100,-0.103448,0.99,1,100767,1.15,,-0.103448,-0.024626,-0.02054
11993,20120604,5171,LPH,LONGWEI PETROLEUM INVT HLDG LTD,,1.02,1.08,1.06,110900,0.019231,1.05,1.07,100767,1.07,,0.019231,-0.001032,-0.002296
11993,20120605,5171,LPH,LONGWEI PETROLEUM INVT HLDG LTD,,1.04,1.11,1.09,77700,0.028302,1.09,1.1,100767,1.04,,0.028302,0.007817,0.008022
11993,20120606,5171,LPH,LONGWEI PETROLEUM INVT HLDG LTD,,1.1,1.19,1.15,144400,0.055046,1.16,1.17,100767,1.12,,0.055046,0.022479,0.019578
11993,20120607,5171,LPH,LONGWEI PETROLEUM INVT HLDG LTD,,1.16,1.22,1.16,85800,0.008696,1.16,1.18,100767,1.19,,0.008696,-0.00144,-0.002134
11993,20120608,5171,LPH,LONGWEI PETROLEUM INVT HLDG LTD,,1.04,1.16,1.13,34800,-0.025862,1.13,1.14,100767,1.11,,-0.025862,0.007106,0.00539
11993,20120611,5171,LPH,LONGWEI PETROLEUM INVT HLDG LTD,,1.14,1.3,1.14,65100,0.00885,1.14,1.15,100767,1.18,,0.00885,-0.01399,-0.013517
11993,20120612,5171,LPH,LONGWEI PETROLEUM INVT HLDG LTD,,1.09,1.15,1.1,61100,-0.035088,1.14,1.15,100767,1.13,,-0.035088,0.011638,0.008853
11993,20120613,5171,LPH,LONGWEI PETROLEUM INVT HLDG LTD,,1.12,1.23,1.2,72500,0.090909,1.15,1.18,100767,1.12,,0.090909,-0.007339,-0.007641
11993,20120614,5171,LPH,LONGWEI PETROLEUM INVT HLDG LTD,,1.18,1.24,1.18,52500,-0.016667,1.2,1.21,100767,1.19,,-0.016667,0.009466,0.00785
11993,20120615,5171,LPH,LONGWEI PETROLEUM INVT HLDG LTD,,1.18,1.39,1.35,371100,0.144068,1.3,1.32,100767,1.18,,0.144068,0.01003,0.008481
11993,20120618,5171,LPH,LONGWEI PETROLEUM INVT HLDG LTD,,1.275,1.34,1.3,52900,-0.037037,1.28,1.3,100767,1.34,,-0.037037,0.002173,0.001733
11993,20120619,5171,LPH,LONGWEI PETROLEUM INVT HLDG LTD,,1.22,1.3,1.22,140200,-0.061538,1.22,1.23,100767,1.28,,-0.061538,0.011545,0.012798
11993,20120620,5171,LPH,LONGWEI PETROLEUM INVT HLDG LTD,,1.17,1.23,1.23,100100,0.008197,1.17,1.18,100767,1.23,,0.008197,-0.001541,-0.000687
11993,20120621,5171,LPH,LONGWEI PETROLEUM INVT HLDG LTD,,1.15,1.22,1.22,82300,-0.00813,1.17,1.19,100767,1.22,,-0.00813,-0.023661,-0.018777
11993,20120622,5171,LPH,LONGWEI PETROLEUM INVT HLDG LTD,,1.16,1.21,1.16,32800,-0.04918,1.18,1.2,100767,1.21,,-0.04918,0.007238,0.007544
11993,20120625,5171,LPH,LONGWEI PETROLEUM INVT HLDG LTD,,1.15,1.2,1.2,103800,0.034483,1.15,1.16,100767,1.15,,0.034483,-0.015536,-0.012052
11993,20120626,5171,LPH,LONGWEI PETROLEUM INVT HLDG LTD,,1.2,1.3,1.26,88000,0.05,1.26,1.28,100767,1.2,,0.05,0.004818,0.002861
11993,20120627,5171,LPH,LONGWEI PETROLEUM INVT HLDG LTD,,1.24,1.33,1.28,74700,0.015873,1.28,1.3,100767,1.25,,0.015873,0.008732,0.009343
11993,20120628,5171,LPH,LONGWEI PETROLEUM INVT HLDG LTD,,1.22,1.3004,1.22,38200,-0.046875,1.22,1.28,100767,1.25,,-0.046875,-0.002172,-0.002573
11993,20120629,5171,LPH,LONGWEI PETROLEUM INVT HLDG LTD,,1.22,1.31,1.27,125500,0.040984,1.25,1.26,100767,1.27,,0.040984,0.025451,0.023253
11993,20120702,5171,LPH,LONGWEI PETROLEUM INVT HLDG LTD,,1.24,1.49,1.47,214200,0.15748,1.48,1.49,100767,1.28,,0.15748,0.003733,0.006515
11993,20120703,5171,LPH,LONGWEI PETROLEUM INVT HLDG LTD,,1.5,1.74,1.6299,500600,0.108775,1.62,1.63,100767,1.5,,0.108775,0.00878,0.01071
11993,20120705,5171,LPH,LONGWEI PETROLEUM INVT HLDG LTD,,1.5389,1.67,1.57,219000,-0.036751,1.56,1.57,100767,1.67,,-0.036751,-0.004134,-0.000756
11993,20120706,5171,LPH,LONGWEI PETROLEUM INVT HLDG LTD,,1.46,1.58,1.53,175300,-0.025478,1.48,1.5,100767,1.57,,-0.025478,-0.010191,-0.007735
11993,20120709,5171,LPH,LONGWEI PETROLEUM INVT HLDG LTD,,1.43,1.75,1.49,124800,-0.026144,1.43,1.44,100767,1.75,,-0.026144,-0.002207,-0.002372
11993,20120710,5171,LPH,LONGWEI PETROLEUM INVT HLDG LTD,,1.34,1.44,1.34,187500,-0.100671,1.36,1.37,100767,1.42,,-0.100671,-0.008819,-0.008379
11993,20120711,5171,LPH,LONGWEI PETROLEUM INVT HLDG LTD,,1.3301,1.4,1.37,45500,0.022388,1.36,1.38,100767,1.38,,0.022388,-0.000419,-0.000427
11993,20120712,5171,LPH,LONGWEI PETROLEUM INVT HLDG LTD,,1.29,1.39,1.39,77400,0.014599,1.38,1.39,100767,1.37,,0.014599,-0.004912,-0.004265
11993,20120713,5171,LPH,LONGWEI PETROLEUM INVT HLDG LTD,,1.35,1.45,1.38,66500,-0.007194,1.41,1.43,100767,1.38,,-0.007194,0.015232,0.010622
11993,20120716,5171,LPH,LONGWEI PETROLEUM INVT HLDG LTD,,1.31,1.4,1.33,109000,-0.036232,1.32,1.33,100767,1.4,,-0.036232,-0.002468,-0.003517
11993,20120717,5171,LPH,LONGWEI PETROLEUM INVT HLDG LTD,,1.311,1.36,1.35,57000,0.015038,1.35,1.36,100767,1.33,,0.015038,0.006705,0.002432
11993,20120718,5171,LPH,LONGWEI PETROLEUM INVT HLDG LTD,,1.28,1.36,1.29,83800,-0.044444,1.29,1.3,100767,1.36,,-0.044444,0.00614,0.003807
11993,20120719,5171,LPH,LONGWEI PETROLEUM INVT HLDG LTD,,1.24,1.32,1.3,127100,0.007752,1.26,1.27,100767,1.27,,0.007752,0.002743,-0.000006
11993,20120720,5171,LPH,LONGWEI PETROLEUM INVT HLDG LTD,,1.2,1.33,1.28,249200,-0.015385,1.27,1.29,100767,1.33,,-0.015385,-0.009933,-0.008788
11993,20120723,5171,LPH,LONGWEI PETROLEUM INVT HLDG LTD,,1.1999,1.27,1.26,79200,-0.015625,1.23,1.25,100767,1.23,,-0.015625,-0.010161,-0.012016
11993,20120724,5171,LPH,LONGWEI PETROLEUM INVT HLDG LTD,,1.21,1.31,1.31,65900,0.039683,1.29,1.31,100767,1.27,,0.039683,-0.009459,-0.009281
11993,20120725,5171,LPH,LONGWEI PETROLEUM INVT HLDG LTD,,1.25,1.31,1.25,79700,-0.045801,1.25,1.26,100767,1.3,,-0.045801,0.000691,0.002445
11993,20120726,5171,LPH,LONGWEI PETROLEUM INVT HLDG LTD,,1.2402,1.3,1.28,60100,0.024,1.29,1.3,100767,1.28,,0.024,0.015475,0.008601
11993,20120727,5171,LPH,LONGWEI PETROLEUM INVT HLDG LTD,,1.25,1.3,1.26,104700,-0.015625,1.27,1.29,100767,1.29,,-0.015625,0.018789,0.016403
11993,20120730,5171,LPH,LONGWEI PETROLEUM INVT HLDG LTD,,1.25,1.31,1.28,74600,0.015873,1.26,1.27,100767,1.28,,0.015873,-0.000858,-0.002895
11993,20120731,5171,LPH,LONGWEI PETROLEUM INVT HLDG LTD,,1.23,1.3001,1.23,96100,-0.039062,1.23,1.24,100767,1.2999,,-0.039062,-0.004977,-0.003227
11993,20120801,5171,LPH,LONGWEI PETROLEUM INVT HLDG LTD,,1.23,1.29,1.28,73400,0.04065,1.26,1.27,100767,1.25,,0.04065,-0.004649,-0.009215
11993,20120802,5171,LPH,LONGWEI PETROLEUM INVT HLDG LTD,,1.23,1.29,1.23,57300,-0.039062,1.24,1.25,100767,1.28,,-0.039062,-0.007394,-0.005728
11993,20120803,5171,LPH,LONGWEI PETROLEUM INVT HLDG LTD,,1.24,1.28,1.26,64200,0.02439,1.26,1.27,100767,1.25,,0.02439,0.019079,0.017674
11993,20120806,5171,LPH,LONGWEI PETROLEUM INVT HLDG LTD,,1.26,1.33,1.26,174300,0,1.26,1.28,100767,1.28,,0,0.003504,0.006599
11993,20120807,5171,LPH,LONGWEI PETROLEUM INVT HLDG LTD,,1.2699,1.34,1.34,128200,0.063492,1.3,1.31,100767,1.29,,0.063492,0.006321,0.0062
11993,20120808,5171,LPH,LONGWEI PETROLEUM INVT HLDG LTD,,1.28,1.34,1.29,82700,-0.037313,1.29,1.3,100767,1.34,,-0.037313,-0.0001,-0.001097
11993,20120809,5171,LPH,LONGWEI PETROLEUM INVT HLDG LTD,,1.26,1.34,1.33,91600,0.031008,1.32,1.33,100767,1.3,,0.031008,0.00133,0.003304
11993,20120810,5171,LPH,LONGWEI PETROLEUM INVT HLDG LTD,,1.3,1.45,1.42,155600,0.067669,1.42,1.44,100767,1.34,,0.067669,0.001845,-0.000758
11993,20120813,5171,LPH,LONGWEI PETROLEUM INVT HLDG LTD,,1.45,1.53,1.47,309500,0.035211,1.47,1.49,100767,1.45,,0.035211,-0.0021,-0.002392
11993,20120814,5171,LPH,LONGWEI PETROLEUM INVT HLDG LTD,,1.42,1.54,1.43,297800,-0.027211,1.43,1.45,100767,1.49,,-0.027211,-0.000139,-0.002297
11993,20120815,5171,LPH,LONGWEI PETROLEUM INVT HLDG LTD,,1.41,1.45,1.44,86800,0.006993,1.42,1.44,100767,1.41,,0.006993,0.002475,0.0044
11993,20120816,5171,LPH,LONGWEI PETROLEUM INVT HLDG LTD,,1.45,1.55,1.46,135800,0.013889,1.47,1.48,100767,1.55,,0.013889,0.007841,0.008012
11993,20120817,5171,LPH,LONGWEI PETROLEUM INVT HLDG LTD,,1.45,1.54,1.48,222800,0.013699,1.45,1.47,100767,1.52,,0.013699,0.00262,0.004733
11993,20120820,5171,LPH,LONGWEI PETROLEUM INVT HLDG LTD,,1.45,1.53,1.49,130300,0.006757,1.46,1.47,100767,1.53,,0.006757,-0.000643,-0.001632
11993,20120821,5171,LPH,LONGWEI PETROLEUM INVT HLDG LTD,,1.42,1.5,1.45,103300,-0.026846,1.42,1.44,100767,1.5,,-0.026846,-0.002371,-0.00066
11993,20120822,5171,LPH,LONGWEI PETROLEUM INVT HLDG LTD,,1.37,1.43,1.38,161600,-0.048276,1.37,1.38,100767,1.38,,-0.048276,-0.000167,-0.001911
11993,20120823,5171,LPH,LONGWEI PETROLEUM INVT HLDG LTD,,1.36,1.44,1.43,114200,0.036232,1.38,1.4,100767,1.36,,0.036232,-0.007352,-0.00456
11993,20120824,5171,LPH,LONGWEI PETROLEUM INVT HLDG LTD,,1.38,1.43,1.38,100900,-0.034965,1.39,1.4,100767,1.43,,-0.034965,0.005368,0.0032
11993,20120827,5171,LPH,LONGWEI PETROLEUM INVT HLDG LTD,,1.38,1.46,1.45,148000,0.050725,1.43,1.44,100767,1.38,,0.050725,-0.000575,-0.000593
11993,20120828,5171,LPH,LONGWEI PETROLEUM INVT HLDG LTD,,1.42,1.45,1.43,89600,-0.013793,1.42,1.43,100767,1.45,,-0.013793,0.000208,0.002364
11993,20120829,5171,LPH,LONGWEI PETROLEUM INVT HLDG LTD,,1.43,1.47,1.46,89400,0.020979,1.43,1.44,100767,1.45,,0.020979,0.000747,0.001643
11993,20120830,5171,LPH,LONGWEI PETROLEUM INVT HLDG LTD,,1.4,1.47,1.4,114000,-0.041096,1.41,1.43,100767,1.46,,-0.041096,-0.007942,-0.007645
11993,20120831,5171,LPH,LONGWEI PETROLEUM INVT HLDG LTD,,1.4,1.47,1.47,33600,0.05,1.42,1.44,100767,1.41,,0.05,0.005857,0.005276
11993,20120904,5171,LPH,LONGWEI PETROLEUM INVT HLDG LTD,,1.4,1.47,1.41,64700,-0.040816,1.42,1.43,100767,1.47,,-0.040816,0.000576,0.003103
11993,20120905,5171,LPH,LONGWEI PETROLEUM INVT HLDG LTD,,1.4,1.43,1.43,117000,0.014184,1.41,1.42,100767,1.41,,0.014184,-0.000794,-0.000793
11993,20120906,5171,LPH,LONGWEI PETROLEUM INVT HLDG LTD,,1.4,1.45,1.45,61800,0.013986,1.44,1.45,100767,1.42,,0.013986,0.01932,0.013613
11993,20120907,5171,LPH,LONGWEI PETROLEUM INVT HLDG LTD,,1.42,1.48,1.42,151000,-0.02069,1.45,1.46,100767,1.45,,-0.02069,0.005609,0.006393
11993,20120910,5171,LPH,LONGWEI PETROLEUM INVT HLDG LTD,,1.44,1.47,1.47,115300,0.035211,1.45,1.47,100767,1.44,,0.035211,-0.005723,-0.001868
11993,20120911,5171,LPH,LONGWEI PETROLEUM INVT HLDG LTD,,1.44,1.48,1.44,37600,-0.020408,1.45,1.46,100767,1.45,,-0.020408,0.003408,0.004897
11993,20120912,5171,LPH,LONGWEI PETROLEUM INVT HLDG LTD,,1.43,1.48,1.44,72800,0,1.44,1.45,100767,1.43,,0,0.00232,0.003495
11993,20120913,5171,LPH,LONGWEI PETROLEUM INVT HLDG LTD,,1.45,1.54,1.51,214300,0.048611,1.52,1.54,100767,1.45,,0.048611,0.015179,0.011148
11993,20120914,5171,LPH,LONGWEI PETROLEUM INVT HLDG LTD,,1.47,1.546,1.48,323600,-0.019868,1.47,1.48,100767,1.48,,-0.019868,0.006128,0.008127
11993,20120917,5171,LPH,LONGWEI PETROLEUM INVT HLDG LTD,,1.47,1.5121,1.49,134600,0.006757,1.48,1.49,100767,1.48,,0.006757,-0.004582,-0.004204
11993,20120918,5171,LPH,LONGWEI PETROLEUM INVT HLDG LTD,,1.47,1.51,1.48,69800,-0.006711,1.48,1.49,100767,1.51,,-0.006711,-0.001814,-0.000369
11993,20120919,5171,LPH,LONGWEI PETROLEUM INVT HLDG LTD,,1.44,1.51,1.44,116000,-0.027027,1.45,1.46,100767,1.51,,-0.027027,0.001262,0.001704
11993,20120920,5171,LPH,LONGWEI PETROLEUM INVT HLDG LTD,,1.35,1.44,1.35,206700,-0.0625,1.37,1.38,100767,1.44,,-0.0625,-0.002056,-0.003733
11993,20120921,5171,LPH,LONGWEI PETROLEUM INVT HLDG LTD,,1.21,1.39,1.21,664200,-0.103704,1.22,1.23,100767,1.33,,-0.103704,0.000373,0.004826
11993,20120924,5171,LPH,LONGWEI PETROLEUM INVT HLDG LTD,,1.4301,1.65,1.47,1194800,0.214876,1.51,1.52,100767,1.61,,0.214876,-0.003196,-0.003377
11993,20120925,5171,LPH,LONGWEI PETROLEUM INVT HLDG LTD,,1.43,1.58,1.49,309000,0.013605,1.47,1.48,100767,1.49,,0.013605,-0.010896,-0.009693
11993,20120926,5171,LPH,LONGWEI PETROLEUM INVT HLDG LTD,,1.46,1.52,1.49,159500,0,1.5,1.52,100767,1.49,,0,-0.005756,-0.005113
11993,20120927,5171,LPH,LONGWEI PETROLEUM INVT HLDG LTD,,1.53,1.63,1.59,431800,0.067114,1.59,1.6,100767,1.58,,0.067114,0.009947,0.00892
11993,20120928,5171,LPH,LONGWEI PETROLEUM INVT HLDG LTD,,1.62,1.8,1.76,940100,0.106918,1.76,1.77,100940,1.66,,0.106918,-0.004535,-0.003469
11993,20121001,5171,LPH,LONGWEI PETROLEUM INVT HLDG LTD,,1.7,1.84,1.75,484100,-0.005682,1.76,1.77,100940,1.8,,-0.005682,0.002709,0.002595
11993,20121002,5171,LPH,LONGWEI PETROLEUM INVT HLDG LTD,,1.59,1.77,1.69,358700,-0.034286,1.68,1.69,100940,1.76,,-0.034286,0.001139,0.00035
11993,20121003,5171,LPH,LONGWEI PETROLEUM INVT HLDG LTD,,1.61,1.7001,1.62,146100,-0.04142,1.61,1.62,100940,1.68,,-0.04142,0.002362,-0.000138
11993,20121004,5171,LPH,LONGWEI PETROLEUM INVT HLDG LTD,,1.55,1.67,1.67,159500,0.030864,1.63,1.65,100940,1.65,,0.030864,0.007652,0.006541
11993,20121005,5171,LPH,LONGWEI PETROLEUM INVT HLDG LTD,,1.6399,1.69,1.65,64000,-0.011976,1.65,1.66,100940,1.67,,-0.011976,-0.000369,-0.000848
11993,20121008,5171,LPH,LONGWEI PETROLEUM INVT HLDG LTD,,1.61,1.6604,1.63,72800,-0.012121,1.63,1.64,100940,1.66,,-0.012121,-0.003573,-0.003513
11993,20121009,5171,LPH,LONGWEI PETROLEUM INVT HLDG LTD,,1.62,1.67,1.65,175700,0.01227,1.65,1.66,100940,1.62,,0.01227,-0.009804,-0.009159
11993,20121010,5171,LPH,LONGWEI PETROLEUM INVT HLDG LTD,,1.6145,1.68,1.65,84200,0,1.65,1.67,100940,1.62,,0,-0.005611,-0.004178
11993,20121011,5171,LPH,LONGWEI PETROLEUM INVT HLDG LTD,,1.67,1.8192,1.77,668100,0.072727,1.77,1.78,100940,1.7,,0.072727,0.001582,0.004311
11993,20121012,5171,LPH,LONGWEI PETROLEUM INVT HLDG LTD,,1.7101,1.84,1.76,382000,-0.00565,1.76,1.77,100940,1.8,,-0.00565,-0.003527,-0.004332
11993,20121015,5171,LPH,LONGWEI PETROLEUM INVT HLDG LTD,,1.75,1.97,1.96,1004000,0.113636,1.96,1.97,100940,1.8,,0.113636,0.007228,0.004164
11993,20121016,5171,LPH,LONGWEI PETROLEUM INVT HLDG LTD,,1.98,2.15,2.11,1125800,0.076531,2.09,2.1,100940,2.04,,0.076531,0.009926,0.007031
11993,20121017,5171,LPH,LONGWEI PETROLEUM INVT HLDG LTD,,2,2.13,2.13,365500,0.009479,2.09,2.11,100940,2.08,,0.009479,0.004993,0.005563
11993,20121018,5171,LPH,LONGWEI PETROLEUM INVT HLDG LTD,,2.0818,2.19,2.15,356700,0.00939,2.13,2.15,100940,2.13,,0.00939,-0.002776,-0.003914
11993,20121019,5171,LPH,LONGWEI PETROLEUM INVT HLDG LTD,,2.07,2.15,2.14,300000,-0.004651,2.11,2.13,100940,2.15,,-0.004651,-0.015646,-0.013008
11993,20121022,5171,LPH,LONGWEI PETROLEUM INVT HLDG LTD,,2.1518,2.32,2.31,831500,0.079439,2.3,2.31,100940,2.2,,0.079439,0.000165,-0.000325
11993,20121023,5171,LPH,LONGWEI PETROLEUM INVT HLDG LTD,,2.21,2.3399,2.25,449800,-0.025974,2.25,2.26,100940,2.29,,-0.025974,-0.012991,-0.00699
11993,20121024,5171,LPH,LONGWEI PETROLEUM INVT HLDG LTD,,2.22,2.37,2.23,478300,-0.008889,2.24,2.25,100940,2.32,,-0.008889,-0.002626,-0.001419
11993,20121025,5171,LPH,LONGWEI PETROLEUM INVT HLDG LTD,,2.21,2.2834,2.27,230800,0.017937,2.26,2.27,100940,2.27,,0.017937,0.003279,0.002125
11993,20121026,5171,LPH,LONGWEI PETROLEUM INVT HLDG LTD,,2.24,2.28,2.24,193700,-0.013216,2.26,2.27,100940,2.28,,-0.013216,-0.001384,-0.001858
11993,20121031,5171,LPH,LONGWEI PETROLEUM INVT HLDG LTD,,2.25,2.3,2.29,245600,0.022321,2.26,2.27,100940,2.25,,0.022321,0.002192,0.003228
11993,20121101,5171,LPH,LONGWEI PETROLEUM INVT HLDG LTD,,2.23,2.3,2.23,247300,-0.026201,2.23,2.24,100940,2.27,,-0.026201,0.011076,0.009557
11993,20121102,5171,LPH,LONGWEI PETROLEUM INVT HLDG LTD,,2.03,2.25,2.08,691400,-0.067265,2.08,2.09,100940,2.24,,-0.067265,-0.009797,-0.008813
11993,20121105,5171,LPH,LONGWEI PETROLEUM INVT HLDG LTD,,2.1,2.35,2.23,592800,0.072115,2.24,2.25,100940,2.1,,0.072115,0.00207,0.00308
11993,20121106,5171,LPH,LONGWEI PETROLEUM INVT HLDG LTD,,2.23,2.3,2.24,182200,0.004484,2.24,2.26,100940,2.25,,0.004484,0.007713,0.005972
11993,20121107,5171,LPH,LONGWEI PETROLEUM INVT HLDG LTD,,2.18,2.256,2.19,120400,-0.022321,2.18,2.2,100940,2.19,,-0.022321,-0.021697,-0.018066
11993,20121108,5171,LPH,LONGWEI PETROLEUM INVT HLDG LTD,,2.15,2.27,2.23,173200,0.018265,2.23,2.24,100940,2.17,,0.018265,-0.011597,-0.009684
11993,20121109,5171,LPH,LONGWEI PETROLEUM INVT HLDG LTD,,2.17,2.29,2.19,183200,-0.017937,2.19,2.2,100940,2.29,,-0.017937,0.000895,-0.000668
11993,20121112,5171,LPH,LONGWEI PETROLEUM INVT HLDG LTD,,2.11,2.21,2.15,278800,-0.018265,2.14,2.15,100940,2.21,,-0.018265,-0.00022,-0.001908
11993,20121113,5171,LPH,LONGWEI PETROLEUM INVT HLDG LTD,,2.1,2.16,2.14,165900,-0.004651,2.13,2.14,100940,2.11,,-0.004651,-0.004436,-0.006196
11993,20121114,5171,LPH,LONGWEI PETROLEUM INVT HLDG LTD,,2.1,2.26,2.1,289200,-0.018692,2.13,2.14,100940,2.22,,-0.018692,-0.014976,-0.01576
11993,20121115,5171,LPH,LONGWEI PETROLEUM INVT HLDG LTD,,2.02,2.14,2.02,380200,-0.038095,2.02,2.03,100940,2.14,,-0.038095,-0.003108,-0.006326
11993,20121116,5171,LPH,LONGWEI PETROLEUM INVT HLDG LTD,,1.87,2.03,2.03,569900,0.00495,2.02,2.03,100940,1.99,,0.00495,0.006103,0.005619
11993,20121119,5171,LPH,LONGWEI PETROLEUM INVT HLDG LTD,,2.05,2.21,2.15,205000,0.059113,2.13,2.15,100940,2.21,,0.059113,0.019049,0.016446
11993,20121120,5171,LPH,LONGWEI PETROLEUM INVT HLDG LTD,,2.13,2.22,2.21,181700,0.027907,2.18,2.19,100940,2.15,,0.027907,0.000901,0.00074
11993,20121121,5171,LPH,LONGWEI PETROLEUM INVT HLDG LTD,,2.18,2.222,2.2,102000,-0.004525,2.19,2.2,100940,2.18,,-0.004525,0.003088,0.004732
11993,20121123,5171,LPH,LONGWEI PETROLEUM INVT HLDG LTD,,2.145,2.22,2.2,93300,0,2.15,2.17,100940,2.2,,0,0.012618,0.010054
11993,20121126,5171,LPH,LONGWEI PETROLEUM INVT HLDG LTD,,2.17,2.34,2.26,702700,0.027273,2.26,2.28,100940,2.21,,0.027273,-0.001693,0.001119
11993,20121127,5171,LPH,LONGWEI PETROLEUM INVT HLDG LTD,,2.24,2.32,2.26,213000,0,2.26,2.27,100940,2.28,,0,-0.00451,-0.000963
11993,20121128,5171,LPH,LONGWEI PETROLEUM INVT HLDG LTD,,2.24,2.28,2.27,145200,0.004425,2.26,2.27,100940,2.28,,0.004425,0.007189,0.004772
11993,20121129,5171,LPH,LONGWEI PETROLEUM INVT HLDG LTD,,2.22,2.27,2.23,325500,-0.017621,2.25,2.26,100940,2.27,,-0.017621,0.004978,0.008425
11993,20121130,5171,LPH,LONGWEI PETROLEUM INVT HLDG LTD,,2.27,2.46,2.46,1470700,0.103139,2.41,2.42,101484,2.28,,0.103139,0.000252,0.000901
11993,20121203,5171,LPH,LONGWEI PETROLEUM INVT HLDG LTD,,2.4899,2.85,2.78,1742800,0.130081,2.75,2.76,101484,2.5,,0.130081,-0.004297,-0.002236
11993,20121204,5171,LPH,LONGWEI PETROLEUM INVT HLDG LTD,,2.6,2.84,2.75,1064200,-0.010791,2.7,2.72,101484,2.8,,-0.010791,-0.001371,-0.001161
11993,20121205,5171,LPH,LONGWEI PETROLEUM INVT HLDG LTD,,2.5,2.82,2.5,871500,-0.090909,2.5,2.52,101484,2.82,,-0.090909,0.001404,-0.000275
11993,20121206,5171,LPH,LONGWEI PETROLEUM INVT HLDG LTD,,2.45,2.65,2.47,440300,-0.012,2.46,2.48,101484,2.51,,-0.012,0.002338,0.000448
11993,20121207,5171,LPH,LONGWEI PETROLEUM INVT HLDG LTD,,2.54,2.69,2.63,451900,0.064777,2.64,2.66,101484,2.55,,0.064777,0.00246,0.001127
11993,20121210,5171,LPH,LONGWEI PETROLEUM INVT HLDG LTD,,2.58,2.74,2.59,537800,-0.015209,2.59,2.61,101484,2.69,,-0.015209,0.001425,0.002594
11993,20121211,5171,LPH,LONGWEI PETROLEUM INVT HLDG LTD,,2.52,2.6698,2.58,379800,-0.003861,2.57,2.58,101484,2.63,,-0.003861,0.006128,0.007206
11993,20121212,5171,LPH,LONGWEI PETROLEUM INVT HLDG LTD,,2.54,2.65,2.61,315600,0.011628,2.62,2.64,101484,2.6,,0.011628,-0.000097,-0.000931
11993,20121213,5171,LPH,LONGWEI PETROLEUM INVT HLDG LTD,,2.62,2.74,2.65,377300,0.015326,2.62,2.65,101484,2.65,,0.015326,-0.006196,-0.004505
11993,20121214,5171,LPH,LONGWEI PETROLEUM INVT HLDG LTD,,2.6,2.65,2.62,137300,-0.011321,2.62,2.63,101484,2.65,,-0.011321,-0.003192,0.000757
11993,20121217,5171,LPH,LONGWEI PETROLEUM INVT HLDG LTD,,2.55,2.679,2.62,289100,0,2.64,2.65,101484,2.61,,0,0.010147,0.006348
11993,20121218,5171,LPH,LONGWEI PETROLEUM INVT HLDG LTD,,2.56,2.654,2.57,214500,-0.019084,2.58,2.6,101484,2.6,,-0.019084,0.010818,0.00905
11993,20121219,5171,LPH,LONGWEI PETROLEUM INVT HLDG LTD,,2.56,2.65,2.6,235200,0.011673,2.56,2.57,101484,2.56,,0.011673,-0.004829,0.000447
11993,20121220,5171,LPH,LONGWEI PETROLEUM INVT HLDG LTD,,2.36,2.61,2.43,685500,-0.065385,2.42,2.44,101484,2.6,,-0.065385,0.004651,0.004035
11993,20121221,5171,LPH,LONGWEI PETROLEUM INVT HLDG LTD,,2.04,2.68,2.57,1663000,0.057613,2.6,2.62,101484,2.38,,0.057613,-0.008636,-0.006072
11993,20121224,5171,LPH,LONGWEI PETROLEUM INVT HLDG LTD,,2.41,2.5628,2.41,192700,-0.062257,2.43,2.44,101484,2.47,,-0.062257,-0.002399,-0.003032
11993,20121226,5171,LPH,LONGWEI PETROLEUM INVT HLDG LTD,,2.26,2.41,2.31,443400,-0.041494,2.29,2.3,101484,2.37,,-0.041494,-0.005058,-0.003441
11993,20121227,5171,LPH,LONGWEI PETROLEUM INVT HLDG LTD,,2.2,2.3,2.28,325100,-0.012987,2.25,2.26,101484,2.28,,-0.012987,-0.000918,-0.002331
11993,20121228,5171,LPH,LONGWEI PETROLEUM INVT HLDG LTD,,2.17,2.26,2.17,543500,-0.048246,2.17,2.18,101484,2.24,,-0.048246,-0.00939,-0.004243
11993,20121231,5171,LPH,LONGWEI PETROLEUM INVT HLDG LTD,,2.06,2.16,2.11,860000,-0.02765,2.08,2.09,101484,2.11,,-0.02765,0.016416,0.014957
11993,20130102,5171,LPH,LONGWEI PETROLEUM INVT HLDG LTD,,2.17,2.81,2.3,1420000,0.090047,2.31,2.33,101484,2.3,,0.090047,0.02482,0.024095
11993,20130103,5171,LPH,LONGWEI PETROLEUM INVT HLDG LTD,,0.46,2.31,0.6244,14500900,-0.728522,,,101484,2.29,,-0.728522,-0.001909,0.000456
