PERMNO,date,SICCD,TICKER,COMNAM,NMSIND,BIDLO,ASKHI,PRC,VOL,RET,BID,ASK,SHROUT,OPENPRC,NUMTRD,RETX,vwretx,ewretx
12869,20110602,6726,RSUN,INDEXIQ E T F TRUST,,19.87,20.02,19.87,9900,C,19.72,19.94,100,20.02,,C,-0.000674,-0.0001
12869,20110603,6726,RSUN,INDEXIQ E T F TRUST,,19.69,19.73,19.69,3000,-0.009059,19.56,19.75,100,19.73,,-0.009059,-0.009321,-0.009517
12869,20110606,6726,RSUN,INDEXIQ E T F TRUST,,19.55,19.65,19.55,4500,-0.00711,19.49,19.58,100,19.57,,-0.00711,-0.01248,-0.01336
12869,20110607,6726,RSUN,INDEXIQ E T F TRUST,,19.6,19.76,19.6,1500,0.002558,19.67,19.74,100,19.76,,0.002558,0.000244,0.001398
12869,20110608,6726,RSUN,INDEXIQ E T F TRUST,,19.71,19.81,19.81,5300,0.010714,19.55,19.79,100,19.78,,0.010714,-0.00614,-0.010785
12869,20110609,6726,RSUN,INDEXIQ E T F TRUST,,19.85,20.11,19.8599,4800,0.002519,19.8,19.95,100,19.85,,0.002519,0.007438,0.00544
12869,20110610,6726,RSUN,INDEXIQ E T F TRUST,,19.6,20.1,19.94,7500,0.004033,19.75,19.94,100,19.98,,0.004033,-0.014092,-0.011787
12869,20110613,6726,RSUN,INDEXIQ E T F TRUST,,19.66,19.9,19.9,2300,-0.002006,19.8,19.9,100,19.85,,-0.002006,-0.001256,-0.006066
12869,20110614,6726,RSUN,INDEXIQ E T F TRUST,,20,20.07,20,3200,0.005025,19.96,20.21,100,20.07,,0.005025,0.013809,0.014324
12869,20110615,6726,RSUN,INDEXIQ E T F TRUST,,19.61,19.7,-19.655,0,-0.01725,19.61,19.7,100,,,-0.01725,-0.01735,-0.014182
12869,20110616,6726,RSUN,INDEXIQ E T F TRUST,,19.71,19.71,19.71,200,0.002798,19.56,19.67,100,19.71,,0.002798,-0.000231,-0.000882
12869,20110617,6726,RSUN,INDEXIQ E T F TRUST,,19.68,19.93,19.72,500,0.000507,19.72,19.76,100,19.93,,0.000507,0.002107,0.001134
12869,20110620,6726,RSUN,INDEXIQ E T F TRUST,,19.75,19.75,19.75,100,0.001521,19.68,19.78,100,19.75,,0.001521,0.005327,0.002448
12869,20110621,6726,RSUN,INDEXIQ E T F TRUST,,20,20.0605,20.0605,600,0.015721,20.02,20.13,100,20,,0.015721,0.01578,0.015986
12869,20110622,6726,RSUN,INDEXIQ E T F TRUST,,20.1,20.26,20.18,12100,0.005957,19.89,20.01,100,20.21,,0.005957,-0.005628,-0.003323
12869,20110623,6726,RSUN,INDEXIQ E T F TRUST,,19.78,19.89,-19.835,0,-0.017096,19.78,19.89,100,,,-0.017096,-0.002604,-0.000903
12869,20110624,6726,RSUN,INDEXIQ E T F TRUST,,19.98,20.04,19.98,5500,0.00731,19.96,20.01,100,20.04,,0.00731,-0.010604,-0.002482
12869,20110627,6726,RSUN,INDEXIQ E T F TRUST,,19.88,19.9985,19.96,900,-0.001001,19.96,19.97,100,19.88,,-0.001001,0.008064,0.00543
12869,20110628,6726,RSUN,INDEXIQ E T F TRUST,,20,20.14,20.04,3700,0.004008,20.03,20.11,100,20,,0.004008,0.013434,0.010381
12869,20110629,6726,RSUN,INDEXIQ E T F TRUST,,20.15,20.35,20.15,15400,0.005489,20.12,20.36,100,20.17,,0.005489,0.008625,0.004894
12869,20110630,6726,RSUN,INDEXIQ E T F TRUST,,20.46,20.67,20.598,1600,0.022233,20.46,20.62,100,20.46,,0.022233,0.009669,0.008367
12869,20110701,6726,RSUN,INDEXIQ E T F TRUST,,20.4,20.759,20.728,600,0.006311,20.59,20.75,100,20.64,,0.006311,0.013321,0.009964
12869,20110705,6726,RSUN,INDEXIQ E T F TRUST,,20.25,20.81,20.6299,8500,-0.004733,20.36,20.51,100,20.81,,-0.004733,-0.000055,0.000779
12869,20110706,6726,RSUN,INDEXIQ E T F TRUST,,20.27,20.63,20.41,77000,-0.010659,20.35,20.64,100,20.42,,-0.010659,0.000902,0.002824
12869,20110707,6726,RSUN,INDEXIQ E T F TRUST,,20.76,21.09,20.83,3300,0.020578,20.79,20.94,100,21.09,,0.020578,0.010562,0.011633
12869,20110708,6726,RSUN,INDEXIQ E T F TRUST,,20.63,20.7,20.7,4900,-0.006241,20.64,20.78,100,20.64,,-0.006241,-0.006331,-0.004814
12869,20110711,6726,RSUN,INDEXIQ E T F TRUST,,20.5299,20.719,20.5299,400,-0.008217,20.5,20.56,100,20.71,,-0.008217,-0.019355,-0.016329
12869,20110712,6726,RSUN,INDEXIQ E T F TRUST,,20.764,20.86,20.764,400,0.011403,20.5,20.64,100,20.86,,0.011403,-0.003815,-0.002258
12869,20110713,6726,RSUN,INDEXIQ E T F TRUST,,20.98,21.565,21.1,55600,0.016182,21.06,21.29,100,20.98,,0.016182,0.004893,0.007214
12869,20110714,6726,RSUN,INDEXIQ E T F TRUST,,20.9642,21.4,21.03,13600,-0.003318,20.88,21.01,100,21.4,,-0.003318,-0.008057,-0.009562
12869,20110715,6726,RSUN,INDEXIQ E T F TRUST,,21.17,21.25,21.22,1400,0.009035,21.02,21.17,100,21.17,,0.009035,0.006171,0.004208
12869,20110718,6726,RSUN,INDEXIQ E T F TRUST,,20.87,20.99,20.99,2200,-0.010839,20.88,21,100,20.88,,-0.010839,-0.009499,-0.011087
12869,20110719,6726,RSUN,INDEXIQ E T F TRUST,,21.26,21.419,21.419,1800,0.020438,21.23,21.37,100,21.32,,0.020438,0.016152,0.013498
12869,20110720,6726,RSUN,INDEXIQ E T F TRUST,,21.41,21.61,21.52,5700,0.004715,21.52,21.6,100,21.44,,0.004715,-0.000043,0.000894
12869,20110721,6726,RSUN,INDEXIQ E T F TRUST,,21.6,21.82,21.76,5900,0.011152,21.67,21.77,100,21.65,,0.011152,0.012197,0.008868
12869,20110722,6726,RSUN,INDEXIQ E T F TRUST,,21.75,21.76,21.76,800,0,21.68,21.78,100,21.75,,0,0.001382,0.001569
12869,20110725,6726,RSUN,INDEXIQ E T F TRUST,,21.52,21.73,21.73,800,-0.001379,21.57,21.71,100,21.62,,-0.001379,-0.00628,-0.007896
12869,20110726,6726,RSUN,INDEXIQ E T F TRUST,,21.7099,21.82,21.82,4900,0.004142,21.56,21.78,100,21.7099,,0.004142,-0.004541,-0.004074
12869,20110727,6726,RSUN,INDEXIQ E T F TRUST,,21.35,21.61,21.38,1500,-0.020165,21.22,21.39,100,21.61,,-0.020165,-0.021724,-0.021165
12869,20110728,6726,RSUN,INDEXIQ E T F TRUST,,21.22,21.3999,21.23,900,-0.007016,21.22,21.28,100,21.22,,-0.007016,-0.003041,-0.001498
12869,20110729,6726,RSUN,INDEXIQ E T F TRUST,,21.26,21.42,21.3825,1100,0.007183,21.28,21.43,100,21.42,,0.007183,-0.005649,-0.003083
12869,20110801,6726,RSUN,INDEXIQ E T F TRUST,,21.32,21.91,21.32,2400,-0.002923,21.23,21.36,100,21.91,,-0.002923,-0.00364,-0.000943
12869,20110802,6726,RSUN,INDEXIQ E T F TRUST,,21.1,21.24,21.1,600,-0.010319,20.98,21.15,100,21.24,,-0.010319,-0.025654,-0.021105
12869,20110803,6726,RSUN,INDEXIQ E T F TRUST,,20.8301,21.08,21.08,1800,-0.000948,20.98,21.15,100,20.8302,,-0.000948,0.004643,0.002141
12869,20110804,6726,RSUN,INDEXIQ E T F TRUST,,19.97,20.4,20.02,3300,-0.050285,19.77,20.01,100,20.4,,-0.050285,-0.050395,-0.047471
12869,20110805,6726,RSUN,INDEXIQ E T F TRUST,,19.74,20.2292,20.03,1600,0.0005,19.97,20.1,100,19.75,,0.0005,-0.004807,-0.01258
12869,20110808,6726,RSUN,INDEXIQ E T F TRUST,,19.01,19.99,19.01,3100,-0.050924,19,19.23,100,19.99,,-0.050924,-0.068767,-0.072433
12869,20110809,6726,RSUN,INDEXIQ E T F TRUST,,19.769,20.11,20.11,1000,0.057864,20.14,20.3,100,19.89,,0.057864,0.051179,0.047104
12869,20110810,6726,RSUN,INDEXIQ E T F TRUST,,19.45,19.55,19.55,200,-0.027847,19.25,19.42,100,19.45,,-0.027847,-0.038886,-0.029925
12869,20110811,6726,RSUN,INDEXIQ E T F TRUST,,20.06,20.26,20.26,200,0.036317,20.07,20.18,100,20.06,,0.036317,0.045039,0.037071
12869,20110812,6726,RSUN,INDEXIQ E T F TRUST,,19.94,20.13,20.01,2600,-0.01234,19.91,20.01,100,20.08,,-0.01234,0.004744,0.004153
12869,20110815,6726,RSUN,INDEXIQ E T F TRUST,,20.02,20.16,20.16,1300,0.007496,20.12,20.2,100,20.05,,0.007496,0.02273,0.022971
12869,20110816,6726,RSUN,INDEXIQ E T F TRUST,,19.93,20.06,20.01,2600,-0.00744,20.05,20.13,100,19.93,,-0.00744,-0.011038,-0.012961
12869,20110817,6726,RSUN,INDEXIQ E T F TRUST,,19.97,20.08,19.97,1600,-0.001999,19.88,20.11,100,20.08,,-0.001999,0.000641,0.000567
12869,20110818,6726,RSUN,INDEXIQ E T F TRUST,,19.15,19.42,19.15,1600,-0.041062,19.17,19.3,100,19.19,,-0.041062,-0.045349,-0.041372
12869,20110819,6726,RSUN,INDEXIQ E T F TRUST,,19.01,19.11,19.01,1900,-0.007311,18.88,18.95,100,19.11,,-0.007311,-0.015399,-0.012245
12869,20110822,6726,RSUN,INDEXIQ E T F TRUST,,18.8,19.04,18.91,3300,-0.00526,18.86,18.98,100,18.94,,-0.00526,-0.000001,-0.002681
12869,20110823,6726,RSUN,INDEXIQ E T F TRUST,,18.8,19.09,19.09,1000,0.009519,19.28,19.31,100,18.8,,0.009519,0.033725,0.028999
12869,20110824,6726,RSUN,INDEXIQ E T F TRUST,,19.16,19.3,-19.23,0,0.007334,19.16,19.3,100,,,0.007334,0.011433,0.007909
12869,20110825,6726,RSUN,INDEXIQ E T F TRUST,,18.9,19.09,18.95,2500,-0.014561,18.93,19.05,100,19.01,,-0.014561,-0.015922,-0.015405
12869,20110826,6726,RSUN,INDEXIQ E T F TRUST,,19.14,19.14,19.14,300,0.010026,19.25,19.38,100,19.14,,0.010026,0.01634,0.015529
12869,20110829,6726,RSUN,INDEXIQ E T F TRUST,,19.64,19.68,19.68,1100,0.028213,19.57,19.79,100,19.64,,0.028213,0.029507,0.031448
12869,20110830,6726,RSUN,INDEXIQ E T F TRUST,,19.72,19.72,19.72,200,0.002032,19.6,19.75,100,19.72,,0.002032,0.00357,0.004626
12869,20110831,6726,RSUN,INDEXIQ E T F TRUST,,19.95,20.04,19.96,1000,0.01217,19.89,20.12,100,20.04,,0.01217,0.004997,0.002966
12869,20110901,6726,RSUN,INDEXIQ E T F TRUST,,19.76,19.94,19.9399,2400,-0.001007,19.66,19.9,100,19.8,,-0.001007,-0.012218,-0.013873
12869,20110902,6726,RSUN,INDEXIQ E T F TRUST,,19.42,19.44,19.44,600,-0.02507,19.35,19.46,100,19.42,,-0.02507,-0.024662,-0.022485
12869,20110906,6726,RSUN,INDEXIQ E T F TRUST,,18.84,18.86,18.84,600,-0.030864,18.8,18.94,100,18.86,,-0.030864,-0.00817,-0.009007
12869,20110907,6726,RSUN,INDEXIQ E T F TRUST,,19.22,19.4,19.4,2600,0.029724,19.36,19.5,100,19.22,,0.029724,0.028946,0.027053
12869,20110908,6726,RSUN,INDEXIQ E T F TRUST,,19.11,19.21,19.1999,1300,-0.010314,19.14,19.22,100,19.21,,-0.010314,-0.010911,-0.012366
12869,20110909,6726,RSUN,INDEXIQ E T F TRUST,,18.66,18.75,-18.705,0,-0.025776,18.66,18.75,100,,,-0.025776,-0.02659,-0.021064
12869,20110912,6726,RSUN,INDEXIQ E T F TRUST,,18.4708,18.66,18.495,7700,-0.011227,18.67,18.91,100,18.66,,-0.011227,0.004088,-0.000512
12869,20110913,6726,RSUN,INDEXIQ E T F TRUST,,19.2,19.21,19.2,300,0.038118,19.23,19.37,100,19.21,,0.038118,0.010437,0.011502
12869,20110914,6726,RSUN,INDEXIQ E T F TRUST,,19.02,19.28,19.28,400,0.004167,19.04,19.29,100,19.02,,0.004167,0.012749,0.011627
12869,20110915,6726,RSUN,INDEXIQ E T F TRUST,,19.35,19.39,19.35,200,0.003631,19.34,19.6,100,19.39,,0.003631,0.015329,0.008742
12869,20110916,6726,RSUN,INDEXIQ E T F TRUST,,19.53,19.69,-19.61,0,0.013437,19.53,19.69,100,,,0.013437,0.003486,0.001369
12869,20110919,6726,RSUN,INDEXIQ E T F TRUST,,19.26,19.41,-19.335,0,-0.014024,19.26,19.41,100,,,-0.014024,-0.010944,-0.014332
12869,20110920,6726,RSUN,INDEXIQ E T F TRUST,,19.21,19.28,19.28,400,-0.002844,19.12,19.25,100,19.21,,-0.002844,-0.004135,-0.009129
12869,20110921,6726,RSUN,INDEXIQ E T F TRUST,,19.02,19.2,19.02,1300,-0.013485,18.82,18.98,100,19.2,,-0.013485,-0.029484,-0.024804
12869,20110922,6726,RSUN,INDEXIQ E T F TRUST,,18.63,18.63,18.63,300,-0.020505,18.58,18.75,100,18.63,,-0.020505,-0.034404,-0.03289
12869,20110923,6726,RSUN,INDEXIQ E T F TRUST,,18.61,18.61,18.61,200,-0.001073,18.67,18.92,100,18.61,,-0.001073,0.005628,0.007186
12869,20110926,6726,RSUN,INDEXIQ E T F TRUST,,18.85,19,-18.925,0,0.016926,18.85,19,100,,,0.016926,0.021538,0.009785
12869,20110927,6726,RSUN,INDEXIQ E T F TRUST,,19.21,19.47,-19.34,0,0.021929,19.21,19.47,100,,,0.021929,0.012834,0.015723
12869,20110928,6726,RSUN,INDEXIQ E T F TRUST,,19.64,19.73,19.67,1400,0.017063,19.36,19.59,100,19.67,,0.017063,-0.023992,-0.025641
12869,20110929,6726,RSUN,INDEXIQ E T F TRUST,,20.15,20.15,20.15,400,0.024403,19.98,20.19,100,20.15,,0.024403,0.008163,0.006593
12869,20110930,6726,RSUN,INDEXIQ E T F TRUST,,19.98,19.98,19.98,200,-0.008437,19.4,19.63,100,19.98,,-0.008437,-0.024662,-0.01885
12869,20111003,6726,RSUN,INDEXIQ E T F TRUST,,19.21,19.38,-19.295,0,-0.034284,19.21,19.38,100,,,-0.034284,-0.032029,-0.041389
12869,20111004,6726,RSUN,INDEXIQ E T F TRUST,,19.32,19.57,-19.445,0,0.007774,19.32,19.57,100,,,0.007774,0.023523,0.027271
12869,20111005,6726,RSUN,INDEXIQ E T F TRUST,,18.92,19.16,19.16,500,-0.014657,19.18,19.43,100,18.92,,-0.014657,0.019306,0.017052
12869,20111006,6726,RSUN,INDEXIQ E T F TRUST,,19.24,19.46,19.44,2300,0.014614,19.27,19.53,100,19.44,,0.014614,0.02048,0.020302
12869,20111007,6726,RSUN,INDEXIQ E T F TRUST,,19.17,19.44,-19.305,0,-0.006944,19.17,19.44,100,,,-0.006944,-0.010945,-0.013558
12869,20111010,6726,RSUN,INDEXIQ E T F TRUST,,19.7,19.75,19.7,600,0.020461,19.67,19.75,100,19.75,,0.020461,0.034255,0.029485
12869,20111011,6726,RSUN,INDEXIQ E T F TRUST,,19.71,19.79,19.79,800,0.004569,19.61,19.82,100,19.71,,0.004569,0.001038,0.005045
12869,20111012,6726,RSUN,INDEXIQ E T F TRUST,,19.9,19.9,19.9,100,0.005558,19.66,19.84,100,19.9,,0.005558,0.011647,0.015032
12869,20111013,6726,RSUN,INDEXIQ E T F TRUST,,19.81,19.84,19.84,2500,-0.003015,19.68,19.83,100,19.81,,-0.003015,-0.003016,-0.000785
12869,20111014,6726,RSUN,INDEXIQ E T F TRUST,,19.5,19.73,-19.615,0,-0.011341,19.5,19.73,100,,,-0.011341,0.017724,0.014636
12869,20111017,6726,RSUN,INDEXIQ E T F TRUST,,19.47,19.47,19.47,100,-0.007392,19.46,19.68,100,19.47,,-0.007392,-0.020866,-0.02031
12869,20111018,6726,RSUN,INDEXIQ E T F TRUST,,19.32,19.32,19.32,500,-0.007704,19.6,19.83,100,19.32,,-0.007704,0.020777,0.018455
12869,20111019,6726,RSUN,INDEXIQ E T F TRUST,,19.44,19.58,-19.51,0,0.009834,19.44,19.58,100,,,0.009834,-0.014271,-0.012823
12869,20111020,6726,RSUN,INDEXIQ E T F TRUST,,19.45,19.57,19.57,1500,0.003075,19.39,19.52,100,19.45,,0.003075,0.003855,0.000346
12869,20111021,6726,RSUN,INDEXIQ E T F TRUST,,19.65,19.6501,19.6501,200,0.004093,19.61,19.77,100,19.65,,0.004093,0.019233,0.016308
12869,20111024,6726,RSUN,INDEXIQ E T F TRUST,,19.84,19.98,-19.91,0,0.013226,19.84,19.98,100,,,0.013226,0.016704,0.021862
12869,20111025,6726,RSUN,INDEXIQ E T F TRUST,,19.48,19.63,-19.555,0,-0.01783,19.48,19.63,100,,,-0.01783,-0.019819,-0.017923
12869,20111026,6726,RSUN,INDEXIQ E T F TRUST,,19.5301,19.5301,19.5301,100,-0.001273,19.55,19.73,100,19.5301,,-0.001273,0.011488,0.013112
12869,20111027,6726,RSUN,INDEXIQ E T F TRUST,,20.24,20.5,-20.37,0,0.043005,20.24,20.5,100,,,0.043005,0.036079,0.036164
12869,20111028,6726,RSUN,INDEXIQ E T F TRUST,,20.12,20.26,20.15,900,-0.0108,20.14,20.26,100,20.26,,-0.0108,0.00019,0.00033
12869,20111031,6726,RSUN,INDEXIQ E T F TRUST,,19.36,19.36,19.36,500,-0.039206,19.06,19.22,100,19.36,,-0.039206,-0.02465,-0.019074
12869,20111101,6726,RSUN,INDEXIQ E T F TRUST,,18.7,18.93,-18.815,0,-0.028151,18.7,18.93,100,,,-0.028151,-0.028634,-0.025608
12869,20111102,6726,RSUN,INDEXIQ E T F TRUST,,18.7801,18.7802,18.7801,600,-0.001855,18.76,18.97,100,18.7802,,-0.001855,0.016945,0.017805
12869,20111103,6726,RSUN,INDEXIQ E T F TRUST,,18.8,19.1,18.94,2400,0.008514,18.95,19.18,100,19.02,,0.008514,0.019006,0.01579
12869,20111104,6726,RSUN,INDEXIQ E T F TRUST,,18.91,19.16,-19.035,0,0.005016,18.91,19.16,100,,,0.005016,-0.005583,-0.00431
12869,20111107,6726,RSUN,INDEXIQ E T F TRUST,,19.07,19.28,-19.175,0,0.007355,19.07,19.28,100,,,0.007355,0.004856,0.000102
12869,20111108,6726,RSUN,INDEXIQ E T F TRUST,,19.01,19.19,-19.1,0,-0.003911,19.01,19.19,100,,,-0.003911,0.01077,0.010293
12869,20111109,6726,RSUN,INDEXIQ E T F TRUST,,18.86,18.86,18.86,100,-0.012565,18.64,18.86,100,18.86,,-0.012565,-0.037935,-0.033721
12869,20111110,6726,RSUN,INDEXIQ E T F TRUST,,18.71,18.92,-18.815,0,-0.002386,18.71,18.92,100,,,-0.002386,0.007259,0.004295
12869,20111111,6726,RSUN,INDEXIQ E T F TRUST,,18.86,19.08,-18.97,0,0.008238,18.86,19.08,100,,,0.008238,0.019767,0.016413
12869,20111114,6726,RSUN,INDEXIQ E T F TRUST,,18.78,18.99,-18.885,0,-0.004481,18.78,18.99,100,,,-0.004481,-0.009495,-0.011298
12869,20111115,6726,RSUN,INDEXIQ E T F TRUST,,18.68,18.91,-18.795,0,-0.004766,18.68,18.91,100,,,-0.004766,0.004354,0.005009
12869,20111116,6726,RSUN,INDEXIQ E T F TRUST,,18.5201,18.5202,18.5201,200,-0.014626,18.3,18.52,100,18.5202,,-0.014626,-0.015294,-0.010514
12869,20111117,6726,RSUN,INDEXIQ E T F TRUST,,18.38,18.38,18.38,300,-0.007565,18.33,18.57,100,18.38,,-0.007565,-0.017226,-0.013572
12869,20111118,6726,RSUN,INDEXIQ E T F TRUST,,18.53,18.53,18.53,500,0.008161,18.52,18.75,100,18.53,,0.008161,-0.00036,0.00091
12869,20111121,6726,RSUN,INDEXIQ E T F TRUST,,18.25,18.45,-18.35,0,-0.009714,18.25,18.45,100,,,-0.009714,-0.018747,-0.019219
12869,20111122,6726,RSUN,INDEXIQ E T F TRUST,,18.53,18.53,18.53,100,0.009809,18.33,18.55,100,18.53,,0.009809,-0.004178,-0.004975
12869,20111123,6726,RSUN,INDEXIQ E T F TRUST,,17.94,18.15,-18.045,0,-0.026174,17.94,18.15,100,,,-0.026174,-0.023265,-0.022619
12869,20111125,6726,RSUN,INDEXIQ E T F TRUST,,17.81,18.04,-17.925,0,-0.00665,17.81,18.04,100,,,-0.00665,-0.003742,-0.004938
12869,20111128,6726,RSUN,INDEXIQ E T F TRUST,,18.32,18.5,-18.41,0,0.027057,18.32,18.5,100,,,0.027057,0.030371,0.027825
12869,20111129,6726,RSUN,INDEXIQ E T F TRUST,,18.34,18.52,-18.43,0,0.001086,18.34,18.52,100,,,0.001086,0.001993,-0.002277
12869,20111130,6726,RSUN,INDEXIQ E T F TRUST,,18.9,19.1,-19,0,0.030928,18.9,19.1,100,,,0.030928,0.043756,0.038087
12869,20111201,6726,RSUN,INDEXIQ E T F TRUST,,18.67,18.99,18.67,700,-0.017368,18.65,18.9,100,18.99,,-0.017368,-0.002335,-0.003719
12869,20111202,6726,RSUN,INDEXIQ E T F TRUST,,18.75,18.98,-18.865,0,0.010445,18.75,18.98,100,,,0.010445,0.000065,0.004847
12869,20111205,6726,RSUN,INDEXIQ E T F TRUST,,18.8616,18.8625,18.8616,1700,-0.00018,18.88,19.14,100,18.8625,,-0.00018,0.010254,0.009643
12869,20111206,6726,RSUN,INDEXIQ E T F TRUST,,18.64,18.88,-18.76,0,-0.005387,18.64,18.88,100,,,-0.005387,0.000367,-0.000547
12869,20111207,6726,RSUN,INDEXIQ E T F TRUST,,18.68,18.68,18.68,200,-0.004264,18.86,19.1,100,18.68,,-0.004264,0.001647,0.00065
12869,20111208,6726,RSUN,INDEXIQ E T F TRUST,,18.5,18.77,-18.635,0,-0.002409,18.5,18.77,100,,,-0.002409,-0.022946,-0.02281
12869,20111209,6726,RSUN,INDEXIQ E T F TRUST,,18.95,19.21,-19.08,0,0.02388,18.95,19.21,100,,,0.02388,0.01772,0.018867
12869,20111212,6726,RSUN,INDEXIQ E T F TRUST,,18.67,18.94,-18.805,0,-0.014413,18.67,18.94,100,,,-0.014413,-0.015582,-0.013633
12869,20111213,6726,RSUN,INDEXIQ E T F TRUST,,18.56,18.79,-18.675,0,-0.006913,18.56,18.79,100,,,-0.006913,-0.011498,-0.012977
12869,20111214,6726,RSUN,INDEXIQ E T F TRUST,,18.36,18.6,-18.48,0,-0.010442,18.36,18.6,100,,,-0.010442,-0.012833,-0.009275
12869,20111215,6726,RSUN,INDEXIQ E T F TRUST,,18.32,18.5,-18.41,0,-0.003788,18.32,18.5,100,,,-0.003788,0.003637,0.002408
12869,20111216,6726,RSUN,INDEXIQ E T F TRUST,,18.27,18.45,-18.36,0,-0.002716,18.27,18.45,100,,,-0.002716,0.004859,0.003314
12869,20111219,6726,RSUN,INDEXIQ E T F TRUST,,18.02,18.36,18.02,400,-0.018519,17.96,18.22,100,18.36,,-0.018519,-0.012671,-0.014777
12869,20111220,6726,RSUN,INDEXIQ E T F TRUST,,18.61,18.75,-18.68,0,0.036626,18.61,18.75,100,,,0.036626,0.029812,0.026714
12869,20111221,6726,RSUN,INDEXIQ E T F TRUST,,18.43,18.61,-18.52,0,-0.008565,18.43,18.61,100,,,-0.008565,0.001868,0.001089
12869,20111222,6726,RSUN,INDEXIQ E T F TRUST,,18.23,18.31,18.23,25000,-0.015659,18.29,18.35,100,18.29,,-0.015659,0.008685,0.008057
12869,20111223,6726,RSUN,INDEXIQ E T F TRUST,,17.87,18.39,17.87,700,-0.019748,17.91,18.6,100,18.39,,-0.019748,0.007787,0.003873
12869,20111227,6726,RSUN,INDEXIQ E T F TRUST,,,,,,,,,,,,,-0.000047,-0.001196
