PERMNO,date,SICCD,TICKER,COMNAM,NMSIND,BIDLO,ASKHI,PRC,VOL,RET,BID,ASK,SHROUT,OPENPRC,NUMTRD,RETX,vwretx,ewretx
12761,20110527,6282,SHMO,RUSSELL E T F TRUST,,50.63,50.79,50.63,400,C,50.71,50.74,100,50.79,,C,0.004895,0.006001
12761,20110531,6282,SHMO,RUSSELL E T F TRUST,,51.39,51.41,-51.4,0,0.015208,51.39,51.41,100,,,0.015208,0.010268,0.009344
12761,20110601,6282,SHMO,RUSSELL E T F TRUST,,50.07,50.07,50.07,200,-0.025876,49.76,49.79,100,50.07,,-0.025876,-0.023195,-0.019748
12761,20110602,6282,SHMO,RUSSELL E T F TRUST,,49.92,49.92,49.92,100,-0.002996,49.79,49.82,100,49.92,,-0.002996,-0.000674,-0.0001
12761,20110603,6282,SHMO,RUSSELL E T F TRUST,,49.18,49.2,-49.19,0,-0.014623,49.18,49.2,100,,,-0.014623,-0.009321,-0.009517
12761,20110606,6282,SHMO,RUSSELL E T F TRUST,,48.76,48.88,48.76,1100,-0.008742,48.07,48.26,100,48.88,,-0.008742,-0.01248,-0.01336
12761,20110607,6282,SHMO,RUSSELL E T F TRUST,,48.41,48.55,48.55,1200,-0.004307,48.32,48.35,100,48.46,,-0.004307,0.000244,0.001398
12761,20110608,6282,SHMO,RUSSELL E T F TRUST,,47.87,47.87,47.87,200,-0.014006,47.7,47.73,100,47.87,,-0.014006,-0.00614,-0.010785
12761,20110609,6282,SHMO,RUSSELL E T F TRUST,,48.11,48.14,-48.125,0,0.005327,48.11,48.14,100,,,0.005327,0.007438,0.00544
12761,20110610,6282,SHMO,RUSSELL E T F TRUST,,47.29,47.36,-47.325,0,-0.016623,47.29,47.36,100,,,-0.016623,-0.014092,-0.011787
12761,20110613,6282,SHMO,RUSSELL E T F TRUST,,46.94,46.96,-46.95,0,-0.007924,46.94,46.96,100,,,-0.007924,-0.001256,-0.006066
12761,20110614,6282,SHMO,RUSSELL E T F TRUST,,47.89,47.89,47.89,500,0.020021,47.99,48.02,100,47.89,,0.020021,0.013809,0.014324
12761,20110615,6282,SHMO,RUSSELL E T F TRUST,,47.09,47.16,-47.125,0,-0.015974,47.09,47.16,100,,,-0.015974,-0.01735,-0.014182
12761,20110616,6282,SHMO,RUSSELL E T F TRUST,,47.1312,47.38,47.38,10200,0.005411,47,47.07,100,47.1312,,0.005411,-0.000231,-0.000882
12761,20110617,6282,SHMO,RUSSELL E T F TRUST,,47.14,47.14,47.14,200,-0.005065,47.05,47.1,100,47.14,,-0.005065,0.002107,0.001134
12761,20110620,6282,SHMO,RUSSELL E T F TRUST,,47.44,47.49,-47.465,0,0.006894,47.44,47.49,100,,,0.006894,0.005327,0.002448
12761,20110621,6282,SHMO,RUSSELL E T F TRUST,,48.72,48.83,48.83,14800,0.028758,48.86,48.91,100,48.73,,0.028758,0.01578,0.015986
12761,20110622,6282,SHMO,RUSSELL E T F TRUST,,48.6,48.65,-48.625,0,-0.004198,48.6,48.65,100,,,-0.004198,-0.005628,-0.003323
12761,20110623,6282,SHMO,RUSSELL E T F TRUST,,49.02,49.07,-49.045,0,0.008637,49.02,49.07,100,,,0.008637,-0.002604,-0.000903
12761,20110624,6282,SHMO,RUSSELL E T F TRUST,,48.7,48.97,48.76,16900,-0.005811,48.73,48.78,100,48.97,,-0.005811,-0.010604,-0.002482
12761,20110627,6282,SHMO,RUSSELL E T F TRUST,,48.8,48.83,48.8,5800,0.001212,49.25,49.3,100,48.83,,0.00082,0.008064,0.00543
12761,20110628,6282,SHMO,RUSSELL E T F TRUST,,49.79,50.01,50.01,1900,0.024795,50.21,50.27,100,49.79,,0.024795,0.013434,0.010381
12761,20110629,6282,SHMO,RUSSELL E T F TRUST,,50.29,50.7848,50.7848,3600,0.015493,50.55,50.6,100,50.3,,0.015493,0.008625,0.004894
12761,20110630,6282,SHMO,RUSSELL E T F TRUST,,50.99,51.04,-51.015,0,0.004533,50.99,51.04,200,,,0.004533,0.009669,0.008367
12761,20110701,6282,SHMO,RUSSELL E T F TRUST,,51.22,51.22,51.22,100,0.004018,51.88,51.94,200,51.22,,0.004018,0.013321,0.009964
12761,20110705,6282,SHMO,RUSSELL E T F TRUST,,52.31,52.37,-52.34,0,0.021866,52.31,52.37,200,,,0.021866,-0.000055,0.000779
12761,20110706,6282,SHMO,RUSSELL E T F TRUST,,52.5,52.57,-52.535,0,0.003726,52.5,52.57,200,,,0.003726,0.000902,0.002824
12761,20110707,6282,SHMO,RUSSELL E T F TRUST,,53.27,53.33,-53.3,0,0.014562,53.27,53.33,200,,,0.014562,0.010562,0.011633
12761,20110708,6282,SHMO,RUSSELL E T F TRUST,,53.01,53.07,-53.04,0,-0.004878,53.01,53.07,200,,,-0.004878,-0.006331,-0.004814
12761,20110711,6282,SHMO,RUSSELL E T F TRUST,,51.75,51.8,-51.775,0,-0.02385,51.75,51.8,200,,,-0.02385,-0.019355,-0.016329
12761,20110712,6282,SHMO,RUSSELL E T F TRUST,,51.7116,51.7116,51.7116,200,-0.001225,51.35,51.41,200,51.7116,,-0.001225,-0.003815,-0.002258
12761,20110713,6282,SHMO,RUSSELL E T F TRUST,,51.87,51.92,-51.895,0,0.003547,51.87,51.92,200,,,0.003547,0.004893,0.007214
12761,20110714,6282,SHMO,RUSSELL E T F TRUST,,51.74,51.74,51.74,200,-0.002987,51.2,51.25,200,51.74,,-0.002987,-0.008057,-0.009562
12761,20110715,6282,SHMO,RUSSELL E T F TRUST,,51.84,51.9,-51.87,0,0.002513,51.84,51.9,200,,,0.002513,0.006171,0.004208
12761,20110718,6282,SHMO,RUSSELL E T F TRUST,,51.21,51.26,-51.235,0,-0.012242,51.21,51.26,200,,,-0.012242,-0.009499,-0.011087
12761,20110719,6282,SHMO,RUSSELL E T F TRUST,,52.15,52.15,52.15,200,0.017859,52.5,52.56,200,52.15,,0.017859,0.016152,0.013498
12761,20110720,6282,SHMO,RUSSELL E T F TRUST,,52.2204,52.94,52.3399,500,0.003641,52.37,52.43,200,52.94,,0.003641,-0.000043,0.000894
12761,20110721,6282,SHMO,RUSSELL E T F TRUST,,52.56,52.56,52.56,100,0.004205,52.71,52.77,200,52.56,,0.004205,0.012197,0.008868
12761,20110722,6282,SHMO,RUSSELL E T F TRUST,,52.92,52.99,-52.955,0,0.007515,52.92,52.99,200,,,0.007515,0.001382,0.001569
12761,20110725,6282,SHMO,RUSSELL E T F TRUST,,52.6432,52.6432,52.6432,600,-0.005888,52.38,52.44,200,52.6432,,-0.005888,-0.00628,-0.007896
12761,20110726,6282,SHMO,RUSSELL E T F TRUST,,52.0301,52.1501,52.1195,1300,-0.009948,51.89,51.94,200,52.0302,,-0.009948,-0.004541,-0.004074
12761,20110727,6282,SHMO,RUSSELL E T F TRUST,,50.66,50.66,50.66,600,-0.028003,50.17,50.36,200,50.66,,-0.028003,-0.021724,-0.021165
12761,20110728,6282,SHMO,RUSSELL E T F TRUST,,50.27,50.5,-50.385,0,-0.005428,50.27,50.5,200,,,-0.005428,-0.003041,-0.001498
12761,20110729,6282,SHMO,RUSSELL E T F TRUST,,50.38,50.6,-50.49,0,0.002084,50.38,50.6,200,,,0.002084,-0.005649,-0.003083
12761,20110801,6282,SHMO,RUSSELL E T F TRUST,,50.18,50.4,-50.29,0,-0.003961,50.18,50.4,200,,,-0.003961,-0.00364,-0.000943
12761,20110802,6282,SHMO,RUSSELL E T F TRUST,,48.45,48.67,-48.56,0,-0.0344,48.45,48.67,200,,,-0.0344,-0.025654,-0.021105
12761,20110803,6282,SHMO,RUSSELL E T F TRUST,,47.36,47.36,47.36,100,-0.024712,48.54,48.79,200,47.36,,-0.024712,0.004643,0.002141
12761,20110804,6282,SHMO,RUSSELL E T F TRUST,,45.46,45.69,-45.575,0,-0.03769,45.46,45.69,200,,,-0.03769,-0.050395,-0.047471
12761,20110805,6282,SHMO,RUSSELL E T F TRUST,,44.4,46.56,44.4,1100,-0.025782,44.56,44.74,200,46.56,,-0.025782,-0.004807,-0.01258
12761,20110808,6282,SHMO,RUSSELL E T F TRUST,,40.33,40.51,-40.42,0,-0.08964,40.33,40.51,200,,,-0.08964,-0.068767,-0.072433
12761,20110809,6282,SHMO,RUSSELL E T F TRUST,,43.27,43.48,-43.375,0,0.073107,43.27,43.48,200,,,0.073107,0.051179,0.047104
12761,20110810,6282,SHMO,RUSSELL E T F TRUST,,41.43,41.62,-41.525,0,-0.042651,41.43,41.62,200,,,-0.042651,-0.038886,-0.029925
12761,20110811,6282,SHMO,RUSSELL E T F TRUST,,42.06,43.5,43.5,3400,0.047562,43.55,44.12,200,42.83,,0.047562,0.045039,0.037071
12761,20110812,6282,SHMO,RUSSELL E T F TRUST,,44,44.35,44.35,700,0.01954,43.79,44.35,200,44,,0.01954,0.004744,0.004153
12761,20110815,6282,SHMO,RUSSELL E T F TRUST,,45.18,45.76,45.71,2100,0.030665,45.59,45.77,200,45.18,,0.030665,0.02273,0.022971
12761,20110816,6282,SHMO,RUSSELL E T F TRUST,,44.83,44.83,44.83,200,-0.019252,44.82,44.99,200,44.83,,-0.019252,-0.011038,-0.012961
12761,20110817,6282,SHMO,RUSSELL E T F TRUST,,44.45,45.3801,44.49,3500,-0.007584,44.65,44.72,200,45.3801,,-0.007584,0.000641,0.000567
12761,20110818,6282,SHMO,RUSSELL E T F TRUST,,41.57,42.57,41.57,3400,-0.065633,41.75,41.95,200,42.57,,-0.065633,-0.045349,-0.041372
12761,20110819,6282,SHMO,RUSSELL E T F TRUST,,40.84,42.05,40.84,1200,-0.017561,40.76,40.95,200,41.8,,-0.017561,-0.015399,-0.012245
12761,20110822,6282,SHMO,RUSSELL E T F TRUST,,40.6,40.8,-40.7,0,-0.003428,40.6,40.8,200,,,-0.003428,-0.000001,-0.002681
12761,20110823,6282,SHMO,RUSSELL E T F TRUST,,41.51,42.8,42.8,400,0.051597,42.78,42.94,200,41.51,,0.051597,0.033725,0.028999
12761,20110824,6282,SHMO,RUSSELL E T F TRUST,,43.34,43.51,-43.425,0,0.014603,43.34,43.51,200,,,0.014603,0.011433,0.007909
12761,20110825,6282,SHMO,RUSSELL E T F TRUST,,42.47,42.84,42.835,1900,-0.013587,42.27,42.32,200,42.47,,-0.013587,-0.015922,-0.015405
12761,20110826,6282,SHMO,RUSSELL E T F TRUST,,43.33,43.51,-43.42,0,0.013657,43.33,43.51,200,,,0.013657,0.01634,0.015529
12761,20110829,6282,SHMO,RUSSELL E T F TRUST,,44.51,44.54,44.54,1100,0.025795,45.44,45.61,200,44.51,,0.025795,0.029507,0.031448
12761,20110830,6282,SHMO,RUSSELL E T F TRUST,,45.69,45.89,-45.79,0,0.028065,45.69,45.89,200,,,0.028065,0.00357,0.004626
12761,20110831,6282,SHMO,RUSSELL E T F TRUST,,45.51,45.7,-45.605,0,-0.00404,45.51,45.7,200,,,-0.00404,0.004997,0.002966
12761,20110901,6282,SHMO,RUSSELL E T F TRUST,,45.696,45.696,45.696,300,0.001995,44.48,44.65,200,45.696,,0.001995,-0.012218,-0.013873
12761,20110902,6282,SHMO,RUSSELL E T F TRUST,,42.99,43.04,-43.015,0,-0.05867,42.99,43.04,200,,,-0.05867,-0.024662,-0.022485
12761,20110906,6282,SHMO,RUSSELL E T F TRUST,,41.73,41.73,41.73,600,-0.029873,42.84,43,200,41.73,,-0.029873,-0.00817,-0.009007
12761,20110907,6282,SHMO,RUSSELL E T F TRUST,,44.49,44.64,-44.565,0,0.067937,44.49,44.64,200,,,0.067937,0.028946,0.027053
12761,20110908,6282,SHMO,RUSSELL E T F TRUST,,43.61,43.76,-43.685,0,-0.019746,43.61,43.76,200,,,-0.019746,-0.010911,-0.012366
12761,20110909,6282,SHMO,RUSSELL E T F TRUST,,42.0701,42.77,42.0701,3200,-0.036967,42.24,42.29,200,42.77,,-0.036967,-0.02659,-0.021064
12761,20110912,6282,SHMO,RUSSELL E T F TRUST,,41.6,41.6,41.6,200,-0.011174,42.46,42.52,200,41.6,,-0.011174,0.004088,-0.000512
12761,20110913,6282,SHMO,RUSSELL E T F TRUST,,43.24,43.28,-43.26,0,0.039904,43.24,43.28,200,,,0.039904,0.010437,0.011502
12761,20110914,6282,SHMO,RUSSELL E T F TRUST,,44,44,44,400,0.017106,43.97,44.01,200,44,,0.017106,0.012749,0.011627
12761,20110915,6282,SHMO,RUSSELL E T F TRUST,,44.5,44.55,44.55,1200,0.0125,44.63,44.68,200,44.5,,0.0125,0.015329,0.008742
12761,20110916,6282,SHMO,RUSSELL E T F TRUST,,44.71,44.78,-44.745,0,0.004377,44.71,44.78,200,,,0.004377,0.003486,0.001369
12761,20110919,6282,SHMO,RUSSELL E T F TRUST,,44.1,44.14,-44.12,0,-0.013968,44.1,44.14,200,,,-0.013968,-0.010944,-0.014332
12761,20110920,6282,SHMO,RUSSELL E T F TRUST,,43.38,43.43,-43.405,0,-0.016206,43.38,43.43,200,,,-0.016206,-0.004135,-0.009129
12761,20110921,6282,SHMO,RUSSELL E T F TRUST,,42.18,42.76,42.18,1100,-0.028223,41.68,41.73,200,42.76,,-0.028223,-0.029484,-0.024804
12761,20110922,6282,SHMO,RUSSELL E T F TRUST,,40.73,40.73,40.73,100,-0.034376,40.12,40.16,200,40.73,,-0.034376,-0.034404,-0.03289
12761,20110923,6282,SHMO,RUSSELL E T F TRUST,,40.46,40.54,-40.5,0,-0.005647,40.46,40.54,200,,,-0.005647,0.005628,0.007186
12761,20110926,6282,SHMO,RUSSELL E T F TRUST,,41.14,41.36,-41.25,0,0.019571,41.14,41.36,200,,,0.018519,0.021538,0.009785
12761,20110927,6282,SHMO,RUSSELL E T F TRUST,,42.28,42.33,-42.305,0,0.025576,42.28,42.33,200,,,0.025576,0.012834,0.015723
12761,20110928,6282,SHMO,RUSSELL E T F TRUST,,39.97,41.02,-40.495,0,-0.042785,39.97,41.02,200,,,-0.042785,-0.023992,-0.025641
12761,20110929,6282,SHMO,RUSSELL E T F TRUST,,41.042,41.042,41.042,500,0.013508,40.88,40.94,200,41.042,,0.013508,0.008163,0.006593
12761,20110930,6282,SHMO,RUSSELL E T F TRUST,,40.19,40.38,40.19,1600,-0.020759,39.65,39.72,200,40.37,,-0.020759,-0.024662,-0.01885
12761,20111003,6282,SHMO,RUSSELL E T F TRUST,,37.92,37.92,37.92,1100,-0.056482,37.32,37.38,200,37.92,,-0.056482,-0.032029,-0.041389
12761,20111004,6282,SHMO,RUSSELL E T F TRUST,,37.32,39.57,39.57,6600,0.043513,39.61,39.68,200,37.33,,0.043513,0.023523,0.027271
12761,20111005,6282,SHMO,RUSSELL E T F TRUST,,40.28,40.34,-40.31,0,0.018701,40.28,40.34,200,,,0.018701,0.019306,0.017052
12761,20111006,6282,SHMO,RUSSELL E T F TRUST,,41.12,41.14,41.14,3000,0.02059,41.29,41.34,200,41.12,,0.02059,0.02048,0.020302
12761,20111007,6282,SHMO,RUSSELL E T F TRUST,,40.19,40.19,40.19,100,-0.023092,40.32,40.47,200,40.19,,-0.023092,-0.010945,-0.013558
12761,20111010,6282,SHMO,RUSSELL E T F TRUST,,42.35,42.39,-42.37,0,0.054242,42.35,42.39,200,,,0.054242,0.034255,0.029485
12761,20111011,6282,SHMO,RUSSELL E T F TRUST,,42.48,42.54,-42.51,0,0.003304,42.48,42.54,200,,,0.003304,0.001038,0.005045
12761,20111012,6282,SHMO,RUSSELL E T F TRUST,,42.97,43.21,-43.09,0,0.013644,42.97,43.21,200,,,0.013644,0.011647,0.015032
12761,20111013,6282,SHMO,RUSSELL E T F TRUST,,42.7,42.7,42.7,1700,-0.009051,42.94,43.2,200,42.7,,-0.009051,-0.003016,-0.000785
12761,20111014,6282,SHMO,RUSSELL E T F TRUST,,43.34,43.39,43.39,400,0.016159,43.94,44.16,200,43.34,,0.016159,0.017724,0.014636
12761,20111017,6282,SHMO,RUSSELL E T F TRUST,,43.49,43.49,43.49,2000,0.002305,42.6,42.8,200,43.49,,0.002305,-0.020866,-0.02031
12761,20111018,6282,SHMO,RUSSELL E T F TRUST,,43.58,43.64,-43.61,0,0.002759,43.58,43.64,200,,,0.002759,0.020777,0.018455
12761,20111019,6282,SHMO,RUSSELL E T F TRUST,,43.02,43.82,43.04,43000,-0.01307,42.63,42.71,200,43.74,,-0.01307,-0.014271,-0.012823
12761,20111020,6282,SHMO,RUSSELL E T F TRUST,,42.23,42.51,42.48,93100,-0.013011,42.64,42.78,200,42.23,,-0.013011,0.003855,0.000346
12761,20111021,6282,SHMO,RUSSELL E T F TRUST,,43.3899,43.3899,43.3899,100,0.02142,43.54,43.76,200,43.3899,,0.02142,0.019233,0.016308
12761,20111024,6282,SHMO,RUSSELL E T F TRUST,,45.19,45.28,-45.235,0,0.042524,45.19,45.28,200,,,0.042524,0.016704,0.021862
12761,20111025,6282,SHMO,RUSSELL E T F TRUST,,43.87,44.41,43.87,25200,-0.030176,43.58,43.86,200,44.41,,-0.030176,-0.019819,-0.017923
12761,20111026,6282,SHMO,RUSSELL E T F TRUST,,43.27,43.85,43.27,3000,-0.013677,44.55,44.61,200,43.85,,-0.013677,0.011488,0.013112
12761,20111027,6282,SHMO,RUSSELL E T F TRUST,,45.78,47.04,47.04,800,0.087127,46.87,46.98,200,45.9,,0.087127,0.036079,0.036164
12761,20111028,6282,SHMO,RUSSELL E T F TRUST,,46.62,46.9,-46.76,0,-0.005952,46.62,46.9,200,,,-0.005952,0.00019,0.00033
12761,20111031,6282,SHMO,RUSSELL E T F TRUST,,45.83,46.02,46.01,3600,-0.016039,45.61,45.71,200,45.83,,-0.016039,-0.02465,-0.019074
12761,20111101,6282,SHMO,RUSSELL E T F TRUST,,43.94,44.6,44.13,7200,-0.040861,44.06,44.11,200,44.6,,-0.040861,-0.028634,-0.025608
12761,20111102,6282,SHMO,RUSSELL E T F TRUST,,45.2,45.31,-45.255,0,0.025493,45.2,45.31,200,,,0.025493,0.016945,0.017805
12761,20111103,6282,SHMO,RUSSELL E T F TRUST,,46.19,46.22,46.19,200,0.020661,46.25,46.39,200,46.22,,0.020661,0.019006,0.01579
12761,20111104,6282,SHMO,RUSSELL E T F TRUST,,46.04,46.22,-46.13,0,-0.001299,46.04,46.22,200,,,-0.001299,-0.005583,-0.00431
12761,20111107,6282,SHMO,RUSSELL E T F TRUST,,45.42,45.42,45.42,100,-0.015391,45.9,45.95,200,45.42,,-0.015391,0.004856,0.000102
12761,20111108,6282,SHMO,RUSSELL E T F TRUST,,46.63,46.72,-46.675,0,0.027631,46.63,46.72,200,,,0.027631,0.01077,0.010293
12761,20111109,6282,SHMO,RUSSELL E T F TRUST,,44.98,45.3612,44.98,1200,-0.036315,44.6,44.66,200,45.3612,,-0.036315,-0.037935,-0.033721
12761,20111110,6282,SHMO,RUSSELL E T F TRUST,,44.76,44.82,-44.79,0,-0.004224,44.76,44.82,200,,,-0.004224,0.007259,0.004295
12761,20111111,6282,SHMO,RUSSELL E T F TRUST,,45.97,46.06,-46.015,0,0.02735,45.97,46.06,200,,,0.02735,0.019767,0.016413
12761,20111114,6282,SHMO,RUSSELL E T F TRUST,,45.51,45.72,-45.615,0,-0.008693,45.51,45.72,200,,,-0.008693,-0.009495,-0.011298
12761,20111115,6282,SHMO,RUSSELL E T F TRUST,,46.31,46.31,46.31,700,0.015236,46.16,46.24,200,46.31,,0.015236,0.004354,0.005009
12761,20111116,6282,SHMO,RUSSELL E T F TRUST,,45.8,45.8,45.8,200,-0.011013,45.45,45.51,200,45.8,,-0.011013,-0.015294,-0.010514
12761,20111117,6282,SHMO,RUSSELL E T F TRUST,,45.67,45.67,45.67,100,-0.002838,44.69,44.74,200,45.67,,-0.002838,-0.017226,-0.013572
12761,20111118,6282,SHMO,RUSSELL E T F TRUST,,44.46,44.78,44.78,40300,-0.019488,44.71,44.79,200,44.53,,-0.019488,-0.00036,0.00091
12761,20111121,6282,SHMO,RUSSELL E T F TRUST,,43.77,43.86,-43.815,0,-0.02155,43.77,43.86,200,,,-0.02155,-0.018747,-0.019219
12761,20111122,6282,SHMO,RUSSELL E T F TRUST,,43.6,43.66,-43.63,0,-0.004222,43.6,43.66,200,,,-0.004222,-0.004178,-0.004975
12761,20111123,6282,SHMO,RUSSELL E T F TRUST,,42.26,42.34,-42.3,0,-0.030484,42.26,42.34,200,,,-0.030484,-0.023265,-0.022619
12761,20111125,6282,SHMO,RUSSELL E T F TRUST,,41.78,41.87,-41.825,0,-0.011229,41.78,41.87,200,,,-0.011229,-0.003742,-0.004938
12761,20111128,6282,SHMO,RUSSELL E T F TRUST,,43.6,43.84,-43.72,0,0.045308,43.6,43.84,200,,,0.045308,0.030371,0.027825
12761,20111129,6282,SHMO,RUSSELL E T F TRUST,,43.58,43.74,-43.66,0,-0.001372,43.58,43.74,200,,,-0.001372,0.001993,-0.002277
12761,20111130,6282,SHMO,RUSSELL E T F TRUST,,45.81,46.12,-45.965,0,0.052794,45.81,46.12,200,,,0.052794,0.043756,0.038087
12761,20111201,6282,SHMO,RUSSELL E T F TRUST,,45.62,45.86,-45.74,0,-0.004895,45.62,45.86,200,,,-0.004895,-0.002335,-0.003719
12761,20111202,6282,SHMO,RUSSELL E T F TRUST,,45.85,46.08,-45.965,0,0.004919,45.85,46.08,200,,,0.004919,0.000065,0.004847
12761,20111205,6282,SHMO,RUSSELL E T F TRUST,,46.35,46.35,46.35,400,0.008376,46.4,46.69,200,46.35,,0.008376,0.010254,0.009643
12761,20111206,6282,SHMO,RUSSELL E T F TRUST,,46.37,46.62,-46.495,0,0.003128,46.37,46.62,200,,,0.003128,0.000367,-0.000547
12761,20111207,6282,SHMO,RUSSELL E T F TRUST,,46.22,46.43,-46.325,0,-0.003656,46.22,46.43,200,,,-0.003656,0.001647,0.00065
12761,20111208,6282,SHMO,RUSSELL E T F TRUST,,44.89,45.19,-45.04,0,-0.027739,44.89,45.19,200,,,-0.027739,-0.022946,-0.02281
12761,20111209,6282,SHMO,RUSSELL E T F TRUST,,46.34,46.59,-46.465,0,0.031639,46.34,46.59,200,,,0.031639,0.01772,0.018867
12761,20111212,6282,SHMO,RUSSELL E T F TRUST,,45.13,45.18,45.16,17400,-0.028086,45.5,45.77,200,45.16,,-0.028086,-0.015582,-0.013633
12761,20111213,6282,SHMO,RUSSELL E T F TRUST,,44.84,44.84,44.84,1500,-0.007086,44.2,44.74,200,44.84,,-0.007086,-0.011498,-0.012977
12761,20111214,6282,SHMO,RUSSELL E T F TRUST,,43.722,44.26,43.722,1200,-0.024933,43.78,44,200,44.26,,-0.024933,-0.012833,-0.009275
12761,20111215,6282,SHMO,RUSSELL E T F TRUST,,44.11,44.11,44.11,500,0.008874,44.21,44.45,200,44.11,,0.008874,0.003637,0.002408
12761,20111216,6282,SHMO,RUSSELL E T F TRUST,,44.36,45.21,-44.785,0,0.015303,44.36,45.21,200,,,0.015303,0.004859,0.003314
12761,20111219,6282,SHMO,RUSSELL E T F TRUST,,43.99,44.26,-44.125,0,-0.014737,43.99,44.26,200,,,-0.014737,-0.012671,-0.014777
12761,20111220,6282,SHMO,RUSSELL E T F TRUST,,45.37,45.96,-45.665,0,0.034901,45.37,45.96,200,,,0.034901,0.029812,0.026714
12761,20111221,6282,SHMO,RUSSELL E T F TRUST,,45.63,46.2,-45.915,0,0.005475,45.63,46.2,200,,,0.005475,0.001868,0.001089
12761,20111222,6282,SHMO,RUSSELL E T F TRUST,,46.05,46.08,46.06,10100,0.003158,45.75,46.31,200,46.08,,0.003158,0.008685,0.008057
12761,20111223,6282,SHMO,RUSSELL E T F TRUST,,46.23,46.24,46.23,1800,0.005524,46.39,46.45,200,46.24,,0.003691,0.007787,0.003873
12761,20111227,6282,SHMO,RUSSELL E T F TRUST,,46.61,46.68,-46.645,0,0.008977,46.61,46.68,200,,,0.008977,-0.000047,-0.001196
12761,20111228,6282,SHMO,RUSSELL E T F TRUST,,45.88,45.91,45.88,4800,-0.0164,45.7,45.8,200,45.89,,-0.0164,-0.013924,-0.014109
12761,20111229,6282,SHMO,RUSSELL E T F TRUST,,46.036,46.17,46.16,12600,0.006103,45.93,46.3,200,46.17,,0.006103,0.010708,0.008676
12761,20111230,6282,SHMO,RUSSELL E T F TRUST,,46.11,46.12,46.11,10000,-0.001083,45.71,46.08,200,46.12,,-0.001083,-0.002615,0.002135
12761,20120103,6282,SHMO,RUSSELL E T F TRUST,,46.46,46.55,-46.505,0,0.008566,46.46,46.55,200,,,0.008566,0.016088,0.016986
12761,20120104,6282,SHMO,RUSSELL E T F TRUST,,46.2,46.22,46.2,2600,-0.006558,46.27,46.35,200,46.22,,-0.006558,-0.000589,-0.001452
12761,20120105,6282,SHMO,RUSSELL E T F TRUST,,45.8,46.73,46.73,1000,0.011472,46.6,46.62,200,45.8,,0.011472,0.002924,0.004036
12761,20120106,6282,SHMO,RUSSELL E T F TRUST,,46.46,46.51,-46.485,0,-0.005243,46.46,46.51,200,,,-0.005243,-0.003156,-0.000628
12761,20120109,6282,SHMO,RUSSELL E T F TRUST,,46.78,46.84,-46.81,0,0.006992,46.78,46.84,200,,,0.006992,0.002795,0.004414
12761,20120110,6282,SHMO,RUSSELL E T F TRUST,,47.3,47.3,47.3,700,0.010468,47.34,47.35,200,47.3,,0.010468,0.010411,0.011106
12761,20120111,6282,SHMO,RUSSELL E T F TRUST,,47.36,47.4,-47.38,0,0.001691,47.36,47.4,200,,,0.001691,0.00085,0.004343
12761,20120112,6282,SHMO,RUSSELL E T F TRUST,,47.46,47.48,-47.47,0,0.0019,47.46,47.48,200,,,0.0019,0.003016,0.005018
12761,20120113,6282,SHMO,RUSSELL E T F TRUST,,47.34,47.38,-47.36,0,-0.002317,47.34,47.38,200,,,-0.002317,-0.005316,-0.005025
12761,20120117,6282,SHMO,RUSSELL E T F TRUST,,47.47,47.53,-47.5,0,0.002956,47.47,47.53,200,,,0.002956,0.003896,0.003736
12761,20120118,6282,SHMO,RUSSELL E T F TRUST,,48.2,48.29,-48.245,0,0.015684,48.2,48.29,200,,,0.015684,0.012182,0.013639
12761,20120119,6282,SHMO,RUSSELL E T F TRUST,,48.39,48.48,-48.435,0,0.003938,48.39,48.48,200,,,0.003938,0.005555,0.005428
12761,20120120,6282,SHMO,RUSSELL E T F TRUST,,48.31,48.41,-48.36,0,-0.001548,48.31,48.41,200,,,-0.001548,0.000859,0.003648
12761,20120123,6282,SHMO,RUSSELL E T F TRUST,,48.23,48.31,-48.27,0,-0.001861,48.23,48.31,200,,,-0.001861,0.001594,0.001815
12761,20120124,6282,SHMO,RUSSELL E T F TRUST,,48.52,48.59,-48.555,0,0.005904,48.52,48.59,200,,,0.005904,-0.000865,0.003335
12761,20120125,6282,SHMO,RUSSELL E T F TRUST,,48.86,48.93,-48.895,0,0.007002,48.86,48.93,200,,,0.007002,0.009939,0.009521
12761,20120126,6282,SHMO,RUSSELL E T F TRUST,,48.69,48.74,-48.715,0,-0.003681,48.69,48.74,200,,,-0.003681,-0.004942,-0.001108
12761,20120127,6282,SHMO,RUSSELL E T F TRUST,,48.91,48.91,48.91,500,0.004003,48.98,49.01,200,48.91,,0.004003,0.000576,0.006083
12761,20120130,6282,SHMO,RUSSELL E T F TRUST,,48.51,48.61,48.61,300,-0.006134,48.62,48.64,200,48.51,,-0.006134,-0.003788,-0.004873
12761,20120131,6282,SHMO,RUSSELL E T F TRUST,,48.71,48.74,48.71,1800,0.002057,48.62,48.65,100,48.74,,0.002057,-0.000083,0.00176
12761,20120201,6282,SHMO,RUSSELL E T F TRUST,,48.9272,49.58,49.58,1400,0.017861,49.55,49.58,100,48.9272,,0.017861,0.010979,0.013626
12761,20120202,6282,SHMO,RUSSELL E T F TRUST,,49.67,49.7235,49.67,1000,0.001815,49.72,49.73,100,49.7168,,0.001815,0.001769,0.004356
12761,20120203,6282,SHMO,RUSSELL E T F TRUST,,50.35,50.56,50.51,500,0.016912,50.57,50.64,100,50.56,,0.016912,0.014518,0.014863
12761,20120206,6282,SHMO,RUSSELL E T F TRUST,,50.48,50.5,50.48,200,-0.000594,50.56,50.59,100,50.5,,-0.000594,-0.001007,-0.000468
12761,20120207,6282,SHMO,RUSSELL E T F TRUST,,50.59,50.63,-50.61,0,0.002575,50.59,50.63,100,,,0.002575,0.001371,0.001456
12761,20120208,6282,SHMO,RUSSELL E T F TRUST,,50.44,50.56,50.54,700,-0.001383,50.6,50.66,100,50.44,,-0.001383,0.001945,0.003403
12761,20120209,6282,SHMO,RUSSELL E T F TRUST,,50.48,50.48,50.48,200,-0.001187,50.47,50.5,100,50.48,,-0.001187,0.000975,0.000305
12761,20120210,6282,SHMO,RUSSELL E T F TRUST,,49.98,50.02,-50,0,-0.009509,49.98,50.02,100,,,-0.009509,-0.008403,-0.009804
12761,20120213,6282,SHMO,RUSSELL E T F TRUST,,50.67,50.7,-50.685,0,0.0137,50.67,50.7,100,,,0.0137,0.007227,0.00919
12761,20120214,6282,SHMO,RUSSELL E T F TRUST,,50.55,50.6,-50.575,0,-0.00217,50.55,50.6,100,,,-0.00217,-0.001719,-0.004104
12761,20120215,6282,SHMO,RUSSELL E T F TRUST,,50.17,50.21,-50.19,0,-0.007612,50.17,50.21,100,,,-0.007612,-0.004492,-0.003297
12761,20120216,6282,SHMO,RUSSELL E T F TRUST,,51.06,51.1,-51.08,0,0.017733,51.06,51.1,100,,,0.017733,0.012339,0.011434
12761,20120217,6282,SHMO,RUSSELL E T F TRUST,,50.94,50.96,-50.95,0,-0.002545,50.94,50.96,100,,,-0.002545,0.001314,0.002643
12761,20120221,6282,SHMO,RUSSELL E T F TRUST,,50.58,50.63,-50.605,0,-0.006771,50.58,50.63,100,,,-0.006771,0.000131,-0.00227
12761,20120222,6282,SHMO,RUSSELL E T F TRUST,,50.38,50.42,-50.4,0,-0.004051,50.38,50.42,100,,,-0.004051,-0.003181,-0.004243
12761,20120223,6282,SHMO,RUSSELL E T F TRUST,,51.17,51.24,-51.205,0,0.015972,51.17,51.24,100,,,0.015972,0.005573,0.008018
12761,20120224,6282,SHMO,RUSSELL E T F TRUST,,51.22,51.25,-51.235,0,0.000586,51.22,51.25,100,,,0.000586,0.001408,0.000398
12761,20120227,6282,SHMO,RUSSELL E T F TRUST,,51.11,51.18,-51.145,0,-0.001757,51.11,51.18,100,,,-0.001757,0.000735,-0.000826
12761,20120228,6282,SHMO,RUSSELL E T F TRUST,,51.19,51.38,51.38,600,0.004595,51.05,51.08,100,51.19,,0.004595,0.002771,0.000473
12761,20120229,6282,SHMO,RUSSELL E T F TRUST,,50.34,50.38,-50.36,0,-0.019852,50.34,50.38,100,,,-0.019852,-0.005792,-0.009222
12761,20120301,6282,SHMO,RUSSELL E T F TRUST,,50.7796,50.78,50.7796,800,0.008332,50.64,50.67,100,50.78,,0.008332,0.006707,0.004577
12761,20120302,6282,SHMO,RUSSELL E T F TRUST,,49.82,49.85,-49.835,0,-0.018602,49.82,49.85,100,,,-0.018602,-0.004969,-0.008092
12761,20120305,6282,SHMO,RUSSELL E T F TRUST,,49.76,49.81,49.76,4000,-0.001505,49.97,50,100,49.81,,-0.001505,-0.004618,-0.003572
12761,20120306,6282,SHMO,RUSSELL E T F TRUST,,48.9,48.94,-48.92,0,-0.016881,48.9,48.94,100,,,-0.016881,-0.017408,-0.017324
12761,20120307,6282,SHMO,RUSSELL E T F TRUST,,49.4,49.45,-49.425,0,0.010323,49.4,49.45,100,,,0.010323,0.007703,0.009368
12761,20120308,6282,SHMO,RUSSELL E T F TRUST,,49.88,49.88,49.88,200,0.009206,49.96,49.98,100,49.88,,0.009206,0.010707,0.01057
12761,20120309,6282,SHMO,RUSSELL E T F TRUST,,50.13,50.13,50.13,200,0.005012,50.54,50.59,100,50.13,,0.005012,0.004494,0.007759
12761,20120312,6282,SHMO,RUSSELL E T F TRUST,,50.45,50.52,-50.485,0,0.007082,50.45,50.52,100,,,0.007082,-0.001423,-0.001807
12761,20120313,6282,SHMO,RUSSELL E T F TRUST,,50.7645,50.7645,50.7645,100,0.005536,51.2,51.29,100,50.7645,,0.005536,0.017258,0.014083
12761,20120314,6282,SHMO,RUSSELL E T F TRUST,,50.68,51.346,50.68,1100,-0.001665,50.8,50.86,100,51.346,,-0.001665,-0.003961,-0.00684
12761,20120315,6282,SHMO,RUSSELL E T F TRUST,,50.85,51.106,51.106,200,0.008406,51.11,51.17,100,50.85,,0.008406,0.006468,0.004775
12761,20120316,6282,SHMO,RUSSELL E T F TRUST,,50.99,51.01,-51,0,-0.002074,50.99,51.01,100,,,-0.002074,0.001252,0.001174
12761,20120319,6282,SHMO,RUSSELL E T F TRUST,,51.42,51.44,-51.43,0,0.008431,51.42,51.44,100,,,0.008431,0.003981,0.004725
12761,20120320,6282,SHMO,RUSSELL E T F TRUST,,50.96,50.98,-50.97,0,-0.008944,50.96,50.98,100,,,-0.008944,-0.004522,-0.005376
12761,20120321,6282,SHMO,RUSSELL E T F TRUST,,51.24,51.24,51.24,800,0.005297,51.12,51.14,100,51.24,,0.005297,-0.001166,0.000988
12761,20120322,6282,SHMO,RUSSELL E T F TRUST,,50.71,50.74,-50.725,0,-0.010051,50.71,50.74,100,,,-0.010051,-0.008155,-0.008314
12761,20120323,6282,SHMO,RUSSELL E T F TRUST,,50.89,50.89,50.89,100,0.003253,51.26,51.27,100,50.89,,0.003253,0.004456,0.007128
12761,20120326,6282,SHMO,RUSSELL E T F TRUST,,52.07,52.09,-52.08,0,0.026311,52.07,52.09,100,,,0.023384,0.013895,0.01128
12761,20120327,6282,SHMO,RUSSELL E T F TRUST,,51.64,51.67,-51.655,0,-0.008161,51.64,51.67,100,,,-0.008161,-0.003741,-0.002922
12761,20120328,6282,SHMO,RUSSELL E T F TRUST,,51.74,51.741,51.741,1100,0.001665,51.26,51.28,100,51.74,,0.001665,-0.00579,-0.005661
12761,20120329,6282,SHMO,RUSSELL E T F TRUST,,51.24,51.26,-51.25,0,-0.00949,51.24,51.26,100,,,-0.00949,-0.001927,-0.001684
12761,20120330,6282,SHMO,RUSSELL E T F TRUST,,51.14,51.17,-51.155,0,-0.001854,51.14,51.17,100,,,-0.001854,0.00329,0.001961
12761,20120402,6282,SHMO,RUSSELL E T F TRUST,,51.4669,51.67,51.67,1000,0.010067,51.81,51.82,100,51.4669,,0.010067,0.007941,0.007247
12761,20120403,6282,SHMO,RUSSELL E T F TRUST,,51.66,51.69,-51.675,0,0.000097,51.66,51.69,100,,,0.000097,-0.004612,-0.006652
12761,20120404,6282,SHMO,RUSSELL E T F TRUST,,50.88,50.9,-50.89,0,-0.015191,50.88,50.9,100,,,-0.015191,-0.011834,-0.011988
12761,20120405,6282,SHMO,RUSSELL E T F TRUST,,50.88,50.89,-50.885,0,-0.000098,50.88,50.89,100,,,-0.000098,-0.001053,-0.000752
12761,20120409,6282,SHMO,RUSSELL E T F TRUST,,50.1,50.12,-50.11,0,-0.01523,50.1,50.12,100,,,-0.01523,-0.011387,-0.011952
12761,20120410,6282,SHMO,RUSSELL E T F TRUST,,50,50.01,50,2000,-0.002195,48.73,48.76,100,50.01,,-0.002195,-0.018025,-0.016297
12761,20120411,6282,SHMO,RUSSELL E T F TRUST,,49.3,49.3,49.3,200,-0.014,49.4,49.42,100,49.3,,-0.014,0.008376,0.011324
12761,20120412,6282,SHMO,RUSSELL E T F TRUST,,50.05,50.06,-50.055,0,0.015314,50.05,50.06,100,,,0.015314,0.015043,0.012911
12761,20120413,6282,SHMO,RUSSELL E T F TRUST,,49.82,49.82,49.82,300,-0.004695,49.6,49.62,100,49.82,,-0.004695,-0.012399,-0.010688
12761,20120416,6282,SHMO,RUSSELL E T F TRUST,,49.5,49.51,-49.505,0,-0.006323,49.5,49.51,100,,,-0.006323,-0.000595,-0.000054
12761,20120417,6282,SHMO,RUSSELL E T F TRUST,,50.1,50.16,-50.13,0,0.012625,50.1,50.16,100,,,0.012625,0.014944,0.010745
12761,20120418,6282,SHMO,RUSSELL E T F TRUST,,49.96,49.98,-49.97,0,-0.003192,49.96,49.98,100,,,-0.003192,-0.00404,-0.006206
12761,20120419,6282,SHMO,RUSSELL E T F TRUST,,49.5999,49.5999,49.5999,300,-0.007406,49.67,49.69,100,49.5999,,-0.007406,-0.004708,-0.002428
12761,20120420,6282,SHMO,RUSSELL E T F TRUST,,50.08,50.08,50.08,4000,0.00968,50.03,50.05,100,50.08,,0.00968,0.001613,0.003775
12761,20120423,6282,SHMO,RUSSELL E T F TRUST,,49.3,49.32,49.3,3000,-0.015575,49.45,49.47,100,49.32,,-0.015575,-0.009589,-0.009782
12761,20120424,6282,SHMO,RUSSELL E T F TRUST,,49.49,49.52,-49.505,0,0.004158,49.49,49.52,100,,,0.004158,0.003243,0.005758
12761,20120425,6282,SHMO,RUSSELL E T F TRUST,,50.37,50.37,50.37,600,0.017473,50.42,50.44,100,50.37,,0.017473,0.013724,0.010255
12761,20120426,6282,SHMO,RUSSELL E T F TRUST,,50.86,50.87,-50.865,0,0.009827,50.86,50.87,100,,,0.009827,0.006688,0.005672
12761,20120427,6282,SHMO,RUSSELL E T F TRUST,,51.43,51.44,-51.435,0,0.011206,51.43,51.44,100,,,0.011206,0.003835,0.005222
12761,20120430,6282,SHMO,RUSSELL E T F TRUST,,50.92,50.94,-50.93,0,-0.009818,50.92,50.94,100,,,-0.009818,-0.004337,-0.004102
12761,20120501,6282,SHMO,RUSSELL E T F TRUST,,51.5,51.5,51.5,200,0.011192,50.69,50.88,100,51.5,,0.011192,0.004837,0.001615
12761,20120502,6282,SHMO,RUSSELL E T F TRUST,,50.6244,50.93,50.93,600,-0.011068,50.96,50.97,100,50.6244,,-0.011068,-0.002169,-0.000587
12761,20120503,6282,SHMO,RUSSELL E T F TRUST,,50.63,50.66,50.63,4000,-0.00589,50.19,50.21,100,50.66,,-0.00589,-0.010087,-0.010968
12761,20120504,6282,SHMO,RUSSELL E T F TRUST,,49.26,49.29,-49.275,0,-0.026763,49.26,49.29,100,,,-0.026763,-0.015729,-0.012771
12761,20120507,6282,SHMO,RUSSELL E T F TRUST,,48.99,49.02,48.99,5000,-0.005784,49.35,49.37,100,49.02,,-0.005784,0.000516,0.001052
12761,20120508,6282,SHMO,RUSSELL E T F TRUST,,49.14,49.17,-49.155,0,0.003368,49.14,49.17,100,,,0.003368,-0.00546,-0.004518
12761,20120509,6282,SHMO,RUSSELL E T F TRUST,,48.87,48.89,-48.88,0,-0.005595,48.87,48.89,100,,,-0.005595,-0.0063,-0.004224
12761,20120510,6282,SHMO,RUSSELL E T F TRUST,,49.16,49.17,49.17,1100,0.005933,49.16,49.17,100,49.16,,0.005933,0.002666,0.002531
12761,20120511,6282,SHMO,RUSSELL E T F TRUST,,49.16,49.18,-49.17,0,0,49.16,49.18,100,,,0,-0.002942,-0.003938
12761,20120514,6282,SHMO,RUSSELL E T F TRUST,,48.46,48.47,-48.465,0,-0.014338,48.46,48.47,100,,,-0.014338,-0.012243,-0.012493
12761,20120515,6282,SHMO,RUSSELL E T F TRUST,,48.416,48.67,48.416,200,-0.001011,48.46,48.48,100,48.67,,-0.001011,-0.006167,-0.006623
12761,20120516,6282,SHMO,RUSSELL E T F TRUST,,48.28,48.29,-48.285,0,-0.002706,48.28,48.29,100,,,-0.002706,-0.005159,-0.007936
12761,20120517,6282,SHMO,RUSSELL E T F TRUST,,47,47.02,-47.01,0,-0.026406,47,47.02,100,,,-0.026406,-0.015942,-0.016
12761,20120518,6282,SHMO,RUSSELL E T F TRUST,,46.85,47.03,47.03,900,0.000425,46.59,46.61,100,46.85,,0.000425,-0.008152,-0.009713
12761,20120521,6282,SHMO,RUSSELL E T F TRUST,,47.71,47.73,-47.72,0,0.014672,47.71,47.73,100,,,0.014672,0.017725,0.016239
12761,20120522,6282,SHMO,RUSSELL E T F TRUST,,47.49,47.57,-47.53,0,-0.003982,47.49,47.57,100,,,-0.003982,-0.000537,-0.004098
12761,20120523,6282,SHMO,RUSSELL E T F TRUST,,47.16,47.16,47.16,1000,-0.007785,47.65,47.67,100,47.16,,-0.007785,0.002735,0.002348
12761,20120524,6282,SHMO,RUSSELL E T F TRUST,,47.66,47.72,47.66,2000,0.010602,47.76,47.77,100,47.72,,0.010602,0.00089,0.00165
12761,20120525,6282,SHMO,RUSSELL E T F TRUST,,47.79,47.81,-47.8,0,0.002937,47.79,47.81,100,,,0.002937,-0.001556,0.001189
12761,20120529,6282,SHMO,RUSSELL E T F TRUST,,48.21,48.21,48.21,1000,0.008577,48.48,48.5,100,48.21,,0.008577,0.011087,0.00989
12761,20120530,6282,SHMO,RUSSELL E T F TRUST,,47.65,47.66,-47.655,0,-0.011512,47.65,47.66,100,,,-0.011512,-0.015727,-0.01451
12761,20120531,6282,SHMO,RUSSELL E T F TRUST,,46.9799,47.74,47.64,800,-0.000315,47.58,47.6,100,47.74,,-0.000315,-0.00205,-0.000549
12761,20120601,6282,SHMO,RUSSELL E T F TRUST,,46.1,46.78,46.1,1600,-0.032326,46.08,46.1,100,46.43,,-0.032326,-0.024626,-0.02054
12761,20120604,6282,SHMO,RUSSELL E T F TRUST,,45.8069,45.8069,45.8069,100,-0.006358,46.05,46.06,100,45.8069,,-0.006358,-0.001032,-0.002296
12761,20120605,6282,SHMO,RUSSELL E T F TRUST,,46.42,46.64,46.64,200,0.018187,46.69,46.71,100,46.42,,0.018187,0.007817,0.008022
12761,20120606,6282,SHMO,RUSSELL E T F TRUST,,47.89,47.91,-47.9,0,0.027015,47.89,47.91,100,,,0.027015,0.022479,0.019578
12761,20120607,6282,SHMO,RUSSELL E T F TRUST,,47.64,47.65,-47.645,0,-0.005324,47.64,47.65,100,,,-0.005324,-0.00144,-0.002134
12761,20120608,6282,SHMO,RUSSELL E T F TRUST,,48.29,48.3,-48.295,0,0.013643,48.29,48.3,100,,,0.013643,0.007106,0.00539
12761,20120611,6282,SHMO,RUSSELL E T F TRUST,,47.23,47.36,-47.295,0,-0.020706,47.23,47.36,100,,,-0.020706,-0.01399,-0.013517
12761,20120612,6282,SHMO,RUSSELL E T F TRUST,,47.98,48.01,-47.995,0,0.014801,47.98,48.01,100,,,0.014801,0.011638,0.008853
12761,20120613,6282,SHMO,RUSSELL E T F TRUST,,47.4,47.41,-47.405,0,-0.012293,47.4,47.41,100,,,-0.012293,-0.007339,-0.007641
12761,20120614,6282,SHMO,RUSSELL E T F TRUST,,47.94,47.96,-47.95,0,0.011497,47.94,47.96,100,,,0.011497,0.009466,0.00785
12761,20120615,6282,SHMO,RUSSELL E T F TRUST,,48.5,48.53,-48.515,0,0.011783,48.5,48.53,100,,,0.011783,0.01003,0.008481
12761,20120618,6282,SHMO,RUSSELL E T F TRUST,,48.64,48.66,-48.65,0,0.002783,48.64,48.66,100,,,0.002783,0.002173,0.001733
12761,20120619,6282,SHMO,RUSSELL E T F TRUST,,49.42,49.44,-49.43,0,0.016033,49.42,49.44,100,,,0.016033,0.011545,0.012798
12761,20120620,6282,SHMO,RUSSELL E T F TRUST,,49.34,49.34,49.34,100,-0.001821,49.31,49.34,100,49.34,,-0.001821,-0.001541,-0.000687
12761,20120621,6282,SHMO,RUSSELL E T F TRUST,,48.33,49.2599,48.33,1900,-0.02047,48.26,48.28,100,49.2599,,-0.02047,-0.023661,-0.018777
12761,20120622,6282,SHMO,RUSSELL E T F TRUST,,48.93,49.01,-48.97,0,0.013242,48.93,49.01,100,,,0.013242,0.007238,0.007544
12761,20120625,6282,SHMO,RUSSELL E T F TRUST,,48.39,48.41,48.41,500,-0.009164,48.45,48.47,100,48.39,,-0.011436,-0.015536,-0.012052
12761,20120626,6282,SHMO,RUSSELL E T F TRUST,,48.66,48.68,-48.67,0,0.005371,48.66,48.68,100,,,0.005371,0.004818,0.002861
12761,20120627,6282,SHMO,RUSSELL E T F TRUST,,49.14,49.16,49.16,3000,0.010068,49.21,49.38,100,49.14,,0.010068,0.008732,0.009343
12761,20120628,6282,SHMO,RUSSELL E T F TRUST,,48.69,48.69,48.69,1000,-0.009561,49.12,49.14,100,48.69,,-0.009561,-0.002172,-0.002573
12761,20120629,6282,SHMO,RUSSELL E T F TRUST,,50.42,50.47,50.43,4100,0.035736,50.5,50.53,100,50.47,,0.035736,0.025451,0.023253
12761,20120702,6282,SHMO,RUSSELL E T F TRUST,,50.59,50.59,50.59,700,0.003173,51.13,51.14,100,50.59,,0.003173,0.003733,0.006515
12761,20120703,6282,SHMO,RUSSELL E T F TRUST,,51.53,51.53,51.53,200,0.018581,51.67,51.69,100,51.53,,0.018581,0.00878,0.01071
12761,20120705,6282,SHMO,RUSSELL E T F TRUST,,51.81,51.83,-51.82,0,0.005628,51.81,51.83,100,,,0.005628,-0.004134,-0.000756
12761,20120706,6282,SHMO,RUSSELL E T F TRUST,,51.27,51.29,-51.28,0,-0.010421,51.27,51.29,100,,,-0.010421,-0.010191,-0.007735
12761,20120709,6282,SHMO,RUSSELL E T F TRUST,,51.38,51.38,51.38,700,0.00195,51.45,51.47,100,51.38,,0.00195,-0.002207,-0.002372
12761,20120710,6282,SHMO,RUSSELL E T F TRUST,,50.72,50.73,-50.725,0,-0.012748,50.72,50.73,100,,,-0.012748,-0.008819,-0.008379
12761,20120711,6282,SHMO,RUSSELL E T F TRUST,,50.38,50.4,-50.39,0,-0.006604,50.38,50.4,100,,,-0.006604,-0.000419,-0.000427
12761,20120712,6282,SHMO,RUSSELL E T F TRUST,,50.39,50.41,-50.4,0,0.000198,50.39,50.41,100,,,0.000198,-0.004912,-0.004265
12761,20120713,6282,SHMO,RUSSELL E T F TRUST,,51.07,51.07,51.07,300,0.013294,51.02,51.04,100,51.07,,0.013294,0.015232,0.010622
12761,20120716,6282,SHMO,RUSSELL E T F TRUST,,50.89,50.9,-50.895,0,-0.003427,50.89,50.9,100,,,-0.003427,-0.002468,-0.003517
12761,20120717,6282,SHMO,RUSSELL E T F TRUST,,50.52,50.52,50.52,1000,-0.007368,51.12,51.14,100,50.52,,-0.007368,0.006705,0.002432
12761,20120718,6282,SHMO,RUSSELL E T F TRUST,,51.5799,51.59,51.5799,600,0.02098,51.41,51.44,100,51.58,,0.02098,0.00614,0.003807
12761,20120719,6282,SHMO,RUSSELL E T F TRUST,,51.07,51.07,51.07,200,-0.009886,51.16,51.18,100,51.07,,-0.009886,0.002743,-0.000006
12761,20120720,6282,SHMO,RUSSELL E T F TRUST,,50.55,50.57,50.56,600,-0.009986,50.42,50.45,100,50.57,,-0.009986,-0.009933,-0.008788
12761,20120723,6282,SHMO,RUSSELL E T F TRUST,,49.63,49.66,-49.645,0,-0.018097,49.63,49.66,100,,,-0.018097,-0.010161,-0.012016
12761,20120724,6282,SHMO,RUSSELL E T F TRUST,,49.23,49.26,-49.245,0,-0.008057,49.23,49.26,100,,,-0.008057,-0.009459,-0.009281
12761,20120725,6282,SHMO,RUSSELL E T F TRUST,,49.36,49.38,-49.37,0,0.002538,49.36,49.38,100,,,0.002538,0.000691,0.002445
12761,20120726,6282,SHMO,RUSSELL E T F TRUST,,49.89,49.9,-49.895,0,0.010634,49.89,49.9,100,,,0.010634,0.015475,0.008601
12761,20120727,6282,SHMO,RUSSELL E T F TRUST,,50.92,51.1,50.92,400,0.020543,50.97,50.98,100,51.1,,0.020543,0.018789,0.016403
12761,20120730,6282,SHMO,RUSSELL E T F TRUST,,50.79,50.81,-50.8,0,-0.002357,50.79,50.81,100,,,-0.002357,-0.000858,-0.002895
12761,20120731,6282,SHMO,RUSSELL E T F TRUST,,50.35,50.4,-50.375,0,-0.008366,50.35,50.4,100,,,-0.008366,-0.004977,-0.003227
12761,20120801,6282,SHMO,RUSSELL E T F TRUST,,49.41,49.41,49.41,700,-0.019156,49.4,49.41,100,49.41,,-0.019156,-0.004649,-0.009215
12761,20120802,6282,SHMO,RUSSELL E T F TRUST,,49.48,49.5,-49.49,0,0.001619,49.48,49.5,100,,,0.001619,-0.007394,-0.005728
12761,20120803,6282,SHMO,RUSSELL E T F TRUST,,50.61,50.64,-50.625,0,0.022934,50.61,50.64,100,,,0.022934,0.019079,0.017674
12761,20120806,6282,SHMO,RUSSELL E T F TRUST,,50.82,51.21,51.21,2500,0.011556,51.04,51.06,100,50.82,,0.011556,0.003504,0.006599
12761,20120807,6282,SHMO,RUSSELL E T F TRUST,,51.33,51.52,51.33,300,0.002343,51.41,51.43,100,51.52,,0.002343,0.006321,0.0062
12761,20120808,6282,SHMO,RUSSELL E T F TRUST,,51.22,51.24,-51.23,0,-0.001948,51.22,51.24,100,,,-0.001948,-0.0001,-0.001097
12761,20120809,6282,SHMO,RUSSELL E T F TRUST,,51.47,51.49,-51.48,0,0.00488,51.47,51.49,100,,,0.00488,0.00133,0.003304
12761,20120810,6282,SHMO,RUSSELL E T F TRUST,,51.13,51.14,51.14,500,-0.006605,51.28,51.29,100,51.14,,-0.006605,0.001845,-0.000758
12761,20120813,6282,SHMO,RUSSELL E T F TRUST,,50.69,51.18,50.71,2600,-0.008408,51.2,51.22,100,51.18,,-0.008408,-0.0021,-0.002392
12761,20120814,6282,SHMO,RUSSELL E T F TRUST,,51.352,51.352,51.352,200,0.01266,51.15,51.18,100,51.352,,0.01266,-0.000139,-0.002297
12761,20120815,6282,SHMO,RUSSELL E T F TRUST,,51.47,51.47,51.47,100,0.002298,51.58,51.6,100,51.47,,0.002298,0.002475,0.0044
12761,20120816,6282,SHMO,RUSSELL E T F TRUST,,52.08,52.1,-52.09,0,0.012046,52.08,52.1,100,,,0.012046,0.007841,0.008012
12761,20120817,6282,SHMO,RUSSELL E T F TRUST,,52.4,52.43,-52.415,0,0.006239,52.4,52.43,100,,,0.006239,0.00262,0.004733
12761,20120820,6282,SHMO,RUSSELL E T F TRUST,,52.0501,52.0501,52.0501,600,-0.006962,52.09,52.23,100,52.0501,,-0.006962,-0.000643,-0.001632
12761,20120821,6282,SHMO,RUSSELL E T F TRUST,,52.04,52.41,52.04,700,-0.000194,52.01,52.03,100,52.41,,-0.000194,-0.002371,-0.00066
12761,20120822,6282,SHMO,RUSSELL E T F TRUST,,51.69,51.86,51.86,400,-0.003459,51.85,51.86,100,51.71,,-0.003459,-0.000167,-0.001911
12761,20120823,6282,SHMO,RUSSELL E T F TRUST,,51.48,51.48,51.48,200,-0.007327,51.46,51.49,100,51.48,,-0.007327,-0.007352,-0.00456
12761,20120824,6282,SHMO,RUSSELL E T F TRUST,,51.77,51.77,51.77,100,0.005633,51.76,51.78,100,51.77,,0.005633,0.005368,0.0032
12761,20120827,6282,SHMO,RUSSELL E T F TRUST,,51.96,51.98,-51.97,0,0.003863,51.96,51.98,100,,,0.003863,-0.000575,-0.000593
12761,20120828,6282,SHMO,RUSSELL E T F TRUST,,52.11,52.13,-52.12,0,0.002886,52.11,52.13,100,,,0.002886,0.000208,0.002364
12761,20120829,6282,SHMO,RUSSELL E T F TRUST,,52.36,52.39,-52.375,0,0.004893,52.36,52.39,100,,,0.004893,0.000747,0.001643
12761,20120830,6282,SHMO,RUSSELL E T F TRUST,,52.01,52.03,-52.02,0,-0.006778,52.01,52.03,100,,,-0.006778,-0.007942,-0.007645
12761,20120831,6282,SHMO,RUSSELL E T F TRUST,,51.67,52.23,52.09,1700,0.001346,52.15,52.17,100,52.23,,0.001346,0.005857,0.005276
12761,20120904,6282,SHMO,RUSSELL E T F TRUST,,52.12,53.08,52.99,9800,0.017278,52.96,52.98,100,52.33,,0.017278,0.000576,0.003103
12761,20120905,6282,SHMO,RUSSELL E T F TRUST,,52.65,52.97,52.72,2000,-0.005095,52.7,52.72,100,52.74,,-0.005095,-0.000794,-0.000793
12761,20120906,6282,SHMO,RUSSELL E T F TRUST,,53.03,53.7,53.61,1400,0.016882,53.57,53.58,100,53.04,,0.016882,0.01932,0.013613
12761,20120907,6282,SHMO,RUSSELL E T F TRUST,,53.61,53.62,-53.615,0,0.000093,53.61,53.62,100,,,0.000093,0.005609,0.006393
12761,20120910,6282,SHMO,RUSSELL E T F TRUST,,53.43,53.45,-53.44,0,-0.003264,53.43,53.45,100,,,-0.003264,-0.005723,-0.001868
12761,20120911,6282,SHMO,RUSSELL E T F TRUST,,53.66,53.68,-53.67,0,0.004304,53.66,53.68,100,,,0.004304,0.003408,0.004897
12761,20120912,6282,SHMO,RUSSELL E T F TRUST,,53.85,53.87,-53.86,0,0.00354,53.85,53.87,100,,,0.00354,0.00232,0.003495
12761,20120913,6282,SHMO,RUSSELL E T F TRUST,,54.53,54.54,-54.535,0,0.012532,54.53,54.54,100,,,0.012532,0.015179,0.011148
12761,20120914,6282,SHMO,RUSSELL E T F TRUST,,54.75,54.77,-54.76,0,0.004126,54.75,54.77,100,,,0.004126,0.006128,0.008127
12761,20120917,6282,SHMO,RUSSELL E T F TRUST,,54.78,54.81,-54.795,0,0.000639,54.78,54.81,100,,,0.000639,-0.004582,-0.004204
12761,20120918,6282,SHMO,RUSSELL E T F TRUST,,54.81,54.83,-54.82,0,0.000456,54.81,54.83,100,,,0.000456,-0.001814,-0.000369
12761,20120919,6282,SHMO,RUSSELL E T F TRUST,,54.52,54.54,-54.53,0,-0.00529,54.52,54.54,100,,,-0.00529,0.001262,0.001704
12761,20120920,6282,SHMO,RUSSELL E T F TRUST,,54.3792,54.52,54.3792,1200,-0.002765,54.48,54.5,100,54.48,,-0.002765,-0.002056,-0.003733
12761,20120921,6282,SHMO,RUSSELL E T F TRUST,,55.02,55.02,55.02,100,0.011784,54.81,54.83,100,55.02,,0.011784,0.000373,0.004826
12761,20120924,6282,SHMO,RUSSELL E T F TRUST,,54.35,54.36,54.35,200,-0.009428,54.18,54.21,100,54.36,,-0.012177,-0.003196,-0.003377
12761,20120925,6282,SHMO,RUSSELL E T F TRUST,,53.61,53.63,-53.62,0,-0.013431,53.61,53.63,100,,,-0.013431,-0.010896,-0.009693
12761,20120926,6282,SHMO,RUSSELL E T F TRUST,,53.24,53.38,53.24,300,-0.007087,53.2,53.22,100,53.38,,-0.007087,-0.005756,-0.005113
12761,20120927,6282,SHMO,RUSSELL E T F TRUST,,53.8,54,54,1300,0.014275,53.92,53.94,100,53.84,,0.014275,0.009947,0.00892
12761,20120928,6282,SHMO,RUSSELL E T F TRUST,,53.87,53.87,53.87,300,-0.002407,53.76,53.78,100,53.87,,-0.002407,-0.004535,-0.003469
12761,20121001,6282,SHMO,RUSSELL E T F TRUST,,54.09,54.11,-54.1,0,0.00427,54.09,54.11,100,,,0.00427,0.002709,0.002595
12761,20121002,6282,SHMO,RUSSELL E T F TRUST,,54.13,54.24,-54.185,0,0.001571,54.13,54.24,100,,,0.001571,0.001139,0.00035
12761,20121003,6282,SHMO,RUSSELL E T F TRUST,,54.3199,54.47,54.3199,200,0.00249,54.27,54.28,100,54.47,,0.00249,0.002362,-0.000138
12761,20121004,6282,SHMO,RUSSELL E T F TRUST,,54.69,54.71,-54.7,0,0.006997,54.69,54.71,100,,,0.006997,0.007652,0.006541
12761,20121005,6282,SHMO,RUSSELL E T F TRUST,,54.68,54.71,-54.695,0,-0.000091,54.68,54.71,100,,,-0.000091,-0.000369,-0.000848
12761,20121008,6282,SHMO,RUSSELL E T F TRUST,,54.38,54.4,54.39,1200,-0.005576,54.34,54.4,100,54.4,,-0.005576,-0.003573,-0.003513
12761,20121009,6282,SHMO,RUSSELL E T F TRUST,,53.89,53.9,53.89,500,-0.009193,53.49,53.56,100,53.9,,-0.009193,-0.009804,-0.009159
12761,20121010,6282,SHMO,RUSSELL E T F TRUST,,53.4117,53.53,53.4117,300,-0.008875,53.47,53.5,100,53.53,,-0.008875,-0.005611,-0.004178
12761,20121011,6282,SHMO,RUSSELL E T F TRUST,,53.953,54.1,53.953,1000,0.010134,53.56,53.75,100,54.1,,0.010134,0.001582,0.004311
12761,20121012,6282,SHMO,RUSSELL E T F TRUST,,53.19,53.39,-53.29,0,-0.012288,53.19,53.39,100,,,-0.012288,-0.003527,-0.004332
12761,20121015,6282,SHMO,RUSSELL E T F TRUST,,53.64,53.66,-53.65,0,0.006756,53.64,53.66,100,,,0.006756,0.007228,0.004164
12761,20121016,6282,SHMO,RUSSELL E T F TRUST,,54,54.06,54.06,600,0.007642,54,54.13,100,54.05,,0.007642,0.009926,0.007031
12761,20121017,6282,SHMO,RUSSELL E T F TRUST,,,,,,,,,,,,,0.004993,0.005563
