PERMNO,date,SICCD,TICKER,COMNAM,NMSIND,BIDLO,ASKHI,PRC,VOL,RET,BID,ASK,SHROUT,OPENPRC,NUMTRD,RETX,vwretx,ewretx
11910,20080102,7363,TEAM,TECHTEAM GLOBAL INC,5,11.91,12.6,12.18,21849,-0.033333,12.07,12.19,10029,12.51,139,-0.033333,-0.011965,-0.006655
11910,20080103,7363,TEAM,TECHTEAM GLOBAL INC,,11.29,12.33,11.3201,32424,-0.070599,11.3,11.37,10029,12.33,182,-0.070599,-0.000957,-0.004569
11910,20080104,7363,TEAM,TECHTEAM GLOBAL INC,5,11.31,11.84,11.57,17058,0.022076,11.52,11.57,10029,11.62,117,0.022076,-0.025651,-0.022428
11910,20080107,7363,TEAM,TECHTEAM GLOBAL INC,5,11.3422,11.68,11.3422,6386,-0.019689,11.25,11.38,10029,11.66,49,-0.019689,0.000177,-0.001906
11910,20080108,7363,TEAM,TECHTEAM GLOBAL INC,,10.45,11.6,10.68,23581,-0.058384,10.68,10.74,10029,11.6,164,-0.058384,-0.017246,-0.014073
11910,20080109,7363,TEAM,TECHTEAM GLOBAL INC,,10.62,10.95,10.72,11090,0.003745,10.7,10.75,10029,10.9,82,0.003745,0.009933,-0.000568
11910,20080110,7363,TEAM,TECHTEAM GLOBAL INC,,10.14,10.75,10.34,11481,-0.035448,10.29,10.35,10029,10.75,97,-0.035448,0.008375,0.009638
11910,20080111,7363,TEAM,TECHTEAM GLOBAL INC,5,9.18,10.36,9.65,39217,-0.066731,9.4,9.73,10029,10.16,236,-0.066731,-0.013966,-0.011448
11910,20080114,7363,TEAM,TECHTEAM GLOBAL INC,5,9.01,9.65,9.38,36706,-0.027979,9.25,9.47,10029,9.55,202,-0.027979,0.010449,0.007768
11910,20080115,7363,TEAM,TECHTEAM GLOBAL INC,5,8.88,9.42,8.91,76870,-0.050107,8.88,8.97,10029,9.41,433,-0.050107,-0.024743,-0.018449
11910,20080116,7363,TEAM,TECHTEAM GLOBAL INC,5,8.45,8.98,8.56,351254,-0.039282,8.56,8.61,10029,8.83,245,-0.039282,-0.006756,-0.000147
11910,20080117,7363,TEAM,TECHTEAM GLOBAL INC,,8.46,8.83,8.63,20521,0.008178,8.63,8.7,10029,8.68,128,0.008178,-0.027749,-0.021664
11910,20080118,7363,TEAM,TECHTEAM GLOBAL INC,,8.7,9.21,9.04,22030,0.047509,9.01,9.38,10029,8.7,125,0.047509,-0.005592,-0.007332
11910,20080122,7363,TEAM,TECHTEAM GLOBAL INC,,8.54,8.9,8.54,25838,-0.05531,8.56,8.75,10029,8.54,167,-0.05531,-0.009456,-0.010386
11910,20080123,7363,TEAM,TECHTEAM GLOBAL INC,,8.38,9.04,8.71,28893,0.019906,8.56,8.84,10029,8.45,152,0.019906,0.019772,0.018187
11910,20080124,7363,TEAM,TECHTEAM GLOBAL INC,5,8.6245,9.04,8.85,8104,0.016074,8.79,8.87,10029,9,47,0.016074,0.012535,0.011062
11910,20080125,7363,TEAM,TECHTEAM GLOBAL INC,5,8.7,9.36,8.7,5845,-0.016949,8.65,8.76,10029,9.36,48,-0.016949,-0.013001,-0.001545
11910,20080128,7363,TEAM,TECHTEAM GLOBAL INC,,8.4,8.85,8.71,11094,0.001149,8.67,8.75,10029,8.53,77,0.001149,0.017161,0.013493
11910,20080129,7363,TEAM,TECHTEAM GLOBAL INC,,8.32,8.91,8.32,18704,-0.044776,8.31,8.42,10029,8.6,93,-0.044776,0.006287,0.007579
11910,20080130,7363,TEAM,TECHTEAM GLOBAL INC,,8.12,8.68,8.68,17618,0.043269,8.63,8.7,10029,8.26,128,0.043269,-0.005471,-0.002636
11910,20080131,7363,TEAM,TECHTEAM GLOBAL INC,,8.14,9.2,9.2,7911,0.059908,8.95,9.13,10029,8.14,68,0.059908,0.014823,0.015102
11910,20080201,7363,TEAM,TECHTEAM GLOBAL INC,,9.02,9.25,9.02,5435,-0.019565,9.02,9.07,10029,9.18,42,-0.019565,0.015966,0.015673
11910,20080204,7363,TEAM,TECHTEAM GLOBAL INC,5,8.53,8.94,8.6,29079,-0.046563,8.57,8.66,10029,8.9,142,-0.046563,-0.009007,-0.003053
11910,20080205,7363,TEAM,TECHTEAM GLOBAL INC,,7.99,8.48,8.15,51522,-0.052326,8.15,8.3,10029,8.37,201,-0.052326,-0.030929,-0.021632
11910,20080206,7363,TEAM,TECHTEAM GLOBAL INC,5,8.13,8.35,8.27,9671,0.014724,8.05,8.27,10029,8.28,76,0.014724,-0.008268,-0.007339
11910,20080207,7363,TEAM,TECHTEAM GLOBAL INC,,7.9,8.34,7.94,13436,-0.039903,7.93,7.94,10029,8.31,66,-0.039903,0.007562,0.005105
11910,20080208,7363,TEAM,TECHTEAM GLOBAL INC,5,8,8.232,8,8117,0.007557,8.01,8.19,10029,8,62,0.007557,-0.002103,-0.002793
11910,20080211,7363,TEAM,TECHTEAM GLOBAL INC,5,7.8,8.15,7.9899,55444,-0.001262,7.95,7.99,10029,8.1,193,-0.001262,0.005764,0.002776
11910,20080212,7363,TEAM,TECHTEAM GLOBAL INC,5,7.86,8.1,7.98,24270,-0.001239,7.93,7.98,10029,8.09,130,-0.001239,0.00623,0.004074
11910,20080213,7363,TEAM,TECHTEAM GLOBAL INC,5,7.86,8,7.99,23729,0.001253,7.98,8,10029,7.97,120,0.001253,0.014027,0.01276
11910,20080214,7363,TEAM,TECHTEAM GLOBAL INC,5,7.85,8,7.99,12842,0,7.94,8,10029,7.99,73,0,-0.013234,-0.013663
11910,20080215,7363,TEAM,TECHTEAM GLOBAL INC,,7.926,7.95,7.95,37873,-0.005006,7.93,7.95,10029,7.94,54,-0.005006,-0.000498,-0.004099
11910,20080219,7363,TEAM,TECHTEAM GLOBAL INC,,7.83,7.93,7.9,31465,-0.006289,7.9,7.93,10029,7.9,109,-0.006289,0.000535,0.002507
11910,20080220,7363,TEAM,TECHTEAM GLOBAL INC,,7.8,7.89,7.85,69309,-0.006329,7.82,7.85,10029,7.82,226,-0.006329,0.008783,0.00497
11910,20080221,7363,TEAM,TECHTEAM GLOBAL INC,,7.82,7.85,7.85,28810,0,7.83,7.85,10029,7.84,124,0,-0.012067,-0.009713
11910,20080222,7363,TEAM,TECHTEAM GLOBAL INC,,7.81,7.85,7.85,48357,0,7.84,7.85,10029,7.84,153,0,0.006707,0.000367
11910,20080225,7363,TEAM,TECHTEAM GLOBAL INC,,7.8,8.48,7.8,47874,-0.006369,7.91,8.02,10029,7.87,182,-0.006369,0.015038,0.013319
11910,20080226,7363,TEAM,TECHTEAM GLOBAL INC,,7.9,8.32,8.32,10498,0.066667,8.28,8.32,10029,7.9,61,0.066667,0.008214,0.009566
11910,20080227,7363,TEAM,TECHTEAM GLOBAL INC,,8.16,8.95,8.8,122469,0.057692,8.71,8.83,10029,8.22,136,0.057692,-0.000963,-0.000165
11910,20080228,7363,TEAM,TECHTEAM GLOBAL INC,,8.31,8.99,8.89,13151,0.010227,8.82,8.88,10029,8.88,72,0.010227,-0.007812,-0.008768
11910,20080229,7363,TEAM,TECHTEAM GLOBAL INC,5,8.74,8.87,8.75,11819,-0.015748,8.75,8.8,10750,8.83,67,-0.015748,-0.026168,-0.020187
11910,20080303,7363,TEAM,TECHTEAM GLOBAL INC,,8.718,8.99,8.91,14040,0.018286,8.9,8.96,10750,8.718,87,0.018286,-0.000485,-0.005238
11910,20080304,7363,TEAM,TECHTEAM GLOBAL INC,,8.78,9.04,8.99,3462,0.008979,8.99,9.07,10750,8.845,23,0.008979,-0.004804,-0.006747
11910,20080305,7363,TEAM,TECHTEAM GLOBAL INC,,8.96,9.06,9,9410,0.001112,9,9.04,10750,9,46,0.001112,0.006594,0.003172
11910,20080306,7363,TEAM,TECHTEAM GLOBAL INC,,9,9.14,9.12,7731,0.013333,9.1,9.15,10750,9.09,55,0.013333,-0.022149,-0.021506
11910,20080307,7363,TEAM,TECHTEAM GLOBAL INC,,9,9.13,9.08,34755,-0.004386,9.08,9.12,10750,9,34,-0.004386,-0.008779,-0.007707
11910,20080310,7363,TEAM,TECHTEAM GLOBAL INC,,8.95,9.11,8.95,8948,-0.014317,8.97,9.04,10750,9,50,-0.014317,-0.01825,-0.020884
11910,20080311,7363,TEAM,TECHTEAM GLOBAL INC,,9,9.2,9.12,13448,0.018994,9.12,9.18,10750,9.07,66,0.018994,0.035732,0.026985
11910,20080312,7363,TEAM,TECHTEAM GLOBAL INC,,9,9.12,9.01,8996,-0.012061,9,9.02,10750,9,55,-0.012061,-0.00733,-0.00462
11910,20080313,7363,TEAM,TECHTEAM GLOBAL INC,,8.76,9.1,9.1,3857,0.009989,9.06,9.13,10750,8.76,35,0.009989,0.007226,0.007298
11910,20080314,7363,TEAM,TECHTEAM GLOBAL INC,5,9,9.57,9.39,17713,0.031868,9.3,9.45,10691,9,92,0.031868,-0.020023,-0.018222
11910,20080317,7363,TEAM,TECHTEAM GLOBAL INC,5,9,9.53,9.53,43525,0.014909,9.46,9.7,10691,9.03,87,0.014909,-0.015035,-0.020983
11910,20080318,7363,TEAM,TECHTEAM GLOBAL INC,5,9.19,9.54,9.46,21019,-0.007345,9.26,9.5,10691,9.22,128,-0.007345,0.039537,0.028376
11910,20080319,7363,TEAM,TECHTEAM GLOBAL INC,,9.15,9.39,9.37,6346,-0.009514,9.3,9.37,10691,9.15,39,-0.009514,-0.026107,-0.017168
11910,20080320,7363,TEAM,TECHTEAM GLOBAL INC,5,8.43,9.29,8.43,14004,-0.10032,8.34,8.62,10691,9.29,84,-0.10032,0.021158,0.014501
11910,20080324,7363,TEAM,TECHTEAM GLOBAL INC,,8.26,9.4,9.14,42165,0.084223,9.13,9.19,10691,8.34,224,0.084223,0.017582,0.021668
11910,20080325,7363,TEAM,TECHTEAM GLOBAL INC,5,8.87,9.25,9.18,5200,0.004376,9.11,9.19,10691,9.22,43,0.004376,0.005698,0.010797
11910,20080326,7363,TEAM,TECHTEAM GLOBAL INC,,8.85,9.19,9.15,3400,-0.003268,9.09,9.16,10691,9.19,24,-0.003268,-0.006485,-0.002807
11910,20080327,7363,TEAM,TECHTEAM GLOBAL INC,,8.84,9.19,8.85,10653,-0.032787,8.82,8.89,10691,8.94,85,-0.032787,-0.010373,-0.004944
11910,20080328,7363,TEAM,TECHTEAM GLOBAL INC,,8.82,9.1,8.98,12160,0.014689,8.92,9,10691,8.82,69,0.014689,-0.008038,-0.007315
11910,20080331,7363,TEAM,TECHTEAM GLOBAL INC,5,8.7101,9.07,9.07,16666,0.010022,8.99,9.07,10771,8.85,89,0.010022,0.005286,0.005196
11910,20080401,7363,TEAM,TECHTEAM GLOBAL INC,,8.62,9.17,9.17,12747,0.011025,9.06,9.16,10771,8.64,87,0.011025,0.032086,0.020874
11910,20080402,7363,TEAM,TECHTEAM GLOBAL INC,5,8.8,9.5,9,40852,-0.018539,9,9.06,10771,9.06,186,-0.018539,0.000222,0.003193
11910,20080403,7363,TEAM,TECHTEAM GLOBAL INC,5,8.8001,8.94,8.94,10880,-0.006667,8.83,9.02,10771,8.81,80,-0.006667,0.002665,0.001693
11910,20080404,7363,TEAM,TECHTEAM GLOBAL INC,,8.94,9,8.95,21453,0.001119,8.94,9.04,10771,8.98,78,0.001119,0.00195,0.002778
11910,20080407,7363,TEAM,TECHTEAM GLOBAL INC,,8.79,9.2,9.08,10921,0.014525,9.04,9.18,10771,9.06,77,0.014525,0.001712,0.0018
11910,20080408,7363,TEAM,TECHTEAM GLOBAL INC,,8.45,9.3,9,5704,-0.008811,8.91,9.14,10771,8.95,46,-0.008811,-0.003404,-0.002727
11910,20080409,7363,TEAM,TECHTEAM GLOBAL INC,,8.66,9.09,8.96,44000,-0.004444,8.78,9.29,10771,8.77,42,-0.004444,-0.009046,-0.011542
11910,20080410,7363,TEAM,TECHTEAM GLOBAL INC,,8.85,9.1,9.06,6200,0.011161,9.05,9.1,10771,8.94,22,0.011161,0.005403,0.005008
11910,20080411,7363,TEAM,TECHTEAM GLOBAL INC,5,8.9001,9.1,9,8781,-0.006623,9,9.1,10771,9.1,43,-0.006623,-0.019628,-0.01591
11910,20080414,7363,TEAM,TECHTEAM GLOBAL INC,5,8.94,9.1,9.05,7038,0.005556,8.94,9.06,10771,9.09,46,0.005556,-0.002586,-0.004434
11910,20080415,7363,TEAM,TECHTEAM GLOBAL INC,,9,9.08,9,4549,-0.005525,9,9.08,10771,9.08,22,-0.005525,0.005073,0.002118
11910,20080416,7363,TEAM,TECHTEAM GLOBAL INC,5,9,9.1,9.07,9702,0.007778,9.01,9.07,10771,9.1,44,0.007778,0.024085,0.017852
11910,20080417,7363,TEAM,TECHTEAM GLOBAL INC,,8.96,9.1,9.09,15754,0.002205,9.01,9.1,10771,9,77,0.002205,-0.001228,-0.002075
11910,20080418,7363,TEAM,TECHTEAM GLOBAL INC,,9,9.14,9.09,7961,0,9.09,9.13,10771,9.01,59,0,0.016548,0.012443
11910,20080421,7363,TEAM,TECHTEAM GLOBAL INC,,8.96,9.25,9.16,2669,0.007701,9.16,9.28,10771,9.06,20,0.007701,-0.000578,-0.001629
11910,20080422,7363,TEAM,TECHTEAM GLOBAL INC,,8.99,9.17,9.16,4838,0,9.07,9.15,10771,8.99,30,0,-0.009319,-0.01285
11910,20080423,7363,TEAM,TECHTEAM GLOBAL INC,,9.01,9.2,9.18,14336,0.002183,9.13,9.2,10771,9.06,75,0.002183,0.00111,0.002084
11910,20080424,7363,TEAM,TECHTEAM GLOBAL INC,,9.08,9.15,9.12,1176,-0.006536,9.07,9.17,10771,9.11,11,-0.006536,0.005058,0.007845
11910,20080425,7363,TEAM,TECHTEAM GLOBAL INC,,9.06,9.2,9.18,6558,0.006579,9.17,9.2,10771,9.11,42,0.006579,0.006915,0.005692
11910,20080428,7363,TEAM,TECHTEAM GLOBAL INC,,9.1,9.38,9.32,10711,0.01525,9.14,9.43,10771,9.2,56,0.01525,0.000154,0.003586
11910,20080429,7363,TEAM,TECHTEAM GLOBAL INC,,9.14,9.47,9.2,13757,-0.012876,9.2,9.25,10771,9.33,76,-0.012876,-0.005712,-0.004917
11910,20080430,7363,TEAM,TECHTEAM GLOBAL INC,5,9.1,9.31,9.31,7418,0.011957,9.31,9.32,10771,9.25,44,0.011957,-0.001607,0.00166
11910,20080501,7363,TEAM,TECHTEAM GLOBAL INC,5,8.98,9.3,9.23,7881,-0.008593,9.15,9.24,10783,9.03,51,-0.008593,0.01437,0.010829
11910,20080502,7363,TEAM,TECHTEAM GLOBAL INC,,9.21,9.22,9.21,209,-0.002167,9.16,9.24,10783,9.22,2,-0.002167,0.00324,0.000327
11910,20080505,7363,TEAM,TECHTEAM GLOBAL INC,,9.38,9.5,9.38,10098,0.018458,9.39,9.42,10783,9.46,44,0.018458,-0.002711,-0.001239
11910,20080506,7363,TEAM,TECHTEAM GLOBAL INC,,9.048,9.35,9.11,3438,-0.028785,9.09,9.14,10783,9.35,34,-0.028785,0.008366,0.006164
11910,20080507,7363,TEAM,TECHTEAM GLOBAL INC,,9.13,9.41,9.13,5661,0.002195,9.12,9.18,10783,9.16,36,0.002195,-0.016185,-0.011755
11910,20080508,7363,TEAM,TECHTEAM GLOBAL INC,,9,10,10,35491,0.09529,9.98,10,10783,9,82,0.09529,0.004532,0.001917
11910,20080509,7363,TEAM,TECHTEAM GLOBAL INC,,8.95,10,9.38,59038,-0.062,9.28,9.38,10783,10,165,-0.062,-0.004717,-0.000676
11910,20080512,7363,TEAM,TECHTEAM GLOBAL INC,,9.13,9.79,9.7,17543,0.034115,9.61,9.73,10783,9.47,98,0.034115,0.010944,0.010765
11910,20080513,7363,TEAM,TECHTEAM GLOBAL INC,,9.38,9.69,9.61,7900,-0.009278,9.53,9.65,10783,9.5,53,-0.009278,0.000545,0.002291
11910,20080514,7363,TEAM,TECHTEAM GLOBAL INC,,9.53,9.74,9.63,7085,0.002081,9.62,9.67,10783,9.56,56,0.002081,0.00289,0.00187
11910,20080515,7363,TEAM,TECHTEAM GLOBAL INC,,9.23,9.77,9.32,10252,-0.032191,9.28,9.35,10783,9.77,69,-0.032191,0.011029,0.008057
11910,20080516,7363,TEAM,TECHTEAM GLOBAL INC,,9.54,9.89,9.58,8524,0.027897,9.56,9.76,10783,9.58,57,0.027897,0.002414,0.001076
11910,20080519,7363,TEAM,TECHTEAM GLOBAL INC,,8.99,9.99,9.24,24739,-0.035491,9.14,9.24,10783,9.71,144,-0.035491,-0.000322,-0.000502
11910,20080520,7363,TEAM,TECHTEAM GLOBAL INC,,9.24,9.69,9.61,13828,0.040043,9.58,9.63,10783,9.48,82,0.040043,-0.005988,-0.003529
11910,20080521,7363,TEAM,TECHTEAM GLOBAL INC,5,9.53,10,9.66,13954,0.005203,9.65,9.74,10783,9.53,78,0.005203,-0.015421,-0.009184
11910,20080522,7363,TEAM,TECHTEAM GLOBAL INC,5,9.42,9.99,9.62,27673,-0.004141,9.62,9.7,10783,9.67,51,-0.004141,0.002786,0.003248
11910,20080523,7363,TEAM,TECHTEAM GLOBAL INC,,9.52,9.7,9.66,2405,0.004158,9.65,9.69,10783,9.52,20,0.004158,-0.011557,-0.007309
11910,20080527,7363,TEAM,TECHTEAM GLOBAL INC,,9.57,9.97,9.84,7993,0.018634,9.8,9.87,10783,9.7,43,0.018634,0.004893,0.006116
11910,20080528,7363,TEAM,TECHTEAM GLOBAL INC,,9.6,10,9.6,3300,-0.02439,9.6,9.67,10783,9.99,29,-0.02439,0.005529,0.003347
11910,20080529,7363,TEAM,TECHTEAM GLOBAL INC,,9.7,10,10,14163,0.041667,9.91,9.99,10783,9.7,77,0.041667,0.004276,0.005167
11910,20080530,7363,TEAM,TECHTEAM GLOBAL INC,,9.95,10,10,2857,0,9.94,9.99,10783,10,18,0,0.003063,0.004872
11910,20080602,7363,TEAM,TECHTEAM GLOBAL INC,,9.81,10.35,10.32,16051,0.032,9.5,10.34,10783,9.85,98,0.032,-0.009077,-0.008391
11910,20080603,7363,TEAM,TECHTEAM GLOBAL INC,,10.2,10.5,10.33,18146,0.000969,10.3,10.36,10783,10.41,113,0.000969,-0.00488,-0.001854
11910,20080604,7363,TEAM,TECHTEAM GLOBAL INC,,10.35,10.75,10.35,14354,0.001936,10.26,10.35,10783,10.5,78,0.001936,-0.001235,0.001266
11910,20080605,7363,TEAM,TECHTEAM GLOBAL INC,,10.4301,10.85,10.4301,5516,0.007739,10.42,10.49,10783,10.76,30,0.007739,0.020182,0.014676
11910,20080606,7363,TEAM,TECHTEAM GLOBAL INC,,10.25,10.6,10.38,9741,-0.004803,10.31,10.44,10783,10.49,49,-0.004803,-0.026786,-0.019893
11910,20080609,7363,TEAM,TECHTEAM GLOBAL INC,,10.36,10.79,10.65,14972,0.026012,10.59,10.75,10783,10.56,107,0.026012,-0.000607,-0.007792
11910,20080610,7363,TEAM,TECHTEAM GLOBAL INC,,10.26,10.72,10.38,8540,-0.025352,10.28,10.43,10783,10.72,48,-0.025352,-0.005005,-0.005391
11910,20080611,7363,TEAM,TECHTEAM GLOBAL INC,,10.26,10.72,10.26,7037,-0.011561,10.25,10.32,10783,10.32,49,-0.011561,-0.015416,-0.0153
11910,20080612,7363,TEAM,TECHTEAM GLOBAL INC,,10.26,10.57,10.27,13300,0.000975,10.25,10.31,10783,10.57,103,0.000975,0.00133,0.000751
11910,20080613,7363,TEAM,TECHTEAM GLOBAL INC,,10.3163,10.48,10.4,7476,0.012658,9.9,10.45,10783,10.3902,40,0.012658,0.014676,0.012188
11910,20080616,7363,TEAM,TECHTEAM GLOBAL INC,,10.43,10.6899,10.6499,16938,0.024029,10.59,10.65,10783,10.54,87,0.024029,0.00327,0.0054
11910,20080617,7363,TEAM,TECHTEAM GLOBAL INC,5,10.39,10.57,10.4,3888,-0.023465,10.39,10.48,10783,10.47,24,-0.023465,-0.00395,-0.00434
11910,20080618,7363,TEAM,TECHTEAM GLOBAL INC,,9.77,10.36,9.81,15539,-0.056731,9.81,9.83,10783,10.36,74,-0.056731,-0.008296,-0.008457
11910,20080619,7363,TEAM,TECHTEAM GLOBAL INC,,9.8,10.35,10.085,23690,0.028033,10.09,10.14,10783,9.8,120,0.028033,0.002225,0.002649
11910,20080620,7363,TEAM,TECHTEAM GLOBAL INC,,9.85,10.15,9.97,14873,-0.011403,9.96,10,10783,9.98,70,-0.011403,-0.01753,-0.013931
11910,20080623,7363,TEAM,TECHTEAM GLOBAL INC,,9.92,10.05,9.93,11037,-0.004012,9.81,9.96,10783,10.03,65,-0.004012,-0.000866,-0.0091
11910,20080624,7363,TEAM,TECHTEAM GLOBAL INC,,9.81,9.94,9.94,7277,0.001007,9.9,9.94,10783,9.81,20,0.001007,-0.006253,-0.009897
11910,20080625,7363,TEAM,TECHTEAM GLOBAL INC,,9.8,10,9.9,11725,-0.004024,9.93,9.95,10783,9.84,50,-0.004024,0.006097,0.007233
11910,20080626,7363,TEAM,TECHTEAM GLOBAL INC,5,9.78,9.85,9.8,18413,-0.010101,9.8,9.83,10783,9.85,38,-0.010101,-0.026496,-0.019562
11910,20080627,7363,TEAM,TECHTEAM GLOBAL INC,5,9.7,9.8,9.75,15250,-0.005102,9.73,9.75,10783,9.76,28,-0.005102,-0.002526,-0.005772
11910,20080630,7363,TEAM,TECHTEAM GLOBAL INC,5,9.59,10.7,10.7,29258,0.097436,10.05,10.48,10795,9.6,81,0.097436,-0.00105,-0.005719
11910,20080701,7363,TEAM,TECHTEAM GLOBAL INC,5,9.94,10.65,10.16,19303,-0.050467,10.1,10.6,10795,10.65,120,-0.050467,0.001689,-0.006391
11910,20080702,7363,TEAM,TECHTEAM GLOBAL INC,,9.81,10.16,9.81,6500,-0.034449,9.8,9.9,10795,10.15,38,-0.034449,-0.021045,-0.018159
11910,20080703,7363,TEAM,TECHTEAM GLOBAL INC,,9.51,10.19,9.69,10765,-0.012233,9.68,9.79,10795,9.74,70,-0.012233,-0.002429,-0.006075
11910,20080707,7363,TEAM,TECHTEAM GLOBAL INC,,9.7,10.21,9.83,19115,0.014448,9.79,9.87,10795,9.81,108,0.014448,-0.008618,-0.011669
11910,20080708,7363,TEAM,TECHTEAM GLOBAL INC,5,9.51,9.95,9.95,3492,0.012208,9.88,9.95,10795,9.83,25,0.012208,0.016773,0.018279
11910,20080709,7363,TEAM,TECHTEAM GLOBAL INC,5,9.55,9.84,9.73,7430,-0.022111,9.73,9.81,10795,9.84,38,-0.022111,-0.019455,-0.01426
11910,20080710,7363,TEAM,TECHTEAM GLOBAL INC,,9.279,9.6,9.5,7162,-0.023638,9.5,9.57,10795,9.53,48,-0.023638,0.007645,0.002266
11910,20080711,7363,TEAM,TECHTEAM GLOBAL INC,,9.2,9.9,9.43,4718,-0.007368,9.43,9.62,10795,9.39,29,-0.007368,-0.008381,-0.003414
11910,20080714,7363,TEAM,TECHTEAM GLOBAL INC,,9.31,9.86,9.63,15517,0.021209,9.62,9.74,10795,9.31,82,0.021209,-0.008219,-0.012361
11910,20080715,7363,TEAM,TECHTEAM GLOBAL INC,,9.35,9.82,9.65,9547,0.002077,9.64,9.69,10795,9.51,63,0.002077,-0.011511,-0.009229
11910,20080716,7363,TEAM,TECHTEAM GLOBAL INC,,9.55,9.75,9.59,27428,-0.006218,9.58,9.73,10795,9.56,97,-0.006218,0.023954,0.026472
11910,20080717,7363,TEAM,TECHTEAM GLOBAL INC,,9.64,9.9,9.75,27077,0.016684,9.74,9.75,10795,9.77,103,0.016684,0.009637,0.016398
11910,20080718,7363,TEAM,TECHTEAM GLOBAL INC,,9.71,9.9,9.81,5911,0.006154,9.8,9.85,10795,9.75,34,0.006154,0.000346,0.000861
11910,20080721,7363,TEAM,TECHTEAM GLOBAL INC,,9.78,9.95,9.85,2890,0.004077,9.8,9.85,10795,9.95,20,0.004077,0.003955,0.0069
11910,20080722,7363,TEAM,TECHTEAM GLOBAL INC,,9.65,9.81,9.65,5786,-0.020305,9.59,9.66,10795,9.7,37,-0.020305,0.011076,0.015126
11910,20080723,7363,TEAM,TECHTEAM GLOBAL INC,,9.56,9.79,9.7799,19834,0.013461,9.74,9.8,10795,9.7601,170,0.013461,0.001821,0.006569
11910,20080724,7363,TEAM,TECHTEAM GLOBAL INC,,9.62,9.94,9.66,8825,-0.01226,9.66,9.69,10795,9.94,42,-0.01226,-0.024336,-0.018647
11910,20080725,7363,TEAM,TECHTEAM GLOBAL INC,,9.6201,9.76,9.63,26589,-0.003106,9.61,9.68,10795,9.6201,127,-0.003106,0.005536,0.006369
11910,20080728,7363,TEAM,TECHTEAM GLOBAL INC,,9.38,9.77,9.38,9168,-0.025961,9.34,9.49,10795,9.77,42,-0.025961,-0.016527,-0.013761
11910,20080729,7363,TEAM,TECHTEAM GLOBAL INC,5,9.2,9.9499,9.55,26067,0.018124,9.5,9.64,10795,9.21,153,0.018124,0.021117,0.016734
11910,20080730,7363,TEAM,TECHTEAM GLOBAL INC,5,9.43,9.88,9.8,6585,0.026178,9.75,9.8,10795,9.43,17,0.026178,0.016377,0.006677
11910,20080731,7363,TEAM,TECHTEAM GLOBAL INC,,9.74,10,10,18982,0.020408,9.8,9.9,10795,9.8,81,0.020408,-0.011859,-0.002778
11910,20080801,7363,TEAM,TECHTEAM GLOBAL INC,5,9.41,9.9,9.84,13380,-0.016,9.79,9.84,10816,9.9,70,-0.016,-0.005198,-0.000741
11910,20080804,7363,TEAM,TECHTEAM GLOBAL INC,5,9.33,10.08,9.61,32330,-0.023374,9.6,9.65,10816,10.08,123,-0.023374,-0.013405,-0.012228
11910,20080805,7363,TEAM,TECHTEAM GLOBAL INC,,9.13,9.848,9.53,43526,-0.008325,9.51,9.59,10816,9.62,259,-0.008325,0.024378,0.013398
11910,20080806,7363,TEAM,TECHTEAM GLOBAL INC,5,8.5801,9.11,8.84,30527,-0.072403,8.8,8.92,10816,9.11,157,-0.072403,0.005406,0.006504
11910,20080807,7363,TEAM,TECHTEAM GLOBAL INC,5,8.15,9.04,8.63,33083,-0.023756,8.64,8.73,10816,8.805,196,-0.023756,-0.016912,-0.012611
11910,20080808,7363,TEAM,TECHTEAM GLOBAL INC,5,8,8.61,8.33,46152,-0.034762,8.31,8.37,10816,8.48,249,-0.034762,0.019173,0.015813
11910,20080811,7363,TEAM,TECHTEAM GLOBAL INC,,8.19,8.6,8.24,17948,-0.010804,8.24,8.29,10816,8.27,126,-0.010804,0.006503,0.01065
11910,20080812,7363,TEAM,TECHTEAM GLOBAL INC,,8.2,9.04,8.54,11588,0.036408,8.54,8.59,10816,9,101,0.036408,-0.009666,-0.005693
11910,20080813,7363,TEAM,TECHTEAM GLOBAL INC,,8.53,8.86,8.79,3698,0.029274,8.75,8.8,10816,8.53,25,0.029274,-0.00044,0.002201
11910,20080814,7363,TEAM,TECHTEAM GLOBAL INC,,8.55,8.78,8.615,17981,-0.019909,8.61,8.67,10816,8.75,110,-0.019909,0.00503,0.006533
11910,20080815,7363,TEAM,TECHTEAM GLOBAL INC,,8.6,9.36,9.35,19953,0.085316,9.35,9.38,10816,8.6,85,0.085316,0.001245,-0.000882
11910,20080818,7363,TEAM,TECHTEAM GLOBAL INC,,8.99,9.43,9.3,26474,-0.005348,9.2,9.31,10816,9.34,121,-0.005348,-0.013473,-0.00993
11910,20080819,7363,TEAM,TECHTEAM GLOBAL INC,,9.29,9.54,9.54,1532,0.025806,9.46,9.55,10816,9.29,11,0.025806,-0.008943,-0.011751
11910,20080820,7363,TEAM,TECHTEAM GLOBAL INC,,8.96,9.22,9.11,4700,-0.045073,9.06,9.11,10816,9.182,33,-0.045073,0.006771,0.002565
11910,20080821,7363,TEAM,TECHTEAM GLOBAL INC,,9.1,9.56,9.51,5600,0.043908,9.38,9.51,10816,9.48,44,0.043908,0.00314,-0.00224
11910,20080822,7363,TEAM,TECHTEAM GLOBAL INC,,9.0101,9.53,9.03,4820,-0.050473,9.12,9.18,10816,9.51,41,-0.050473,0.009437,0.009536
11910,20080825,7363,TEAM,TECHTEAM GLOBAL INC,,8.86,9.04,8.86,2840,-0.018826,8.82,8.89,10816,9.04,15,-0.018826,-0.01855,-0.015117
11910,20080826,7363,TEAM,TECHTEAM GLOBAL INC,5,8.61,8.87,8.65,1100,-0.023702,8.62,8.69,10816,8.8,10,-0.023702,0.003549,0.00287
11910,20080827,7363,TEAM,TECHTEAM GLOBAL INC,5,8.55,9.14,8.92,8344,0.031214,8.89,9.01,10816,8.67,56,0.031214,0.009412,0.00805
11910,20080828,7363,TEAM,TECHTEAM GLOBAL INC,,8.63,8.9,8.9,4849,-0.002242,8.76,8.82,10816,8.86,29,-0.002242,0.014185,0.013313
11910,20080829,7363,TEAM,TECHTEAM GLOBAL INC,,8.52,8.8335,8.53,12479,-0.041573,8.66,8.72,10816,8.674,65,-0.041573,-0.011719,-0.003495
11910,20080902,7363,TEAM,TECHTEAM GLOBAL INC,,8.3,8.6,8.6,7075,0.008206,8.53,8.6,10816,8.53,38,0.008206,-0.007076,-0.003574
11910,20080903,7363,TEAM,TECHTEAM GLOBAL INC,,8.34,8.5499,8.41,9622,-0.022093,8.36,8.44,10816,8.44,50,-0.022093,-0.003312,-0.000519
11910,20080904,7363,TEAM,TECHTEAM GLOBAL INC,,8.23,8.49,8.46,8453,0.005945,8.38,8.48,10816,8.23,44,0.005945,-0.028948,-0.021621
11910,20080905,7363,TEAM,TECHTEAM GLOBAL INC,5,8.06,8.49,8.24,4110,-0.026005,8.19,8.25,10816,8.49,28,-0.026005,0.003797,-0.000339
11910,20080908,7363,TEAM,TECHTEAM GLOBAL INC,5,8.07,8.48,8.21,11459,-0.003641,8.19,8.24,10816,8.07,60,-0.003641,0.014721,0.007628
11910,20080909,7363,TEAM,TECHTEAM GLOBAL INC,,8.05,8.36,8.19,3938,-0.002436,8.1,8.2,10816,8.26,24,-0.002436,-0.034941,-0.028945
11910,20080910,7363,TEAM,TECHTEAM GLOBAL INC,,8.01,8.35,8.13,4638,-0.007326,8.09,8.13,10816,8.24,38,-0.007326,0.008484,0.003445
11910,20080911,7363,TEAM,TECHTEAM GLOBAL INC,,8.29,8.78,8.39,6098,0.03198,8.28,8.46,10816,8.3,31,0.03198,0.010642,-0.003328
11910,20080912,7363,TEAM,TECHTEAM GLOBAL INC,,8.21,8.34,8.32,1656,-0.008343,8.2,8.39,10816,8.324,12,-0.008343,0.005322,0.004843
11910,20080915,7363,TEAM,TECHTEAM GLOBAL INC,,8.02,8.41,8.122,3554,-0.023798,8.02,8.19,10816,8.41,23,-0.023798,-0.045674,-0.039367
11910,20080916,7363,TEAM,TECHTEAM GLOBAL INC,,7.95,8.0699,8.01,3681,-0.01379,7.98,8.14,10816,8.0175,16,-0.01379,0.015157,0.003354
11910,20080917,7363,TEAM,TECHTEAM GLOBAL INC,,7.83,8.44,8.31,6520,0.037453,8.2,8.39,10816,8.3,50,0.037453,-0.045503,-0.040954
11910,20080918,7363,TEAM,TECHTEAM GLOBAL INC,,7.93,8.25,8,10269,-0.037305,7.93,8.11,10816,8.15,68,-0.037305,0.043916,0.041432
11910,20080919,7363,TEAM,TECHTEAM GLOBAL INC,,7.15,8,7.76,13707,-0.03,7.76,7.79,10816,7.85,95,-0.03,0.04599,0.04939
11910,20080922,7363,TEAM,TECHTEAM GLOBAL INC,,7.75,7.83,7.76,6276,0,7.75,7.79,10816,7.77,55,0,-0.036817,-0.026898
11910,20080923,7363,TEAM,TECHTEAM GLOBAL INC,,7.21,7.75,7.29,6026,-0.060567,7.28,7.38,10816,7.75,52,-0.060567,-0.015644,-0.012863
11910,20080924,7363,TEAM,TECHTEAM GLOBAL INC,,7.4036,7.55,7.55,3745,0.035665,7.49,7.55,10816,7.47,31,0.035665,-0.003315,-0.00926
11910,20080925,7363,TEAM,TECHTEAM GLOBAL INC,,7.537,7.63,7.62,2944,0.009271,7.55,7.63,10816,7.58,25,0.009271,0.016532,0.008804
11910,20080926,7363,TEAM,TECHTEAM GLOBAL INC,,7.47,7.75,7.61,9477,-0.001312,7.57,7.61,10816,7.47,65,-0.001312,-0.002251,-0.008583
11910,20080929,7363,TEAM,TECHTEAM GLOBAL INC,,7.4,7.58,7.4,4043,-0.027595,7.4,7.74,10816,7.5,25,-0.027595,-0.082589,-0.061315
11910,20080930,7363,TEAM,TECHTEAM GLOBAL INC,5,7.4,7.5,7.42,4466,0.002703,7.4,7.43,10849,7.4,21,0.002703,0.046616,0.027735
11910,20081001,7363,TEAM,TECHTEAM GLOBAL INC,,7.35,7.44,-7.395,0,-0.003369,7.35,7.44,10849,,0,-0.003369,-0.005829,-0.004764
11910,20081002,7363,TEAM,TECHTEAM GLOBAL INC,,7.25,7.31,7.26,4140,-0.018256,7.22,7.39,10849,7.31,30,-0.018256,-0.045779,-0.039139
11910,20081003,7363,TEAM,TECHTEAM GLOBAL INC,,7.27,7.31,7.3,10590,0.00551,7.3,7.33,10849,7.29,59,0.00551,-0.014335,-0.016903
11910,20081006,7363,TEAM,TECHTEAM GLOBAL INC,,6.9,7.15,7,19694,-0.041096,6.93,7,10849,7.15,66,-0.041096,-0.04243,-0.059337
11910,20081007,7363,TEAM,TECHTEAM GLOBAL INC,,6.85,7.24,6.89,6233,-0.015714,6.89,6.92,10849,7.17,27,-0.015714,-0.057914,-0.047041
11910,20081008,7363,TEAM,TECHTEAM GLOBAL INC,,6.01,6.8,6.28,14900,-0.088534,6.16,6.29,10849,6.8,107,-0.088534,-0.012011,-0.026977
11910,20081009,7363,TEAM,TECHTEAM GLOBAL INC,,5.49,6.95,5.49,22598,-0.125796,5.48,5.51,10849,6.06,83,-0.125796,-0.072775,-0.063757
11910,20081010,7363,TEAM,TECHTEAM GLOBAL INC,5,3.71,5.45,4.55,36545,-0.17122,4.56,4.92,10849,5.45,153,-0.17122,-0.01221,-0.006893
11910,20081013,7363,TEAM,TECHTEAM GLOBAL INC,,4.45,4.82,4.7,31501,0.032967,4.61,4.73,10849,4.45,92,0.032967,0.114836,0.107335
11910,20081014,7363,TEAM,TECHTEAM GLOBAL INC,,3.77,5.695,3.96,19999,-0.157447,4.01,4.13,10849,5.01,126,-0.157447,-0.009051,-0.001721
11910,20081015,7363,TEAM,TECHTEAM GLOBAL INC,,3.79,4.05,4.03,9950,0.017677,4,4.03,10849,3.95,38,0.017677,-0.089842,-0.070866
11910,20081016,7363,TEAM,TECHTEAM GLOBAL INC,,3.903,4.78,4.44,12508,0.101737,4.34,5.61,10849,4.1,35,0.101737,0.039611,0.02952
11910,20081017,7363,TEAM,TECHTEAM GLOBAL INC,,4.419,4.93,4.5,8569,0.013514,4.4,4.66,10849,4.42,27,0.013514,-0.002498,0.001614
11910,20081020,7363,TEAM,TECHTEAM GLOBAL INC,5,4.25,5.48,5.45,5809,0.211111,5.38,5.77,10849,4.325,29,0.211111,0.046506,0.035473
11910,20081021,7363,TEAM,TECHTEAM GLOBAL INC,5,5.17,5.92,5.79,4891,0.062385,5.49,5.79,10849,5.17,24,0.062385,-0.031481,-0.02072
11910,20081022,7363,TEAM,TECHTEAM GLOBAL INC,5,5.214,6.15,5.87,3309,0.013817,5.47,5.9,10849,6.149,18,0.013817,-0.059264,-0.048986
11910,20081023,7363,TEAM,TECHTEAM GLOBAL INC,,5.35,5.79,5.38,8235,-0.083475,4.06,5.42,10849,5.6,37,-0.083475,0.000813,-0.020324
11910,20081024,7363,TEAM,TECHTEAM GLOBAL INC,,5,5.4,5,1681,-0.070632,4.21,5.17,10849,5.4,7,-0.070632,-0.033449,-0.031311
11910,20081027,7363,TEAM,TECHTEAM GLOBAL INC,5,4.215,5.1,4.37,533416,-0.126,4.37,4.41,10849,5.1,27,-0.126,-0.036947,-0.035395
11910,20081028,7363,TEAM,TECHTEAM GLOBAL INC,,4.47,5.72,4.47,42161,0.022883,4.38,4.82,10849,5.71,37,0.022883,0.095262,0.050347
11910,20081029,7363,TEAM,TECHTEAM GLOBAL INC,5,4.3,4.73,4.41,141300,-0.013423,4.29,4.51,10849,4.72,31,-0.013423,0.001199,0.021377
11910,20081030,7363,TEAM,TECHTEAM GLOBAL INC,,4.4858,5.37,5.32,24130,0.206349,5.22,5.29,10849,4.5,58,0.206349,0.031799,0.03553
11910,20081031,7363,TEAM,TECHTEAM GLOBAL INC,5,5.25,5.956,5.85,14979,0.099624,5.59,5.86,10884,5.25,59,0.099624,0.018079,0.033871
11910,20081103,7363,TEAM,TECHTEAM GLOBAL INC,,5.86,6.39,6.05,9243,0.034188,6.01,6.05,10884,6.06,52,0.034188,-0.000679,0.008574
11910,20081104,7363,TEAM,TECHTEAM GLOBAL INC,,6.04,6.74,6.35,11660,0.049587,6.01,6.61,10884,6.35,59,0.049587,0.038976,0.026518
11910,20081105,7363,TEAM,TECHTEAM GLOBAL INC,,5.97,6.09,6.02,7421,-0.051968,6.01,6.07,10884,6.01,35,-0.051968,-0.051195,-0.03761
11910,20081106,7363,TEAM,TECHTEAM GLOBAL INC,5,5.96,6.22,6.09,4007,0.011628,6.02,6.62,10884,6.2,24,0.011628,-0.049316,-0.038225
11910,20081107,7363,TEAM,TECHTEAM GLOBAL INC,5,6.01,6.83,6.83,26737,0.121511,6.71,6.87,10884,6.01,131,0.121511,0.026164,0.014395
11910,20081110,7363,TEAM,TECHTEAM GLOBAL INC,5,6.2,6.85,6.61,13549,-0.032211,6.6,6.71,10884,6.21,71,-0.032211,-0.013397,-0.019251
11910,20081111,7363,TEAM,TECHTEAM GLOBAL INC,5,5.86,6.49,5.87,9812,-0.111952,5.86,6.06,10884,6.43,68,-0.111952,-0.024388,-0.028206
11910,20081112,7363,TEAM,TECHTEAM GLOBAL INC,5,5.034,5.93,5.034,8211,-0.142419,5.02,5.49,10884,5.86,48,-0.142419,-0.053998,-0.054534
11910,20081113,7363,TEAM,TECHTEAM GLOBAL INC,,5,5.2,5.04,7108,0.001192,5.05,5.23,10884,5,47,0.001192,0.067871,0.048289
11910,20081114,7363,TEAM,TECHTEAM GLOBAL INC,,4.66,5.17,4.66,5896,-0.075397,4.63,5.04,10884,5.14,41,-0.075397,-0.043809,-0.039664
11910,20081117,7363,TEAM,TECHTEAM GLOBAL INC,,4.36,4.82,4.36,7193,-0.064378,4.7,4.88,10884,4.47,43,-0.064378,-0.024027,-0.022115
11910,20081118,7363,TEAM,TECHTEAM GLOBAL INC,,4.18,5.58,4.51,21871,0.034404,4.53,4.97,10884,4.18,124,0.034404,0.005539,-0.010832
11910,20081119,7363,TEAM,TECHTEAM GLOBAL INC,,4.53,4.86,4.58,3378,0.015521,4.63,4.88,10884,4.55,24,0.015521,-0.064102,-0.064622
11910,20081120,7363,TEAM,TECHTEAM GLOBAL INC,,4.35,4.49,4.4585,4677,-0.026528,4.33,4.46,10884,4.35,24,-0.026528,-0.070146,-0.067122
11910,20081121,7363,TEAM,TECHTEAM GLOBAL INC,,4.74,5,5,300,0.121453,4.51,4.85,10884,4.74,1,0.121453,0.060934,0.033422
11910,20081124,7363,TEAM,TECHTEAM GLOBAL INC,5,3.9,4.69,3.9,31373,-0.22,3.86,4.07,10884,4.69,142,-0.22,0.06607,0.063574
11910,20081125,7363,TEAM,TECHTEAM GLOBAL INC,,3.57,4.1688,3.57,17439,-0.084615,3.57,3.68,10884,3.9,94,-0.084615,0.009516,0.015273
11910,20081126,7363,TEAM,TECHTEAM GLOBAL INC,5,3.35,3.74,3.58,73587,0.002801,3.5,3.59,10884,3.52,146,0.002801,0.038034,0.051933
11910,20081128,7363,TEAM,TECHTEAM GLOBAL INC,,3.78,4.34,4.34,10181,0.212291,3.98,4.34,10884,3.805,44,0.212291,0.010075,0.019966
11910,20081201,7363,TEAM,TECHTEAM GLOBAL INC,,4.15,4.27,4.16,6704,-0.041475,3.26,4.99,10884,4.27,55,-0.041475,-0.089446,-0.078335
11910,20081202,7363,TEAM,TECHTEAM GLOBAL INC,,3.41,4.25,3.5,5788,-0.158654,3.5,3.51,10884,4.07,43,-0.158654,0.037575,0.035171
11910,20081203,7363,TEAM,TECHTEAM GLOBAL INC,,3.58,4.17,3.72,9400,0.062857,3.56,3.75,10884,4.17,74,0.062857,0.023612,0.014519
11910,20081204,7363,TEAM,TECHTEAM GLOBAL INC,,3.4,4.85,4.14,26996,0.112903,4.18,4.48,10884,3.47,136,0.112903,-0.030168,-0.021918
11910,20081205,7363,TEAM,TECHTEAM GLOBAL INC,5,3.85,4.9,3.88,9310,-0.062802,3.83,4.33,10884,4.18,59,-0.062802,0.036081,0.025995
11910,20081208,7363,TEAM,TECHTEAM GLOBAL INC,5,3.97,4.8,4.16,7454,0.072165,4.15,4.16,10884,4.57,57,0.072165,0.040252,0.0378
11910,20081209,7363,TEAM,TECHTEAM GLOBAL INC,,3.63,4.21,3.63,4093,-0.127404,3.55,3.78,10884,4.01,25,-0.127404,-0.02238,-0.014945
11910,20081210,7363,TEAM,TECHTEAM GLOBAL INC,,3.69,3.89,3.74,4088,0.030303,3.73,3.78,10884,3.75,36,0.030303,0.015014,0.021801
11910,20081211,7363,TEAM,TECHTEAM GLOBAL INC,5,3.35,3.62,3.5,8602,-0.064171,3.52,3.62,10884,3.62,60,-0.064171,-0.030236,-0.027158
11910,20081212,7363,TEAM,TECHTEAM GLOBAL INC,5,3.44,4.5,3.53,10463,0.008571,3.48,3.61,10884,3.44,64,0.008571,0.010463,0.017702
11910,20081215,7363,TEAM,TECHTEAM GLOBAL INC,,3.44,3.69,3.52,222249,-0.002833,3.44,3.51,10884,3.58,445,-0.002833,-0.013903,-0.019502
11910,20081216,7363,TEAM,TECHTEAM GLOBAL INC,5,3.34,4.3,4.15,65323,0.178977,3.95,4.15,10884,3.56,560,0.178977,0.052815,0.046585
11910,20081217,7363,TEAM,TECHTEAM GLOBAL INC,5,3.87,4.36,3.87,80956,-0.06747,3.83,3.94,10884,4.2,616,-0.06747,-0.004899,0.010663
11910,20081218,7363,TEAM,TECHTEAM GLOBAL INC,5,3.89,4.8,4.63,112823,0.196382,4.18,4.65,10884,3.98,865,0.196382,-0.02057,-0.012006
11910,20081219,7363,TEAM,TECHTEAM GLOBAL INC,5,4.35,4.7,4.47,68532,-0.034557,4.47,4.51,10884,4.7,560,-0.034557,0.003762,0.003476
11910,20081222,7363,TEAM,TECHTEAM GLOBAL INC,,4.2301,5.25,4.9,60464,0.096197,4.81,4.91,10884,4.6,561,0.096197,-0.019253,-0.013129
11910,20081223,7363,TEAM,TECHTEAM GLOBAL INC,5,4.37,5.13,4.64,55768,-0.053061,5,5.48,10884,4.95,587,-0.053061,-0.007876,-0.008267
11910,20081224,7363,TEAM,TECHTEAM GLOBAL INC,5,4.25,5,4.53,17957,-0.023707,4.5,4.73,10884,4.72,171,-0.023707,0.004067,0.004547
11910,20081226,7363,TEAM,TECHTEAM GLOBAL INC,,4.37,5.22,4.76,38229,0.050773,4.85,4.92,10884,4.71,355,0.050773,0.007159,0.010885
11910,20081229,7363,TEAM,TECHTEAM GLOBAL INC,,4.82,5.26,5.26,85766,0.105042,4.24,5.44,10884,4.84,734,0.105042,-0.004742,-0.015756
11910,20081230,7363,TEAM,TECHTEAM GLOBAL INC,,5.01,5.48,5.01,53487,-0.047529,5.2,5.24,10884,5.25,452,-0.047529,0.024607,0.021245
11910,20081231,7363,TEAM,TECHTEAM GLOBAL INC,5,5.12,5.85,5.85,36965,0.167665,5.64,5.75,10883,5.12,167,0.167665,0.017386,0.034415
11910,20090102,7363,TEAM,TECHTEAM GLOBAL INC,,5.46,5.74,5.48,3521,-0.063248,5.47,5.56,10883,5.72,21,-0.063248,0.0303,0.038221
11910,20090105,7363,TEAM,TECHTEAM GLOBAL INC,,5.4,5.7799,5.5125,15586,0.005931,5.4,6.06,10883,5.4,86,0.005931,-0.000602,0.016737
11910,20090106,7363,TEAM,TECHTEAM GLOBAL INC,,5.77,6.3,6.3,12300,0.142857,6.12,6.3,10883,5.77,118,0.142857,0.011287,0.03362
11910,20090107,7363,TEAM,TECHTEAM GLOBAL INC,,5.78,6.4,5.84,3684,-0.073016,5.84,5.94,10883,6.4,39,-0.073016,-0.030862,-0.022326
11910,20090108,7363,TEAM,TECHTEAM GLOBAL INC,,5.4,6.08,5.76,5223,-0.013699,5.61,5.78,10883,5.62,31,-0.013699,0.00625,0.011791
11910,20090109,7363,TEAM,TECHTEAM GLOBAL INC,,5.65,6.02,5.91,2120,0.026042,5.84,6.05,10883,5.65,21,0.026042,-0.02242,-0.018761
11910,20090112,7363,TEAM,TECHTEAM GLOBAL INC,,5.46,6.45,5.55,6249,-0.060914,5.48,5.89,10883,5.73,46,-0.060914,-0.025562,-0.026627
11910,20090113,7363,TEAM,TECHTEAM GLOBAL INC,,5.4,5.76,5.4,8005,-0.027027,5.4,5.63,10883,5.42,56,-0.027027,0.00343,0.003321
11910,20090114,7363,TEAM,TECHTEAM GLOBAL INC,5,5,5.5,5.03,35041,-0.068518,5.04,5.27,10883,5.41,104,-0.068518,-0.035271,-0.035146
11910,20090115,7363,TEAM,TECHTEAM GLOBAL INC,5,5.02,5.32,5.02,11969,-0.001988,5.02,5.08,10883,5.32,85,-0.001988,0.004583,0.00556
11910,20090116,7363,TEAM,TECHTEAM GLOBAL INC,,5.1,5.54,5.16,4789,0.027888,5.09,5.21,10883,5.54,40,0.027888,0.008429,0.008781
11910,20090120,7363,TEAM,TECHTEAM GLOBAL INC,,5.02,5.52,5.21,12070,0.00969,5.2,5.39,10883,5.02,56,0.00969,-0.055283,-0.051546
11910,20090121,7363,TEAM,TECHTEAM GLOBAL INC,,5.1,5.49,5.43,2342,0.042226,5.05,5.1,10883,5.456,18,0.042226,0.043054,0.036035
11910,20090122,7363,TEAM,TECHTEAM GLOBAL INC,5,5.02,5.4,5.07,12900,-0.066298,5.03,5.25,10883,5.4,84,-0.066298,-0.018295,-0.021994
11910,20090123,7363,TEAM,TECHTEAM GLOBAL INC,5,5.11,5.29,5.11,6101,0.00789,5.03,5.06,10883,5.18,35,0.00789,0.006841,0.003358
11910,20090126,7363,TEAM,TECHTEAM GLOBAL INC,,4.7,5.16,4.7,11930,-0.080235,4.66,4.86,10883,5.16,49,-0.080235,0.006125,0.010055
11910,20090127,7363,TEAM,TECHTEAM GLOBAL INC,,4.71,4.88,4.71,2557,0.002128,4.76,4.93,10883,4.87,21,0.002128,0.011294,0.010029
11910,20090128,7363,TEAM,TECHTEAM GLOBAL INC,,4.15,4.694,4.34,24798,-0.078556,4.29,4.38,10883,4.67,117,-0.078556,0.033594,0.03037
11910,20090129,7363,TEAM,TECHTEAM GLOBAL INC,,4.37,4.99,4.71,27118,0.085253,4.42,4.72,10883,4.37,121,0.085253,-0.032894,-0.028987
11910,20090130,7363,TEAM,TECHTEAM GLOBAL INC,,4.5201,4.8,4.8,7420,0.019108,4.68,4.82,10883,4.5201,57,0.019108,-0.02079,-0.012876
11910,20090202,7363,TEAM,TECHTEAM GLOBAL INC,,4.16,4.72,4.36,21592,-0.091667,4.25,4.55,10883,4.66,154,-0.091667,-0.001103,0.001473
11910,20090203,7363,TEAM,TECHTEAM GLOBAL INC,,4.0221,4.39,4.17,6936,-0.043578,4.17,4.25,10883,4.23,54,-0.043578,0.01431,0.008913
11910,20090204,7363,TEAM,TECHTEAM GLOBAL INC,,4.01,4.27,4.02,6719,-0.035971,3.97,4.09,10883,4.12,37,-0.035971,-0.005041,-0.004255
11910,20090205,7363,TEAM,TECHTEAM GLOBAL INC,,3.98,4.1,4.02,9443,0,3.96,4.03,10883,4.06,36,0,0.015462,0.011872
11910,20090206,7363,TEAM,TECHTEAM GLOBAL INC,,3.92,4.08,4,30624,-0.004975,4,4.04,10883,4.05,92,-0.004975,0.027644,0.026639
11910,20090209,7363,TEAM,TECHTEAM GLOBAL INC,,3.94,4.06,4.03,11320,0.0075,4.03,4.05,10883,4.02,42,0.0075,0.001197,0.000726
11910,20090210,7363,TEAM,TECHTEAM GLOBAL INC,,3.75,3.98,3.8,7231,-0.057072,3.77,3.81,10883,3.98,30,-0.057072,-0.046047,-0.035136
11910,20090211,7363,TEAM,TECHTEAM GLOBAL INC,,3.8299,4.24,4.03,59368,0.060526,4.03,4.04,10883,3.83,144,0.060526,0.006879,0.004182
11910,20090212,7363,TEAM,TECHTEAM GLOBAL INC,,4.09,4.25,4.25,56125,0.054591,4.23,4.27,10883,4.09,138,0.054591,0.002453,-0.000841
11910,20090213,7363,TEAM,TECHTEAM GLOBAL INC,,4.06,4.29,4.28,20875,0.007059,4.28,4.29,10883,4.06,23,0.007059,-0.008898,-0.002143
11910,20090217,7363,TEAM,TECHTEAM GLOBAL INC,,4.13,4.24,4.14,6400,-0.03271,4.13,4.19,10883,4.141,45,-0.03271,-0.0454,-0.041936
11910,20090218,7363,TEAM,TECHTEAM GLOBAL INC,,4.07,4.2,4.2,1557,0.014493,4.09,4.2,10883,4.07,9,0.014493,-0.003958,-0.011852
11910,20090219,7363,TEAM,TECHTEAM GLOBAL INC,,4.13,4.39,4.26,19054,0.014286,4.05,4.33,10883,4.18,67,0.014286,-0.011584,-0.015205
11910,20090220,7363,TEAM,TECHTEAM GLOBAL INC,,4.1976,4.32,4.3199,3303,0.014061,4.25,4.33,10883,4.2,12,0.014061,-0.011943,-0.020079
11910,20090223,7363,TEAM,TECHTEAM GLOBAL INC,,3.94,4.21,4.05,9910,-0.062478,4.04,4.14,10883,4.114,48,-0.062478,-0.036197,-0.030867
11910,20090224,7363,TEAM,TECHTEAM GLOBAL INC,,4.07,4.2,4.07,13000,0.004938,4.06,4.19,10883,4.13,53,0.004938,0.040176,0.037721
11910,20090225,7363,TEAM,TECHTEAM GLOBAL INC,,4.0201,4.15,4.15,55528,0.019656,4.15,4.2,10883,4.0201,59,0.019656,-0.010877,-0.015701
11910,20090226,7363,TEAM,TECHTEAM GLOBAL INC,,4.17,4.5,4.3,40702,0.036145,4.27,4.44,10883,4.2,79,0.036145,-0.012328,-0.00725
11910,20090227,7363,TEAM,TECHTEAM GLOBAL INC,5,4.25,4.59,4.25,11547,-0.011628,4.25,4.29,10883,4.3,58,-0.011628,-0.019093,-0.010485
11910,20090302,7363,TEAM,TECHTEAM GLOBAL INC,,4.21,4.45,4.26,11277,0.002353,4.25,4.29,10883,4.24,56,0.002353,-0.049856,-0.055772
11910,20090303,7363,TEAM,TECHTEAM GLOBAL INC,,3.79,4.21,3.79,11640,-0.110329,3.74,3.91,10883,4.12,39,-0.110329,-0.006341,-0.013959
11910,20090304,7363,TEAM,TECHTEAM GLOBAL INC,5,3.5,3.89,3.65,32346,-0.036939,3.65,3.66,10883,3.8,164,-0.036939,0.025591,0.029521
11910,20090305,7363,TEAM,TECHTEAM GLOBAL INC,5,3.67,3.8499,3.7399,4616,0.02463,3.69,3.71,10883,3.8499,20,0.02463,-0.041898,-0.049146
11910,20090306,7363,TEAM,TECHTEAM GLOBAL INC,,3.55,3.8,3.55,13467,-0.050777,3.55,3.62,10883,3.7006,49,-0.050777,0.001402,-0.002324
11910,20090309,7363,TEAM,TECHTEAM GLOBAL INC,,3.55,3.65,3.55,9156,0,3.55,3.64,10883,3.58,19,0,-0.01247,-0.016503
11910,20090310,7363,TEAM,TECHTEAM GLOBAL INC,,3.55,3.73,3.73,7018,0.050704,3.73,3.79,10883,3.56,33,0.050704,0.063308,0.062493
11910,20090311,7363,TEAM,TECHTEAM GLOBAL INC,,3.7,3.83,3.76,1012,0.008043,3.71,3.79,10883,3.825,9,0.008043,0.003688,0.004968
11910,20090312,7363,TEAM,TECHTEAM GLOBAL INC,,3.81,3.92,3.92,3000,0.042553,3.96,4.07,10883,3.84,9,0.042553,0.041657,0.050889
11910,20090313,7363,TEAM,TECHTEAM GLOBAL INC,,3.69,4.07,3.75,9470,-0.043367,3.72,3.9,10883,4.05,67,-0.043367,0.005981,0.009467
11910,20090316,7363,TEAM,TECHTEAM GLOBAL INC,,3.75,4.02,3.88,12767,0.034667,3.81,3.93,10883,3.76,64,0.034667,-0.004807,0.001224
11910,20090317,7363,TEAM,TECHTEAM GLOBAL INC,,3.69,4.5,4.18,20095,0.07732,4.15,4.3,10883,3.72,126,0.07732,0.030986,0.030329
11910,20090318,7363,TEAM,TECHTEAM GLOBAL INC,,3.96,4.31,4.18,4964,0,4.15,4.28,10883,4.04,36,0,0.022323,0.034035
11910,20090319,7363,TEAM,TECHTEAM GLOBAL INC,,4.27,4.43,4.43,1598,0.059809,4.33,4.44,10883,4.34,9,0.059809,-0.007998,0.007594
11910,20090320,7363,TEAM,TECHTEAM GLOBAL INC,5,4.1,4.45,4.45,8389,0.004515,4.1,4.23,10892,4.21,53,0.004515,-0.020405,-0.014321
11910,20090323,7363,TEAM,TECHTEAM GLOBAL INC,5,4.34,4.71,4.4,7606,-0.011236,4.36,4.45,10892,4.71,45,-0.011236,0.068898,0.064724
11910,20090324,7363,TEAM,TECHTEAM GLOBAL INC,5,4.38,5.03,4.99,16904,0.134091,4.87,4.97,10892,4.38,60,0.134091,-0.020005,-0.016143
11910,20090325,7363,TEAM,TECHTEAM GLOBAL INC,5,4.64,4.9,4.9,1970,-0.018036,4.75,4.9,10892,4.64,15,-0.018036,0.008934,0.017629
11910,20090326,7363,TEAM,TECHTEAM GLOBAL INC,5,4.29,4.72,4.72,19994,-0.036735,4.72,4.82,10892,4.33,93,-0.036735,0.025219,0.035754
11910,20090327,7363,TEAM,TECHTEAM GLOBAL INC,,4.56,5.25,4.99,15281,0.057203,4.99,5.04,10892,4.71,67,0.057203,-0.021848,-0.021833
11910,20090330,7363,TEAM,TECHTEAM GLOBAL INC,,4.55,4.65,4.65,926,-0.068136,4.65,4.84,10892,4.58,8,-0.068136,-0.036284,-0.031938
11910,20090331,7363,TEAM,TECHTEAM GLOBAL INC,5,4.71,4.88,4.88,901,0.049462,4.89,4.98,11012,4.75,8,0.049462,0.014239,0.020124
11910,20090401,7363,TEAM,TECHTEAM GLOBAL INC,,4.72,4.94,4.8506,2665,-0.006025,4.84,4.9,11012,4.93,22,-0.006025,0.01693,0.015614
11910,20090402,7363,TEAM,TECHTEAM GLOBAL INC,5,4.44,5,4.63,9863,-0.045479,4.52,4.75,11012,4.74,43,-0.045479,0.031671,0.038943
11910,20090403,7363,TEAM,TECHTEAM GLOBAL INC,,4.64,4.8,4.64,3850,0.00216,4.64,4.78,11012,4.74,25,0.00216,0.011581,0.012668
11910,20090406,7363,TEAM,TECHTEAM GLOBAL INC,5,4.54,4.86,4.7,11497,0.012931,4.7,4.74,11012,4.62,87,0.012931,-0.009847,-0.007253
11910,20090407,7363,TEAM,TECHTEAM GLOBAL INC,,4.67,4.73,4.73,4491,0.006383,4.72,4.74,11012,4.71,32,0.006383,-0.025075,-0.020181
11910,20090408,7363,TEAM,TECHTEAM GLOBAL INC,,4.68,4.8399,4.79,2110,0.012685,4.78,4.84,11012,4.72,16,0.012685,0.013077,0.01741
11910,20090409,7363,TEAM,TECHTEAM GLOBAL INC,,4.77,4.98,4.98,3212,0.039666,4.92,5,11012,4.79,30,0.039666,0.039408,0.045828
11910,20090413,7363,TEAM,TECHTEAM GLOBAL INC,,4.75,5.01,4.76,22886,-0.044177,4.76,4.81,11012,4.87,101,-0.044177,0.003853,0.007148
11910,20090414,7363,TEAM,TECHTEAM GLOBAL INC,,4.75,4.91,4.8,31563,0.008403,4.77,4.81,11012,4.8,209,0.008403,-0.019521,-0.012781
11910,20090415,7363,TEAM,TECHTEAM GLOBAL INC,,4.7,5.21,4.76,6018,-0.008333,4.75,4.77,11012,4.83,26,-0.008333,0.012403,0.013558
11910,20090416,7363,TEAM,TECHTEAM GLOBAL INC,,4.7551,5.04,4.93,2058,0.035714,4.91,4.96,11012,4.7551,16,0.035714,0.016053,0.020349
11910,20090417,7363,TEAM,TECHTEAM GLOBAL INC,,4.83,5,4.96,5014,0.006085,4.93,4.96,11012,4.93,36,0.006085,0.006017,0.013748
11910,20090420,7363,TEAM,TECHTEAM GLOBAL INC,,4.8101,4.82,4.82,720,-0.028226,4.81,4.93,11012,4.8101,5,-0.028226,-0.044772,-0.042046
11910,20090421,7363,TEAM,TECHTEAM GLOBAL INC,,4.82,5.14,4.92,6516,0.020747,4.91,4.96,11012,5.14,34,0.020747,0.022662,0.028919
11910,20090422,7363,TEAM,TECHTEAM GLOBAL INC,,4.775,4.99,4.9,2100,-0.004065,4.7,4.94,11012,4.775,17,-0.004065,-0.005814,0.005351
11910,20090423,7363,TEAM,TECHTEAM GLOBAL INC,,4.85,4.89,4.89,8553,-0.002041,4.86,4.99,11012,4.88,47,-0.002041,0.009201,0.001693
11910,20090424,7363,TEAM,TECHTEAM GLOBAL INC,,4.92,5.54,5.46,18661,0.116564,5.42,5.47,11012,4.92,80,0.116564,0.018991,0.021483
11910,20090427,7363,TEAM,TECHTEAM GLOBAL INC,,5.23,5.43,5.41,5562,-0.009158,5.32,5.4,11012,5.23,31,-0.009158,-0.011385,-0.011724
11910,20090428,7363,TEAM,TECHTEAM GLOBAL INC,,5.21,5.41,5.21,2607,-0.036969,5.27,5.33,11012,5.31,20,-0.036969,-0.002949,0.004866
11910,20090429,7363,TEAM,TECHTEAM GLOBAL INC,,5.18,5.24,5.18,3000,-0.005758,5.17,5.21,11012,5.2,19,-0.005758,0.024343,0.028455
11910,20090430,7363,TEAM,TECHTEAM GLOBAL INC,,5.12,5.2,5.17,8930,-0.00193,5.13,5.18,11012,5.19,49,-0.00193,-0.0005,0.00418
11910,20090501,7363,TEAM,TECHTEAM GLOBAL INC,5,5.15,5.27,5.27,16150,0.019342,5.21,5.3,11011,5.16,63,0.019342,0.005911,0.008345
11910,20090504,7363,TEAM,TECHTEAM GLOBAL INC,,5.2134,5.53,5.5152,11570,0.046528,5.48,5.54,11011,5.2236,47,0.046528,0.035854,0.037603
11910,20090505,7363,TEAM,TECHTEAM GLOBAL INC,,5.15,5.63,5.31,6566,-0.037206,5.33,5.44,11011,5.48,55,-0.037206,-0.003555,0.00262
11910,20090506,7363,TEAM,TECHTEAM GLOBAL INC,,5.48,6.03,5.8819,8220,0.107702,5.87,5.96,11011,5.54,198,0.107702,0.015732,0.01504
11910,20090507,7363,TEAM,TECHTEAM GLOBAL INC,,5.47,5.88,5.7299,10536,-0.025842,5.72,5.82,11011,5.8758,92,-0.025842,-0.015612,-0.011422
11910,20090508,7363,TEAM,TECHTEAM GLOBAL INC,,5.75,5.93,5.93,6145,0.034922,5.85,5.93,11011,5.76,29,0.034922,0.027314,0.033944
11910,20090511,7363,TEAM,TECHTEAM GLOBAL INC,,5.75,6.02,5.98,6390,0.008432,5.97,5.98,11011,6,37,0.008432,-0.020973,-0.006886
11910,20090512,7363,TEAM,TECHTEAM GLOBAL INC,5,5.8204,6.07,6.07,4758,0.01505,6.01,6.09,11011,5.985,33,0.01505,-0.002699,-0.005804
11910,20090513,7363,TEAM,TECHTEAM GLOBAL INC,,5.81,6.03,6.03,1525,-0.00659,6,6.06,11011,6,11,-0.00659,-0.031544,-0.03735
11910,20090514,7363,TEAM,TECHTEAM GLOBAL INC,,5.81,6.04,5.9801,8178,-0.008275,5.9,6.05,11011,5.81,29,-0.008275,0.012324,0.01352
11910,20090515,7363,TEAM,TECHTEAM GLOBAL INC,,5.8,5.99,5.8,5765,-0.030117,5.88,6.02,11011,5.9,31,-0.030117,-0.010763,-0.008228
11910,20090518,7363,TEAM,TECHTEAM GLOBAL INC,,5.89,6,5.89,6937,0.015517,5.89,5.95,11011,5.98,33,0.015517,0.032821,0.034404
11910,20090519,7363,TEAM,TECHTEAM GLOBAL INC,,5.7,5.9299,5.74,82529,-0.025467,5.7,5.75,11011,5.9299,68,-0.025467,0.000372,0.004793
11910,20090520,7363,TEAM,TECHTEAM GLOBAL INC,,5.6,5.93,5.71,27605,-0.005226,5.7,5.72,11011,5.6,167,-0.005226,-0.001901,0.000185
11910,20090521,7363,TEAM,TECHTEAM GLOBAL INC,,5.59,5.88,5.65,12999,-0.010508,5.63,5.7,11011,5.59,81,-0.010508,-0.016788,-0.013953
11910,20090522,7363,TEAM,TECHTEAM GLOBAL INC,,5.56,5.73,5.7,36450,0.00885,5.54,5.7,11011,5.58,56,0.00885,-0.000131,0.000876
11910,20090526,7363,TEAM,TECHTEAM GLOBAL INC,,5.72,5.99,5.9,4184,0.035088,5.87,5.9,11011,5.73,41,0.035088,0.028112,0.027208
11910,20090527,7363,TEAM,TECHTEAM GLOBAL INC,,5.89,6.1,5.99,26877,0.015254,6.04,6.09,11011,5.89,31,0.015254,-0.017454,-0.010206
11910,20090528,7363,TEAM,TECHTEAM GLOBAL INC,5,5.99,6.01,6,1600,0.001669,5.99,6,11011,5.99,15,0.001669,0.014908,0.008145
11910,20090529,7363,TEAM,TECHTEAM GLOBAL INC,5,5.98,6.03,5.98,4680,-0.003333,5.99,6.01,11011,6,33,-0.003333,0.014736,0.014954
11910,20090601,7363,TEAM,TECHTEAM GLOBAL INC,,5.94,6.116,6.08,1346,0.016722,6.04,6.11,11011,5.94,8,0.016722,0.026965,0.029159
11910,20090602,7363,TEAM,TECHTEAM GLOBAL INC,,5.9196,6.11,5.9199,12600,-0.026332,5.78,5.92,11011,6.0101,37,-0.026332,0.003088,0.006465
11910,20090603,7363,TEAM,TECHTEAM GLOBAL INC,,5.86,6.09,6.08,3425,0.027044,6.04,6.09,11011,5.86,27,0.027044,-0.017411,-0.010969
11910,20090604,7363,TEAM,TECHTEAM GLOBAL INC,,6.15,6.8,6.8,10304,0.118421,6.8,6.86,11011,6.15,75,0.118421,0.013493,0.019853
11910,20090605,7363,TEAM,TECHTEAM GLOBAL INC,,6.34,6.9,6.8,12553,0,6.78,6.8,11011,6.9,89,0,-0.003171,0.001178
11910,20090608,7363,TEAM,TECHTEAM GLOBAL INC,,6.8,7.1,6.9,13104,0.014706,6.75,6.91,11011,6.8,72,0.014706,-0.002809,-0.003627
11910,20090609,7363,TEAM,TECHTEAM GLOBAL INC,,6.63,6.92,6.66,7492,-0.034783,6.76,6.8,11011,6.92,58,-0.034783,0.005445,0.008643
11910,20090610,7363,TEAM,TECHTEAM GLOBAL INC,,6.45,6.58,6.5,4990,-0.024024,6.5,6.59,11011,6.57,28,-0.024024,-0.00288,-0.002354
11910,20090611,7363,TEAM,TECHTEAM GLOBAL INC,,6.18,6.46,6.46,6067,-0.006154,6.34,6.46,11011,6.34,40,-0.006154,0.006898,0.010297
11910,20090612,7363,TEAM,TECHTEAM GLOBAL INC,,6.44,6.56,6.45,1196,-0.001548,6.45,6.47,11011,6.56,22,-0.001548,-0.001398,-0.002662
11910,20090615,7363,TEAM,TECHTEAM GLOBAL INC,5,6.21,6.59,6.3,5616,-0.023256,6.29,6.3,11011,6.59,39,-0.023256,-0.025422,-0.023442
11910,20090616,7363,TEAM,TECHTEAM GLOBAL INC,5,6.28,6.31,6.2999,875,-0.000016,6.13,6.35,11011,6.29,7,-0.000016,-0.013129,-0.011502
11910,20090617,7363,TEAM,TECHTEAM GLOBAL INC,,6.04,6.24,6.09,1264,-0.033318,6.09,6.11,11011,6.24,14,-0.033318,-0.003043,-0.001974
11910,20090618,7363,TEAM,TECHTEAM GLOBAL INC,,6.12,6.12,6.12,230,0.004926,6.07,6.12,11011,6.12,2,0.004926,0.006488,0.002944
11910,20090619,7363,TEAM,TECHTEAM GLOBAL INC,,6.15,6.836,6.35,5218,0.037582,6.15,6.35,11011,6.836,24,0.037582,0.004042,0.006121
11910,20090622,7363,TEAM,TECHTEAM GLOBAL INC,5,5.88,6.7445,5.9,6861,-0.070866,5.9,5.93,11011,6.625,58,-0.070866,-0.033272,-0.033507
11910,20090623,7363,TEAM,TECHTEAM GLOBAL INC,5,5.89,6.3,5.95,3605,0.008475,5.95,5.98,11011,6.3,25,0.008475,0.002132,-0.002855
11910,20090624,7363,TEAM,TECHTEAM GLOBAL INC,,5.93,6.08,5.93,5064,-0.003361,5.93,6.02,11011,6.01,27,-0.003361,0.008894,0.008541
11910,20090625,7363,TEAM,TECHTEAM GLOBAL INC,,6.24,6.25,6.25,202,0.053963,6.25,6.27,11011,6.24,3,0.053963,0.021569,0.02192
11910,20090626,7363,TEAM,TECHTEAM GLOBAL INC,5,6.32,6.73,6.72,3983,0.0752,6.7,6.73,11011,6.44,37,0.0752,0.000649,0.009455
11910,20090629,7363,TEAM,TECHTEAM GLOBAL INC,5,6.71,7.05,6.98,27147,0.038691,6.51,6.97,11011,6.71,60,0.038691,0.007658,0.002581
11910,20090630,7363,TEAM,TECHTEAM GLOBAL INC,5,6.54,6.84,6.54,9553,-0.063037,6.55,6.59,11128,6.78,73,-0.063037,-0.007815,-0.001845
11910,20090701,7363,TEAM,TECHTEAM GLOBAL INC,5,6.525,7.13,7.13,3200,0.090214,6.83,7.13,11128,6.53,23,0.090214,0.005924,0.011637
11910,20090702,7363,TEAM,TECHTEAM GLOBAL INC,,6.51,7.1,6.5595,8834,-0.080014,6.37,6.58,11128,7.1,46,-0.080014,-0.028214,-0.024559
11910,20090706,7363,TEAM,TECHTEAM GLOBAL INC,,6.03,6.66,6.49,14140,-0.010595,6.1,6.49,11128,6.405,67,-0.010595,-0.001733,-0.008899
11910,20090707,7363,TEAM,TECHTEAM GLOBAL INC,,6.11,6.59,6.15,9050,-0.052388,5.92,6.14,11128,6.59,41,-0.052388,-0.019557,-0.016017
11910,20090708,7363,TEAM,TECHTEAM GLOBAL INC,,5.74,6.27,5.74,6315,-0.066667,5.79,5.9,11128,5.96,34,-0.066667,-0.004059,-0.011067
11910,20090709,7363,TEAM,TECHTEAM GLOBAL INC,5,5.7,6.03,5.71,14143,-0.005226,5.65,5.74,11128,5.86,68,-0.005226,0.004852,0.004944
11910,20090710,7363,TEAM,TECHTEAM GLOBAL INC,5,5.69,5.76,-5.725,1,0.002627,5.69,5.76,11128,,1,0.002627,-0.003392,-0.000134
11910,20090713,7363,TEAM,TECHTEAM GLOBAL INC,5,5.41,5.91,5.68,12769,-0.00786,5.7,5.98,11128,5.91,122,-0.00786,0.023814,0.015919
11910,20090714,7363,TEAM,TECHTEAM GLOBAL INC,,5.72,5.86,5.78,21535,0.017606,5.64,5.78,11128,5.76,18,0.017606,0.00725,0.008303
11910,20090715,7363,TEAM,TECHTEAM GLOBAL INC,,5.77,6.01,6.01,33490,0.039792,6.01,6.2,11128,5.855,110,0.039792,0.031101,0.029538
11910,20090716,7363,TEAM,TECHTEAM GLOBAL INC,5,5.91,6.25,5.91,1977,-0.016639,5.92,6.01,11128,6.25,12,-0.016639,0.009434,0.008213
11910,20090717,7363,TEAM,TECHTEAM GLOBAL INC,,5.91,5.9699,5.91,1340,0,5.76,5.91,11128,5.9699,8,0,-0.000101,-0.001883
11910,20090720,7363,TEAM,TECHTEAM GLOBAL INC,5,5.87,6.1,6.06,10472,0.025381,5.83,6.07,11128,6.08,50,0.025381,0.01348,0.015309
11910,20090721,7363,TEAM,TECHTEAM GLOBAL INC,,6.02,6.25,6.15,3900,0.014852,6.06,6.1,11128,6.02,26,0.014852,0.002481,-0.001774
11910,20090722,7363,TEAM,TECHTEAM GLOBAL INC,,5.97,6.18,6.18,4461,0.004878,6.11,6.18,11128,5.97,30,0.004878,0.000491,0.006205
11910,20090723,7363,TEAM,TECHTEAM GLOBAL INC,,6.05,6.16,6.094,800,-0.013916,6.1,6.14,11128,6.05,7,-0.013916,0.024188,0.022647
11910,20090724,7363,TEAM,TECHTEAM GLOBAL INC,,6.12,6.17,6.17,4200,0.012471,6.13,6.15,11128,6.12,26,0.012471,0.004311,0.006532
11910,20090727,7363,TEAM,TECHTEAM GLOBAL INC,,6.01,6.33,6.3,12083,0.02107,6.17,6.32,11128,6.11,79,0.02107,0.003427,0.007145
11910,20090728,7363,TEAM,TECHTEAM GLOBAL INC,,6.225,6.24,6.225,1000,-0.011905,6.2,6.3,11128,6.24,4,-0.011905,-0.003765,0.001271
11910,20090729,7363,TEAM,TECHTEAM GLOBAL INC,,6.37,6.7,6.62,3100,0.063454,6.52,6.64,11128,6.52,21,0.063454,-0.006683,-0.005267
11910,20090730,7363,TEAM,TECHTEAM GLOBAL INC,5,6.31,6.696,6.49,5939,-0.019637,6.49,6.54,11128,6.61,42,-0.019637,0.013275,0.01481
11910,20090731,7363,TEAM,TECHTEAM GLOBAL INC,5,6.44,6.6099,6.6099,1265,0.018475,6.43,6.57,11128,6.44,9,0.018475,0.002659,0.004931
11910,20090803,7363,TEAM,TECHTEAM GLOBAL INC,5,6.44,6.6,6.6,8342,-0.001498,6.6,6.61,11128,6.47,42,-0.001498,0.017942,0.018979
11910,20090804,7363,TEAM,TECHTEAM GLOBAL INC,,6.62,6.818,6.81,6385,0.031818,6.81,6.94,11128,6.62,37,0.031818,0.002464,0.006793
11910,20090805,7363,TEAM,TECHTEAM GLOBAL INC,,6.34,6.92,6.92,10669,0.016153,6.92,6.93,11128,6.8,61,0.016153,-0.002357,0.000454
11910,20090806,7363,TEAM,TECHTEAM GLOBAL INC,,6.85,6.92,6.92,5637,0,6.92,6.93,11128,6.85,34,0,-0.007608,-0.007286
11910,20090807,7363,TEAM,TECHTEAM GLOBAL INC,,6.39,6.76,6.5,11700,-0.060694,6.51,6.55,11128,6.702,63,-0.060694,0.013295,0.017831
11910,20090810,7363,TEAM,TECHTEAM GLOBAL INC,,6.62,6.7,6.63,3052,0.02,6.63,6.92,11128,6.7,19,0.02,-0.004404,0.00206
11910,20090811,7363,TEAM,TECHTEAM GLOBAL INC,,6.65,6.9199,6.66,3970,0.004525,6.65,6.68,11128,6.8,27,0.004525,-0.013944,-0.011763
11910,20090812,7363,TEAM,TECHTEAM GLOBAL INC,,6.52,6.61,6.52,12650,-0.021021,6.48,6.5,11128,6.58,45,-0.021021,0.011943,0.012078
11910,20090813,7363,TEAM,TECHTEAM GLOBAL INC,,6.4,6.52,6.5,18260,-0.003067,6.44,6.5,11128,6.46,50,-0.003067,0.008309,0.007076
11910,20090814,7363,TEAM,TECHTEAM GLOBAL INC,,6.4,6.5001,6.49,3032,-0.001538,6.49,6.51,11128,6.5,20,-0.001538,-0.010031,-0.012103
11910,20090817,7363,TEAM,TECHTEAM GLOBAL INC,,6.3,6.37,6.31,7541,-0.027735,6.31,6.52,11128,6.36,53,-0.027735,-0.026142,-0.025955
11910,20090818,7363,TEAM,TECHTEAM GLOBAL INC,,6.3,6.4299,6.4,954,0.014263,6.4,6.48,11128,6.3,10,0.014263,0.011877,0.014958
11910,20090819,7363,TEAM,TECHTEAM GLOBAL INC,,6.3755,6.59,6.49,4088,0.014062,6.49,6.52,11128,6.59,34,0.014062,0.006796,0.00648
11910,20090820,7363,TEAM,TECHTEAM GLOBAL INC,,6.5,6.55,6.55,12958,0.009245,6.51,6.56,11128,6.504,40,0.009245,0.010621,0.010238
11910,20090821,7363,TEAM,TECHTEAM GLOBAL INC,,6.5,6.6271,6.54,770,-0.001527,6.53,6.63,11128,6.5,14,-0.001527,0.018065,0.016415
11910,20090824,7363,TEAM,TECHTEAM GLOBAL INC,5,6.85,7.02,7.02,6425,0.073394,6.94,7.14,11128,6.86,33,0.073394,-0.000886,0.00104
11910,20090825,7363,TEAM,TECHTEAM GLOBAL INC,5,6.89,7.18,7.03,7686,0.001425,7.01,7.04,11128,7.02,52,0.001425,0.002724,0.005296
11910,20090826,7363,TEAM,TECHTEAM GLOBAL INC,,6.9899,7.143,6.9899,1772,-0.005704,7.01,7.1,11128,7.07,22,-0.005704,-0.000872,0.003415
11910,20090827,7363,TEAM,TECHTEAM GLOBAL INC,,7.01,7.18,7.18,4349,0.027196,7.15,7.18,11128,7.09,24,0.027196,0.002952,0.002886
11910,20090828,7363,TEAM,TECHTEAM GLOBAL INC,,7.2,7.38,7.36,5986,0.02507,7.31,7.38,11128,7.2,32,0.02507,-0.001549,-0.00182
11910,20090831,7363,TEAM,TECHTEAM GLOBAL INC,,7.28,7.38,7.29,6472,-0.009511,7.29,7.36,11128,7.37,35,-0.009511,-0.009212,-0.00901
11910,20090901,7363,TEAM,TECHTEAM GLOBAL INC,5,7.26,7.54,7.3,13817,0.001372,7.29,7.32,11128,7.35,71,0.001372,-0.022005,-0.019693
11910,20090902,7363,TEAM,TECHTEAM GLOBAL INC,,7.3,7.6,7.55,6856,0.034247,7.54,7.59,11128,7.3,42,0.034247,-0.002831,-0.000708
11910,20090903,7363,TEAM,TECHTEAM GLOBAL INC,,7.41,7.84,7.66,16729,0.014569,7.66,7.84,11128,7.84,90,0.014569,0.010635,0.01055
11910,20090904,7363,TEAM,TECHTEAM GLOBAL INC,,7.4,7.56,7.5195,4154,-0.018342,7.59,7.85,11128,7.55,29,-0.018342,0.013915,0.013169
11910,20090908,7363,TEAM,TECHTEAM GLOBAL INC,,7.59,7.79,7.59,9223,0.009376,7.51,7.64,11128,7.79,50,0.009376,0.010282,0.011679
11910,20090909,7363,TEAM,TECHTEAM GLOBAL INC,,7.25,7.89,7.31,17319,-0.036891,7.26,7.31,11128,7.6,92,-0.036891,0.007723,0.011559
11910,20090910,7363,TEAM,TECHTEAM GLOBAL INC,,7.29,7.89,7.848,12516,0.073598,7.8,7.86,11128,7.31,95,0.073598,0.011135,0.012868
11910,20090911,7363,TEAM,TECHTEAM GLOBAL INC,,7.5,8.18,7.54,21088,-0.039246,7.53,7.62,11128,7.8,202,-0.039246,-0.00018,0.001629
11910,20090914,7363,TEAM,TECHTEAM GLOBAL INC,,7.52,8.08,8.08,7722,0.071618,8.07,8.14,11128,7.52,77,0.071618,0.006347,0.008033
11910,20090915,7363,TEAM,TECHTEAM GLOBAL INC,,8.03,8.39,8.21,8104,0.016089,8.21,8.39,11128,8.14,73,0.016089,0.006156,0.009161
11910,20090916,7363,TEAM,TECHTEAM GLOBAL INC,,8,8.5,8.33,14691,0.014616,8.35,8.44,11128,8.38,73,0.014616,0.01623,0.017363
11910,20090917,7363,TEAM,TECHTEAM GLOBAL INC,,8.35,8.494,8.35,4312,0.002401,8.37,8.45,11128,8.46,36,0.002401,-0.003799,-0.000059
11910,20090918,7363,TEAM,TECHTEAM GLOBAL INC,,8.3631,8.64,8.64,3801,0.034731,8.51,8.6,11128,8.3653,31,0.034731,0.001803,0.002374
11910,20090921,7363,TEAM,TECHTEAM GLOBAL INC,,8.24,9.24,8.94,22103,0.034722,8.93,9.05,11128,8.63,159,0.034722,-0.00429,-0.001907
11910,20090922,7363,TEAM,TECHTEAM GLOBAL INC,,8.77,9.785,9.19,44569,0.027964,9.17,9.2,11128,9.05,302,0.027964,0.00851,0.0095
11910,20090923,7363,TEAM,TECHTEAM GLOBAL INC,5,8.8518,9.51,8.89,27083,-0.032644,8.85,8.9,11128,8.94,163,-0.032644,-0.010399,-0.004771
11910,20090924,7363,TEAM,TECHTEAM GLOBAL INC,5,8.8,9.79,9.02,24678,0.014623,8.97,9.02,11128,8.8,146,0.014623,-0.012782,-0.016009
11910,20090925,7363,TEAM,TECHTEAM GLOBAL INC,5,9,9.5,9,24154,-0.002217,9.01,9.03,11128,9,148,-0.002217,-0.006349,-0.00246
11910,20090928,7363,TEAM,TECHTEAM GLOBAL INC,,8.79,9.45,8.845,16877,-0.017222,8.88,9.04,11128,9.14,148,-0.017222,0.017756,0.015544
11910,20090929,7363,TEAM,TECHTEAM GLOBAL INC,5,8.61,9.11,8.65,11794,-0.022046,8.63,8.68,11128,8.95,103,-0.022046,-0.001135,0.000021
11910,20090930,7363,TEAM,TECHTEAM GLOBAL INC,5,8.5,8.91,8.5,4122,-0.017341,8.5,8.58,11133,8.6,57,-0.017341,-0.002949,-0.004365
11910,20091001,7363,TEAM,TECHTEAM GLOBAL INC,,7.55,8.25,7.58,28667,-0.108235,7.58,7.99,11133,8.25,132,-0.108235,-0.027161,-0.024291
11910,20091002,7363,TEAM,TECHTEAM GLOBAL INC,,7.12,7.67,7.2,45589,-0.050132,7.19,7.23,11133,7.52,115,-0.050132,-0.00537,-0.00652
11910,20091005,7363,TEAM,TECHTEAM GLOBAL INC,5,7.18,7.41,7.18,12209,-0.002778,7.26,7.32,11133,7.25,57,-0.002778,0.015992,0.015665
11910,20091006,7363,TEAM,TECHTEAM GLOBAL INC,,7.253,7.36,7.33,3380,0.020891,7.24,7.3,11133,7.33,29,0.020891,0.014532,0.01338
11910,20091007,7363,TEAM,TECHTEAM GLOBAL INC,,7.17,7.32,7.17,9898,-0.021828,7.16,7.17,11133,7.32,48,-0.021828,0.002709,0.00231
11910,20091008,7363,TEAM,TECHTEAM GLOBAL INC,,7.01,7.51,7.09,23648,-0.011158,7.07,7.11,11133,7.16,121,-0.011158,0.00967,0.009247
11910,20091009,7363,TEAM,TECHTEAM GLOBAL INC,,7,7.91,7.49,41732,0.056417,7.41,7.57,11133,7.09,245,0.056417,0.005217,0.006551
11910,20091012,7363,TEAM,TECHTEAM GLOBAL INC,,7.5,7.85,7.65,3928,0.021362,7.75,7.91,11133,7.81,69,0.021362,0.003887,0.000513
11910,20091013,7363,TEAM,TECHTEAM GLOBAL INC,,7.5,7.8085,7.68,4954,0.003922,7.68,7.8,11133,7.63,32,0.003922,-0.002009,-0.000771
11910,20091014,7363,TEAM,TECHTEAM GLOBAL INC,,7.42,7.89,7.58,5131,-0.013021,7.49,7.59,11133,7.89,40,-0.013021,0.017725,0.014018
11910,20091015,7363,TEAM,TECHTEAM GLOBAL INC,,7.14,7.88,7.79,27912,0.027704,7.67,7.8,11133,7.4,135,0.027704,0.002394,0.000114
11910,20091016,7363,TEAM,TECHTEAM GLOBAL INC,,7.45,7.75,7.51,16033,-0.035943,7.51,7.61,11133,7.46,163,-0.035943,-0.008154,-0.006072
11910,20091019,7363,TEAM,TECHTEAM GLOBAL INC,5,7.6,8,7.65,14299,0.018642,7.65,7.95,11133,7.7,98,0.018642,0.009985,0.007863
11910,20091020,7363,TEAM,TECHTEAM GLOBAL INC,5,7.64,8,7.7,9690,0.006536,7.64,7.85,11133,7.67,100,0.006536,-0.007976,-0.009151
11910,20091021,7363,TEAM,TECHTEAM GLOBAL INC,,7.7,7.9,7.86,7771,0.020779,7.71,7.86,11133,7.7,86,0.020779,-0.008455,-0.007087
11910,20091022,7363,TEAM,TECHTEAM GLOBAL INC,5,7.52,7.952,7.952,7680,0.011705,7.95,7.97,11133,7.8,42,0.011705,0.010047,0.00695
11910,20091023,7363,TEAM,TECHTEAM GLOBAL INC,5,7.69,8.365,7.81,15783,-0.017857,7.69,7.83,11133,8,93,-0.017857,-0.012725,-0.013179
11910,20091026,7363,TEAM,TECHTEAM GLOBAL INC,,7.78,8.115,7.83,9301,0.002561,7.71,7.9,11133,7.87,67,0.002561,-0.013205,-0.012992
11910,20091027,7363,TEAM,TECHTEAM GLOBAL INC,,7.7,8.02,7.73,13128,-0.012771,7.74,7.9,11133,7.7,168,-0.012771,-0.006301,-0.010174
11910,20091028,7363,TEAM,TECHTEAM GLOBAL INC,,7.71,8.02,7.9,1786,0.021992,7.9,7.96,11133,7.97,18,0.021992,-0.024016,-0.030507
11910,20091029,7363,TEAM,TECHTEAM GLOBAL INC,,7.7,8.2,7.72,6294,-0.022785,7.72,7.77,11133,7.8,57,-0.022785,0.023717,0.020269
11910,20091030,7363,TEAM,TECHTEAM GLOBAL INC,5,7.7,7.96,7.7,9125,-0.002591,7.7,7.93,11130,7.785,84,-0.002591,-0.028014,-0.023906
11910,20091102,7363,TEAM,TECHTEAM GLOBAL INC,5,7.7,7.939,7.8,2940,0.012987,7.71,7.83,11130,7.7,20,0.012987,0.005046,-0.001091
11910,20091103,7363,TEAM,TECHTEAM GLOBAL INC,,7.79,8.47,8.19,15233,0.05,8.18,8.25,11130,8.47,83,0.05,0.005715,0.009361
11910,20091104,7363,TEAM,TECHTEAM GLOBAL INC,,8.072,8.37,8.19,9291,0,8.13,8.45,11130,8.37,78,0,0.000573,-0.002537
11910,20091105,7363,TEAM,TECHTEAM GLOBAL INC,,7.85,8.11,7.8855,7101,-0.037179,7.85,7.98,11130,8.09,44,-0.037179,0.01927,0.020203
11910,20091106,7363,TEAM,TECHTEAM GLOBAL INC,,7.89,8.35,7.9,5734,0.001839,7.9,8,11130,8.27,46,0.001839,0.001449,-0.000677
11910,20091109,7363,TEAM,TECHTEAM GLOBAL INC,,7.71,7.908,7.71,3698,-0.024051,7.71,7.82,11130,7.872,38,-0.024051,0.023071,0.01561
11910,20091110,7363,TEAM,TECHTEAM GLOBAL INC,5,6.62,7.53,7.25,26891,-0.059663,6.95,7.27,11130,7.21,197,-0.059663,-0.00089,-0.006625
11910,20091111,7363,TEAM,TECHTEAM GLOBAL INC,5,6.74,7.16,7.1,9811,-0.02069,7.1,7.13,11130,7.16,54,-0.02069,0.005482,0.005813
11910,20091112,7363,TEAM,TECHTEAM GLOBAL INC,,7.04,7.43,7.28,5263,0.025352,7.09,7.27,11130,7.1,83,0.025352,-0.011834,-0.014165
11910,20091113,7363,TEAM,TECHTEAM GLOBAL INC,,6.86,7.32,7.09,19664,-0.026099,7.09,7.3,11130,7.21,178,-0.026099,0.006805,0.007858
11910,20091116,7363,TEAM,TECHTEAM GLOBAL INC,,6.64,7.38,7.35,28363,0.036671,7.07,7.42,11130,6.89,257,0.036671,0.015456,0.016677
11910,20091117,7363,TEAM,TECHTEAM GLOBAL INC,,6.63,7.22,6.88,9223,-0.063946,6.83,6.86,11130,7.22,76,-0.063946,0.001121,-0.001859
11910,20091118,7363,TEAM,TECHTEAM GLOBAL INC,,6.77,7.08,6.89,9077,0.001453,6.86,6.89,11130,6.98,99,0.001453,-0.001161,-0.001495
11910,20091119,7363,TEAM,TECHTEAM GLOBAL INC,,6.5,7.11,6.87,15766,-0.002903,6.77,6.94,11130,6.96,116,-0.002903,-0.014042,-0.01478
11910,20091120,7363,TEAM,TECHTEAM GLOBAL INC,5,6.8399,7.0999,6.87,6496,0,6.7,6.9,11130,7.01,81,0,-0.004073,-0.00149
11910,20091123,7363,TEAM,TECHTEAM GLOBAL INC,5,6.76,7.05,6.87,7504,0,6.84,6.92,11130,6.89,75,0,0.012915,0.010613
11910,20091124,7363,TEAM,TECHTEAM GLOBAL INC,,6.73,6.942,6.89,4103,0.002911,6.87,6.93,11130,6.73,31,0.002911,-0.001354,-0.002342
11910,20091125,7363,TEAM,TECHTEAM GLOBAL INC,5,6.72,6.94,6.73,3808,-0.023222,6.73,6.81,11130,6.94,36,-0.023222,0.005708,0.003603
11910,20091127,7363,TEAM,TECHTEAM GLOBAL INC,5,6.6,6.71,6.61,3742,-0.017831,6.6,6.65,11130,6.71,23,-0.017831,-0.018763,-0.016937
11910,20091130,7363,TEAM,TECHTEAM GLOBAL INC,,6.41,6.83,6.42,11552,-0.028744,6.42,6.65,11130,6.71,109,-0.028744,0.003836,0.002409
11910,20091201,7363,TEAM,TECHTEAM GLOBAL INC,5,6.4,6.71,6.65,27639,0.035826,6.6,6.69,11130,6.41,109,0.035826,0.013955,0.012471
11910,20091202,7363,TEAM,TECHTEAM GLOBAL INC,5,6.594,6.8,6.66,296738,0.001504,6.66,6.86,11130,6.65,49,0.001504,0.002238,0.005799
11910,20091203,7363,TEAM,TECHTEAM GLOBAL INC,,6.64,6.71,6.67,3180,0.001502,6.65,6.68,11130,6.69,25,0.001502,-0.008846,-0.006883
11910,20091204,7363,TEAM,TECHTEAM GLOBAL INC,5,6.61,6.8,6.79,7252,0.017991,6.65,6.9,11130,6.67,36,0.017991,0.005348,0.011062
11910,20091207,7363,TEAM,TECHTEAM GLOBAL INC,5,6.72,7.119,7.01,19998,0.032401,6.96,7.05,11130,6.78,116,0.032401,-0.001611,0.001938
11910,20091208,7363,TEAM,TECHTEAM GLOBAL INC,,6.93,7.17,7.01,17822,0,7.01,7.1,11130,6.99,52,0,-0.010691,-0.007994
11910,20091209,7363,TEAM,TECHTEAM GLOBAL INC,,7,7.19,7,44323,-0.001427,7,7.17,11130,7,54,-0.001427,0.003409,0.002074
11910,20091210,7363,TEAM,TECHTEAM GLOBAL INC,5,6.73,7.16,7.07,7313,0.01,7.07,7.13,11130,6.73,68,0.01,0.005219,-0.001239
11910,20091211,7363,TEAM,TECHTEAM GLOBAL INC,,7.07,7.11,7.1,2054,0.004243,7.06,7.1,11130,7.07,22,0.004243,0.002973,0.004861
11910,20091214,7363,TEAM,TECHTEAM GLOBAL INC,,7.04,7.19,7.18,1117,0.011268,7.08,7.2,11130,7.042,10,0.011268,0.008384,0.009792
11910,20091215,7363,TEAM,TECHTEAM GLOBAL INC,,7.12,7.45,7.432,18575,0.035098,7.42,7.44,11130,7.12,137,0.035098,-0.004635,-0.004327
11910,20091216,7363,TEAM,TECHTEAM GLOBAL INC,,7.29,7.63,7.48,13920,0.006459,7.4,7.5,11130,7.29,54,0.006459,0.003259,0.004849
11910,20091217,7363,TEAM,TECHTEAM GLOBAL INC,,7.4,7.9,7.48,51257,0,7.42,7.52,11130,7.56,499,0,-0.0126,-0.010388
11910,20091218,7363,TEAM,TECHTEAM GLOBAL INC,,7.38,7.88,7.71,27348,0.030749,7.77,7.81,11130,7.48,224,0.030749,0.006016,0.004816
11910,20091221,7363,TEAM,TECHTEAM GLOBAL INC,,7.63,7.95,7.93,11658,0.028534,7.92,7.95,11130,7.73,61,0.028534,0.009701,0.009236
11910,20091222,7363,TEAM,TECHTEAM GLOBAL INC,,7.84,7.95,7.84,11364,-0.011349,7.84,7.93,11130,7.88,56,-0.011349,0.004463,0.005508
11910,20091223,7363,TEAM,TECHTEAM GLOBAL INC,,7.81,7.89,7.85,2045,0.001275,7.8,7.85,11130,7.839,11,0.001275,0.004476,0.008398
11910,20091224,7363,TEAM,TECHTEAM GLOBAL INC,,7.8201,7.8201,7.8201,282,-0.003809,7.81,7.86,11130,7.8201,3,-0.003809,0.005125,0.005212
11910,20091228,7363,TEAM,TECHTEAM GLOBAL INC,,7.35,7.85,7.35,23957,-0.060114,7.34,7.5,11130,7.78,76,-0.060114,0.000886,-0.000222
11910,20091229,7363,TEAM,TECHTEAM GLOBAL INC,,7.26,7.79,7.79,6045,0.059864,7.66,7.89,11130,7.26,90,0.059864,-0.001165,0.001206
11910,20091230,7363,TEAM,TECHTEAM GLOBAL INC,,7.59,7.86,7.72,3945,-0.008986,7.64,7.72,11130,7.8,41,-0.008986,-0.000749,0.000454
11910,20091231,7363,TEAM,TECHTEAM GLOBAL INC,5,7.4,7.68,7.61,7364,-0.014249,7.6,7.69,11118,7.5,61,-0.014249,-0.008694,-0.002666
11910,20100104,7363,TEAM,TECHTEAM GLOBAL INC,,7.56,7.85,7.65,3542,0.005256,7.58,7.66,11118,7.6,34,0.005256,0.017043,0.019077
11910,20100105,7363,TEAM,TECHTEAM GLOBAL INC,,7.55,7.88,7.88,3678,0.030065,7.77,7.81,11118,7.6,19,0.030065,0.003363,0.002451
11910,20100106,7363,TEAM,TECHTEAM GLOBAL INC,,7.4,7.78,7.45,11572,-0.054569,7.41,7.46,11118,7.77,60,-0.054569,0.001768,0.00318
11910,20100107,7363,TEAM,TECHTEAM GLOBAL INC,,7.13,7.49,7.25,14279,-0.026846,7.21,7.31,11118,7.41,101,-0.026846,0.002817,0.006834
11910,20100108,7363,TEAM,TECHTEAM GLOBAL INC,,7.18,7.91,7.73,58763,0.066207,7.71,7.75,11118,7.4,272,0.066207,0.004161,0.007224
11910,20100111,7363,TEAM,TECHTEAM GLOBAL INC,,7.45,7.75,7.57,17297,-0.020699,7.51,7.6,11118,7.71,145,-0.020699,0.001121,0.003547
11910,20100112,7363,TEAM,TECHTEAM GLOBAL INC,,7.25,7.5718,7.34,15720,-0.030383,7.27,7.34,11118,7.5718,144,-0.030383,-0.011001,-0.010224
11910,20100113,7363,TEAM,TECHTEAM GLOBAL INC,,7.31,7.45,7.41,176097,0.009537,7.41,7.45,11118,7.334,44,0.009537,0.008535,0.008648
11910,20100114,7363,TEAM,TECHTEAM GLOBAL INC,,7.27,7.47,7.37,74057,-0.005398,7.31,7.4,11118,7.44,65,-0.005398,0.002296,0.004398
11910,20100115,7363,TEAM,TECHTEAM GLOBAL INC,,7.26,7.43,7.34,2324,-0.004071,7.27,7.36,11118,7.3,15,-0.004071,-0.011346,-0.008675
11910,20100119,7363,TEAM,TECHTEAM GLOBAL INC,5,7.26,7.41,7.31,12500,-0.004087,7.33,7.37,11118,7.34,93,-0.004087,0.01205,0.011274
11910,20100120,7363,TEAM,TECHTEAM GLOBAL INC,5,7.25,7.4299,7.27,5973,-0.005472,7.27,7.32,11118,7.39,35,-0.005472,-0.011168,-0.00915
11910,20100121,7363,TEAM,TECHTEAM GLOBAL INC,,7.3,7.4399,7.36,5007,0.01238,7.36,7.41,11118,7.3,28,0.01238,-0.017759,-0.014217
11910,20100122,7363,TEAM,TECHTEAM GLOBAL INC,,7.38,7.5,7.48,15987,0.016304,7.37,7.46,11118,7.38,35,0.016304,-0.021031,-0.014439
11910,20100125,7363,TEAM,TECHTEAM GLOBAL INC,,7.25,7.65,7.25,24600,-0.030749,6.93,7.46,11118,7.6,146,-0.030749,0.003882,0.000966
11910,20100126,7363,TEAM,TECHTEAM GLOBAL INC,,7.27,7.41,7.35,9454,0.013793,7.31,7.39,11118,7.32,15,0.013793,-0.004918,-0.006019
11910,20100127,7363,TEAM,TECHTEAM GLOBAL INC,,7.0626,7.26,7.14,10514,-0.028571,7.12,7.18,11118,7.26,54,-0.028571,0.004048,0.001787
11910,20100128,7363,TEAM,TECHTEAM GLOBAL INC,,6.7,7.07,6.87,23712,-0.037815,6.87,6.88,11118,7.07,115,-0.037815,-0.011402,-0.008945
11910,20100129,7363,TEAM,TECHTEAM GLOBAL INC,5,6.75,7.36,7.33,20478,0.066958,7.3,7.35,11118,6.75,86,0.066958,-0.010306,-0.008227
11910,20100201,7363,TEAM,TECHTEAM GLOBAL INC,5,7.15,7.3,7.24,2330,-0.012278,7.22,7.27,11118,7.3,24,-0.012278,0.01506,0.011288
11910,20100202,7363,TEAM,TECHTEAM GLOBAL INC,5,7.1,7.27,7.21,9494,-0.004144,7.18,7.21,11118,7.15,60,-0.004144,0.012219,0.008635
11910,20100203,7363,TEAM,TECHTEAM GLOBAL INC,,7.04,7.12,7.081,2000,-0.017892,7.04,7.13,11118,7.04,12,-0.017892,-0.005243,-0.003951
11910,20100204,7363,TEAM,TECHTEAM GLOBAL INC,5,6.8,7.06,6.8,9701,-0.039684,6.8,6.83,11118,7.03,75,-0.039684,-0.032004,-0.028184
11910,20100205,7363,TEAM,TECHTEAM GLOBAL INC,5,6.76,6.8,6.78,4106,-0.002941,6.76,6.81,11118,6.8,27,-0.002941,0.002651,0.000434
11910,20100208,7363,TEAM,TECHTEAM GLOBAL INC,,6.92,6.93,6.92,400,0.020649,6.86,6.94,11118,6.93,3,0.020649,-0.008448,-0.005379
11910,20100209,7363,TEAM,TECHTEAM GLOBAL INC,,6.75,6.85,6.78,9802,-0.020231,6.77,6.81,11118,6.8,26,-0.020231,0.013848,0.011833
11910,20100210,7363,TEAM,TECHTEAM GLOBAL INC,,6.73,7.25,7.12,28117,0.050147,7.05,7.12,11118,6.73,254,0.050147,-0.001749,-0.000331
11910,20100211,7363,TEAM,TECHTEAM GLOBAL INC,,6.897,7.01,7.01,3007,-0.015449,6.96,7.05,11118,6.95,22,-0.015449,0.011984,0.012714
11910,20100212,7363,TEAM,TECHTEAM GLOBAL INC,5,7.0228,7.24,7.04,2400,0.00428,7.04,7.08,11118,7.24,13,0.00428,-0.000793,0.003095
11910,20100216,7363,TEAM,TECHTEAM GLOBAL INC,5,7.04,7.16,7.16,1156,0.017045,7.12,7.19,11118,7.04,12,0.017045,0.017858,0.014404
11910,20100217,7363,TEAM,TECHTEAM GLOBAL INC,5,7.04,7.1585,7.05,2128,-0.015363,7.04,7.12,11118,7.09,16,-0.015363,0.004484,0.004902
11910,20100218,7363,TEAM,TECHTEAM GLOBAL INC,5,7.03,7.32,7.24,13785,0.02695,7.31,7.37,11118,7.09,62,0.02695,0.006111,0.004324
11910,20100219,7363,TEAM,TECHTEAM GLOBAL INC,,6.96,7.21,6.96,6160,-0.038674,6.94,7.02,11118,7.21,44,-0.038674,0.002337,0.001939
11910,20100222,7363,TEAM,TECHTEAM GLOBAL INC,5,6.75,7.1,6.83,9843,-0.018678,6.82,6.88,11118,7.1,64,-0.018678,-0.001152,0.001973
11910,20100223,7363,TEAM,TECHTEAM GLOBAL INC,5,6.85,6.95,6.95,513,0.01757,6.91,6.99,11118,6.85,9,0.01757,-0.013071,-0.008452
11910,20100224,7363,TEAM,TECHTEAM GLOBAL INC,,6.75,7.16,6.84,43706,-0.015827,6.83,7.3,11118,7.03,249,-0.015827,0.00837,0.005266
11910,20100225,7363,TEAM,TECHTEAM GLOBAL INC,5,6.51,6.98,6.51,29864,-0.048246,6.51,6.82,11118,6.81,132,-0.048246,-0.000912,-0.001065
11910,20100226,7363,TEAM,TECHTEAM GLOBAL INC,5,6.39,6.74,6.58,26049,0.010753,6.58,6.63,11118,6.55,193,0.010753,0.001815,0.001585
11910,20100301,7363,TEAM,TECHTEAM GLOBAL INC,5,6.44,6.8485,6.59,20861,0.00152,6.59,6.66,11141,6.75,151,0.00152,0.011931,0.012899
11910,20100302,7363,TEAM,TECHTEAM GLOBAL INC,5,6.58,6.99,6.67,33337,0.01214,6.58,6.73,11141,6.6,193,0.01214,0.0044,0.007812
11910,20100303,7363,TEAM,TECHTEAM GLOBAL INC,5,6.6,6.9,6.66,8206,-0.001499,6.66,6.7,11141,6.79,67,-0.001499,0.00147,0.002776
11910,20100304,7363,TEAM,TECHTEAM GLOBAL INC,5,6.65,6.8,6.65,12442,-0.001501,6.65,6.7,11141,6.8,140,-0.001501,0.003048,0.004597
11910,20100305,7363,TEAM,TECHTEAM GLOBAL INC,,6.65,6.85,6.7,13105,0.007519,6.7,6.75,11141,6.835,171,0.007519,0.014443,0.015151
11910,20100308,7363,TEAM,TECHTEAM GLOBAL INC,,6.7,6.84,6.75,5266,0.007463,6.72,6.82,11141,6.7,69,0.007463,0.000592,0.003733
11910,20100309,7363,TEAM,TECHTEAM GLOBAL INC,,6.77,6.98,6.8,7762,0.007407,6.8,6.85,11141,6.81,51,0.007407,0.001626,0.002418
11910,20100310,7363,TEAM,TECHTEAM GLOBAL INC,,6.7,6.86,6.76,11452,-0.005882,6.72,6.76,11141,6.72,99,-0.005882,0.004926,0.006176
11910,20100311,7363,TEAM,TECHTEAM GLOBAL INC,,6.7,6.87,6.7,27295,-0.008876,6.73,6.78,11141,6.71,171,-0.008876,0.003631,0.002823
11910,20100312,7363,TEAM,TECHTEAM GLOBAL INC,,6.7,6.74,6.72,12402,0.002985,6.72,6.73,11141,6.74,41,0.002985,0.00073,0.000582
11910,20100315,7363,TEAM,TECHTEAM GLOBAL INC,5,6.7,6.79,6.77,7691,0.007441,6.72,6.77,11141,6.72,28,0.007441,-0.000716,-0.003227
11910,20100316,7363,TEAM,TECHTEAM GLOBAL INC,5,6.76,6.92,6.87,4075,0.014771,6.8,6.87,11141,6.77,36,0.014771,0.008722,0.00714
11910,20100317,7363,TEAM,TECHTEAM GLOBAL INC,,6.75,6.86,6.85,3306,-0.002911,6.8,6.85,11141,6.86,11,-0.002911,0.005574,0.004615
11910,20100318,7363,TEAM,TECHTEAM GLOBAL INC,,6.8599,6.92,6.86,1208,0.00146,6.86,6.87,11141,6.92,12,0.00146,-0.002042,-0.002722
11910,20100319,7363,TEAM,TECHTEAM GLOBAL INC,5,6.71,6.82,6.79,2110,-0.010204,6.75,6.8,11141,6.82,16,-0.010204,-0.006925,-0.008019
11910,20100322,7363,TEAM,TECHTEAM GLOBAL INC,5,6.71,6.84,6.76,8212,-0.004418,6.75,6.79,11141,6.71,49,-0.004418,0.005828,0.006229
11910,20100323,7363,TEAM,TECHTEAM GLOBAL INC,5,6.71,6.7889,6.74,3726,-0.002959,6.73,6.75,11141,6.7889,16,-0.002959,0.007581,0.00839
11910,20100324,7363,TEAM,TECHTEAM GLOBAL INC,,6.7,6.8,6.75,5573,0.001484,6.75,6.77,11141,6.71,23,0.001484,-0.006633,-0.00518
11910,20100325,7363,TEAM,TECHTEAM GLOBAL INC,5,6.7,6.78,6.7,3466,-0.007407,6.74,6.78,11141,6.732,20,-0.007407,-0.002496,-0.003564
11910,20100326,7363,TEAM,TECHTEAM GLOBAL INC,5,6.7,6.85,6.79,8551,0.013433,6.76,6.79,11141,6.8,62,0.013433,0.000641,0.000831
11910,20100329,7363,TEAM,TECHTEAM GLOBAL INC,,6.71,6.89,6.73,5233,-0.008837,6.73,6.77,11141,6.89,25,-0.008837,0.006587,0.005462
11910,20100330,7363,TEAM,TECHTEAM GLOBAL INC,,6.7,6.89,6.76,20058,0.004458,6.72,6.77,11141,6.7,99,0.004458,0.000341,0.001547
11910,20100331,7363,TEAM,TECHTEAM GLOBAL INC,5,6.48,6.841,6.73,44465,-0.004438,6.72,6.8,11223,6.77,211,-0.004438,-0.002808,-0.002978
11910,20100401,7363,TEAM,TECHTEAM GLOBAL INC,5,6.7,6.8,6.74,8352,0.001486,6.73,6.75,11223,6.74,56,0.001486,0.008526,0.006869
11910,20100405,7363,TEAM,TECHTEAM GLOBAL INC,,6.47,6.78,6.7,12888,-0.005935,6.7,6.73,11223,6.68,48,-0.005935,0.009512,0.013132
11910,20100406,7363,TEAM,TECHTEAM GLOBAL INC,,6.71,6.78,6.78,6030,0.01194,6.71,6.74,11223,6.78,91,0.01194,0.002101,0.005216
11910,20100407,7363,TEAM,TECHTEAM GLOBAL INC,,6.68,6.85,6.7,17784,-0.011799,6.7,6.71,11223,6.85,110,-0.011799,-0.005644,-0.001001
11910,20100408,7363,TEAM,TECHTEAM GLOBAL INC,,6.68,6.75,6.6899,10502,-0.001507,6.7,6.74,11223,6.72,41,-0.001507,0.002805,0.002635
11910,20100409,7363,TEAM,TECHTEAM GLOBAL INC,5,6.67,6.79,6.6947,6638,0.000717,6.69,6.74,11228,6.79,31,0.000717,0.006689,0.00583
11910,20100412,7363,TEAM,TECHTEAM GLOBAL INC,,6.55,6.72,6.55,6945,-0.021614,6.72,6.74,11228,6.66,53,-0.021614,0.001766,0.003853
11910,20100413,7363,TEAM,TECHTEAM GLOBAL INC,,6.62,6.76,6.73,1797,0.027481,6.71,6.75,11228,6.62,16,0.027481,0.000626,0.001323
11910,20100414,7363,TEAM,TECHTEAM GLOBAL INC,,6.7,6.82,6.82,16197,0.013373,6.77,6.81,11228,6.72,51,0.013373,0.012279,0.014915
11910,20100415,7363,TEAM,TECHTEAM GLOBAL INC,,6.721,6.83,6.727,1104,-0.013636,6.72,6.78,11228,6.8,8,-0.013636,0.000088,0.002726
11910,20100416,7363,TEAM,TECHTEAM GLOBAL INC,,6.7,6.76,6.71,6200,-0.002527,6.71,6.74,11228,6.7,28,-0.002527,-0.016103,-0.010973
11910,20100419,7363,TEAM,TECHTEAM GLOBAL INC,,6.69,6.74,6.74,7403,0.004471,6.66,6.74,11228,6.69,30,0.004471,0.00225,-0.002915
11910,20100420,7363,TEAM,TECHTEAM GLOBAL INC,,6.67,6.78,6.67,4929,-0.010386,6.67,6.7,11228,6.7,27,-0.010386,0.009754,0.01193
11910,20100421,7363,TEAM,TECHTEAM GLOBAL INC,5,6.61,6.66,6.65,36000,-0.002998,6.65,6.66,11228,6.61,98,-0.002998,-0.000567,0.002809
11910,20100422,7363,TEAM,TECHTEAM GLOBAL INC,5,6.5,6.63,6.53,3947,-0.018045,6.49,6.54,11228,6.59,29,-0.018045,0.003541,0.007498
11910,20100423,7363,TEAM,TECHTEAM GLOBAL INC,,6.12,6.45,6.31,20427,-0.033691,6.3,6.32,11228,6.12,82,-0.033691,0.007439,0.010035
11910,20100426,7363,TEAM,TECHTEAM GLOBAL INC,,6.21,6.449,6.32,9150,0.001585,6.33,6.41,11228,6.29,71,0.001585,-0.003214,0.002656
11910,20100427,7363,TEAM,TECHTEAM GLOBAL INC,,6.3,6.399,6.31,4271,-0.001582,6.31,6.34,11228,6.35,30,-0.001582,-0.023839,-0.018854
11910,20100428,7363,TEAM,TECHTEAM GLOBAL INC,,6.3,6.35,6.3,23424,-0.001585,6.27,6.31,11228,6.31,121,-0.001585,0.005028,0.001424
11910,20100429,7363,TEAM,TECHTEAM GLOBAL INC,,6.2,6.349,6.25,5164,-0.007937,6.25,6.26,11228,6.24,41,-0.007937,0.013521,0.013087
11910,20100430,7363,TEAM,TECHTEAM GLOBAL INC,5,6.15,6.26,6.16,166154,-0.0144,6.21,6.24,11228,6.25,85,-0.0144,-0.016839,-0.015078
11910,20100503,7363,TEAM,TECHTEAM GLOBAL INC,,6.15,6.37,6.2,25878,0.006494,6.15,6.2,11228,6.15,195,0.006494,0.012823,0.011279
11910,20100504,7363,TEAM,TECHTEAM GLOBAL INC,,5.87,6.33,5.87,56918,-0.053226,5.81,5.98,11228,6.1,54,-0.053226,-0.025354,-0.023977
11910,20100505,7363,TEAM,TECHTEAM GLOBAL INC,,5.34,6,5.38,10775,-0.083475,5.38,5.4,11228,5.95,87,-0.083475,-0.009469,-0.013726
11910,20100506,7363,TEAM,TECHTEAM GLOBAL INC,5,5.25,5.85,5.5,33152,0.022305,5.5,5.55,11228,5.65,304,0.022305,-0.032664,-0.033768
11910,20100507,7363,TEAM,TECHTEAM GLOBAL INC,5,5.35,5.59,5.4,22945,-0.018182,5.36,5.39,11228,5.51,122,-0.018182,-0.015842,-0.017014
11910,20100510,7363,TEAM,TECHTEAM GLOBAL INC,5,5.33,5.5,5.4,152806,0,5.4,5.44,11228,5.4,67,0,0.044839,0.04275
11910,20100511,7363,TEAM,TECHTEAM GLOBAL INC,,5.0326,5.75,5.4,42352,0,5.35,5.45,11228,5.3,327,0,-0.001074,0.004123
11910,20100512,7363,TEAM,TECHTEAM GLOBAL INC,5,5.22,5.4,5.29,9408,-0.02037,5.25,5.29,11228,5.35,64,-0.02037,0.015894,0.018787
11910,20100513,7363,TEAM,TECHTEAM GLOBAL INC,5,5.1,5.4,5.1,13542,-0.035917,5.13,5.18,11228,5.37,57,-0.035917,-0.010896,-0.004946
11910,20100514,7363,TEAM,TECHTEAM GLOBAL INC,5,5.1,5.3,5.14,6170,0.007843,5.14,5.17,11228,5.2,97,0.007843,-0.019406,-0.018608
11910,20100517,7363,TEAM,TECHTEAM GLOBAL INC,,5.12,5.18,5.14,5248,0,5.12,5.17,11228,5.12,30,0,-0.000695,-0.003182
11910,20100518,7363,TEAM,TECHTEAM GLOBAL INC,5,5.12,5.15,5.14,3326,0,5.11,5.15,11228,5.12,17,0,-0.013775,-0.012951
11910,20100519,7363,TEAM,TECHTEAM GLOBAL INC,5,5.1033,5.27,5.21,30795,0.013619,5.17,5.21,11228,5.14,149,0.013619,-0.007248,-0.013457
11910,20100520,7363,TEAM,TECHTEAM GLOBAL INC,,5.02,5.49,5.3899,13888,0.03453,5.18,5.39,11228,5.15,198,0.03453,-0.040409,-0.039115
11910,20100521,7363,TEAM,TECHTEAM GLOBAL INC,5,5.02,5.5,5.29,44762,-0.018535,5.23,5.29,11228,5.25,678,-0.018535,0.015244,0.011559
11910,20100524,7363,TEAM,TECHTEAM GLOBAL INC,,5.04,5.4,5.29,35389,0,5.27,5.29,11228,5.25,382,0,-0.012121,-0.006595
11910,20100525,7363,TEAM,TECHTEAM GLOBAL INC,,4.73,5.24,4.8,28610,-0.092628,4.77,4.81,11228,5.24,182,-0.092628,-0.000171,-0.006496
11910,20100526,7363,TEAM,TECHTEAM GLOBAL INC,5,4.77,5.09,4.77,14388,-0.00625,4.77,4.82,11228,5.01,134,-0.00625,-0.003078,0.004458
11910,20100527,7363,TEAM,TECHTEAM GLOBAL INC,,4.72,5.32,5.11,15067,0.071279,5.09,5.16,11228,4.72,92,0.071279,0.034824,0.03357
11910,20100528,7363,TEAM,TECHTEAM GLOBAL INC,,4.75,5.27,5.1,8686,-0.001957,5.1,5.14,11228,5.06,99,-0.001957,-0.011823,-0.006676
11910,20100601,7363,TEAM,TECHTEAM GLOBAL INC,5,4.74,5.28,5.28,134486,0.035294,5.14,5.36,11228,4.78,36,0.035294,-0.018565,-0.020761
11910,20100602,7363,TEAM,TECHTEAM GLOBAL INC,5,5.15,5.41,5.18,8491,-0.018939,5.15,5.18,11228,5.23,69,-0.018939,0.02642,0.020228
11910,20100603,7363,TEAM,TECHTEAM GLOBAL INC,5,5.08,5.35,5.21,5460,0.005792,5.19,5.23,11228,5.35,162,0.005792,0.004756,0.005493
11910,20100604,7363,TEAM,TECHTEAM GLOBAL INC,5,5.66,6.2,6.19,589660,0.1881,6.15,6.19,11228,5.66,678,0.1881,-0.035881,-0.032278
11910,20100607,7363,TEAM,TECHTEAM GLOBAL INC,5,5.93,6.24,6.23,51203,0.006462,6.15,6.23,11228,6.01,184,0.006462,-0.014044,-0.018238
11910,20100608,7363,TEAM,TECHTEAM GLOBAL INC,5,6.07,6.18,6.15,5688,-0.012841,6.13,6.17,11228,6.081,38,-0.012841,0.009096,-0.001309
11910,20100609,7363,TEAM,TECHTEAM GLOBAL INC,5,6.09,6.13,6.1,7270,-0.00813,6.11,6.19,11228,6.09,57,-0.00813,-0.003888,-0.000353
11910,20100610,7363,TEAM,TECHTEAM GLOBAL INC,5,6.1,6.23,6.15,5265,0.008197,6.13,6.18,11228,6.12,34,0.008197,0.029477,0.024881
11910,20100611,7363,TEAM,TECHTEAM GLOBAL INC,5,6.15,6.22,-6.185,100,0.005691,6.15,6.22,11228,,1,0.005691,0.005835,0.009032
11910,20100614,7363,TEAM,TECHTEAM GLOBAL INC,5,6.06,6.5,6.43,13181,0.039612,6.43,6.48,11228,6.06,109,0.039612,-0.000023,0.004134
11910,20100615,7363,TEAM,TECHTEAM GLOBAL INC,,6.36,6.4,6.3801,2565,-0.007761,6.38,6.41,11228,6.36,23,-0.007761,0.023812,0.019333
11910,20100616,7363,TEAM,TECHTEAM GLOBAL INC,5,6.1901,6.34,6.3,7707,-0.012555,6.3,6.33,11228,6.34,57,-0.012555,-0.001239,-0.002044
11910,20100617,7363,TEAM,TECHTEAM GLOBAL INC,,6.12,6.45,6.28,7264,-0.003175,6.24,6.26,11228,6.45,41,-0.003175,0.00081,-0.000072
11910,20100618,7363,TEAM,TECHTEAM GLOBAL INC,,6,6.4,6.31,6839,0.004777,6.22,6.29,11228,6.21,106,0.004777,0.001658,0.002804
11910,20100621,7363,TEAM,TECHTEAM GLOBAL INC,,6.18,6.41,6.18,8013,-0.020602,6.18,6.26,11228,6.25,112,-0.020602,-0.00435,-0.006444
11910,20100622,7363,TEAM,TECHTEAM GLOBAL INC,,6.28,6.4675,6.35,10531,0.027508,6.4,6.44,11228,6.38,71,0.027508,-0.016228,-0.013949
11910,20100623,7363,TEAM,TECHTEAM GLOBAL INC,,6.2,6.466,6.3,6454,-0.007874,6.26,6.35,11228,6.29,41,-0.007874,-0.003041,-0.002012
11910,20100624,7363,TEAM,TECHTEAM GLOBAL INC,,6.18,6.28,6.28,4774,-0.003175,6.23,6.3,11228,6.23,44,-0.003175,-0.016291,-0.012461
11910,20100625,7363,TEAM,TECHTEAM GLOBAL INC,,6.2,6.38,6.3,6103,0.003185,6.3,6.38,11228,6.25,131,0.003185,0.006023,0.010258
11910,20100628,7363,TEAM,TECHTEAM GLOBAL INC,,5.94,6.42,6,55191,-0.047619,5.99,6.04,11228,6.42,179,-0.047619,-0.003335,-0.004936
11910,20100629,7363,TEAM,TECHTEAM GLOBAL INC,,5.97,6.08,6.02,2300,0.003333,5.97,6.03,11228,6.02,9,0.003333,-0.032901,-0.031226
11910,20100630,7363,TEAM,TECHTEAM GLOBAL INC,5,5.84,6,5.99,21535,-0.004983,5.95,5.99,11200,5.89,82,-0.004983,-0.009022,-0.005577
11910,20100701,7363,TEAM,TECHTEAM GLOBAL INC,5,5.94,6,5.95,16517,-0.006678,5.94,5.98,11200,6,100,-0.006678,-0.004083,-0.007706
11910,20100702,7363,TEAM,TECHTEAM GLOBAL INC,,5.79,5.9286,5.91,7030,-0.006723,5.65,5.93,11200,5.9286,47,-0.006723,-0.004791,-0.004423
11910,20100706,7363,TEAM,TECHTEAM GLOBAL INC,5,5.69,5.91,5.82,9618,-0.015228,5.82,5.83,11200,5.9,85,-0.015228,0.003311,-0.006432
11910,20100707,7363,TEAM,TECHTEAM GLOBAL INC,5,5.64,5.74,5.72,9465,-0.017182,5.72,5.77,11200,5.725,50,-0.017182,0.030549,0.021879
11910,20100708,7363,TEAM,TECHTEAM GLOBAL INC,,5.7,6,5.92,10468,0.034965,5.92,5.93,11200,5.72,148,0.034965,0.009503,0.009961
11910,20100709,7363,TEAM,TECHTEAM GLOBAL INC,5,5.9,6.13,6.13,4405,0.035473,6.14,6.17,11200,6.05,29,0.035473,0.008897,0.011682
11910,20100712,7363,TEAM,TECHTEAM GLOBAL INC,,6.08,6.27,6.08,4409,-0.008157,5.73,6.13,11200,6.26,37,-0.008157,-0.001361,-0.005536
11910,20100713,7363,TEAM,TECHTEAM GLOBAL INC,,6.06,6.28,6.15,8752,0.011513,6.15,6.16,11200,6.14,179,0.011513,0.017086,0.021316
11910,20100714,7363,TEAM,TECHTEAM GLOBAL INC,5,6.1,6.21,6.14,590,-0.001626,6.09,6.17,11200,6.21,6,-0.001626,-0.000657,-0.001135
11910,20100715,7363,TEAM,TECHTEAM GLOBAL INC,5,6.07,6.19,6.07,1632,-0.011401,6.07,6.2,11200,6.17,17,-0.011401,0.000415,-0.00365
11910,20100716,7363,TEAM,TECHTEAM GLOBAL INC,,6.06,6.25,6.06,5701,-0.001647,6.07,6.14,11200,6.25,110,-0.001647,-0.02854,-0.024134
11910,20100719,7363,TEAM,TECHTEAM GLOBAL INC,5,6.07,6.11,6.1,2527,0.006601,6.15,6.19,11200,6.094,9,0.006601,0.004982,0.003009
11910,20100720,7363,TEAM,TECHTEAM GLOBAL INC,,6.06,6.37,6.37,4628,0.044262,6.23,6.38,11200,6.1,23,0.044262,0.012252,0.011475
11910,20100721,7363,TEAM,TECHTEAM GLOBAL INC,,6.16,6.309,6.16,1520,-0.032967,6.2,6.37,11200,6.22,7,-0.032967,-0.012949,-0.009938
11910,20100722,7363,TEAM,TECHTEAM GLOBAL INC,,6.25,6.39,6.39,5379,0.037338,6.4,6.43,11200,6.3,13,0.037338,0.023485,0.023285
11910,20100723,7363,TEAM,TECHTEAM GLOBAL INC,,6.25,6.5,6.5,4559,0.017214,6.48,6.53,11200,6.42,14,0.017214,0.009617,0.013513
11910,20100726,7363,TEAM,TECHTEAM GLOBAL INC,,6.33,6.52,6.44,10322,-0.009231,6.25,6.47,11200,6.37,71,-0.009231,0.011601,0.013828
11910,20100727,7363,TEAM,TECHTEAM GLOBAL INC,,6.25,6.55,6.55,12752,0.017081,6.51,6.55,11200,6.26,44,0.017081,-0.002526,-0.00217
11910,20100728,7363,TEAM,TECHTEAM GLOBAL INC,,6.27,6.71,6.67,13339,0.018321,6.67,6.71,11200,6.27,78,0.018321,-0.007595,-0.00792
11910,20100729,7363,TEAM,TECHTEAM GLOBAL INC,5,6.37,6.63,6.51,16486,-0.023988,6.5,6.64,11200,6.62,82,-0.023988,-0.002762,0.000388
11910,20100730,7363,TEAM,TECHTEAM GLOBAL INC,5,6.16,6.71,6.16,11250,-0.053763,6.58,6.65,11190,6.37,81,-0.053763,0.001504,0.003345
11910,20100802,7363,TEAM,TECHTEAM GLOBAL INC,5,6.37,6.65,6.39,16321,0.037338,6.43,6.5,11190,6.38,62,0.037338,0.020508,0.013541
11910,20100803,7363,TEAM,TECHTEAM GLOBAL INC,5,6.37,6.59,6.585,11324,0.030516,6.6,6.64,11190,6.37,64,0.030516,-0.005172,-0.004602
11910,20100804,7363,TEAM,TECHTEAM GLOBAL INC,,6.48,6.67,6.67,11232,0.012908,6.57,6.68,11190,6.52,54,0.012908,0.007179,0.007186
11910,20100805,7363,TEAM,TECHTEAM GLOBAL INC,,6.5,6.665,6.63,12545,-0.005997,6.66,6.68,11190,6.58,49,-0.005997,-0.002557,-0.004169
11910,20100806,7363,TEAM,TECHTEAM GLOBAL INC,,6.5,6.7,6.69,13081,0.00905,6.69,6.7,11190,6.53,69,0.00905,-0.003632,-0.002719
11910,20100809,7363,TEAM,TECHTEAM GLOBAL INC,,6.45,6.75,6.75,10408,0.008969,6.67,6.75,11190,6.57,64,0.008969,0.005824,0.006781
11910,20100810,7363,TEAM,TECHTEAM GLOBAL INC,5,6.53,6.78,6.72,11568,-0.004444,6.71,6.78,11190,6.59,54,-0.004444,-0.008041,-0.011658
11910,20100811,7363,TEAM,TECHTEAM GLOBAL INC,5,6.39,6.72,6.69,16456,-0.004464,6.67,6.69,11190,6.47,113,-0.004464,-0.02961,-0.02871
11910,20100812,7363,TEAM,TECHTEAM GLOBAL INC,,6.6099,6.75,6.64,7317,-0.007474,6.59,6.64,11190,6.71,44,-0.007474,-0.004788,-0.003225
11910,20100813,7363,TEAM,TECHTEAM GLOBAL INC,,6.38,6.61,6.61,102560,-0.004518,6.61,6.78,11190,6.38,301,-0.004518,-0.003919,-0.004256
11910,20100816,7363,TEAM,TECHTEAM GLOBAL INC,,6.5,6.6436,6.64,19176,0.004539,6.64,6.67,11190,6.52,139,0.004539,0.001406,0.00359
11910,20100817,7363,TEAM,TECHTEAM GLOBAL INC,,6.6,6.85,6.84,28543,0.030121,6.86,6.88,11190,6.62,122,0.030121,0.01367,0.012296
11910,20100818,7363,TEAM,TECHTEAM GLOBAL INC,,6.6599,6.91,6.71,13042,-0.019006,6.86,6.91,11190,6.7901,52,-0.019006,0.002197,0.00177
11910,20100819,7363,TEAM,TECHTEAM GLOBAL INC,,6.75,6.91,6.79,9691,0.011922,6.75,6.78,11190,6.82,58,0.011922,-0.016716,-0.016616
11910,20100820,7363,TEAM,TECHTEAM GLOBAL INC,,6.72,6.93,6.93,6300,0.020619,6.88,6.93,11190,6.72,39,0.020619,-0.003352,-0.001693
11910,20100823,7363,TEAM,TECHTEAM GLOBAL INC,5,6.8,6.93,6.9,6788,-0.004329,6.88,6.9,11190,6.8,29,-0.004329,-0.004882,-0.008747
11910,20100824,7363,TEAM,TECHTEAM GLOBAL INC,5,6.7,6.94,6.9,22590,0,6.9,6.93,11190,6.83,83,0,-0.014441,-0.011875
11910,20100825,7363,TEAM,TECHTEAM GLOBAL INC,,6.8,6.96,6.96,28384,0.008696,6.91,6.96,11190,6.87,128,0.008696,0.00449,0.005646
11910,20100826,7363,TEAM,TECHTEAM GLOBAL INC,,6.88,6.97,6.95,9787,-0.001437,6.91,6.96,11190,6.88,67,-0.001437,-0.006657,-0.004978
11910,20100827,7363,TEAM,TECHTEAM GLOBAL INC,,6.88,6.98,6.96,2500,0.001439,6.96,6.98,11190,6.98,13,0.001439,0.018226,0.018475
11910,20100830,7363,TEAM,TECHTEAM GLOBAL INC,5,6.801,7.03,6.98,11936,0.002874,6.98,7,11190,6.98,101,0.002874,-0.014372,-0.013847
11910,20100831,7363,TEAM,TECHTEAM GLOBAL INC,,5.81,6.8,5.81,22313,-0.167622,5.77,6.27,11190,6.8,112,-0.167622,0.00009,0.00034
11910,20100901,7363,TEAM,TECHTEAM GLOBAL INC,,5.76,6.15,5.88,34789,0.012048,5.82,5.88,11190,5.81,113,0.012048,0.028966,0.024797
11910,20100902,7363,TEAM,TECHTEAM GLOBAL INC,,5.86,6.22,6.11,16219,0.039116,6.11,6.17,11190,5.86,66,0.039116,0.009461,0.008251
11910,20100903,7363,TEAM,TECHTEAM GLOBAL INC,,6.1532,6.37,6.21,9376,0.016367,6.18,6.25,11190,6.16,52,0.016367,0.012943,0.011716
11910,20100907,7363,TEAM,TECHTEAM GLOBAL INC,,6.1,6.38,6.1,1745,-0.017713,6.1,6.15,11190,6.18,16,-0.017713,-0.011917,-0.012448
11910,20100908,7363,TEAM,TECHTEAM GLOBAL INC,,6.07,6.55,6.07,621,-0.004918,6.05,6.54,11190,6.55,8,-0.004918,0.006123,0.00598
11910,20100909,7363,TEAM,TECHTEAM GLOBAL INC,,6.07,6.31,6.12,1377,0.008237,6.07,6.09,11190,6.31,14,0.008237,0.00361,0.002264
11910,20100910,7363,TEAM,TECHTEAM GLOBAL INC,,6.1,6.31,6.1,600,-0.003268,6.05,6.13,11190,6.31,6,-0.003268,0.004462,0.004058
11910,20100913,7363,TEAM,TECHTEAM GLOBAL INC,,6.05,6.2,6.1,1710,0,6.06,6.1,11190,6.2,15,0,0.012501,0.015255
11910,20100914,7363,TEAM,TECHTEAM GLOBAL INC,,6.01,6.17,6.01,7729,-0.014754,6.01,6.02,11190,6.04,30,-0.014754,-0.00013,-0.000818
11910,20100915,7363,TEAM,TECHTEAM GLOBAL INC,,6.01,6.48,6.21,14197,0.033278,6.19,6.22,11190,6.03,84,0.033278,0.002925,0.001315
11910,20100916,7363,TEAM,TECHTEAM GLOBAL INC,,6.26,6.58,6.29,6728,0.012882,6.28,6.31,11190,6.3,55,0.012882,-0.000865,-0.002752
11910,20100917,7363,TEAM,TECHTEAM GLOBAL INC,,6.12,6.6,6.43,15302,0.022258,6.5,6.53,11190,6.54,75,0.022258,0.001083,0.003064
11910,20100920,7363,TEAM,TECHTEAM GLOBAL INC,,6.04,6.71,6.22,13526,-0.032659,6.17,6.26,11190,6.48,91,-0.032659,0.015141,0.017138
11910,20100921,7363,TEAM,TECHTEAM GLOBAL INC,,6.264,6.425,6.405,9421,0.029743,6.4,6.43,11190,6.39,35,0.029743,-0.00312,-0.003087
11910,20100922,7363,TEAM,TECHTEAM GLOBAL INC,,6.34,6.69,6.52,58034,0.017955,6.51,6.54,11190,6.39,139,0.017955,-0.005124,-0.005344
11910,20100923,7363,TEAM,TECHTEAM GLOBAL INC,,6.41,6.9,6.85,9848,0.050613,6.81,6.9,11190,6.41,43,0.050613,-0.008122,-0.006179
11910,20100924,7363,TEAM,TECHTEAM GLOBAL INC,,6.8,6.93,6.92,10357,0.010219,6.83,6.91,11190,6.87,53,0.010219,0.021117,0.020025
11910,20100927,7363,TEAM,TECHTEAM GLOBAL INC,5,6.72,7.03,6.72,21976,-0.028902,6.95,6.98,11190,6.96,111,-0.028902,-0.004462,-0.001503
11910,20100928,7363,TEAM,TECHTEAM GLOBAL INC,5,6.76,7.051,6.97,22364,0.037202,6.95,6.97,11190,6.95,81,0.037202,0.005582,0.007182
11910,20100929,7363,TEAM,TECHTEAM GLOBAL INC,5,6.85,7.05,6.95,45544,-0.002869,6.95,6.97,11190,7,158,-0.002869,-0.001172,0.001965
11910,20100930,7363,TEAM,TECHTEAM GLOBAL INC,5,6.92,7.05,6.95,3432,0,6.95,6.99,11193,6.92,24,0,-0.00204,0.001154
11910,20101001,7363,TEAM,TECHTEAM GLOBAL INC,,6.95,7.01,7.01,7397,0.008633,7.01,7.04,11193,7,36,0.008633,0.004823,0.004384
11910,20101004,7363,TEAM,TECHTEAM GLOBAL INC,,7.03,7.05,7.05,3537,0.005706,7.05,7.09,11193,7.03,15,0.005706,-0.008629,-0.009105
11910,20101005,7363,TEAM,TECHTEAM GLOBAL INC,5,7,7.2,7.16,19100,0.015603,7.16,7.17,11193,7.04,110,0.015603,0.020546,0.018538
11910,20101006,7363,TEAM,TECHTEAM GLOBAL INC,5,7,7.23,7.1,6879,-0.00838,7.1,7.13,11193,7.23,44,-0.00838,-0.000677,-0.000573
11910,20101007,7363,TEAM,TECHTEAM GLOBAL INC,,7,7.12,7.05,4150,-0.007042,7.05,7.09,11193,7.07,34,-0.007042,-0.002143,-0.001675
11910,20101008,7363,TEAM,TECHTEAM GLOBAL INC,,7.01,7.14,7.05,4063,0,7.05,7.08,11193,7.11,33,0,0.007603,0.009937
11910,20101011,7363,TEAM,TECHTEAM GLOBAL INC,,7,7.12,7,17235,-0.007092,7,7.02,11193,7.12,64,-0.007092,0.000551,0.001862
11910,20101012,7363,TEAM,TECHTEAM GLOBAL INC,,7.07,7.14,7.12,8547,0.017143,7.08,7.15,11193,7.14,66,0.017143,0.003645,0.003757
11910,20101013,7363,TEAM,TECHTEAM GLOBAL INC,,6.81,7.15,7.15,45957,0.004214,7.07,7.15,11193,7.14,137,0.004214,0.008644,0.010886
11910,20101014,7363,TEAM,TECHTEAM GLOBAL INC,5,7.01,7.25,7.0399,9180,-0.015399,6.99,7.04,11193,7.15,35,-0.015399,-0.003675,-0.001741
11910,20101015,7363,TEAM,TECHTEAM GLOBAL INC,5,7,7.15,7.12,1341,0.011378,7.07,7.1,11193,7.04,11,0.011378,0.000695,-0.000616
11910,20101018,7363,TEAM,TECHTEAM GLOBAL INC,,6.99,7.44,7.12,13650,0,7.07,7.13,11193,7.15,47,0,0.006269,0.005678
11910,20101019,7363,TEAM,TECHTEAM GLOBAL INC,5,6.85,7.08,6.98,11010,-0.019663,6.8,6.99,11193,7.05,49,-0.019663,-0.017203,-0.016764
11910,20101020,7363,TEAM,TECHTEAM GLOBAL INC,,7,7.24,7,10029,0.002865,7,7.05,11193,7.24,21,0.002865,0.011143,0.010114
11910,20101021,7363,TEAM,TECHTEAM GLOBAL INC,,7.09,7.27,7.21,1248,0.03,7.15,7.22,11193,7.24,10,0.03,0.000239,-0.003026
11910,20101022,7363,TEAM,TECHTEAM GLOBAL INC,,7.08,7.25,7.08,920,-0.018031,7.08,7.13,11193,7.25,12,-0.018031,0.002613,0.005049
11910,20101025,7363,TEAM,TECHTEAM GLOBAL INC,,6.93,7.24,7.07,7040,-0.001412,7.07,7.12,11193,7.24,46,-0.001412,0.003718,0.005161
11910,20101026,7363,TEAM,TECHTEAM GLOBAL INC,5,6.98,7.13,7.05,12325,-0.002829,7.04,7.08,11193,7.095,56,-0.002829,-0.000428,0.00052
11910,20101027,7363,TEAM,TECHTEAM GLOBAL INC,5,6.925,7.05,7.05,14877,0,7,7.06,11193,7.035,60,0,-0.003481,-0.004248
11910,20101028,7363,TEAM,TECHTEAM GLOBAL INC,5,6.99,7.19,7.15,8355,0.014184,7.12,7.15,11193,7.033,48,0.014184,0.001032,-0.000908
11910,20101029,7363,TEAM,TECHTEAM GLOBAL INC,5,6.92,7.33,7.26,19045,0.015385,7.25,7.26,11193,7.25,76,0.015385,0.001635,0.003524
11910,20101101,7363,TEAM,TECHTEAM GLOBAL INC,5,6.96,7.32,7.15,8676,-0.015152,7.15,7.21,11179,7.32,53,-0.015152,0.000117,-0.003528
11910,20101102,7363,TEAM,TECHTEAM GLOBAL INC,5,8.26,8.34,8.32,2313564,0.163636,8.29,8.3,11179,8.3,1640,0.163636,0.009015,0.011655
11910,20101103,7363,TEAM,TECHTEAM GLOBAL INC,,8.29,8.32,8.29,183770,-0.003606,8.29,8.3,11179,8.3,220,-0.003606,0.003291,0.002201
11910,20101104,7363,TEAM,TECHTEAM GLOBAL INC,5,8.28,8.31,8.29,115364,0,8.29,8.3,11179,8.28,255,0,0.019757,0.017191
11910,20101105,7363,TEAM,TECHTEAM GLOBAL INC,5,8.29,8.3,8.29,12479,0,8.29,8.3,11179,8.29,86,0,0.003965,0.004472
11910,20101108,7363,TEAM,TECHTEAM GLOBAL INC,5,8.29,8.3,8.2925,106492,0.000302,8.29,8.3,11179,8.29,85,0.000302,-0.001006,0.002028
11910,20101109,7363,TEAM,TECHTEAM GLOBAL INC,5,8.29,8.3,8.3,238427,0.000905,8.28,8.3,11179,8.3,175,0.000905,-0.008736,-0.009374
11910,20101110,7363,TEAM,TECHTEAM GLOBAL INC,5,8.29,8.31,8.29,36497,-0.001205,8.29,8.31,11179,8.3,47,-0.001205,0.005222,0.005565
11910,20101111,7363,TEAM,TECHTEAM GLOBAL INC,5,8.29,8.31,8.29,31346,0,8.29,8.3,11179,8.31,147,0,-0.00362,-0.00441
11910,20101112,7363,TEAM,TECHTEAM GLOBAL INC,5,8.29,8.31,8.29,103880,0,8.29,8.31,11179,8.29,57,0,-0.013452,-0.012579
11910,20101115,7363,TEAM,TECHTEAM GLOBAL INC,5,8.29,8.3,8.29,82688,0,8.29,8.3,11179,8.29,57,0,-0.00138,-0.001347
11910,20101116,7363,TEAM,TECHTEAM GLOBAL INC,,8.29,8.31,8.29,118024,0,8.29,8.31,11179,8.29,121,0,-0.017052,-0.016765
11910,20101117,7363,TEAM,TECHTEAM GLOBAL INC,5,8.29,8.31,8.31,23916,0.002413,8.29,8.31,11179,8.29,39,0.002413,0.001488,0.002706
11910,20101118,7363,TEAM,TECHTEAM GLOBAL INC,5,8.29,8.31,8.3,64756,-0.001203,8.3,8.31,11179,8.31,154,-0.001203,0.01552,0.012447
11910,20101119,7363,TEAM,TECHTEAM GLOBAL INC,,8.3,8.32,8.31,11856,0.001205,8.3,8.31,11179,8.31,46,0.001205,0.00361,0.003801
11910,20101122,7363,TEAM,TECHTEAM GLOBAL INC,5,8.3,8.33,8.32,13298,0.001203,8.33,8.35,11179,8.309,52,0.001203,-0.000324,0.00099
11910,20101123,7363,TEAM,TECHTEAM GLOBAL INC,5,8.3,8.33,8.32,5601,0,8.31,8.33,11179,8.3,28,0,-0.014162,-0.010262
11910,20101124,7363,TEAM,TECHTEAM GLOBAL INC,5,8.32,8.33,8.33,7240,0.001202,8.31,8.33,11179,8.32,16,0.001202,0.015629,0.014286
11910,20101126,7363,TEAM,TECHTEAM GLOBAL INC,5,8.32,8.35,8.35,2501,0.002401,8.32,8.35,11179,8.33,16,0.002401,-0.007051,-0.002619
11910,20101129,7363,TEAM,TECHTEAM GLOBAL INC,5,8.32,8.36,8.33,18128,-0.002395,8.33,8.34,11179,8.33,56,-0.002395,-0.001141,-0.000769
11910,20101130,7363,TEAM,TECHTEAM GLOBAL INC,,8.32,8.34,8.33,26815,0,8.33,8.34,11179,8.32,86,0,-0.005822,-0.005372
11910,20101201,7363,TEAM,TECHTEAM GLOBAL INC,5,8.33,8.34,8.33,11791,0,8.33,8.34,11179,8.34,36,0,0.020652,0.013113
11910,20101202,7363,TEAM,TECHTEAM GLOBAL INC,5,8.33,8.34,8.33,14604,0,8.33,8.5,11179,8.33,48,0,0.012191,0.008898
11910,20101203,7363,TEAM,TECHTEAM GLOBAL INC,5,8.32,8.35,8.34,32735,0.001201,8.33,8.34,11179,8.32,73,0.001201,0.003859,0.005069
11910,20101206,7363,TEAM,TECHTEAM GLOBAL INC,5,8.33,8.34,8.34,4378,0,8.33,8.34,11179,8.33,13,0,-0.000021,0.002934
11910,20101207,7363,TEAM,TECHTEAM GLOBAL INC,5,8.33,8.36,8.33,45912,-0.001199,8.33,8.34,11179,8.36,68,-0.001199,0.000148,0.000127
11910,20101208,7363,TEAM,TECHTEAM GLOBAL INC,5,8.33,8.39,8.35,15146,0.002401,8.34,8.35,11179,8.33,36,0.002401,0.001313,-0.001094
11910,20101209,7363,TEAM,TECHTEAM GLOBAL INC,5,8.33,8.35,8.33,1800,-0.002395,8.33,8.35,11179,8.33,4,-0.002395,0.003498,0.003391
11910,20101210,7363,TEAM,TECHTEAM GLOBAL INC,5,8,8.45,8.44,23873,0.013205,8.42,8.44,11179,8.3,56,0.013205,0.006395,0.006767
11910,20101213,7363,TEAM,TECHTEAM GLOBAL INC,5,8.35,8.45,8.37,103160,-0.008294,8.37,8.38,11179,8.45,109,-0.008294,-0.000075,-0.001966
11910,20101214,7363,TEAM,TECHTEAM GLOBAL INC,5,,,,,,,,,,,,0.000237,-0.001566
