PERMNO,date,SICCD,TICKER,COMNAM,NMSIND,BIDLO,ASKHI,PRC,VOL,RET,BID,ASK,SHROUT,OPENPRC,NUMTRD,RETX,vwretx,ewretx
12950,20110818,6722,TZY,ISHARES TRUST,,23.55,23.83,-23.69,0,C,23.55,23.83,100,,,C,-0.045349,-0.041372
12950,20110819,6722,TZY,ISHARES TRUST,,23.15,23.43,-23.29,0,-0.016885,23.15,23.43,100,,,-0.016885,-0.015399,-0.012245
12950,20110822,6722,TZY,ISHARES TRUST,,23.36,23.44,-23.4,0,0.004723,23.36,23.44,100,,,0.004723,-0.000001,-0.002681
12950,20110823,6722,TZY,ISHARES TRUST,,24.13,24.18,-24.155,0,0.032265,24.13,24.18,100,,,0.032265,0.033725,0.028999
12950,20110824,6722,TZY,ISHARES TRUST,,24.31,24.36,-24.335,0,0.007452,24.31,24.36,100,,,0.007452,0.011433,0.007909
12950,20110825,6722,TZY,ISHARES TRUST,,23.89,23.93,-23.91,0,-0.017465,23.89,23.93,100,,,-0.017465,-0.015922,-0.015405
12950,20110826,6722,TZY,ISHARES TRUST,,24.03,24.3,-24.165,0,0.010665,24.03,24.3,100,,,0.010665,0.01634,0.015529
12950,20110829,6722,TZY,ISHARES TRUST,,24.91,24.95,-24.93,0,0.031657,24.91,24.95,100,,,0.031657,0.029507,0.031448
12950,20110830,6722,TZY,ISHARES TRUST,,24.83,25.01,-24.92,0,-0.000401,24.83,25.01,100,,,-0.000401,0.00357,0.004626
12950,20110831,6722,TZY,ISHARES TRUST,,25.27,25.27,25.27,300,0.014045,24.98,25.26,100,25.27,,0.014045,0.004997,0.002966
12950,20110901,6722,TZY,ISHARES TRUST,,24.63,24.89,-24.76,0,-0.020182,24.63,24.89,100,,,-0.020182,-0.012218,-0.013873
12950,20110902,6722,TZY,ISHARES TRUST,,24.08,24.3,-24.19,0,-0.023021,24.08,24.3,100,,,-0.023021,-0.024662,-0.022485
12950,20110906,6722,TZY,ISHARES TRUST,,23.68,23.68,23.68,200,-0.021083,23.94,23.98,100,23.68,,-0.021083,-0.00817,-0.009007
12950,20110907,6722,TZY,ISHARES TRUST,,24.61,24.64,-24.625,0,0.039907,24.61,24.64,100,,,0.039907,0.028946,0.027053
12950,20110908,6722,TZY,ISHARES TRUST,,24.14,24.32,-24.23,0,-0.016041,24.14,24.32,100,,,-0.016041,-0.010911,-0.012366
12950,20110909,6722,TZY,ISHARES TRUST,,23.44,23.65,-23.545,0,-0.028271,23.44,23.65,100,,,-0.028271,-0.02659,-0.021064
12950,20110912,6722,TZY,ISHARES TRUST,,23.46,23.46,23.46,200,-0.00361,23.44,23.72,100,23.46,,-0.00361,0.004088,-0.000512
12950,20110913,6722,TZY,ISHARES TRUST,,23.8,23.8,23.8,100,0.014493,23.74,23.94,100,23.8,,0.014493,0.010437,0.011502
12950,20110914,6722,TZY,ISHARES TRUST,,24.2,24.24,-24.22,0,0.017647,24.2,24.24,100,,,0.017647,0.012749,0.011627
12950,20110915,6722,TZY,ISHARES TRUST,,24.37,24.65,-24.51,0,0.011974,24.37,24.65,100,,,0.011974,0.015329,0.008742
12950,20110916,6722,TZY,ISHARES TRUST,,24.48,24.74,-24.61,0,0.00408,24.48,24.74,100,,,0.00408,0.003486,0.001369
12950,20110919,6722,TZY,ISHARES TRUST,,24.2,24.46,-24.33,0,-0.011378,24.2,24.46,100,,,-0.011378,-0.010944,-0.014332
12950,20110920,6722,TZY,ISHARES TRUST,,24.24,24.3,-24.27,0,-0.002466,24.24,24.3,100,,,-0.002466,-0.004135,-0.009129
12950,20110921,6722,TZY,ISHARES TRUST,,23.45,23.7,-23.575,0,-0.028636,23.45,23.7,100,,,-0.028636,-0.029484,-0.024804
12950,20110922,6722,TZY,ISHARES TRUST,,22.8,22.91,-22.855,0,-0.030541,22.8,22.91,100,,,-0.030541,-0.034404,-0.03289
12950,20110923,6722,TZY,ISHARES TRUST,,22.8724,22.8724,22.8724,500,0.000761,22.92,23.05,100,22.8724,,0.000761,0.005628,0.007186
12950,20110926,6722,TZY,ISHARES TRUST,,23.17,23.17,23.17,100,0.013011,23.39,23.56,100,23.17,,0.013011,0.021538,0.009785
12950,20110927,6722,TZY,ISHARES TRUST,,23.65,23.81,-23.73,0,0.027398,23.65,23.81,100,,,0.024169,0.012834,0.015723
12950,20110928,6722,TZY,ISHARES TRUST,,23.25,23.41,-23.33,0,-0.016856,23.25,23.41,100,,,-0.016856,-0.023992,-0.025641
12950,20110929,6722,TZY,ISHARES TRUST,,23.43,23.68,-23.555,0,0.009644,23.43,23.68,100,,,0.009644,0.008163,0.006593
12950,20110930,6722,TZY,ISHARES TRUST,,23.23,23.23,23.23,500,-0.013798,22.91,23.07,150,23.23,,-0.013798,-0.024662,-0.01885
12950,20111003,6722,TZY,ISHARES TRUST,,22.25,22.37,-22.31,0,-0.039604,22.25,22.37,150,,,-0.039604,-0.032029,-0.041389
12950,20111004,6722,TZY,ISHARES TRUST,,22.16,22.16,22.16,100,-0.006723,22.71,22.86,150,22.16,,-0.006723,0.023523,0.027271
12950,20111005,6722,TZY,ISHARES TRUST,,23.05,23.25,-23.15,0,0.044675,23.05,23.25,150,,,0.044675,0.019306,0.017052
12950,20111006,6722,TZY,ISHARES TRUST,,23.5,23.69,-23.595,0,0.019222,23.5,23.69,150,,,0.019222,0.02048,0.020302
12950,20111007,6722,TZY,ISHARES TRUST,,23.38,23.54,-23.46,0,-0.005722,23.38,23.54,150,,,-0.005722,-0.010945,-0.013558
12950,20111010,6722,TZY,ISHARES TRUST,,24.06,24.24,-24.15,0,0.029412,24.06,24.24,150,,,0.029412,0.034255,0.029485
12950,20111011,6722,TZY,ISHARES TRUST,,24.1,24.23,-24.165,0,0.000621,24.1,24.23,150,,,0.000621,0.001038,0.005045
12950,20111012,6722,TZY,ISHARES TRUST,,24.49,24.65,-24.57,0,0.01676,24.49,24.65,150,,,0.01676,0.011647,0.015032
12950,20111013,6722,TZY,ISHARES TRUST,,24.35,24.57,-24.46,0,-0.004477,24.35,24.57,150,,,-0.004477,-0.003016,-0.000785
12950,20111014,6722,TZY,ISHARES TRUST,,24.66,24.66,24.66,100,0.008177,24.7,24.87,150,24.66,,0.008177,0.017724,0.014636
12950,20111017,6722,TZY,ISHARES TRUST,,24.63,24.63,24.63,500,-0.001217,24.25,24.39,150,24.63,,-0.001217,-0.020866,-0.02031
12950,20111018,6722,TZY,ISHARES TRUST,,24.68,24.82,-24.75,0,0.004872,24.68,24.82,150,,,0.004872,0.020777,0.018455
12950,20111019,6722,TZY,ISHARES TRUST,,24.6,24.6,24.6,100,-0.006061,24.33,24.5,150,24.6,,-0.006061,-0.014271,-0.012823
12950,20111020,6722,TZY,ISHARES TRUST,,24.35,24.56,-24.455,0,-0.005894,24.35,24.56,150,,,-0.005894,0.003855,0.000346
12950,20111021,6722,TZY,ISHARES TRUST,,24.85,25.06,-24.955,0,0.020446,24.85,25.06,150,,,0.020446,0.019233,0.016308
12950,20111024,6722,TZY,ISHARES TRUST,,25.13,25.13,25.13,200,0.007013,25.24,25.42,150,25.13,,0.007013,0.016704,0.021862
12950,20111025,6722,TZY,ISHARES TRUST,,25.13,25.14,25.13,300,0,24.86,24.95,150,25.13,,0,-0.019819,-0.017923
12950,20111026,6722,TZY,ISHARES TRUST,,25.11,25.22,-25.165,0,0.001393,25.11,25.22,150,,,0.001393,0.011488,0.013112
12950,20111027,6722,TZY,ISHARES TRUST,,26.06,26.26,-26.16,0,0.039539,26.06,26.26,150,,,0.039539,0.036079,0.036164
12950,20111028,6722,TZY,ISHARES TRUST,,26.04,26.22,-26.13,0,-0.001147,26.04,26.22,150,,,-0.001147,0.00019,0.00033
12950,20111031,6722,TZY,ISHARES TRUST,,25.84,25.84,25.84,200,-0.011098,25.34,25.48,150,25.84,,-0.011098,-0.02465,-0.019074
12950,20111101,6722,TZY,ISHARES TRUST,,24.7,25.01,24.7,1400,-0.044118,24.57,24.71,150,25.01,,-0.044118,-0.028634,-0.025608
12950,20111102,6722,TZY,ISHARES TRUST,,24.92,25.14,-25.03,0,0.01336,24.92,25.14,150,,,0.01336,0.016945,0.017805
12950,20111103,6722,TZY,ISHARES TRUST,,25.42,25.57,-25.495,0,0.018578,25.42,25.57,150,,,0.018578,0.019006,0.01579
12950,20111104,6722,TZY,ISHARES TRUST,,25.22,25.37,-25.295,0,-0.007845,25.22,25.37,150,,,-0.007845,-0.005583,-0.00431
12950,20111107,6722,TZY,ISHARES TRUST,,25.32,25.47,-25.395,0,0.003953,25.32,25.47,150,,,0.003953,0.004856,0.000102
12950,20111108,6722,TZY,ISHARES TRUST,,25.62,25.77,-25.695,0,0.011813,25.62,25.77,150,,,0.011813,0.01077,0.010293
12950,20111109,6722,TZY,ISHARES TRUST,,24.66,24.73,-24.695,0,-0.038918,24.66,24.73,150,,,-0.038918,-0.037935,-0.033721
12950,20111110,6722,TZY,ISHARES TRUST,,24.8,24.95,-24.875,0,0.007289,24.8,24.95,150,,,0.007289,0.007259,0.004295
12950,20111111,6722,TZY,ISHARES TRUST,,25.34,25.46,-25.4,0,0.021106,25.34,25.46,150,,,0.021106,0.019767,0.016413
12950,20111114,6722,TZY,ISHARES TRUST,,25.06,25.18,-25.12,0,-0.011024,25.06,25.18,150,,,-0.011024,-0.009495,-0.011298
12950,20111115,6722,TZY,ISHARES TRUST,,25.24,25.24,25.24,200,0.004777,25.18,25.27,150,25.24,,0.004777,0.004354,0.005009
12950,20111116,6722,TZY,ISHARES TRUST,,24.98,24.98,24.98,100,-0.010301,24.77,24.89,150,24.98,,-0.010301,-0.015294,-0.010514
12950,20111117,6722,TZY,ISHARES TRUST,,24.35,24.52,-24.435,0,-0.021817,24.35,24.52,150,,,-0.021817,-0.017226,-0.013572
12950,20111118,6722,TZY,ISHARES TRUST,,24.43,24.57,-24.5,0,0.00266,24.43,24.57,150,,,0.00266,-0.00036,0.00091
12950,20111121,6722,TZY,ISHARES TRUST,,23.93,23.94,23.94,1800,-0.022857,23.95,24.08,150,23.93,,-0.022857,-0.018747,-0.019219
12950,20111122,6722,TZY,ISHARES TRUST,,23.9,23.9,23.9,1700,-0.001671,23.84,23.98,150,23.9,,-0.001671,-0.004178,-0.004975
12950,20111123,6722,TZY,ISHARES TRUST,,23.32,23.44,-23.38,0,-0.021757,23.32,23.44,150,,,-0.021757,-0.023265,-0.022619
12950,20111125,6722,TZY,ISHARES TRUST,,22.67,25.63,-24.15,0,0.032934,22.67,25.63,150,,,0.032934,-0.003742,-0.004938
12950,20111128,6722,TZY,ISHARES TRUST,,23.88,24.04,-23.96,0,-0.007868,23.88,24.04,150,,,-0.007868,0.030371,0.027825
12950,20111129,6722,TZY,ISHARES TRUST,,24.05,24.19,-24.12,0,0.006678,24.05,24.19,150,,,0.006678,0.001993,-0.002277
12950,20111130,6722,TZY,ISHARES TRUST,,24.86,25.5,24.99,56200,0.03607,25.07,25.25,150,25.5,,0.03607,0.043756,0.038087
12950,20111201,6722,TZY,ISHARES TRUST,,25,25.11,-25.055,0,0.002601,25,25.11,150,,,0.002601,-0.002335,-0.003719
12950,20111202,6722,TZY,ISHARES TRUST,,25.01,25.14,-25.075,0,0.000798,25.01,25.14,150,,,0.000798,0.000065,0.004847
12950,20111205,6722,TZY,ISHARES TRUST,,25.25,25.61,25.25,500,0.006979,25.21,25.38,150,25.61,,0.006979,0.010254,0.009643
12950,20111206,6722,TZY,ISHARES TRUST,,25.24,25.47,-25.355,0,0.004158,25.24,25.47,150,,,0.004158,0.000367,-0.000547
12950,20111207,6722,TZY,ISHARES TRUST,,25.1,25.3899,25.3699,38700,0.000588,25.31,25.52,150,25.1,,0.000588,0.001647,0.00065
12950,20111208,6722,TZY,ISHARES TRUST,,24.77,24.77,24.77,300,-0.023646,24.71,24.86,150,24.77,,-0.023646,-0.022946,-0.02281
12950,20111209,6722,TZY,ISHARES TRUST,,25.15,25.32,-25.235,0,0.018773,25.15,25.32,150,,,0.018773,0.01772,0.018867
12950,20111212,6722,TZY,ISHARES TRUST,,24.56,24.84,-24.7,0,-0.021201,24.56,24.84,150,,,-0.021201,-0.015582,-0.013633
12950,20111213,6722,TZY,ISHARES TRUST,,24.95,24.95,24.95,100,0.010121,24.42,24.54,150,24.95,,0.010121,-0.011498,-0.012977
12950,20111214,6722,TZY,ISHARES TRUST,,24.51,24.51,24.51,1200,-0.017635,24.13,24.36,150,24.51,,-0.017635,-0.012833,-0.009275
12950,20111215,6722,TZY,ISHARES TRUST,,24.37,24.54,24.38,1600,-0.005304,24.28,24.48,150,24.54,,-0.005304,0.003637,0.002408
12950,20111216,6722,TZY,ISHARES TRUST,,24.36,24.47,-24.415,0,0.001436,24.36,24.47,150,,,0.001436,0.004859,0.003314
12950,20111219,6722,TZY,ISHARES TRUST,,24.03,24.25,-24.14,0,-0.011264,24.03,24.25,150,,,-0.011264,-0.012671,-0.014777
12950,20111220,6722,TZY,ISHARES TRUST,,24.79,24.79,24.79,1300,0.026926,24.77,24.94,150,24.79,,0.026926,0.029812,0.026714
12950,20111221,6722,TZY,ISHARES TRUST,,24.7,24.94,-24.82,0,0.00121,24.7,24.94,150,,,0.00121,0.001868,0.001089
12950,20111222,6722,TZY,ISHARES TRUST,,24.99,25.16,-25.075,0,0.010274,24.99,25.16,150,,,0.010274,0.008685,0.008057
12950,20111223,6722,TZY,ISHARES TRUST,,25.18,25.29,-25.235,0,0.006381,25.18,25.29,150,,,0.006381,0.007787,0.003873
12950,20111227,6722,TZY,ISHARES TRUST,,24.99,25.1,-25.045,0,-0.000332,24.99,25.1,150,,,-0.007529,-0.000047,-0.001196
12950,20111228,6722,TZY,ISHARES TRUST,,24.63,24.75,-24.69,0,-0.014174,24.63,24.75,150,,,-0.014174,-0.013924,-0.014109
12950,20111229,6722,TZY,ISHARES TRUST,,24.68,24.86,24.86,3200,0.006885,24.94,25.04,150,24.68,,0.006885,0.010708,0.008676
12950,20111230,6722,TZY,ISHARES TRUST,,24.89,25.04,-24.965,0,0.004224,24.89,25.04,200,,,0.004224,-0.002615,0.002135
12950,20120103,6722,TZY,ISHARES TRUST,,25.35,25.45,-25.4,0,0.017424,25.35,25.45,200,,,0.017424,0.016088,0.016986
12950,20120104,6722,TZY,ISHARES TRUST,,25.29,25.38,-25.335,0,-0.002559,25.29,25.38,200,,,-0.002559,-0.000589,-0.001452
12950,20120105,6722,TZY,ISHARES TRUST,,25.12,25.28,25.12,600,-0.008486,25.25,25.34,200,25.28,,-0.008486,0.002924,0.004036
12950,20120106,6722,TZY,ISHARES TRUST,,25.1999,25.1999,25.1999,500,0.003181,25.12,25.21,200,25.1999,,0.003181,-0.003156,-0.000628
12950,20120109,6722,TZY,ISHARES TRUST,,25.23,25.23,25.23,100,0.001194,25.2,25.28,200,25.23,,0.001194,0.002795,0.004414
12950,20120110,6722,TZY,ISHARES TRUST,,25.44,25.58,-25.51,0,0.011098,25.44,25.58,200,,,0.011098,0.010411,0.011106
12950,20120111,6722,TZY,ISHARES TRUST,,25.38,25.45,25.38,1000,-0.005096,25.48,25.59,200,25.45,,-0.005096,0.00085,0.004343
12950,20120112,6722,TZY,ISHARES TRUST,,25.55,25.64,-25.595,0,0.008471,25.55,25.64,200,,,0.008471,0.003016,0.005018
12950,20120113,6722,TZY,ISHARES TRUST,,25.39,25.47,-25.43,0,-0.006447,25.39,25.47,200,,,-0.006447,-0.005316,-0.005025
12950,20120117,6722,TZY,ISHARES TRUST,,25.57,25.615,25.61,15300,0.007078,25.46,25.6,200,25.61,,0.007078,0.003896,0.003736
12950,20120118,6722,TZY,ISHARES TRUST,,25.62,25.701,25.68,11100,0.002733,25.79,25.9,200,25.62,,0.002733,0.012182,0.013639
12950,20120119,6722,TZY,ISHARES TRUST,,26.01,26.1,-26.055,0,0.014603,26.01,26.1,200,,,0.014603,0.005555,0.005428
12950,20120120,6722,TZY,ISHARES TRUST,,26.0295,26.0295,26.0295,600,-0.000979,26.05,26.14,200,26.0295,,-0.000979,0.000859,0.003648
12950,20120123,6722,TZY,ISHARES TRUST,,26,26,26,200,-0.001133,26.1,26.19,200,26,,-0.001133,0.001594,0.001815
12950,20120124,6722,TZY,ISHARES TRUST,,26.06,26.15,-26.105,0,0.004038,26.06,26.15,200,,,0.004038,-0.000865,0.003335
12950,20120125,6722,TZY,ISHARES TRUST,,26.3,26.4,-26.35,0,0.009385,26.3,26.4,200,,,0.009385,0.009939,0.009521
12950,20120126,6722,TZY,ISHARES TRUST,,26.19,26.34,-26.265,0,-0.003226,26.19,26.34,200,,,-0.003226,-0.004942,-0.001108
12950,20120127,6722,TZY,ISHARES TRUST,,26.2,26.38,-26.29,0,0.000952,26.2,26.38,200,,,0.000952,0.000576,0.006083
12950,20120130,6722,TZY,ISHARES TRUST,,26.08,26.18,-26.13,0,-0.006086,26.08,26.18,200,,,-0.006086,-0.003788,-0.004873
12950,20120131,6722,TZY,ISHARES TRUST,,26.13,26.25,-26.19,0,0.002296,26.13,26.25,200,,,0.002296,-0.000083,0.00176
12950,20120201,6722,TZY,ISHARES TRUST,,26.44,26.52,-26.48,0,0.011073,26.44,26.52,200,,,0.011073,0.010979,0.013626
12950,20120202,6722,TZY,ISHARES TRUST,,26.5,26.62,-26.56,0,0.003021,26.5,26.62,200,,,0.003021,0.001769,0.004356
12950,20120203,6722,TZY,ISHARES TRUST,,26.87,26.96,-26.915,0,0.013366,26.87,26.96,200,,,0.013366,0.014518,0.014863
12950,20120206,6722,TZY,ISHARES TRUST,,26.7,26.76,26.76,3900,-0.005759,26.82,26.9,200,26.7,,-0.005759,-0.001007,-0.000468
12950,20120207,6722,TZY,ISHARES TRUST,,26.88,26.9,26.88,6200,0.004484,26.85,26.97,200,26.9,,0.004484,0.001371,0.001456
12950,20120208,6722,TZY,ISHARES TRUST,,26.72,27.02,26.85,47000,-0.001116,26.96,27.08,200,26.72,,-0.001116,0.001945,0.003403
12950,20120209,6722,TZY,ISHARES TRUST,,26.99,27.05,-27.02,0,0.006331,26.99,27.05,200,,,0.006331,0.000975,0.000305
12950,20120210,6722,TZY,ISHARES TRUST,,26.69,26.76,-26.725,0,-0.010918,26.69,26.76,200,,,-0.010918,-0.008403,-0.009804
12950,20120213,6722,TZY,ISHARES TRUST,,26.92,26.97,-26.945,0,0.008232,26.92,26.97,200,,,0.008232,0.007227,0.00919
12950,20120214,6722,TZY,ISHARES TRUST,,26.84,26.93,-26.885,0,-0.002227,26.84,26.93,200,,,-0.002227,-0.001719,-0.004104
12950,20120215,6722,TZY,ISHARES TRUST,,26.77,26.85,-26.81,0,-0.00279,26.77,26.85,200,,,-0.00279,-0.004492,-0.003297
12950,20120216,6722,TZY,ISHARES TRUST,,27.1,27.14,-27.12,0,0.011563,27.1,27.14,200,,,0.011563,0.012339,0.011434
12950,20120217,6722,TZY,ISHARES TRUST,,27.16,27.2,-27.18,0,0.002212,27.16,27.2,200,,,0.002212,0.001314,0.002643
12950,20120221,6722,TZY,ISHARES TRUST,,27.28,27.28,27.28,100,0.003679,27.13,27.18,200,27.28,,0.003679,0.000131,-0.00227
12950,20120222,6722,TZY,ISHARES TRUST,,27.04,27.09,-27.065,0,-0.007881,27.04,27.09,200,,,-0.007881,-0.003181,-0.004243
12950,20120223,6722,TZY,ISHARES TRUST,,27.11,27.11,27.11,100,0.001663,27.22,27.32,200,27.11,,0.001663,0.005573,0.008018
12950,20120224,6722,TZY,ISHARES TRUST,,27.27,27.33,-27.3,0,0.007008,27.27,27.33,200,,,0.007008,0.001408,0.000398
12950,20120227,6722,TZY,ISHARES TRUST,,27.11,27.11,27.11,900,-0.00696,27.24,27.32,200,27.11,,-0.00696,0.000735,-0.000826
12950,20120228,6722,TZY,ISHARES TRUST,,27.38,27.42,-27.4,0,0.010697,27.38,27.42,200,,,0.010697,0.002771,0.000473
12950,20120229,6722,TZY,ISHARES TRUST,,27.48,27.48,27.48,100,0.00292,27.2,27.24,150,27.48,,0.00292,-0.005792,-0.009222
12950,20120301,6722,TZY,ISHARES TRUST,,27.3799,27.5,27.3799,1200,-0.003643,27.4,27.43,150,27.5,,-0.003643,0.006707,0.004577
12950,20120302,6722,TZY,ISHARES TRUST,,27.28,27.28,27.28,400,-0.003649,27.23,27.31,150,27.28,,-0.003649,-0.004969,-0.008092
12950,20120305,6722,TZY,ISHARES TRUST,,27.09,27.21,-27.15,0,-0.004765,27.09,27.21,150,,,-0.004765,-0.004618,-0.003572
12950,20120306,6722,TZY,ISHARES TRUST,,26.56,26.64,-26.6,0,-0.020258,26.56,26.64,150,,,-0.020258,-0.017408,-0.017324
12950,20120307,6722,TZY,ISHARES TRUST,,26.7,26.82,26.82,2000,0.008271,26.82,26.88,150,26.78,,0.008271,0.007703,0.009368
12950,20120308,6722,TZY,ISHARES TRUST,,27.11,27.23,-27.17,0,0.01305,27.11,27.23,150,,,0.01305,0.010707,0.01057
12950,20120309,6722,TZY,ISHARES TRUST,,27.21,27.27,-27.24,0,0.002576,27.21,27.27,150,,,0.002576,0.004494,0.007759
12950,20120312,6722,TZY,ISHARES TRUST,,27.19,27.25,-27.22,0,-0.000734,27.19,27.25,150,,,-0.000734,-0.001423,-0.001807
12950,20120313,6722,TZY,ISHARES TRUST,,27.4195,27.52,27.52,6800,0.011021,27.65,27.7,150,27.4195,,0.011021,0.017258,0.014083
12950,20120314,6722,TZY,ISHARES TRUST,,27.698,27.698,27.698,100,0.006468,27.51,27.56,150,27.698,,0.006468,-0.003961,-0.00684
12950,20120315,6722,TZY,ISHARES TRUST,,27.7,27.76,-27.73,0,0.001155,27.7,27.76,150,,,0.001155,0.006468,0.004775
12950,20120316,6722,TZY,ISHARES TRUST,,27.75,27.82,-27.785,0,0.001983,27.75,27.82,150,,,0.001983,0.001252,0.001174
12950,20120319,6722,TZY,ISHARES TRUST,,27.87,27.95,-27.91,0,0.004499,27.87,27.95,150,,,0.004499,0.003981,0.004725
12950,20120320,6722,TZY,ISHARES TRUST,,27.7,27.7,27.7,100,-0.007524,27.69,27.78,150,27.7,,-0.007524,-0.004522,-0.005376
12950,20120321,6722,TZY,ISHARES TRUST,,27.61,27.69,-27.65,0,-0.001805,27.61,27.69,150,,,-0.001805,-0.001166,0.000988
12950,20120322,6722,TZY,ISHARES TRUST,,27.44,27.45,27.4499,2400,-0.007237,27.43,27.49,150,27.44,,-0.007237,-0.008155,-0.008314
12950,20120323,6722,TZY,ISHARES TRUST,,27.47,27.47,27.47,200,0.000732,27.55,27.62,150,27.47,,0.000732,0.004456,0.007128
12950,20120326,6722,TZY,ISHARES TRUST,,27.7701,27.8269,27.8269,2100,0.012992,27.9,27.97,150,27.7701,,0.012992,0.013895,0.01128
12950,20120327,6722,TZY,ISHARES TRUST,,27.73,27.79,-27.76,0,0.000341,27.73,27.79,150,,,-0.002404,-0.003741,-0.002922
12950,20120328,6722,TZY,ISHARES TRUST,,27.56,27.62,-27.59,0,-0.006124,27.56,27.62,150,,,-0.006124,-0.00579,-0.005661
12950,20120329,6722,TZY,ISHARES TRUST,,27.48,27.58,-27.53,0,-0.002175,27.48,27.58,150,,,-0.002175,-0.001927,-0.001684
12950,20120330,6722,TZY,ISHARES TRUST,,27.62,27.68,-27.65,0,0.004359,27.62,27.68,150,,,0.004359,0.00329,0.001961
12950,20120402,6722,TZY,ISHARES TRUST,,27.85,27.91,-27.88,0,0.008318,27.85,27.91,150,,,0.008318,0.007941,0.007247
12950,20120403,6722,TZY,ISHARES TRUST,,27.6,27.89,-27.745,0,-0.004842,27.6,27.89,150,,,-0.004842,-0.004612,-0.006652
12950,20120404,6722,TZY,ISHARES TRUST,,27.29,27.36,-27.325,0,-0.015138,27.29,27.36,150,,,-0.015138,-0.011834,-0.011988
12950,20120405,6722,TZY,ISHARES TRUST,,27.24,27.31,-27.275,0,-0.00183,27.24,27.31,150,,,-0.00183,-0.001053,-0.000752
12950,20120409,6722,TZY,ISHARES TRUST,,26.99,27.08,-27.035,0,-0.008799,26.99,27.08,150,,,-0.008799,-0.011387,-0.011952
12950,20120410,6722,TZY,ISHARES TRUST,,26.85,26.96,26.85,1300,-0.006843,26.45,26.57,150,26.96,,-0.006843,-0.018025,-0.016297
12950,20120411,6722,TZY,ISHARES TRUST,,26.8702,26.89,26.88,800,0.001117,26.75,26.82,150,26.89,,0.001117,0.008376,0.011324
12950,20120412,6722,TZY,ISHARES TRUST,,26.9742,27.1799,27.1799,600,0.011157,27.15,27.22,150,26.9742,,0.011157,0.015043,0.012911
12950,20120413,6722,TZY,ISHARES TRUST,,26.8,26.88,-26.84,0,-0.012506,26.8,26.88,150,,,-0.012506,-0.012399,-0.010688
12950,20120416,6722,TZY,ISHARES TRUST,,26.85,26.94,-26.895,0,0.002049,26.85,26.94,150,,,0.002049,-0.000595,-0.000054
12950,20120417,6722,TZY,ISHARES TRUST,,27.16,27.16,27.16,1000,0.009853,27.2,27.3,150,27.16,,0.009853,0.014944,0.010745
12950,20120418,6722,TZY,ISHARES TRUST,,27.1204,27.14,27.14,700,-0.000736,27.11,27.19,150,27.14,,-0.000736,-0.00404,-0.006206
12950,20120419,6722,TZY,ISHARES TRUST,,27.088,27.17,27.088,1200,-0.001916,26.97,27.06,150,27.17,,-0.001916,-0.004708,-0.002428
12950,20120420,6722,TZY,ISHARES TRUST,,27.1212,27.1212,27.1212,400,0.001226,27.08,27.17,150,27.1212,,0.001226,0.001613,0.003775
12950,20120423,6722,TZY,ISHARES TRUST,,26.76,26.82,-26.79,0,-0.012212,26.76,26.82,150,,,-0.012212,-0.009589,-0.009782
12950,20120424,6722,TZY,ISHARES TRUST,,26.93,26.93,26.93,1200,0.005226,26.87,26.94,150,26.93,,0.005226,0.003243,0.005758
12950,20120425,6722,TZY,ISHARES TRUST,,27.15,27.24,27.2386,800,0.011459,27.22,27.29,150,27.15,,0.011459,0.013724,0.010255
12950,20120426,6722,TZY,ISHARES TRUST,,27.22,27.33,27.33,1100,0.003356,27.39,27.49,150,27.22,,0.003356,0.006688,0.005672
12950,20120427,6722,TZY,ISHARES TRUST,,27.49,27.53,27.49,400,0.005854,27.49,27.59,150,27.53,,0.005854,0.003835,0.005222
12950,20120430,6722,TZY,ISHARES TRUST,,27.35,27.42,-27.385,0,-0.00382,27.35,27.42,150,,,-0.00382,-0.004337,-0.004102
12950,20120501,6722,TZY,ISHARES TRUST,,27.6,27.63,27.63,500,0.008946,27.48,27.57,150,27.6,,0.008946,0.004837,0.001615
12950,20120502,6722,TZY,ISHARES TRUST,,27.47,27.47,27.47,400,-0.005791,27.4,27.48,150,27.47,,-0.005791,-0.002169,-0.000587
12950,20120503,6722,TZY,ISHARES TRUST,,27.25,27.25,27.25,100,-0.008009,27.19,27.27,150,27.25,,-0.008009,-0.010087,-0.010968
12950,20120504,6722,TZY,ISHARES TRUST,,26.87,26.87,26.87,1800,-0.013945,26.77,26.87,150,26.87,,-0.013945,-0.015729,-0.012771
12950,20120507,6722,TZY,ISHARES TRUST,,26.9791,26.9791,26.9791,200,0.00406,26.85,26.94,150,26.9791,,0.00406,0.000516,0.001052
12950,20120508,6722,TZY,ISHARES TRUST,,26.4999,26.6999,26.59,600,-0.014422,26.63,26.77,150,26.6999,,-0.014422,-0.00546,-0.004518
12950,20120509,6722,TZY,ISHARES TRUST,,26.453,26.46,26.453,2200,-0.005152,26.49,26.56,150,26.46,,-0.005152,-0.0063,-0.004224
12950,20120510,6722,TZY,ISHARES TRUST,,26.52,26.61,-26.565,0,0.004234,26.52,26.61,150,,,0.004234,0.002666,0.002531
12950,20120511,6722,TZY,ISHARES TRUST,,26.6286,26.6286,26.6286,100,0.002394,26.46,26.54,150,26.6286,,0.002394,-0.002942,-0.003938
12950,20120514,6722,TZY,ISHARES TRUST,,26.23,26.23,26.23,1100,-0.014969,26.1,26.21,150,26.23,,-0.014969,-0.012243,-0.012493
12950,20120515,6722,TZY,ISHARES TRUST,,25.9312,26.23,25.9312,1200,-0.011392,25.93,26.03,150,26.23,,-0.011392,-0.006167,-0.006623
12950,20120516,6722,TZY,ISHARES TRUST,,25.93,25.93,25.93,500,-0.000046,25.78,25.87,150,25.93,,-0.000046,-0.005159,-0.007936
12950,20120517,6722,TZY,ISHARES TRUST,,25.6838,25.6838,25.6838,500,-0.009495,25.37,25.49,150,25.6838,,-0.009495,-0.015942,-0.016
12950,20120518,6722,TZY,ISHARES TRUST,,25.2521,25.2521,25.2521,200,-0.016808,25.2,25.28,150,25.2521,,-0.016808,-0.008152,-0.009713
12950,20120521,6722,TZY,ISHARES TRUST,,25.64,25.7,-25.67,0,0.016549,25.64,25.7,150,,,0.016549,0.017725,0.016239
12950,20120522,6722,TZY,ISHARES TRUST,,25.9,25.9,25.9,3900,0.00896,25.59,25.69,150,25.9,,0.00896,-0.000537,-0.004098
12950,20120523,6722,TZY,ISHARES TRUST,,25.47,25.47,25.47,600,-0.016602,25.56,25.64,150,25.47,,-0.016602,0.002735,0.002348
12950,20120524,6722,TZY,ISHARES TRUST,,25.55,25.62,-25.585,0,0.004515,25.55,25.62,150,,,0.004515,0.00089,0.00165
12950,20120525,6722,TZY,ISHARES TRUST,,25.5,25.59,-25.545,0,-0.001563,25.5,25.59,150,,,-0.001563,-0.001556,0.001189
12950,20120529,6722,TZY,ISHARES TRUST,,25.8,25.88,-25.84,0,0.011548,25.8,25.88,150,,,0.011548,0.011087,0.00989
12950,20120530,6722,TZY,ISHARES TRUST,,25.38,25.47,-25.425,0,-0.01606,25.38,25.47,150,,,-0.01606,-0.015727,-0.01451
12950,20120531,6722,TZY,ISHARES TRUST,,25.4,25.47,-25.435,0,0.000393,25.4,25.47,200,,,0.000393,-0.00205,-0.000549
12950,20120601,6722,TZY,ISHARES TRUST,,24.86,24.99,24.86,400,-0.022607,22.88,31.89,200,24.99,,-0.022607,-0.024626,-0.02054
12950,20120604,6722,TZY,ISHARES TRUST,,24.85,24.92,24.85,1000,-0.000402,24.8,24.89,200,24.92,,-0.000402,-0.001032,-0.002296
12950,20120605,6722,TZY,ISHARES TRUST,,24.99,25.07,-25.03,0,0.007243,24.99,25.07,200,,,0.007243,0.007817,0.008022
12950,20120606,6722,TZY,ISHARES TRUST,,25.43,25.4518,25.43,2100,0.015981,25.5,25.59,200,25.43,,0.015981,0.022479,0.019578
12950,20120607,6722,TZY,ISHARES TRUST,,25.5,25.6,-25.55,0,0.004719,25.5,25.6,200,,,0.004719,-0.00144,-0.002134
12950,20120608,6722,TZY,ISHARES TRUST,,25.48,25.48,25.48,100,-0.00274,25.63,25.71,200,25.48,,-0.00274,0.007106,0.00539
12950,20120611,6722,TZY,ISHARES TRUST,,25.29,25.42,-25.355,0,-0.004906,25.29,25.42,200,,,-0.004906,-0.01399,-0.013517
12950,20120612,6722,TZY,ISHARES TRUST,,25.65,32.43,25.65,700,0.011635,25.59,25.71,200,32.43,,0.011635,0.011638,0.008853
12950,20120613,6722,TZY,ISHARES TRUST,,25.43,25.49,-25.46,0,-0.007407,25.43,25.49,200,,,-0.007407,-0.007339,-0.007641
12950,20120614,6722,TZY,ISHARES TRUST,,25.66,25.75,-25.705,0,0.009623,25.66,25.75,200,,,0.009623,0.009466,0.00785
12950,20120615,6722,TZY,ISHARES TRUST,,25.96,25.96,25.96,200,0.00992,25.92,26,200,25.96,,0.00992,0.01003,0.008481
12950,20120618,6722,TZY,ISHARES TRUST,,25.97,26.04,-26.005,0,0.001733,25.97,26.04,200,,,0.001733,0.002173,0.001733
12950,20120619,6722,TZY,ISHARES TRUST,,26.24,26.4089,26.4089,1000,0.015532,26.3,26.34,200,26.24,,0.015532,0.011545,0.012798
12950,20120620,6722,TZY,ISHARES TRUST,,26.35,26.35,26.35,2200,-0.00223,26.25,26.31,200,26.35,,-0.00223,-0.001541,-0.000687
12950,20120621,6722,TZY,ISHARES TRUST,,25.75,25.91,25.75,200,-0.02277,25.68,25.77,200,25.91,,-0.02277,-0.023661,-0.018777
12950,20120622,6722,TZY,ISHARES TRUST,,25.84,25.95,-25.895,0,0.005631,25.84,25.95,200,,,0.005631,0.007238,0.007544
12950,20120625,6722,TZY,ISHARES TRUST,,25.51,25.51,25.51,1000,-0.014868,25.44,25.52,200,25.51,,-0.014868,-0.015536,-0.012052
12950,20120626,6722,TZY,ISHARES TRUST,,25.22,25.33,25.22,600,-0.00206,25.34,25.41,200,25.33,,-0.011368,0.004818,0.002861
12950,20120627,6722,TZY,ISHARES TRUST,,25.54,25.63,-25.585,0,0.014473,25.54,25.63,200,,,0.014473,0.008732,0.009343
12950,20120628,6722,TZY,ISHARES TRUST,,25.53,25.61,-25.57,0,-0.000586,25.53,25.61,200,,,-0.000586,-0.002172,-0.002573
12950,20120629,6722,TZY,ISHARES TRUST,,26.11,26.11,26.11,100,0.021119,26.19,26.31,150,26.11,,0.021119,0.025451,0.023253
12950,20120702,6722,TZY,ISHARES TRUST,,26.34,26.34,26.34,200,0.008809,26.29,26.39,150,26.34,,0.008809,0.003733,0.006515
12950,20120703,6722,TZY,ISHARES TRUST,,26.52,26.62,-26.57,0,0.008732,26.52,26.62,150,,,0.008732,0.00878,0.01071
12950,20120705,6722,TZY,ISHARES TRUST,,26.539,26.539,26.539,800,-0.001167,26.4,26.46,150,26.539,,-0.001167,-0.004134,-0.000756
12950,20120706,6722,TZY,ISHARES TRUST,,26.11,26.21,-26.16,0,-0.014281,26.11,26.21,150,,,-0.014281,-0.010191,-0.007735
12950,20120709,6722,TZY,ISHARES TRUST,,26.13,26.13,26.13,100,-0.001147,26.09,26.16,150,26.13,,-0.001147,-0.002207,-0.002372
12950,20120710,6722,TZY,ISHARES TRUST,,25.88,25.97,-25.925,0,-0.007845,25.88,25.97,150,,,-0.007845,-0.008819,-0.008379
12950,20120711,6722,TZY,ISHARES TRUST,,25.93,25.93,25.93,200,0.000193,25.9,26,150,25.93,,0.000193,-0.000419,-0.000427
12950,20120712,6722,TZY,ISHARES TRUST,,25.69,25.84,25.84,200,-0.003471,25.77,25.86,150,25.69,,-0.003471,-0.004912,-0.004265
12950,20120713,6722,TZY,ISHARES TRUST,,25,38.89,-31.945,0,0.236262,25,38.89,150,,,0.236262,0.015232,0.010622
12950,20120716,6722,TZY,ISHARES TRUST,,26.03,26.15,-26.09,0,-0.183284,26.03,26.15,150,,,-0.183284,-0.002468,-0.003517
12950,20120717,6722,TZY,ISHARES TRUST,,26.03,26.03,26.03,200,-0.0023,26.2,26.3,150,26.03,,-0.0023,0.006705,0.002432
12950,20120718,6722,TZY,ISHARES TRUST,,26.35,26.44,-26.395,0,0.014022,26.35,26.44,150,,,0.014022,0.00614,0.003807
12950,20120719,6722,TZY,ISHARES TRUST,,26.45,26.54,-26.495,0,0.003789,26.45,26.54,150,,,0.003789,0.002743,-0.000006
12950,20120720,6722,TZY,ISHARES TRUST,,26.15,26.21,-26.18,0,-0.011889,26.15,26.21,150,,,-0.011889,-0.009933,-0.008788
12950,20120723,6722,TZY,ISHARES TRUST,,25.85,25.91,-25.88,0,-0.011459,25.85,25.91,150,,,-0.011459,-0.010161,-0.012016
12950,20120724,6722,TZY,ISHARES TRUST,,32.85,32.85,32.85,200,0.26932,21.52,32.92,150,32.85,,0.26932,-0.009459,-0.009281
12950,20120725,6722,TZY,ISHARES TRUST,,25.66,25.66,25.66,100,-0.218874,25.61,25.69,150,25.66,,-0.218874,0.000691,0.002445
12950,20120726,6722,TZY,ISHARES TRUST,,26.06,26.15,26.066,800,0.015822,26.1,26.14,150,26.06,,0.015822,0.015475,0.008601
12950,20120727,6722,TZY,ISHARES TRUST,,26.6,26.63,-26.615,0,0.021062,26.6,26.63,150,,,0.021062,0.018789,0.016403
12950,20120730,6722,TZY,ISHARES TRUST,,26.5,26.5,26.5,200,-0.004321,26.5,26.6,150,26.5,,-0.004321,-0.000858,-0.002895
12950,20120731,6722,TZY,ISHARES TRUST,,26.6,26.97,26.6,300,0.003774,26.42,26.47,150,26.97,,0.003774,-0.004977,-0.003227
12950,20120801,6722,TZY,ISHARES TRUST,,26.39,26.58,26.39,200,-0.007895,26.32,26.41,150,26.58,,-0.007895,-0.004649,-0.009215
12950,20120802,6722,TZY,ISHARES TRUST,,26.16,26.31,26.31,5000,-0.003031,26.1,26.19,150,26.16,,-0.003031,-0.007394,-0.005728
12950,20120803,6722,TZY,ISHARES TRUST,,26.56,26.56,26.56,300,0.009502,26.66,26.74,150,26.56,,0.009502,0.019079,0.017674
12950,20120806,6722,TZY,ISHARES TRUST,,26.79,26.86,-26.825,0,0.009977,26.79,26.86,150,,,0.009977,0.003504,0.006599
12950,20120807,6722,TZY,ISHARES TRUST,,27.05,27.05,27.05,200,0.008388,26.94,27.03,150,27.05,,0.008388,0.006321,0.0062
12950,20120808,6722,TZY,ISHARES TRUST,,26.95,27.01,-26.98,0,-0.002588,26.95,27.01,150,,,-0.002588,-0.0001,-0.001097
12950,20120809,6722,TZY,ISHARES TRUST,,26.97,27.05,-27.01,0,0.001112,26.97,27.05,150,,,0.001112,0.00133,0.003304
12950,20120810,6722,TZY,ISHARES TRUST,,27.03,27.03,27.03,200,0.00074,26.99,27.07,150,27.03,,0.00074,0.001845,-0.000758
12950,20120813,6722,TZY,ISHARES TRUST,,26.91,27.02,-26.965,0,-0.002405,26.91,27.02,150,,,-0.002405,-0.0021,-0.002392
12950,20120814,6722,TZY,ISHARES TRUST,,27.1,27.1,27.1,100,0.005006,26.95,27,150,27.1,,0.005006,-0.000139,-0.002297
12950,20120815,6722,TZY,ISHARES TRUST,,26.97,27.06,-27.015,0,-0.003137,26.97,27.06,150,,,-0.003137,0.002475,0.0044
12950,20120816,6722,TZY,ISHARES TRUST,,27.17,27.3,-27.235,0,0.008144,27.17,27.3,150,,,0.008144,0.007841,0.008012
12950,20120817,6722,TZY,ISHARES TRUST,,27.21,27.31,-27.26,0,0.000918,27.21,27.31,150,,,0.000918,0.00262,0.004733
12950,20120820,6722,TZY,ISHARES TRUST,,27.1,27.1036,27.1036,600,-0.005737,27.2,27.28,150,27.1,,-0.005737,-0.000643,-0.001632
12950,20120821,6722,TZY,ISHARES TRUST,,27.2,27.28,-27.24,0,0.005033,27.2,27.28,150,,,0.005033,-0.002371,-0.00066
12950,20120822,6722,TZY,ISHARES TRUST,,27.21,27.32,-27.265,0,0.000918,27.21,27.32,150,,,0.000918,-0.000167,-0.001911
12950,20120823,6722,TZY,ISHARES TRUST,,27.04,27.14,-27.09,0,-0.006418,27.04,27.14,150,,,-0.006418,-0.007352,-0.00456
12950,20120824,6722,TZY,ISHARES TRUST,,27.11,27.11,27.11,200,0.000738,27.12,27.21,150,27.11,,0.000738,0.005368,0.0032
12950,20120827,6722,TZY,ISHARES TRUST,,27.12,27.21,-27.165,0,0.002029,27.12,27.21,150,,,0.002029,-0.000575,-0.000593
12950,20120828,6722,TZY,ISHARES TRUST,,27.07,27.11,27.11,300,-0.002025,27.09,27.23,150,27.07,,-0.002025,0.000208,0.002364
12950,20120829,6722,TZY,ISHARES TRUST,,27.13,27.21,-27.17,0,0.002213,27.13,27.21,150,,,0.002213,0.000747,0.001643
12950,20120830,6722,TZY,ISHARES TRUST,,26.8951,26.8951,26.8951,400,-0.010118,26.89,26.95,150,26.8951,,-0.010118,-0.007942,-0.007645
12950,20120831,6722,TZY,ISHARES TRUST,,27.04,27.12,-27.08,0,0.006875,27.04,27.12,200,,,0.006875,0.005857,0.005276
12950,20120904,6722,TZY,ISHARES TRUST,,27.05,27.12,-27.085,0,0.000185,27.05,27.12,200,,,0.000185,0.000576,0.003103
12950,20120905,6722,TZY,ISHARES TRUST,,27,27.07,-27.035,0,-0.001846,27,27.07,200,,,-0.001846,-0.000794,-0.000793
12950,20120906,6722,TZY,ISHARES TRUST,,27.48,27.57,-27.525,0,0.018125,27.48,27.57,200,,,0.018125,0.01932,0.013613
12950,20120907,6722,TZY,ISHARES TRUST,,27.65,27.77,27.77,1000,0.008901,27.67,27.78,200,27.65,,0.008901,0.005609,0.006393
12950,20120910,6722,TZY,ISHARES TRUST,,27.77,27.77,27.77,200,0,27.55,27.65,200,27.77,,0,-0.005723,-0.001868
12950,20120911,6722,TZY,ISHARES TRUST,,27.68,27.76,-27.72,0,-0.001801,27.68,27.76,200,,,-0.001801,0.003408,0.004897
12950,20120912,6722,TZY,ISHARES TRUST,,27.77,27.84,-27.805,0,0.003066,27.77,27.84,200,,,0.003066,0.00232,0.003495
12950,20120913,6722,TZY,ISHARES TRUST,,28.04,28.23,-28.135,0,0.011868,28.04,28.23,200,,,0.011868,0.015179,0.011148
12950,20120914,6722,TZY,ISHARES TRUST,,28.32,28.43,-28.375,0,0.00853,28.32,28.43,200,,,0.00853,0.006128,0.008127
12950,20120917,6722,TZY,ISHARES TRUST,,28.36,28.36,28.36,100,-0.000529,28.18,28.27,200,28.36,,-0.000529,-0.004582,-0.004204
12950,20120918,6722,TZY,ISHARES TRUST,,28.2199,28.2199,28.2199,100,-0.00494,28.13,28.22,200,28.2199,,-0.00494,-0.001814,-0.000369
12950,20120919,6722,TZY,ISHARES TRUST,,28.3086,28.31,28.3086,500,0.003143,28.21,28.27,200,28.31,,0.003143,0.001262,0.001704
12950,20120920,6722,TZY,ISHARES TRUST,,28.08,28.19,-28.135,0,-0.006132,28.08,28.19,200,,,-0.006132,-0.002056,-0.003733
12950,20120921,6722,TZY,ISHARES TRUST,,28.12,28.21,-28.165,0,0.001066,28.12,28.21,200,,,0.001066,0.000373,0.004826
12950,20120924,6722,TZY,ISHARES TRUST,,28.02,28.06,28.02,400,-0.005148,28.04,28.13,200,28.06,,-0.005148,-0.003196,-0.003377
12950,20120925,6722,TZY,ISHARES TRUST,,28.12,28.18,28.12,200,0.003569,27.76,27.89,200,28.18,,0.003569,-0.010896,-0.009693
12950,20120926,6722,TZY,ISHARES TRUST,,27.46,27.6692,27.64,700,-0.01382,27.49,27.6,200,27.54,,-0.01707,-0.005756,-0.005113
12950,20120927,6722,TZY,ISHARES TRUST,,27.92,27.92,27.92,100,0.01013,27.79,27.88,200,27.92,,0.01013,0.009947,0.00892
12950,20120928,6722,TZY,ISHARES TRUST,,27.58,27.66,-27.62,0,-0.010745,27.58,27.66,150,,,-0.010745,-0.004535,-0.003469
12950,20121001,6211,TZY,ISHARES TRUST,,27.77,27.77,27.77,500,0.005431,27.64,27.74,150,27.77,,0.005431,0.002709,0.002595
12950,20121002,6211,TZY,ISHARES TRUST,,27.75,27.75,27.75,200,-0.00072,27.67,27.77,150,27.75,,-0.00072,0.001139,0.00035
12950,20121003,6211,TZY,ISHARES TRUST,,27.72,27.76,27.72,300,-0.001081,27.7,27.79,150,27.76,,-0.001081,0.002362,-0.000138
12950,20121004,6211,TZY,ISHARES TRUST,,27.91,27.98,-27.945,0,0.008117,27.91,27.98,150,,,0.008117,0.007652,0.006541
12950,20121005,6211,TZY,ISHARES TRUST,,28.1,28.1,28.1,100,0.005547,27.92,27.99,150,28.1,,0.005547,-0.000369,-0.000848
12950,20121008,6211,TZY,ISHARES TRUST,,27.8492,27.88,27.8492,3600,-0.008925,27.82,27.92,150,27.88,,-0.008925,-0.003573,-0.003513
12950,20121009,6211,TZY,ISHARES TRUST,,27.56,27.6,-27.58,0,-0.009666,27.56,27.6,150,,,-0.009666,-0.009804,-0.009159
12950,20121010,6211,TZY,ISHARES TRUST,,27.39,27.48,-27.435,0,-0.005257,27.39,27.48,150,,,-0.005257,-0.005611,-0.004178
12950,20121011,6211,TZY,ISHARES TRUST,,27.63,27.63,27.63,100,0.007108,27.51,27.59,150,27.63,,0.007108,0.001582,0.004311
12950,20121012,6211,TZY,ISHARES TRUST,,27.43,27.5,-27.465,0,-0.005972,27.43,27.5,150,,,-0.005972,-0.003527,-0.004332
12950,20121015,6211,TZY,ISHARES TRUST,,27.62,27.62,27.62,700,0.005644,27.59,27.71,150,27.62,,0.005644,0.007228,0.004164
12950,20121016,6211,TZY,ISHARES TRUST,,27.91,28,-27.955,0,0.012129,27.91,28,150,,,0.012129,0.009926,0.007031
12950,20121017,6211,TZY,ISHARES TRUST,,28.08,28.17,-28.125,0,0.006081,28.08,28.17,150,,,0.006081,0.004993,0.005563
12950,20121018,6211,TZY,ISHARES TRUST,,27.99,28.12,-28.055,0,-0.002489,27.99,28.12,150,,,-0.002489,-0.002776,-0.003914
12950,20121019,6211,TZY,ISHARES TRUST,,27.83,27.83,27.83,200,-0.00802,27.62,27.71,150,27.83,,-0.00802,-0.015646,-0.013008
12950,20121022,6211,TZY,ISHARES TRUST,,27.65,27.78,27.66,2400,-0.006109,27.67,27.76,150,27.72,,-0.006109,0.000165,-0.000325
12950,20121023,6211,TZY,ISHARES TRUST,,27.3299,27.33,27.3299,1000,-0.011934,27.31,27.41,150,27.33,,-0.011934,-0.012991,-0.00699
12950,20121024,6211,TZY,ISHARES TRUST,,27.45,27.45,27.45,500,0.004394,27.29,27.35,150,27.45,,0.004394,-0.002626,-0.001419
12950,20121025,6211,TZY,ISHARES TRUST,,27.39,27.42,-27.405,0,-0.001639,27.39,27.42,150,,,-0.001639,0.003279,0.002125
12950,20121026,6211,TZY,ISHARES TRUST,,27.32,27.41,-27.365,0,-0.00146,27.32,27.41,150,,,-0.00146,-0.001384,-0.001858
12950,20121031,6211,TZY,ISHARES TRUST,,27.39,27.48,27.39,600,0.000914,27.33,27.44,150,27.48,,0.000914,0.002192,0.003228
12950,20121101,6211,TZY,ISHARES TRUST,,27.67,27.75,-27.71,0,0.011683,27.67,27.75,150,,,0.011683,0.011076,0.009557
12950,20121102,6211,TZY,ISHARES TRUST,,27.4,27.51,-27.455,0,-0.009202,27.4,27.51,150,,,-0.009202,-0.009797,-0.008813
12950,20121105,6211,TZY,ISHARES TRUST,,27.47,27.55,-27.51,0,0.002003,27.47,27.55,150,,,0.002003,0.00207,0.00308
12950,20121106,6211,TZY,ISHARES TRUST,,27.67,27.78,-27.725,0,0.007815,27.67,27.78,150,,,0.007815,0.007713,0.005972
12950,20121107,6211,TZY,ISHARES TRUST,,27.18,27.29,-27.235,0,-0.017674,27.18,27.29,150,,,-0.017674,-0.021697,-0.018066
12950,20121108,6211,TZY,ISHARES TRUST,,26.92,27,-26.96,0,-0.010097,26.92,27,150,,,-0.010097,-0.011597,-0.009684
12950,20121109,6211,TZY,ISHARES TRUST,,26.86,26.86,26.86,700,-0.003709,26.92,27.03,150,26.86,,-0.003709,0.000895,-0.000668
12950,20121112,6211,TZY,ISHARES TRUST,,26.91,27.03,-26.97,0,0.004095,26.91,27.03,150,,,0.004095,-0.00022,-0.001908
12950,20121113,6211,TZY,ISHARES TRUST,,26.81,26.92,-26.865,0,-0.003893,26.81,26.92,150,,,-0.003893,-0.004436,-0.006196
12950,20121114,6211,TZY,ISHARES TRUST,,26.81,26.81,26.81,400,-0.002047,26.47,26.59,150,26.81,,-0.002047,-0.014976,-0.01576
12950,20121115,6211,TZY,ISHARES TRUST,,26.566,26.566,26.566,200,-0.009101,26.5,26.53,150,26.566,,-0.009101,-0.003108,-0.006326
12950,20121116,6211,TZY,ISHARES TRUST,,26.4801,26.4801,26.4801,500,-0.003233,26.57,26.68,150,26.4801,,-0.003233,0.006103,0.005619
12950,20121119,6211,TZY,ISHARES TRUST,,27.03,27.14,-27.085,0,0.022844,27.03,27.14,150,,,0.022844,0.019049,0.016446
12950,20121120,6211,TZY,ISHARES TRUST,,27.08,27.16,-27.12,0,0.001292,27.08,27.16,150,,,0.001292,0.000901,0.00074
12950,20121121,6211,TZY,ISHARES TRUST,,27.24,27.24,27.24,100,0.004425,27.11,27.24,150,27.24,,0.004425,0.003088,0.004732
12950,20121123,6211,TZY,ISHARES TRUST,,27.43,27.43,27.43,200,0.006975,27.48,27.58,150,27.43,,0.006975,0.012618,0.010054
12950,20121126,6211,TZY,ISHARES TRUST,,27.44,27.55,-27.495,0,0.00237,27.44,27.55,150,,,0.00237,-0.001693,0.001119
12950,20121127,6211,TZY,ISHARES TRUST,,27.57,27.57,27.57,400,0.002728,27.37,27.45,150,27.57,,0.002728,-0.00451,-0.000963
12950,20121128,6211,TZY,ISHARES TRUST,,27.35,27.4,27.35,500,-0.00798,27.52,27.63,150,27.4,,-0.00798,0.007189,0.004772
12950,20121129,6211,TZY,ISHARES TRUST,,27.7,27.79,-27.745,0,0.014442,27.7,27.79,150,,,0.014442,0.004978,0.008425
12950,20121130,6211,TZY,ISHARES TRUST,,27.71,27.79,-27.75,0,0.00018,27.71,27.79,150,,,0.00018,0.000252,0.000901
12950,20121203,6211,TZY,ISHARES TRUST,,27.93,27.93,27.93,100,0.006486,27.65,27.74,150,27.93,,0.006486,-0.004297,-0.002236
12950,20121204,6211,TZY,ISHARES TRUST,,27.67,27.76,-27.715,0,-0.007698,27.67,27.76,150,,,-0.007698,-0.001371,-0.001161
12950,20121205,6211,TZY,ISHARES TRUST,,27.71,27.81,-27.76,0,0.001624,27.71,27.81,150,,,0.001624,0.001404,-0.000275
12950,20121206,6211,TZY,ISHARES TRUST,,27.79,27.86,-27.825,0,0.002342,27.79,27.86,150,,,0.002342,0.002338,0.000448
12950,20121207,6211,TZY,ISHARES TRUST,,27.88,27.88,27.88,700,0.001977,27.81,27.92,150,27.88,,0.001977,0.00246,0.001127
12950,20121210,6211,TZY,ISHARES TRUST,,27.9,27.99,27.99,1400,0.003946,27.86,27.99,150,27.908,,0.003946,0.001425,0.002594
12950,20121211,6211,TZY,ISHARES TRUST,,28.04,28.09,28.08,700,0.003215,28.02,28.14,150,28.09,,0.003215,0.006128,0.007206
12950,20121212,6211,TZY,ISHARES TRUST,,28.14,28.3,28.14,600,0.002137,28.05,28.14,150,28.3,,0.002137,-0.000097,-0.000931
12950,20121213,6211,TZY,ISHARES TRUST,,27.91,28.1,27.9999,500,-0.004979,27.9,28.03,150,28.1,,-0.004979,-0.006196,-0.004505
12950,20121214,6211,TZY,ISHARES TRUST,,27.9,27.97,-27.935,0,-0.002318,27.9,27.97,150,,,-0.002318,-0.003192,0.000757
12950,20121217,6211,TZY,ISHARES TRUST,,28.01,28.01,28.01,100,0.002685,28.09,28.19,150,28.01,,0.002685,0.010147,0.006348
12950,20121218,6211,TZY,ISHARES TRUST,,28.29,28.29,28.29,200,0.009996,28.37,28.5,150,28.29,,0.009996,0.010818,0.00905
12950,20121219,6211,TZY,ISHARES TRUST,,28.34,28.44,-28.39,0,0.003535,28.34,28.44,150,,,0.003535,-0.004829,0.000447
12950,20121220,6211,TZY,ISHARES TRUST,,28.46,28.56,-28.51,0,0.004227,28.46,28.56,150,,,0.004227,0.004651,0.004035
12950,20121221,6211,TZY,ISHARES TRUST,,28.22,28.22,28.22,100,-0.010172,28.26,28.36,150,28.22,,-0.010172,-0.008636,-0.006072
12950,20121224,6211,TZY,ISHARES TRUST,,28.24,28.3,-28.27,0,0.001772,28.24,28.3,150,,,0.001772,-0.002399,-0.003032
12950,20121226,6211,TZY,ISHARES TRUST,,28.07,28.07,28.07,100,0.000089,27.95,28.03,150,28.07,,-0.007075,-0.005058,-0.003441
12950,20121227,6211,TZY,ISHARES TRUST,,28.08,28.66,28.08,500,0.000356,27.96,28.04,150,28.66,,0.000356,-0.000918,-0.002331
12950,20121228,6211,TZY,ISHARES TRUST,,27.95,27.95,27.95,100,-0.00463,27.73,27.82,150,27.95,,-0.00463,-0.00939,-0.004243
12950,20121231,6211,TZY,ISHARES TRUST,,28.11,28.22,-28.165,0,0.007692,28.11,28.22,200,,,0.007692,0.016416,0.014957
12950,20130102,6211,TZY,ISHARES TRUST,,28.65,28.8,28.65,600,0.01722,28.7,28.82,200,28.7,,0.01722,0.02482,0.024095
12950,20130103,6211,TZY,ISHARES TRUST,,28.6934,28.8,28.6934,800,0.001515,28.57,28.68,200,28.8,,0.001515,-0.001909,0.000456
12950,20130104,6211,TZY,ISHARES TRUST,,28.68,28.68,28.68,2400,-0.000467,28.75,28.85,200,28.68,,-0.000467,0.005624,0.007403
12950,20130107,6211,TZY,ISHARES TRUST,,28.6,28.69,28.65,1700,-0.001046,28.7,28.76,200,28.6,,-0.001046,-0.002555,-0.000452
12950,20130108,6211,TZY,ISHARES TRUST,,28.59,28.71,28.65,1000,0,28.57,28.61,200,28.71,,0,-0.002437,-0.000547
12950,20130109,6211,TZY,ISHARES TRUST,,28.67,28.74,-28.705,0,0.00192,28.67,28.74,200,,,0.00192,0.003388,0.005259
12950,20130110,6211,TZY,ISHARES TRUST,,28.88,29.01,28.88,200,0.006096,28.85,28.94,200,29.01,,0.006096,0.006792,0.003818
12950,20130111,6211,TZY,ISHARES TRUST,,28.94,28.94,28.94,300,0.002078,28.89,28.94,200,28.94,,0.002078,0.000152,0.00062
12950,20130114,6211,TZY,ISHARES TRUST,,28.88,28.94,-28.91,0,-0.001037,28.88,28.94,200,,,-0.001037,-0.000351,0.000439
12950,20130115,6211,TZY,ISHARES TRUST,,28.79,28.84,28.83,3900,-0.002767,28.87,28.99,200,28.79,,-0.002767,0.001943,0.001872
12950,20130116,6211,TZY,ISHARES TRUST,,28.85,28.95,-28.9,0,0.002428,28.85,28.95,200,,,0.002428,-0.000814,-0.001536
12950,20130117,6211,TZY,ISHARES TRUST,,29.02,29.15,29.15,500,0.008651,29.04,29.13,200,29.02,,0.008651,0.005906,0.006745
12950,20130118,6211,TZY,ISHARES TRUST,,29,29,29,100,-0.005146,29.1,29.13,200,29,,-0.005146,0.002922,0.002357
12950,20130122,6211,TZY,ISHARES TRUST,,29.0001,29.24,29.219,50100,0.007552,29.19,29.31,200,29.11,,0.007552,0.005109,0.0061
12950,20130123,6211,TZY,ISHARES TRUST,,29.21,29.24,-29.225,0,0.000205,29.21,29.24,200,,,0.000205,0.000261,-0.000793
12950,20130124,6211,TZY,ISHARES TRUST,,29.31,29.31,29.31,700,0.002908,29.27,29.3,200,29.31,,0.002908,0.000619,0.00151
12950,20130125,6211,TZY,ISHARES TRUST,,29.48,29.48,29.48,800,0.0058,29.38,29.48,200,29.48,,0.0058,0.005238,0.002817
12950,20130128,6211,TZY,ISHARES TRUST,,29.46,29.46,29.46,100,-0.000678,29.32,29.43,200,29.46,,-0.000678,-0.001345,0.000399
12950,20130129,6211,TZY,ISHARES TRUST,,29.4599,29.55,29.537,800,0.002614,29.46,29.55,200,29.4599,,0.002614,0.003509,0.002696
12950,20130130,6211,TZY,ISHARES TRUST,,29.52,29.55,29.55,400,0.00044,29.39,29.43,200,29.52,,0.00044,-0.0041,-0.004937
12950,20130131,6211,TZY,ISHARES TRUST,,29.32,29.4,-29.36,0,-0.00643,29.32,29.4,100,,,-0.00643,-0.00084,0.002841
12950,20130201,6211,TZY,ISHARES TRUST,,29.56,29.66,-29.61,0,0.008515,29.56,29.66,100,,,0.008515,0.00921,0.00816
12950,20130204,6211,TZY,ISHARES TRUST,,29.32,29.42,29.32,500,-0.009794,29.23,29.31,100,29.38,,-0.009794,-0.011063,-0.009387
12950,20130205,6211,TZY,ISHARES TRUST,,29.42,29.55,-29.485,0,0.005628,29.42,29.55,100,,,0.005628,0.009121,0.007036
12950,20130206,6211,TZY,ISHARES TRUST,,29.46,29.57,-29.515,0,0.001017,29.46,29.57,100,,,0.001017,0.001182,0.002261
12950,20130207,6211,TZY,ISHARES TRUST,,29.3305,29.35,29.35,600,-0.00559,29.33,29.44,100,29.3305,,-0.00559,-0.002407,-0.002495
12950,20130208,6211,TZY,ISHARES TRUST,,29.49,29.59,-29.54,0,0.006474,29.49,29.59,100,,,0.006474,0.005381,0.003908
12950,20130211,6211,TZY,ISHARES TRUST,,29.49,29.58,-29.535,0,-0.000169,29.49,29.58,100,,,-0.000169,-0.001048,-0.000209
12950,20130212,6211,TZY,ISHARES TRUST,,29.68,29.72,29.71,800,0.005925,29.58,29.7,100,29.68,,0.005925,0.002137,0.003477
12950,20130213,6211,TZY,ISHARES TRUST,,29.65,29.7,-29.675,0,-0.001178,29.65,29.7,100,,,-0.001178,0.001023,0.001107
12950,20130214,6211,TZY,ISHARES TRUST,,29.63,29.68,29.63,1200,-0.001516,29.61,29.72,100,29.66,,-0.001516,0.00072,0.001495
12950,20130215,6211,TZY,ISHARES TRUST,,29.63,29.63,29.63,200,0,29.56,29.67,100,29.63,,0,-0.002089,-0.001758
12950,20130219,6211,TZY,ISHARES TRUST,,29.73,29.764,29.764,700,0.004522,29.78,29.87,100,29.73,,0.004522,0.006794,0.006107
12950,20130220,6211,TZY,ISHARES TRUST,,29.81,29.9099,29.81,5400,0.001545,29.47,29.59,100,29.88,,0.001545,-0.013355,-0.013123
12950,20130221,6211,TZY,ISHARES TRUST,,29.2441,29.31,29.31,2900,-0.016773,29.22,29.3,100,29.27,,-0.016773,-0.007201,-0.007363
12950,20130222,6211,TZY,ISHARES TRUST,,29.47,29.47,29.47,100,0.005459,29.52,29.55,100,29.47,,0.005459,0.008582,0.00751
12950,20130225,6211,TZY,ISHARES TRUST,,28.99,29.02,-29.005,0,-0.015779,28.99,29.02,100,,,-0.015779,-0.017155,-0.01411
12950,20130226,6211,TZY,ISHARES TRUST,,29.23,29.23,29.23,200,0.007757,29.12,29.23,100,29.23,,0.007757,0.005532,0.003545
12950,20130227,6211,TZY,ISHARES TRUST,,29.44,29.59,29.59,300,0.012316,29.47,29.58,100,29.44,,0.012316,0.012064,0.007339
12950,20130228,6211,TZY,ISHARES TRUST,,29.56,29.69,29.69,300,0.00338,29.44,29.52,100,29.56,,0.00338,-0.000698,-0.000139
12950,20130301,6211,TZY,ISHARES TRUST,,29.4,29.4,29.4,100,-0.009768,29.46,29.57,100,29.4,,-0.009768,0.001712,0.001483
12950,20130304,6211,TZY,ISHARES TRUST,,29.4899,29.61,29.61,5100,0.007143,29.54,29.65,100,29.49,,0.007143,0.00364,0.001122
12950,20130305,6211,TZY,ISHARES TRUST,,29.916,29.916,29.916,200,0.010334,29.82,29.93,100,29.916,,0.010334,0.009155,0.00725
12950,20130306,6211,TZY,ISHARES TRUST,,29.905,30.47,30,2600,0.002808,29.9,29.94,100,30.47,,0.002808,0.001458,0.002844
12950,20130307,6211,TZY,ISHARES TRUST,,29.96,30.02,-29.99,0,-0.000333,29.96,30.02,100,,,-0.000333,0.002233,0.004062
12950,20130308,6211,TZY,ISHARES TRUST,,30.09,30.12,-30.105,0,0.003835,30.09,30.12,100,,,0.003835,0.00481,0.006138
12950,20130311,6211,TZY,ISHARES TRUST,,30.09,30.19,30.19,2700,0.002823,30.15,30.18,100,30.09,,0.002823,0.002626,0.002097
12950,20130312,6211,TZY,ISHARES TRUST,,30.0939,30.1,30.0939,700,-0.003183,30.06,30.14,100,30.1,,-0.003183,-0.001991,-0.00158
12950,20130313,6211,TZY,ISHARES TRUST,,30.0899,30.19,30.15,1500,0.001864,30.08,30.11,100,30.09,,0.001864,0.000436,-0.00026
12950,20130314,6211,TZY,ISHARES TRUST,,30.268,30.271,30.271,600,0.004013,30.24,30.34,100,30.268,,0.004013,0.005907,0.00476
12950,20130315,6211,TZY,ISHARES TRUST,,30.22,30.29,-30.255,0,-0.000529,30.22,30.29,100,,,-0.000529,-0.001575,-0.00138
12950,20130318,6211,TZY,ISHARES TRUST,,30.02,30.17,30.17,1600,-0.002809,30.06,30.1,100,30.02,,-0.002809,-0.005369,-0.002769
12950,20130319,6211,TZY,ISHARES TRUST,,29.92,30.16,29.9952,1800,-0.005794,29.96,30.03,100,30.16,,-0.005794,-0.002941,-0.003625
12950,20130320,6211,TZY,ISHARES TRUST,,30.16,30.19,30.17,700,0.005828,30.13,30.21,100,30.19,,0.005828,0.007225,0.006444
12950,20130321,6211,TZY,ISHARES TRUST,,30.08,30.08,30.08,1700,-0.002983,29.93,29.99,100,30.08,,-0.002983,-0.007582,-0.004485
12950,20130322,6211,TZY,ISHARES TRUST,,30.09,30.14,30.11,500,0.000997,30.09,30.16,100,30.09,,0.000997,0.005801,0.003252
12950,20130325,6211,TZY,ISHARES TRUST,,30.11,30.11,30.11,300,0,29.98,30.02,100,30.11,,0,-0.003121,-0.001641
12950,20130326,6211,TZY,ISHARES TRUST,,30.18,30.21,-30.195,0,0.002823,30.18,30.21,100,,,0.002823,0.006961,0.003096
12950,20130327,6211,TZY,ISHARES TRUST,,29.902,30.1599,30.1599,500,-0.001162,30.16,30.19,100,29.902,,-0.001162,-0.000208,0.000606
12950,20130328,6211,TZY,ISHARES TRUST,,30.22,30.3,-30.26,0,0.003319,30.22,30.3,150,,,0.003319,0.003994,0.002894
12950,20130401,6211,TZY,ISHARES TRUST,,30.1227,30.24,30.1227,900,-0.004537,30.05,30.09,150,30.24,,-0.004537,-0.005472,-0.007894
12950,20130402,6211,TZY,ISHARES TRUST,,30.16,30.16,30.16,400,0.004452,30.07,30.1,150,30.16,,0.001238,0.002705,-0.002201
12950,20130403,6211,TZY,ISHARES TRUST,,29.75,30,29.866,700,-0.009748,29.8,29.84,150,30,,-0.009748,-0.011977,-0.011712
12950,20130404,6211,TZY,ISHARES TRUST,,29.84,29.97,29.97,600,0.003482,29.9,30.02,150,29.84,,0.003482,0.00377,0.003681
12950,20130405,6211,TZY,ISHARES TRUST,,29.82,29.93,-29.875,0,-0.00317,29.82,29.93,150,,,-0.00317,-0.003527,-0.001045
12950,20130408,6211,TZY,ISHARES TRUST,,29.92,29.92,29.92,900,0.001506,30.03,30.06,150,29.92,,0.001506,0.006412,0.004374
12950,20130409,6211,TZY,ISHARES TRUST,,30.24,30.24,30.24,400,0.010695,30.07,30.17,150,30.24,,0.010695,0.003684,0.002542
12950,20130410,6211,TZY,ISHARES TRUST,,30.368,30.58,30.58,900,0.011243,30.46,30.5,150,30.368,,0.011243,0.011558,0.011312
12950,20130411,6211,TZY,ISHARES TRUST,,30.6,30.66,-30.63,0,0.001635,30.6,30.66,150,,,0.001635,0.003107,0.000978
12950,20130412,6211,TZY,ISHARES TRUST,,30.4,30.5399,30.48,2400,-0.004897,30.43,30.53,150,30.5399,,-0.004897,-0.003796,-0.003961
12950,20130415,6211,TZY,ISHARES TRUST,,30.0294,30.2899,30.0294,1100,-0.014783,29.8,29.92,150,30.2899,,-0.014783,-0.02557,-0.027361
12950,20130416,6211,TZY,ISHARES TRUST,,30.2145,30.2145,30.2145,200,0.006164,30.2,30.27,150,30.2145,,0.006164,0.014656,0.011676
12950,20130417,6211,TZY,ISHARES TRUST,,29.7799,29.9599,29.8,2800,-0.013719,29.76,29.87,150,29.9599,,-0.013719,-0.014703,-0.013861
12950,20130418,6211,TZY,ISHARES TRUST,,29.6,29.72,-29.66,0,-0.004698,29.6,29.72,150,,,-0.004698,-0.005731,-0.002377
12950,20130419,6211,TZY,ISHARES TRUST,,29.906,29.93,29.93,700,0.009103,29.91,29.94,150,29.906,,0.009103,0.009316,0.007982
12950,20130422,6211,TZY,ISHARES TRUST,,29.97,30,30,300,0.002339,30.02,30.06,150,29.97,,0.002339,0.004258,0.003005
12950,20130423,6211,TZY,ISHARES TRUST,,30.24,30.24,30.24,200,0.008,30.27,30.39,150,30.24,,0.008,0.010095,0.010391
12950,20130424,6211,TZY,ISHARES TRUST,,30.5,30.51,30.5,500,0.008598,30.43,30.47,150,30.5,,0.008598,0.002091,0.004598
12950,20130425,6211,TZY,ISHARES TRUST,,30.6399,30.658,30.64,600,0.00459,30.53,30.6,150,30.658,,0.00459,0.004885,0.006126
12950,20130426,6211,TZY,ISHARES TRUST,,30.48,30.59,-30.535,0,-0.003427,30.48,30.59,150,,,-0.003427,-0.002563,-0.003039
12950,20130429,6211,TZY,ISHARES TRUST,,30.7799,30.83,30.83,500,0.009661,30.75,30.78,150,30.7799,,0.009661,0.007313,0.006424
12950,20130430,6211,TZY,ISHARES TRUST,,30.8799,30.8799,30.8799,100,0.001619,30.86,30.89,150,30.8799,,0.001619,0.004074,0.003885
12950,20130501,6211,TZY,ISHARES TRUST,,30.7099,30.85,30.7099,900,-0.005505,30.58,30.61,150,30.85,,-0.005505,-0.010767,-0.013293
12950,20130502,6211,TZY,ISHARES TRUST,,30.66,30.8652,30.8652,600,0.005057,30.8,30.87,150,30.66,,0.005057,0.009369,0.00909
12950,20130503,6211,TZY,ISHARES TRUST,,31.13,31.22,31.2,1500,0.010847,31.07,31.19,150,31.14,,0.010847,0.010283,0.010709
12950,20130506,6211,TZY,ISHARES TRUST,,31.14,31.25,-31.195,0,-0.00016,31.14,31.25,150,,,-0.00016,0.002476,0.003924
12950,20130507,6211,TZY,ISHARES TRUST,,31.29,31.29,31.29,200,0.003045,31.26,31.37,150,31.29,,0.003045,0.005081,0.004073
12950,20130508,6211,TZY,ISHARES TRUST,,31.38,31.52,31.52,300,0.007351,31.45,31.57,150,31.38,,0.007351,0.004639,0.004489
12950,20130509,6211,TZY,ISHARES TRUST,,31.27,31.37,-31.32,0,-0.006345,31.27,31.37,150,,,-0.006345,-0.004006,-0.002762
12950,20130510,6211,TZY,ISHARES TRUST,,31.26,31.43,31.26,1300,-0.001916,31.42,31.46,150,31.43,,-0.001916,0.004623,0.005364
12950,20130513,6211,TZY,ISHARES TRUST,,31.315,31.45,31.45,1600,0.006078,31.4,31.43,150,31.315,,0.006078,-0.000738,-0.001038
12950,20130514,6211,TZY,ISHARES TRUST,,31.62,31.66,-31.64,0,0.006041,31.62,31.66,150,,,0.006041,0.009175,0.006739
12950,20130515,6211,TZY,ISHARES TRUST,,31.69,31.81,-31.75,0,0.003477,31.69,31.81,150,,,0.003477,0.003727,0.001651
12950,20130516,6211,TZY,ISHARES TRUST,,31.54,31.66,-31.6,0,-0.004724,31.54,31.66,150,,,-0.004724,-0.004645,-0.002546
12950,20130517,6211,TZY,ISHARES TRUST,,31.71,31.9,31.9,1300,0.009494,31.86,31.9,150,31.71,,0.009494,0.009371,0.006489
12950,20130520,6211,TZY,ISHARES TRUST,,31.88,31.88,31.88,100,-0.000627,31.87,31.99,150,31.88,,-0.000627,0.000603,0.004918
12950,20130521,6211,TZY,ISHARES TRUST,,31.89,31.89,31.89,400,0.000314,31.94,32.03,150,31.89,,0.000314,0.001566,0.001413
12950,20130522,6211,TZY,ISHARES TRUST,,32.05,32.05,32.05,500,0.005017,31.58,31.72,150,32.05,,0.005017,-0.009739,-0.010172
12950,20130523,6211,TZY,ISHARES TRUST,,31.51,31.51,31.51,200,-0.016849,31.47,31.5,150,31.51,,-0.016849,-0.00253,-0.000181
12950,20130524,6211,TZY,ISHARES TRUST,,31.3399,31.4099,31.4099,2200,-0.003177,31.33,31.41,150,31.34,,-0.003177,-0.001086,-0.000375
12950,20130528,6211,TZY,ISHARES TRUST,,31.47,31.59,-31.53,0,0.003824,31.47,31.59,150,,,0.003824,0.006269,0.006483
12950,20130529,6211,TZY,ISHARES TRUST,,31.274,31.38,31.38,1800,-0.004757,31.25,31.36,150,31.32,,-0.004757,-0.00713,-0.007107
12950,20130530,6211,TZY,ISHARES TRUST,,31.4672,31.4672,31.4672,100,0.002779,31.34,31.46,150,31.4672,,0.002779,0.004037,0.005314
12950,20130531,6211,TZY,ISHARES TRUST,,31.19,31.33,31.19,2100,-0.008809,30.95,31.05,150,31.33,,-0.008809,-0.013587,-0.009533
12950,20130603,6211,TZY,ISHARES TRUST,,31,31.09,31.09,2000,-0.003206,31.09,31.27,150,31,,-0.003206,0.004548,0.002465
12950,20130604,6211,TZY,ISHARES TRUST,,31.18,31.18,31.18,100,0.002895,30.97,31,150,31.18,,0.002895,-0.005592,-0.004501
12950,20130605,6211,TZY,ISHARES TRUST,,30.49,30.58,-30.535,0,-0.020686,30.49,30.58,150,,,-0.020686,-0.013598,-0.010618
12950,20130606,6211,TZY,ISHARES TRUST,,30.5164,30.5164,30.5164,700,-0.000609,30.73,30.81,150,30.5164,,-0.000609,0.008866,0.007676
12950,20130607,6211,TZY,ISHARES TRUST,,30.94,31.08,31.03,700,0.01683,31.03,31.16,150,30.94,,0.01683,0.011343,0.005288
12950,20130610,6211,TZY,ISHARES TRUST,,31.17,31.17,31.17,1000,0.004512,31,31.12,150,31.17,,0.004512,0.000124,0.002845
12950,20130611,6211,TZY,ISHARES TRUST,,30.8199,30.82,30.8199,800,-0.011232,30.73,30.77,150,30.82,,-0.011232,-0.010904,-0.009582
12950,20130612,6211,TZY,ISHARES TRUST,,30.54,30.57,-30.555,0,-0.008595,30.54,30.57,150,,,-0.008595,-0.008482,-0.007216
12950,20130613,6211,TZY,ISHARES TRUST,,30.62,30.92,30.9,1100,0.011291,30.97,31.04,150,30.62,,0.011291,0.014932,0.011501
12950,20130614,6211,TZY,ISHARES TRUST,,30.95,30.95,30.95,500,0.001618,30.79,30.82,150,30.95,,0.001618,-0.005385,-0.004649
12950,20130617,6211,TZY,ISHARES TRUST,,31,31.22,31.07,2600,0.003877,31.05,31.08,150,31.12,,0.003877,0.007168,0.005119
12950,20130618,6211,TZY,ISHARES TRUST,,31.21,31.35,31.34,6100,0.00869,31.26,31.3,150,31.21,,0.00869,0.007314,0.00599
12950,20130619,6211,TZY,ISHARES TRUST,,31.12,31.32,31.18,3900,-0.005105,30.78,30.81,150,31.32,,-0.005105,-0.013426,-0.009747
12950,20130620,6211,TZY,ISHARES TRUST,,30,30.42,30,1000,-0.037845,29.89,29.98,150,30.42,,-0.037845,-0.025844,-0.023715
12950,20130621,6211,TZY,ISHARES TRUST,,29.859,30.14,30.099,800,0.0033,30.03,30.06,150,30.14,,0.0033,0.001353,0.002466
12950,20130624,6211,TZY,ISHARES TRUST,,29.62,29.79,29.79,1700,-0.010266,29.61,29.72,150,29.62,,-0.010266,-0.012423,-0.014937
12950,20130625,6211,TZY,ISHARES TRUST,,29.944,29.96,29.944,800,0.005169,29.97,30,150,29.96,,0.005169,0.010238,0.009877
12950,20130626,6211,TZY,ISHARES TRUST,,30.2,30.25,30.2,500,0.008549,30.18,30.26,150,30.25,,0.008549,0.00862,0.004852
12950,20130627,6211,TZY,ISHARES TRUST,,30.53,30.59,30.55,1700,0.011589,30.46,30.53,150,30.58,,0.011589,0.007911,0.011424
12950,20130628,6211,TZY,ISHARES TRUST,,30.44,30.59,30.44,1800,-0.003601,30.35,30.44,150,30.48,,-0.003601,-0.002842,0.001533
12950,20130701,6211,TZY,ISHARES TRUST,,30.79,30.79,30.79,300,0.011498,30.59,30.62,150,30.79,,0.011498,0.006619,0.009039
12950,20130702,6211,TZY,ISHARES TRUST,,30.36,30.4,30.36,1800,-0.005787,30.28,30.35,150,30.4,,-0.013966,-0.00157,-0.002982
12950,20130703,6211,TZY,ISHARES TRUST,,30.28,30.68,30.28,300,-0.002635,30.26,30.37,150,30.68,,-0.002635,0.000405,-0.00013
12950,20130705,6211,TZY,ISHARES TRUST,,30.3,30.54,30.4199,2500,0.00462,30.46,30.58,150,30.54,,0.00462,0.008977,0.005934
12950,20130708,6211,TZY,ISHARES TRUST,,30.6292,30.77,30.6292,2200,0.00688,30.6,30.71,150,30.7,,0.00688,0.004973,0.003661
12950,20130709,6211,TZY,ISHARES TRUST,,30.85,31.12,30.93,900,0.009821,30.85,30.89,150,31.12,,0.009821,0.007692,0.005704
12950,20130710,6211,TZY,ISHARES TRUST,,30.87,30.9756,30.91,1100,-0.000647,30.83,30.95,150,30.88,,-0.000647,0.000571,0.002691
12950,20130711,6211,TZY,ISHARES TRUST,,31.278,31.47,31.47,600,0.018117,31.35,31.45,150,31.3,,0.018117,0.014479,0.012768
12950,20130712,6211,TZY,ISHARES TRUST,,31.378,31.41,31.4,1500,-0.002224,31.33,31.45,150,31.41,,-0.002224,0.002466,0.001018
12950,20130715,6211,TZY,ISHARES TRUST,,31.46,31.55,31.53,10800,0.00414,31.49,31.53,150,31.47,,0.00414,0.002311,0.00549
12950,20130716,6211,TZY,ISHARES TRUST,,31.46,31.59,31.46,2300,-0.00222,31.35,31.46,150,31.54,,-0.00222,-0.003779,-0.001572
12950,20130717,6211,TZY,ISHARES TRUST,,31.558,31.558,31.558,200,0.003115,31.5,31.54,150,31.558,,0.003115,0.002918,0.003633
12950,20130718,6211,TZY,ISHARES TRUST,,31.62,31.78,31.74,1400,0.005767,31.63,31.77,150,31.78,,0.005767,0.005376,0.004945
12950,20130719,6211,TZY,ISHARES TRUST,,31.68,31.73,31.73,600,-0.000315,31.69,31.72,150,31.68,,-0.000315,0.001454,0.000538
12950,20130722,6211,TZY,ISHARES TRUST,,31.79,31.83,-31.81,0,0.002521,31.79,31.83,150,,,0.002521,0.002774,0.004138
12950,20130723,6211,TZY,ISHARES TRUST,,31.79,31.82,31.79,400,-0.000629,31.77,31.87,150,31.82,,-0.000629,-0.001208,0.002058
12950,20130724,6211,TZY,ISHARES TRUST,,31.82,31.82,31.82,100,0.000944,31.65,31.69,150,31.82,,0.000944,-0.004931,-0.006001
12950,20130725,6211,TZY,ISHARES TRUST,,31.6199,32.29,31.82,2300,0,31.74,31.78,150,32.29,,0,0.003931,0.005473
12950,20130726,6211,TZY,ISHARES TRUST,,31.55,31.62,31.55,900,-0.008485,31.68,31.71,150,31.62,,-0.008485,0.000139,-0.001533
12950,20130729,6211,TZY,ISHARES TRUST,,31.526,31.6236,31.61,1000,0.001902,31.51,31.55,150,31.58,,0.001902,-0.003866,-0.003891
12950,20130730,6211,TZY,ISHARES TRUST,,31.57,31.602,31.57,300,-0.001265,31.52,31.55,150,31.602,,-0.001265,0.000349,0.000215
12950,20130731,6211,TZY,ISHARES TRUST,,31.52,31.64,-31.58,0,0.000317,31.52,31.64,200,,,0.000317,0.000063,0.001701
12950,20130801,6211,TZY,ISHARES TRUST,,31.916,31.98,31.98,1600,0.012666,31.91,32,200,31.95,,0.012666,0.012101,0.009211
12950,20130802,6211,TZY,ISHARES TRUST,,31.9984,32.02,31.9984,300,0.000575,32,32.03,200,32.02,,0.000575,0.0013,0.000872
12950,20130805,6211,TZY,ISHARES TRUST,,31.92,31.92,31.92,100,-0.00245,31.91,32.01,200,31.92,,-0.00245,-0.000846,0.001823
12950,20130806,6211,TZY,ISHARES TRUST,,31.851,31.92,31.88,1700,-0.001253,31.8,31.84,200,31.92,,-0.001253,-0.006602,-0.006211
12950,20130807,6211,TZY,ISHARES TRUST,,31.6715,31.81,31.7286,2100,-0.004749,31.64,31.74,200,31.81,,-0.004749,-0.004812,-0.005699
12950,20130808,6211,TZY,ISHARES TRUST,,31.85,31.93,31.93,300,0.006348,31.84,31.88,200,31.85,,0.006348,0.005248,0.005252
12950,20130809,6211,TZY,ISHARES TRUST,,31.89,31.93,31.898,1500,-0.001002,31.77,31.88,200,31.89,,-0.001002,-0.002038,-0.000262
12950,20130812,6211,TZY,ISHARES TRUST,,31.76,31.88,31.88,2300,-0.000564,31.81,31.85,200,31.76,,-0.000564,-0.000167,0.002649
12950,20130813,6211,TZY,ISHARES TRUST,,31.7999,31.97,31.97,6800,0.002823,31.86,31.96,200,31.7999,,0.002823,0.001294,-0.001187
12950,20130814,6211,TZY,ISHARES TRUST,,31.87,31.87,31.87,1000,-0.003128,31.78,31.82,200,31.87,,-0.003128,-0.004248,-0.001193
12950,20130815,6211,TZY,ISHARES TRUST,,31.34,31.71,31.4,1300,-0.014747,31.4,31.44,200,31.71,,-0.014747,-0.013091,-0.011277
12950,20130816,6211,TZY,ISHARES TRUST,,31.4,31.46,31.4,1300,0,31.32,31.39,200,31.45,,0,-0.002986,-0.002129
12950,20130819,6211,TZY,ISHARES TRUST,,31.34,31.41,31.34,1200,-0.001911,31.1,31.14,200,31.41,,-0.001911,-0.007139,-0.008193
12950,20130820,6211,TZY,ISHARES TRUST,,31.36,31.36,31.36,100,0.000638,31.25,31.28,200,31.36,,0.000638,0.005621,0.008035
12950,20130821,6211,TZY,ISHARES TRUST,,30.98,31.17,31.17,1100,-0.006059,31,31.03,200,31.07,,-0.006059,-0.006219,-0.005386
12950,20130822,6211,TZY,ISHARES TRUST,,31.36,31.36,31.36,100,0.006096,31.27,31.31,200,31.36,,0.006096,0.009096,0.010518
12950,20130823,6211,TZY,ISHARES TRUST,,31.44,31.47,31.44,1200,0.002551,31.4,31.48,200,31.47,,0.002551,0.004266,0.003826
12950,20130826,6211,TZY,ISHARES TRUST,,31.5,31.5,31.5,4500,0.001908,31.28,31.37,200,31.5,,0.001908,-0.002864,-0.00002
12950,20130827,6211,TZY,ISHARES TRUST,,30.79,31.09,30.9,2200,-0.019048,30.8,30.92,200,30.79,,-0.019048,-0.016298,-0.016868
12950,20130828,6211,TZY,ISHARES TRUST,,30.88,31.02,30.88,2400,-0.000647,30.84,30.95,200,31.01,,-0.000647,0.002442,0.00189
12950,20130829,6211,TZY,ISHARES TRUST,,31.012,31.06,31.012,2700,0.004275,30.92,31.01,200,31.06,,0.004275,0.003093,0.005307
12950,20130830,6211,TZY,ISHARES TRUST,,30.72,30.82,30.77,3600,-0.007803,30.68,30.81,200,30.82,,-0.007803,-0.004899,-0.007748
12950,20130903,6211,TZY,ISHARES TRUST,,31.09,31.14,31.14,800,0.012025,30.9,30.94,200,31.09,,0.012025,0.004455,0.00454
12950,20130904,6211,TZY,ISHARES TRUST,,31,31.26,31.26,2400,0.003854,31.16,31.19,200,31,,0.003854,0.007438,0.007032
12950,20130905,6211,TZY,ISHARES TRUST,,31.23,31.3,31.23,200,-0.00096,31.16,31.23,200,31.3,,-0.00096,0.00177,0.002976
12950,20130906,6211,TZY,ISHARES TRUST,,31.1,31.3101,31.301,1800,0.002273,31.27,31.3,200,31.21,,0.002273,0.000947,0.002712
12950,20130909,6211,TZY,ISHARES TRUST,,31.63,31.63,31.63,300,0.010511,31.64,31.68,200,31.63,,0.010511,0.010796,0.011357
12950,20130910,6211,TZY,ISHARES TRUST,,31.8799,31.88,31.8799,600,0.007901,31.86,31.98,200,31.8799,,0.007901,0.007188,0.0054
12950,20130911,6211,TZY,ISHARES TRUST,,31.83,32.039,32.039,1500,0.004991,31.94,32.04,200,31.8585,,0.004991,0.002583,0.000816
12950,20130912,6211,TZY,ISHARES TRUST,,31.8999,31.98,31.91,2600,-0.004026,31.83,31.93,200,31.93,,-0.004026,-0.004255,-0.004502
12950,20130913,6211,TZY,ISHARES TRUST,,31.95,31.95,31.95,100,0.001254,31.91,32.01,200,31.95,,0.001254,0.002648,0.003394
12950,20130916,6211,TZY,ISHARES TRUST,,32.309,32.37,32.31,800,0.011268,32.15,32.18,200,32.37,,0.011268,0.005138,0.003279
12950,20130917,6211,TZY,ISHARES TRUST,,32.31,32.31,32.31,100,0,32.21,32.31,200,32.31,,0,0.004959,0.005387
12950,20130918,6211,TZY,ISHARES TRUST,,32.78,32.91,32.8,1500,0.015166,32.79,32.82,200,32.91,,0.015166,0.012525,0.011685
12950,20130919,6211,TZY,ISHARES TRUST,,32.75,32.8,32.78,3800,-0.00061,32.68,32.78,200,32.8,,-0.00061,-0.001262,-0.000534
12950,20130920,6211,TZY,ISHARES TRUST,,32.6788,32.6788,32.6788,200,-0.003087,32.43,32.55,200,32.6788,,-0.003087,-0.007388,-0.004588
12950,20130923,6211,TZY,ISHARES TRUST,,32.4895,32.5199,32.4895,400,-0.005793,32.33,32.48,200,32.5199,,-0.005793,-0.004219,-0.002019
12950,20130924,6211,TZY,ISHARES TRUST,,32.3395,32.59,32.54,700,0.001554,32.34,32.37,200,32.3395,,0.001554,-0.001341,0.002086
12950,20130925,6211,TZY,ISHARES TRUST,,32.2801,32.2801,32.2801,100,-0.007987,32.3,32.34,200,32.2801,,-0.007987,-0.001715,0.000504
12950,20130926,6211,TZY,ISHARES TRUST,,32.3799,33.96,32.3935,6900,0.003513,32.42,32.46,200,32.5,,0.003513,0.003726,0.003629
12950,20130927,6211,TZY,ISHARES TRUST,,32.34,32.4,32.39,1400,-0.000108,32.3,32.33,200,32.35,,-0.000108,-0.003696,-0.002186
12950,20130930,6211,TZY,ISHARES TRUST,,32.01,32.26,32.2414,800,-0.004588,32.1,32.21,200,32.01,,-0.004588,-0.004893,-0.002044
12950,20131001,6211,TZY,ISHARES TRUST,,32.21,32.47,32.44,1200,0.00616,32.36,32.48,200,32.21,,0.00616,0.008609,0.008595
12950,20131002,6211,TZY,ISHARES TRUST,,32.15,32.33,32.33,1300,-0.000405,32.28,32.32,200,32.19,,-0.003391,-0.000828,-0.000331
12950,20131003,6211,TZY,ISHARES TRUST,,32.01,32.16,32.16,2300,-0.005258,32,32.11,200,32.07,,-0.005258,-0.008619,-0.006114
12950,20131004,6211,TZY,ISHARES TRUST,,32.1867,32.21,32.1867,300,0.00083,32.15,32.26,200,32.21,,0.00083,0.006704,0.005471
12950,20131007,6211,TZY,ISHARES TRUST,,31.97,32.0999,31.97,1700,-0.006733,31.94,31.97,200,32.02,,-0.006733,-0.008479,-0.00583
12950,20131008,6211,TZY,ISHARES TRUST,,31.8,31.98,31.8,1200,-0.005317,31.62,31.66,200,31.98,,-0.005317,-0.01328,-0.012654
12950,20131009,6211,TZY,ISHARES TRUST,,31.66,31.7,-31.68,0,-0.003774,31.66,31.7,200,,,-0.003774,-0.000537,-0.002068
12950,20131010,6211,TZY,ISHARES TRUST,,32.04,32.23,32.23,800,0.017361,32.22,32.33,200,32.04,,0.017361,0.020833,0.016847
12950,20131011,6211,TZY,ISHARES TRUST,,32.28,32.85,32.519,6200,0.008967,32.41,32.56,200,32.85,,0.008967,0.006875,0.007829
12950,20131014,6211,TZY,ISHARES TRUST,,32.31,32.63,32.63,5100,0.003413,32.59,32.62,200,32.31,,0.003413,0.00408,0.003569
12950,20131015,6211,TZY,ISHARES TRUST,,32.3947,32.49,32.3947,900,-0.007211,32.37,32.41,200,32.49,,-0.007211,-0.006845,-0.005001
12950,20131016,6211,TZY,ISHARES TRUST,,32.6899,32.839,32.73,2500,0.01035,32.66,32.77,200,32.7499,,0.01035,0.0127,0.009006
12950,20131017,6211,TZY,ISHARES TRUST,,32.73,32.99,32.9688,1300,0.007296,33,33.03,200,32.73,,0.007296,0.007716,0.009586
12950,20131018,6211,TZY,ISHARES TRUST,,33.12,33.2,33.17,31600,0.006103,33.2,33.23,200,33.14,,0.006103,0.006919,0.006102
12950,20131021,6211,TZY,ISHARES TRUST,,33.12,33.25,33.18,10500,0.000302,33.18,33.27,200,33.24,,0.000302,0.000132,0.000358
12950,20131022,6211,TZY,ISHARES TRUST,,33.37,33.5,33.5,900,0.009644,33.4,33.5,200,33.37,,0.009644,0.005484,0.003951
12950,20131023,6211,TZY,ISHARES TRUST,,33.17,33.26,33.1701,1500,-0.009848,33.17,33.29,200,33.26,,-0.009848,-0.005315,-0.004789
12950,20131024,6211,TZY,ISHARES TRUST,,33.2,33.34,33.32,18800,0.004519,33.32,33.36,200,33.34,,0.004519,0.004023,0.00415
12950,20131025,6211,TZY,ISHARES TRUST,,33.29,33.36,33.32,5700,0,33.39,33.43,200,33.3,,0,0.003133,-0.000024
12950,20131028,6211,TZY,ISHARES TRUST,,33.341,33.5,33.426,6000,0.003181,33.34,33.46,200,33.5,,0.003181,0.000332,-0.001681
12950,20131029,6211,TZY,ISHARES TRUST,,33.42,33.79,33.47,2300,0.001316,33.52,33.56,200,33.52,,0.001316,0.004311,0.003331
12950,20131030,6211,TZY,ISHARES TRUST,,33.4821,33.51,33.4821,500,0.000362,33.31,33.46,200,33.51,,0.000362,-0.005742,-0.007285
12950,20131031,6211,TZY,ISHARES TRUST,,33.301,33.301,33.301,100,-0.005409,33.23,33.26,200,33.301,,-0.005409,-0.003632,-0.004278
12950,20131101,6211,TZY,ISHARES TRUST,,33.0808,33.25,33.22,19000,-0.002432,33.22,33.26,200,33.0854,,-0.002432,0.001348,-0.002337
12950,20131104,6211,TZY,ISHARES TRUST,,33.34,33.34,33.34,100,0.003612,33.38,33.41,200,33.34,,0.003612,0.004313,0.007222
12950,20131105,6211,TZY,ISHARES TRUST,,33.25,33.25,33.25,200,-0.002699,33.19,33.22,200,33.25,,-0.002699,-0.003123,-0.00203
12950,20131106,6211,TZY,ISHARES TRUST,,33.33,33.37,-33.35,0,0.003007,33.33,33.37,200,,,0.003007,0.002582,-0.001002
12950,20131107,6211,TZY,ISHARES TRUST,,32.9947,33.45,32.9947,2300,-0.010654,32.88,32.92,200,33.45,,-0.010654,-0.01405,-0.013121
12950,20131108,6211,TZY,ISHARES TRUST,,32.88,32.88,32.88,100,-0.003476,33.18,33.22,200,32.88,,-0.003476,0.01231,0.009266
12950,20131111,6211,TZY,ISHARES TRUST,,33.21,33.25,-33.23,0,0.010645,33.21,33.25,200,,,0.010645,0.000993,0.002545
12950,20131112,6211,TZY,ISHARES TRUST,,33.08,33.19,-33.135,0,-0.002859,33.08,33.19,200,,,-0.002859,-0.002314,-0.002991
12950,20131113,6211,TZY,ISHARES TRUST,,32.9501,33.34,33.34,1100,0.006187,33.35,33.39,200,32.9501,,0.006187,0.008273,0.006616
12950,20131114,6211,TZY,ISHARES TRUST,,33.4999,33.6,33.6,400,0.007798,33.47,33.6,200,33.54,,0.007798,0.004421,0.002477
12950,20131115,6211,TZY,ISHARES TRUST,,33.67,33.75,33.6999,1600,0.002973,33.69,33.73,200,33.68,,0.002973,0.004397,0.005428
12950,20131118,6211,TZY,ISHARES TRUST,,33.73,33.73,33.73,900,0.000893,33.57,33.68,200,33.73,,0.000893,-0.004688,-0.004183
12950,20131119,6211,TZY,ISHARES TRUST,,33.52,33.692,33.52,900,-0.006226,33.47,33.59,200,33.692,,-0.006226,-0.003515,-0.0044
12950,20131120,6211,TZY,ISHARES TRUST,,33.31,33.4,-33.355,0,-0.004922,33.31,33.4,200,,,-0.004922,-0.003354,-0.003223
12950,20131121,6211,TZY,ISHARES TRUST,,33.45,33.6875,33.6744,3100,0.009576,33.61,33.64,200,33.45,,0.009576,0.008609,0.009025
12950,20131122,6211,TZY,ISHARES TRUST,,33.73,33.76,-33.745,0,0.002097,33.73,33.76,200,,,0.002097,0.004482,0.003685
12950,20131125,6211,TZY,ISHARES TRUST,,33.61,33.8,33.61,400,-0.004001,33.66,33.7,200,33.8,,-0.004001,-0.001458,-0.000299
12950,20131126,6211,TZY,ISHARES TRUST,,33.65,33.65,33.65,100,0.00119,33.65,33.78,200,33.65,,0.00119,0.000946,0.00391
12950,20131127,6211,TZY,ISHARES TRUST,,33.8,34.75,33.8,1300,0.004458,33.72,33.84,200,34.75,,0.004458,0.002551,0.005366
12950,20131129,6211,TZY,ISHARES TRUST,,33.9955,33.9955,33.9955,100,0.005784,33.55,34,250,33.9955,,0.005784,0.000109,0.003849
12950,20131202,6211,TZY,ISHARES TRUST,,33.24,33.7,33.7,1500,-0.008692,33.61,33.65,250,33.24,,-0.008692,-0.003707,-0.007236
12950,20131203,6211,TZY,ISHARES TRUST,,33.4979,33.56,33.4979,1800,-0.005997,33.45,33.52,250,33.55,,-0.005997,-0.003772,-0.003866
12950,20131204,6211,TZY,ISHARES TRUST,,33.37,33.37,33.37,100,-0.003818,33.4,33.44,250,33.37,,-0.003818,-0.00116,-0.00066
12950,20131205,6211,TZY,ISHARES TRUST,,33.3,33.3899,33.3899,1400,0.000596,33.3,33.34,250,33.38,,0.000596,-0.00353,-0.001641
12950,20131206,6211,TZY,ISHARES TRUST,,33.561,33.64,33.64,4700,0.00749,33.59,33.71,250,33.64,,0.00749,0.009597,0.006639
12950,20131209,6211,TZY,ISHARES TRUST,,33.67,33.67,33.67,500,0.000892,33.68,33.71,250,33.67,,0.000892,0.001813,-0.000636
12950,20131210,6211,TZY,ISHARES TRUST,,33.68,33.74,33.68,1200,0.000297,33.62,33.63,250,33.7,,0.000297,-0.002836,-0.002241
12950,20131211,6211,TZY,ISHARES TRUST,,33.45,33.62,33.45,1100,-0.006829,33.2,33.24,250,33.62,,-0.006829,-0.012211,-0.011626
12950,20131212,6211,TZY,ISHARES TRUST,,33.06,33.1089,33.1089,500,-0.010197,33.09,33.13,250,33.1,,-0.010197,-0.002791,-0.000843
12950,20131213,6211,TZY,ISHARES TRUST,,33.09,33.18,33.16,2100,0.001543,33.08,33.2,250,33.18,,0.001543,0.001247,0.002992
12950,20131216,6211,TZY,ISHARES TRUST,,33.32,33.38,33.36,1000,0.006031,33.32,33.35,250,33.38,,0.006031,0.006418,0.006844
12950,20131217,6211,TZY,ISHARES TRUST,,33.24,33.29,33.286,2000,-0.002218,33.22,33.26,250,33.28,,-0.002218,-0.00235,-0.000209
12950,20131218,6211,TZY,ISHARES TRUST,,33.27,33.52,33.49,19300,0.006129,33.7,33.74,250,33.408,,0.006129,0.014348,0.008167
12950,20131219,6211,TZY,ISHARES TRUST,,33.61,33.67,33.67,3400,0.005375,33.6,33.64,250,33.64,,0.005375,-0.001117,-0.001845
12950,20131220,6211,TZY,ISHARES TRUST,,33.74,33.89,33.89,3400,0.006534,33.81,33.85,250,33.76,,0.006534,0.006768,0.009762
12950,20131223,6211,TZY,ISHARES TRUST,,34,34.07,34.01,73400,0.003541,34.03,34.07,250,34.06,,0.003541,0.006063,0.00845
12950,20131224,6211,TZY,ISHARES TRUST,,34.03,34.16,-34.095,0,0.002499,34.03,34.16,250,,,0.002499,0.003313,0.004084
12950,20131226,6211,TZY,ISHARES TRUST,,34.2,34.28,34.28,42800,0.005426,34.2,34.28,250,34.26,,0.005426,0.003961,0.002182
12950,20131227,6211,TZY,ISHARES TRUST,,34.07,34.2,34.09,35600,-0.000065,34.1,34.13,250,34.2,,-0.005543,-0.000332,0.000884
12950,20131230,6211,TZY,ISHARES TRUST,,34.12,34.19,34.15,63900,0.00176,34.15,34.18,250,34.12,,0.00176,0.000211,0.000505
12950,20131231,6211,TZY,ISHARES TRUST,,34.2,34.3195,34.3,44900,0.004392,34.25,34.29,250,34.31,,0.004392,0.004205,0.003752
12950,20140102,6211,TZY,ISHARES TRUST,,33.81,34.09,33.87,21700,-0.012536,33.81,33.94,250,34.09,,-0.012536,-0.008881,-0.004084
12950,20140103,6211,TZY,ISHARES TRUST,,33.87,34,34,40200,0.003838,33.87,33.96,250,33.96,,0.003838,0.000432,0.004081
12950,20140106,6211,TZY,ISHARES TRUST,,33.78,34.01,33.85,62500,-0.004412,33.78,33.85,250,34.01,,-0.004412,-0.003372,-0.001696
12950,20140107,6211,TZY,ISHARES TRUST,,33.93,34.06,34.02,45600,0.005022,33.98,34.06,250,33.99,,0.005022,0.006071,0.006875
12950,20140108,6211,TZY,ISHARES TRUST,,33.91,34.05,34.009,39700,-0.000323,33.95,34.01,250,34.02,,-0.000323,-0.00003,0.000801
12950,20140109,6211,TZY,ISHARES TRUST,,33.85,34.062,34.01,40000,0.000029,33.98,34.02,250,34.062,,0.000029,0.000055,0.000146
12950,20140110,6211,TZY,ISHARES TRUST,,34.01,34.22,34.16,21400,0.004411,34.15,34.22,250,34.15,,0.004411,0.003581,0.00594
12950,20140113,6211,TZY,ISHARES TRUST,,33.8,34.18,33.8,9700,-0.010539,33.76,33.85,250,34.17,,-0.010539,-0.011726,-0.007901
12950,20140114,6211,TZY,ISHARES TRUST,,33.86,34.14,34.14,13300,0.010059,34.08,34.15,250,33.97,,0.010059,0.010232,0.009495
12950,20140115,6211,TZY,ISHARES TRUST,,34.18,34.32,34.29,38400,0.004394,34.27,34.32,250,34.21,,0.004394,0.005034,0.005757
12950,20140116,6211,TZY,ISHARES TRUST,,34.16,34.5,34.24,23600,-0.001458,34.21,34.3,250,34.29,,-0.001458,-0.000278,0.001975
12950,20140117,6211,TZY,ISHARES TRUST,,34.08,34.26,34.11,51500,-0.003797,34.11,34.23,250,34.25,,-0.003797,-0.003471,-0.00068
12950,20140121,6211,TZY,ISHARES TRUST,,34.1,34.34,34.24,24300,0.003811,34.09,34.92,250,34.34,,0.003811,0.003339,0.005303
12950,20140122,6211,TZY,ISHARES TRUST,,34.26,34.35,34.34,5600,0.002921,34.26,34.36,250,34.3,,0.002921,0.001374,0.003618
12950,20140123,6211,TZY,ISHARES TRUST,,33.93,34.1399,33.97,14200,-0.010775,34.02,34.06,250,34.1399,,-0.010775,-0.008198,-0.006465
12950,20140124,6211,TZY,ISHARES TRUST,,33.35,33.7175,33.36,11200,-0.017957,33.33,33.36,250,33.7175,,-0.017957,-0.021119,-0.019303
12950,20140127,6211,TZY,ISHARES TRUST,,32.99,33.41,33.09,16300,-0.008094,33.08,33.15,250,33.39,,-0.008094,-0.006696,-0.010411
12950,20140128,6211,TZY,ISHARES TRUST,,33.275,33.389,33.3504,17800,0.007869,33.36,33.39,250,33.3,,0.007869,0.007282,0.008281
12950,20140129,6211,TZY,ISHARES TRUST,,33.074,33.25,33.074,9300,-0.008288,33.01,33.08,250,33.19,,-0.008288,-0.010099,-0.007847
12950,20140130,6211,TZY,ISHARES TRUST,,33.2,33.39,33.3699,2900,0.008947,33.29,33.37,250,33.25,,0.008947,0.01143,0.009276
12950,20140131,6211,TZY,ISHARES TRUST,,32.97,33.25,33.08,7100,-0.008687,33.09,33.14,250,32.97,,-0.008687,-0.005806,-0.005304
12950,20140203,6211,TZY,ISHARES TRUST,,32.4196,32.96,32.4196,5500,-0.019964,32.36,32.41,250,32.945,,-0.019964,-0.023199,-0.021366
12950,20140204,6211,TZY,ISHARES TRUST,,32.5893,32.67,32.6436,2900,0.006909,32.64,32.69,250,32.61,,0.006909,0.007543,0.005876
12950,20140205,6211,TZY,ISHARES TRUST,,32.47,32.71,32.68,2900,0.001115,32.61,32.64,250,32.59,,0.001115,-0.002227,-0.005087
12950,20140206,6211,TZY,ISHARES TRUST,,32.81,33.11,33.05,4100,0.011322,33.03,33.07,250,32.81,,0.011322,0.01152,0.008404
12950,20140207,6211,TZY,ISHARES TRUST,,33.26,33.41,33.41,2800,0.010893,33.39,33.43,250,33.26,,0.010893,0.012597,0.009994
12950,20140210,6211,TZY,ISHARES TRUST,,33.35,33.42,33.39,3900,-0.000599,33.39,33.42,250,33.42,,-0.000599,0.001526,0.003959
12950,20140211,6211,TZY,ISHARES TRUST,,33.52,33.8,33.8,1700,0.012279,33.75,33.79,250,33.52,,0.012279,0.01055,0.008619
12950,20140212,6211,TZY,ISHARES TRUST,,33.7701,33.938,33.828,3900,0.000828,33.81,33.86,250,33.87,,0.000828,0.000784,0.001253
12950,20140213,6211,TZY,ISHARES TRUST,,33.64,34.01,34.01,900,0.00538,33.95,34.03,250,33.64,,0.00538,0.006847,0.008317
12950,20140214,6211,TZY,ISHARES TRUST,,34.0696,34.156,34.156,1000,0.004293,34.12,34.17,250,34.09,,0.004293,0.004047,0.003141
12950,20140218,6211,TZY,ISHARES TRUST,,34.24,34.309,34.309,900,0.004479,34.25,34.3,250,34.24,,0.004479,0.003067,0.006877
12950,20140219,6211,TZY,ISHARES TRUST,,34.0699,34.37,34.0699,2400,-0.006969,34.03,34.08,250,34.28,,-0.006969,-0.00691,-0.006685
12950,20140220,6211,TZY,ISHARES TRUST,,34.1615,34.26,34.26,1700,0.00558,34.21,34.26,250,34.1615,,0.00558,0.006298,0.00711
12950,20140221,6211,TZY,ISHARES TRUST,,34.26,34.334,34.27,2300,0.000292,34.22,34.26,250,34.334,,0.000292,-0.000911,0.001506
12950,20140224,6211,TZY,ISHARES TRUST,,34.47,34.47,34.47,700,0.005836,34.45,34.48,250,34.47,,0.005836,0.006156,0.00564
12950,20140225,6211,TZY,ISHARES TRUST,,34.36,34.4017,34.374,4600,-0.002785,34.36,34.42,250,34.39,,-0.002785,-0.001286,-0.001899
12950,20140226,6211,TZY,ISHARES TRUST,,34.37,34.4306,34.37,800,-0.000116,34.38,34.43,250,34.4306,,-0.000116,0.000868,0.002817
12950,20140227,6211,TZY,ISHARES TRUST,,34.483,34.483,34.483,400,0.003288,34.52,34.59,250,34.483,,0.003288,0.004744,0.00595
12950,20140228,6211,TZY,ISHARES TRUST,,34.7,34.7,34.7,500,0.006293,34.54,34.64,300,34.7,,0.006293,0.001641,-0.000764
12950,20140303,6211,TZY,ISHARES TRUST,,34.24,34.38,34.32,6222,-0.010951,34.24,34.29,300,34.33,,-0.010951,-0.006685,-0.003935
12950,20140304,6211,TZY,ISHARES TRUST,,34.8,34.83,34.83,750,0.01486,34.79,34.83,300,34.8,,0.01486,0.015405,0.01647
12950,20140305,6211,TZY,ISHARES TRUST,,34.7843,34.82,34.82,959,-0.000287,34.73,34.81,300,34.7843,,-0.000287,0.000208,0.002076
12950,20140306,6211,TZY,ISHARES TRUST,,34.9132,35.01,34.9401,2411,0.003449,34.9,34.95,300,34.998,,0.003449,0.001571,0.002393
12950,20140307,6211,TZY,ISHARES TRUST,,34.8,34.905,34.855,1794,-0.002436,34.75,34.95,300,34.8517,,-0.002436,-0.000895,-0.001665
12950,20140310,6211,TZY,ISHARES TRUST,,34.655,34.78,34.78,2182,-0.002152,34.73,34.78,300,34.69,,-0.002152,-0.001306,-0.001066
12950,20140311,6211,TZY,ISHARES TRUST,,34.6,34.752,34.6,868,-0.005175,34.53,34.59,300,34.744,,-0.005175,-0.005576,-0.007384
12950,20140312,6211,TZY,ISHARES TRUST,,34.42,34.53,34.53,551,-0.002023,34.4,35.18,300,34.42,,-0.002023,0.001013,0.00108
12950,20140313,6211,TZY,ISHARES TRUST,,34.22,34.69,34.22,1497,-0.008978,34.13,34.17,300,34.69,,-0.008978,-0.01124,-0.008986
12950,20140314,6211,TZY,ISHARES TRUST,,34.14,34.18,34.14,600,-0.002338,34.09,34.14,300,34.18,,-0.002338,-0.001407,0.001148
12950,20140317,6211,TZY,ISHARES TRUST,,34.39,34.44,34.44,17439,0.008787,34.38,34.44,300,34.4,,0.008787,0.008263,0.005346
12950,20140318,6211,TZY,ISHARES TRUST,,34.599,34.69,34.69,2374,0.007259,34.63,34.69,300,34.599,,0.007259,0.007629,0.008614
12950,20140319,6211,TZY,ISHARES TRUST,,34.54,34.7,34.54,2107,-0.004324,34.35,34.4,300,34.7,,-0.004324,-0.006824,-0.005367
12950,20140320,6211,TZY,ISHARES TRUST,,34.33,34.488,34.488,1784,-0.001506,34.42,34.49,300,34.33,,-0.001506,0.00467,0.001063
12950,20140321,6211,TZY,ISHARES TRUST,,34.68,34.68,34.68,254,0.005567,34.25,34.45,300,34.68,,0.005567,-0.002932,-0.001025
12950,20140324,6211,TZY,ISHARES TRUST,,34.1715,34.61,34.35,5431,-0.009516,34.26,34.35,300,34.61,,-0.009516,-0.006094,-0.008992
12950,20140325,6211,TZY,ISHARES TRUST,,34.435,34.53,34.5288,2327,0.005205,34.49,34.52,300,34.435,,0.005205,0.003276,0.001098
12950,20140326,6211,TZY,ISHARES TRUST,,34.42,34.58,34.42,1157,-0.003151,34.25,34.35,300,34.58,,-0.003151,-0.008213,-0.012019
12950,20140327,6211,TZY,ISHARES TRUST,,34.27,34.42,34.36,1363,-0.001743,34.32,34.37,300,34.28,,-0.001743,-0.001294,-0.00176
12950,20140328,6211,TZY,ISHARES TRUST,,34.53,34.65,34.65,658,0.00844,34.47,34.53,300,34.53,,0.00844,0.004395,0.002618
12950,20140331,6211,TZY,ISHARES TRUST,,34.69,34.84,34.81,13744,0.004618,34.76,34.81,300,34.69,,0.004618,0.009147,0.010491
12950,20140401,6211,TZY,ISHARES TRUST,,34.85,35.04,35.04,13337,0.006607,35,35.04,300,34.85,,0.006607,0.008158,0.008875
12950,20140402,6211,TZY,ISHARES TRUST,,34.959,35.0012,35.0012,1398,0.001546,34.99,35.04,300,34.9595,,-0.001107,0.002702,0.003572
12950,20140403,6211,TZY,ISHARES TRUST,,34.88,35.01,34.9624,5759,-0.001109,34.87,34.97,300,35.01,,-0.001109,-0.003108,-0.007021
12950,20140404,6211,TZY,ISHARES TRUST,,34.66,34.9217,34.66,966,-0.008649,34.61,34.66,300,34.9217,,-0.008649,-0.012605,-0.012475
12950,20140407,6211,TZY,ISHARES TRUST,,34.56,34.61,34.61,629,-0.001443,34.31,34.38,300,34.56,,-0.001443,-0.011648,-0.011547
12950,20140408,6211,TZY,ISHARES TRUST,,34.4235,34.5,34.45,1929,-0.004623,34.45,34.49,300,34.5,,-0.004623,0.005162,0.006008
12950,20140409,6211,TZY,ISHARES TRUST,,34.5675,34.598,34.598,1058,0.004296,34.77,34.84,300,34.5675,,0.004296,0.011229,0.010376
12950,20140410,6211,TZY,ISHARES TRUST,,34.17,34.73,34.17,1315,-0.012371,34.17,34.23,300,34.73,,-0.012371,-0.020782,-0.017969
12950,20140411,6211,TZY,ISHARES TRUST,,33.948,34.11,33.948,1544,-0.006497,33.92,33.97,300,34.087,,-0.006497,-0.009872,-0.00975
12950,20140414,6211,TZY,ISHARES TRUST,,33.99,34.07,34.07,586,0.003594,34.08,34.14,300,33.99,,0.003594,0.006501,0.000226
12950,20140415,6211,TZY,ISHARES TRUST,,33.8,34.22,34.22,1553,0.004403,34.17,34.22,300,33.85,,0.004403,0.005159,-0.001853
12950,20140416,6211,TZY,ISHARES TRUST,,34.4,34.57,34.57,461,0.010228,34.51,34.57,300,34.4,,0.010228,0.010611,0.009261
12950,20140417,6211,TZY,ISHARES TRUST,,34.53,34.57,34.53,882,-0.001157,34.56,34.65,300,34.57,,-0.001157,0.002237,0.004192
12950,20140421,6211,TZY,ISHARES TRUST,,34.63,34.73,34.73,4398,0.005792,34.66,34.73,300,34.7,,0.005792,0.003469,0.003992
12950,20140422,6211,TZY,ISHARES TRUST,,34.83,34.92,34.92,3567,0.005471,34.83,34.88,300,34.83,,0.005471,0.005515,0.008316
12950,20140423,6211,TZY,ISHARES TRUST,,34.798,34.88,34.798,2696,-0.003494,34.74,34.79,300,34.88,,-0.003494,-0.00287,-0.0039
12950,20140424,6211,TZY,ISHARES TRUST,,34.77,34.89,34.89,1857,0.002644,34.68,34.89,300,34.77,,0.002644,0.00069,-0.001459
12950,20140425,6211,TZY,ISHARES TRUST,,34.53,34.618,34.53,3735,-0.010318,34.42,34.63,300,34.55,,-0.010318,-0.009467,-0.012139
12950,20140428,6211,TZY,ISHARES TRUST,,34.528,34.73,34.528,1179,-0.000058,34.55,34.63,300,34.73,,-0.000058,0.000954,-0.004323
12950,20140429,6211,TZY,ISHARES TRUST,,34.7,34.82,34.82,1218,0.008457,34.72,34.78,300,34.77,,0.008457,0.005587,0.002704
12950,20140430,6211,TZY,ISHARES TRUST,,34.7306,34.9,34.9,6797,0.002298,34.83,34.91,300,34.75,,0.002298,0.003341,0.002554
12950,20140501,6211,TZY,ISHARES TRUST,,34.8,34.95,34.95,36191,0.001433,34.86,34.95,300,34.8,,0.001433,0.000652,0.000566
12950,20140502,6211,TZY,ISHARES TRUST,,34.8999,34.92,34.8999,1602,-0.001434,34.86,34.93,300,34.92,,-0.001434,-0.000273,0.000828
12950,20140505,6211,TZY,ISHARES TRUST,,34.9,34.9,34.9,841,0.000003,34.87,34.94,300,34.9,,0.000003,0.001238,-0.00029
12950,20140506,6211,TZY,ISHARES TRUST,,34.7496,35.71,34.7496,6231,-0.00431,34.68,34.76,300,35.71,,-0.00431,-0.00878,-0.00916
12950,20140507,6211,TZY,ISHARES TRUST,,34.7075,34.7996,34.7996,986,0.001439,34.81,34.88,300,34.7075,,0.001439,0.004039,-0.002818
12950,20140508,6211,TZY,ISHARES TRUST,,34.9,34.9,34.9,1025,0.002885,34.75,34.83,300,34.9,,0.002885,-0.002891,-0.007281
12950,20140509,6211,TZY,ISHARES TRUST,,34.78,34.7906,34.7906,962,-0.003135,34.77,34.87,300,34.78,,-0.003135,0.001447,0.003284
12950,20140512,6211,TZY,ISHARES TRUST,,34.9901,35.1995,35.1995,45018,0.011753,35.13,35.21,300,35.06,,0.011753,0.011085,0.014851
12950,20140513,6211,TZY,ISHARES TRUST,,35.132,35.23,35.132,7466,-0.001918,35.11,35.18,300,35.22,,-0.001918,-0.000884,-0.003398
12950,20140514,6211,TZY,ISHARES TRUST,,35.05,35.108,35.05,2218,-0.002334,34.96,35.05,300,35.108,,-0.002334,-0.004858,-0.006971
12950,20140515,6211,TZY,ISHARES TRUST,,34.82,34.82,34.82,352,-0.006562,34.74,34.82,300,34.82,,-0.006562,-0.008507,-0.00693
12950,20140516,6211,TZY,ISHARES TRUST,,34.86,34.92,34.9,4050,0.002298,34.88,34.97,300,34.92,,0.002298,0.003382,0.003235
12950,20140519,6211,TZY,ISHARES TRUST,,34.87,35.016,35.016,970,0.003324,34.96,35.04,300,34.87,,0.003324,0.004235,0.005789
12950,20140520,6211,TZY,ISHARES TRUST,,34.68,34.89,34.77,22439,-0.007025,34.72,34.79,300,34.88,,-0.007025,-0.006979,-0.008011
12950,20140521,6211,TZY,ISHARES TRUST,,34.88,34.96,34.8999,3327,0.003736,34.95,35.02,300,34.91,,0.003736,0.007293,0.004181
12950,20140522,6211,TZY,ISHARES TRUST,,34.94,35.14,35.09,70518,0.005447,35.04,35.12,300,34.94,,0.005447,0.003379,0.005552
12950,20140523,6211,TZY,ISHARES TRUST,,35.1,35.24,35.22,103676,0.003705,35.19,35.2,300,35.12,,0.003705,0.004701,0.006551
12950,20140527,6211,TZY,ISHARES TRUST,,35.32,35.43,35.4,55503,0.005111,35.38,35.45,300,35.42,,0.005111,0.005877,0.007232
12950,20140528,6211,TZY,ISHARES TRUST,,35.3,35.4299,35.4299,84438,0.000845,35.33,35.39,300,35.37,,0.000845,-0.001473,-0.000578
12950,20140529,6211,TZY,ISHARES TRUST,,35.37,35.74,35.54,7789,0.003108,35.48,35.54,300,35.74,,0.003108,0.004791,0.003742
12950,20140530,6211,TZY,ISHARES TRUST,,35.52,35.55,35.55,3006,0.000281,35.48,35.55,400,35.54,,0.000281,0.00064,-0.002497
12950,20140602,6211,TZY,ISHARES TRUST,,35.48,35.58,35.58,14350,0.000844,35.53,35.6,400,35.55,,0.000844,0.0006,-0.002823
12950,20140603,6211,TZY,ISHARES TRUST,,35.46,35.53,35.5275,14089,-0.001476,35.49,35.55,400,35.48,,-0.001476,-0.000415,-0.002311
12950,20140604,6211,TZY,ISHARES TRUST,,35.45,35.6,35.56,49336,0.000915,35.54,35.61,400,35.48,,0.000915,0.002404,0.002413
12950,20140605,6211,TZY,ISHARES TRUST,,35.62,35.86,35.86,19245,0.008436,35.81,35.91,400,35.67,,0.008436,0.007206,0.011009
12950,20140606,6211,TZY,ISHARES TRUST,,35.91,36.03,35.99,52334,0.003625,35.97,36.04,400,35.94,,0.003625,0.004996,0.007394
12950,20140609,6211,TZY,ISHARES TRUST,,35.99,36.12,36.01,31133,0.000556,36,36.08,400,36,,0.000556,0.001835,0.005692
12950,20140610,6211,TZY,ISHARES TRUST,,35.94,36.02,36.02,3807,0.000278,35.95,36.03,400,36.01,,0.000278,-0.000409,0.000512
12950,20140611,6211,TZY,ISHARES TRUST,,35.81,35.93,35.9,21957,-0.003331,35.85,35.91,400,35.93,,-0.003331,-0.003213,-0.001619
12950,20140612,6211,TZY,ISHARES TRUST,,35.7042,35.89,35.71,19425,-0.005293,35.7,35.78,400,35.88,,-0.005293,-0.005983,-0.00255
12950,20140613,6211,TZY,ISHARES TRUST,,35.71,35.9,35.79,66467,0.00224,35.78,35.83,400,35.74,,0.00224,0.003043,0.001746
12950,20140616,6211,TZY,ISHARES TRUST,,35.71,35.89,35.7901,50954,0.000003,35.79,35.85,400,35.85,,0.000003,0.001402,0.001972
12950,20140617,6211,TZY,ISHARES TRUST,,35.75,35.94,35.9201,27863,0.003632,35.87,35.93,400,35.75,,0.003632,0.002924,0.004939
12950,20140618,6211,TZY,ISHARES TRUST,,35.87,35.97,35.89,6434,-0.000838,36.02,36.28,400,35.97,,-0.000838,0.00694,0.005336
12950,20140619,6211,TZY,ISHARES TRUST,,36.13,36.27,36.2,18846,0.008638,36.16,36.24,400,36.27,,0.008638,0.001583,0.001946
12950,20140620,6211,TZY,ISHARES TRUST,,36.19,36.28,36.22,171295,0.000552,36.21,36.3,400,36.21,,0.000552,0.001982,0.001283
12950,20140623,6211,TZY,ISHARES TRUST,,36.14,36.26,36.18,138412,-0.001104,36.16,36.24,400,36.26,,-0.001104,0.000096,-0.000519
12950,20140624,6211,TZY,ISHARES TRUST,,36,36.3,36.01,58861,-0.004699,35.97,36.02,400,36.28,,-0.004699,-0.007148,-0.006842
12950,20140625,6211,TZY,ISHARES TRUST,,35.96,36.16,36.16,17156,0.004166,36.09,36.16,400,35.96,,0.004166,0.004948,0.004127
12950,20140626,6211,TZY,ISHARES TRUST,,35.97,36.17,36.06,47277,-0.002765,36.05,36.1,400,36.17,,-0.002765,-0.000767,0.000115
12950,20140627,6211,TZY,ISHARES TRUST,,36.04,36.15,36.1,956,0.001109,36.15,36.22,400,36.04,,0.001109,0.002821,0.005232
12950,20140630,6211,TZY,ISHARES TRUST,,36.15,36.24,36.23,4445,0.003601,36.16,36.25,350,36.2,,0.003601,0.000968,0.002748
12950,20140701,6211,TZY,ISHARES TRUST,,36.41,36.56,36.48,38631,0.0069,36.43,36.49,350,36.44,,0.0069,0.006643,0.007053
12950,20140702,6211,TZY,ISHARES TRUST,,36.09,36.17,36.09,60327,-0.0017,36.09,36.15,350,36.15,,-0.010691,-0.000366,-0.000904
12950,20140703,6211,TZY,ISHARES TRUST,,36.11,36.29,36.24,37090,0.004156,36.22,36.29,350,36.11,,0.004156,0.004952,0.003753
12950,20140707,6211,TZY,ISHARES TRUST,,36.02,37.28,36.1,24690,-0.003863,36.03,36.1,350,37.28,,-0.003863,-0.006157,-0.00998
12950,20140708,6211,TZY,ISHARES TRUST,,35.73,35.9,35.8399,129250,-0.007205,35.78,35.85,350,35.9,,-0.007205,-0.007529,-0.009758
12950,20140709,6211,TZY,ISHARES TRUST,,35.8,35.94,35.94,36362,0.002793,35.88,35.96,350,35.87,,0.002793,0.004406,0.002184
12950,20140710,6211,TZY,ISHARES TRUST,,35.56,35.71,35.69,1922,-0.006956,35.69,35.74,350,35.56,,-0.006956,-0.004852,-0.006689
12950,20140711,6211,TZY,ISHARES TRUST,,35.66,35.76,35.76,1324,0.001961,35.7,35.76,350,35.66,,0.001961,0.000684,0.000322
12950,20140714,6211,TZY,ISHARES TRUST,,35.88,35.95,35.92,1070,0.004474,35.88,35.94,350,35.88,,0.004474,0.004552,0.0038
12950,20140715,6211,TZY,ISHARES TRUST,,35.7501,35.84,35.8314,8242,-0.002466,35.8,35.85,350,35.7501,,-0.002466,-0.0033,-0.006787
12950,20140716,6211,TZY,ISHARES TRUST,,35.91,35.91,35.91,707,0.002194,35.91,35.97,350,35.91,,0.002194,0.003672,0.000722
12950,20140717,6211,TZY,ISHARES TRUST,,35.572,35.92,35.572,1855,-0.009412,35.52,35.57,350,35.92,,-0.009412,-0.011023,-0.010573
12950,20140718,6211,TZY,ISHARES TRUST,,35.66,35.9066,35.9,1818,0.009221,35.86,35.9,350,35.7,,0.009221,0.010243,0.009654
12950,20140721,6211,TZY,ISHARES TRUST,,35.8,35.83,35.825,1439,-0.002089,35.78,35.81,350,35.8,,-0.002089,-0.002189,-0.001839
12950,20140722,6211,TZY,ISHARES TRUST,,35.95,36.04,35.989,7657,0.004578,35.97,35.99,350,35.97,,0.004578,0.005058,0.005622
12950,20140723,6211,TZY,ISHARES TRUST,,35.98,35.98,35.98,213,-0.00025,36,36.03,350,35.98,,-0.00025,0.001832,0.001109
12950,20140724,6211,TZY,ISHARES TRUST,,36.05,36.06,36.06,1421,0.002224,36.03,36.06,350,36.05,,0.002224,0.000215,-0.000765
12950,20140725,6211,TZY,ISHARES TRUST,,35.86,35.98,35.86,3587,-0.005546,35.83,35.89,350,35.98,,-0.005546,-0.00504,-0.004455
12950,20140728,6211,TZY,ISHARES TRUST,,35.8,35.91,35.9,2382,0.001115,35.87,35.89,350,35.8,,0.001115,-0.000503,-0.002557
12950,20140729,6211,TZY,ISHARES TRUST,,35.815,35.938,35.815,3101,-0.002368,35.8,35.81,350,35.92,,-0.002368,-0.003774,-0.000749
12950,20140730,6211,TZY,ISHARES TRUST,,35.7535,35.89,35.7535,4667,-0.001717,35.75,35.77,350,35.879,,-0.001717,0.000364,0.001168
12950,20140731,6211,TZY,ISHARES TRUST,,35.16,35.54,35.16,3624,-0.0166,35.12,35.15,400,35.54,,-0.0166,-0.019448,-0.016129
12950,20140801,6211,TZY,ISHARES TRUST,,35.11,35.1325,35.1325,1306,-0.000782,35.02,35.06,400,35.11,,-0.000782,-0.003494,-0.004424
12950,20140804,6211,TZY,ISHARES TRUST,,34.99,35.71,35.07,2320,-0.001779,35.23,35.26,400,35.71,,-0.001779,0.007113,0.004535
12950,20140805,6211,TZY,ISHARES TRUST,,34.9428,35.148,34.9428,1351,-0.003627,34.9,34.97,400,35.148,,-0.003627,-0.008956,-0.004699
12950,20140806,6211,TZY,ISHARES TRUST,,34.22,35.3599,34.934,2459,-0.000252,34.9,34.92,400,34.22,,-0.000252,0.000025,0.001971
12950,20140807,6211,TZY,ISHARES TRUST,,34.71,36.01,34.73,8794,-0.00584,34.74,34.76,400,36.01,,-0.00584,-0.005092,-0.003902
12950,20140808,6211,TZY,ISHARES TRUST,,34.8201,35.06,35.06,2383,0.009502,35.02,35.06,400,34.8201,,0.009502,0.010266,0.007308
12950,20140811,6211,TZY,ISHARES TRUST,,35.11,35.257,35.257,553,0.005619,35.16,35.18,400,35.11,,0.005619,0.004642,0.00756
12950,20140812,6211,TZY,ISHARES TRUST,,35.12,35.16,35.12,3647,-0.003886,35.1,35.12,400,35.16,,-0.003886,-0.002241,-0.003753
12950,20140813,6211,TZY,ISHARES TRUST,,35.32,35.34,35.335,3569,0.006122,35.31,35.35,400,35.33,,0.006122,0.006395,0.004796
12950,20140814,6211,TZY,ISHARES TRUST,,35.4,35.48,35.48,1720,0.004104,35.46,35.48,400,35.4,,0.004104,0.004124,0.002422
12950,20140815,6211,TZY,ISHARES TRUST,,35.28,35.61,35.289,8535,-0.005383,35.44,35.46,400,35.61,,-0.005383,0.0002,-0.000499
12950,20140818,6211,TZY,ISHARES TRUST,,35.69,35.74,35.69,803,0.011363,35.71,35.75,400,35.73,,0.011363,0.008463,0.008532
12950,20140819,6211,TZY,ISHARES TRUST,,35.83,35.89,35.89,1421,0.005604,35.86,35.89,400,35.83,,0.005604,0.00456,0.003054
12950,20140820,6211,TZY,ISHARES TRUST,,35.7615,35.892,35.88,2708,-0.000279,35.86,35.88,400,35.7615,,-0.000279,0.001907,-0.001808
12950,20140821,6211,TZY,ISHARES TRUST,,36,36,36,375,0.003344,35.94,35.99,400,36,,0.003344,0.00244,0.001489
12950,20140822,6211,TZY,ISHARES TRUST,,35.92,35.97,35.92,871,-0.002222,35.87,35.9,400,35.97,,-0.002222,-0.001524,0.000186
12950,20140825,6211,TZY,ISHARES TRUST,,36.03,36.06,-36.045,0,0.00348,36.03,36.06,400,,,0.00348,0.004521,0.002801
12950,20140826,6211,TZY,ISHARES TRUST,,36.11,36.1286,36.12,1175,0.002081,36.09,36.11,400,36.111,,0.002081,0.002163,0.004283
12950,20140827,6211,TZY,ISHARES TRUST,,36.09,36.1306,36.09,720,-0.000831,36.1,36.13,400,36.1306,,-0.000831,0.000447,0.000577
12950,20140828,6211,TZY,ISHARES TRUST,,35.995,36,35.995,521,-0.002632,36.02,36.04,400,36,,-0.002632,-0.001933,-0.002484
12950,20140829,6211,TZY,ISHARES TRUST,,35.9775,36.06,36.06,1906,0.001806,36.09,36.11,400,35.9775,,0.001806,0.003733,0.004982
12950,20140902,6211,TZY,ISHARES TRUST,,36.03,36.17,36.14,2171,0.002218,36.11,36.13,400,36.08,,0.002218,-0.000028,0.001618
12950,20140903,6211,TZY,ISHARES TRUST,,36.14,36.26,36.2,4883,0.00166,36.16,36.2,400,36.25,,0.00166,-0.000717,-0.001975
12950,20140904,6211,TZY,ISHARES TRUST,,36.08,36.1,-36.09,0,-0.003039,36.08,36.1,400,,,-0.003039,-0.002429,-0.003374
12950,20140905,6211,TZY,ISHARES TRUST,,36.05,36.1401,36.1401,1081,0.001388,36.19,36.21,400,36.05,,0.001388,0.004348,0.002304
12950,20140908,6211,TZY,ISHARES TRUST,,36.06,36.15,36.06,2114,-0.002216,36.03,36.06,400,36.15,,-0.002216,-0.002904,0.000665
12950,20140909,6211,TZY,ISHARES TRUST,,35.85,36.12,35.85,1655,-0.005824,35.83,35.85,400,36.12,,-0.005824,-0.006329,-0.007156
12950,20140910,6211,TZY,ISHARES TRUST,,35.83,35.93,35.93,1264,0.002232,35.93,35.95,400,35.84,,0.002232,0.003241,0.002234
12950,20140911,6211,TZY,ISHARES TRUST,,35.86,35.89,35.89,1714,-0.001113,35.92,35.94,400,35.86,,-0.001113,0.001016,0.001183
12950,20140912,6211,TZY,ISHARES TRUST,,35.72,35.74,-35.73,0,-0.004458,35.72,35.74,400,,,-0.004458,-0.006605,-0.006008
12950,20140915,6211,TZY,ISHARES TRUST,,35.65,35.79,35.66,2436,-0.001959,35.64,35.66,400,35.79,,-0.001959,-0.002892,-0.008163
12950,20140916,6211,TZY,ISHARES TRUST,,35.62,35.88,35.84,2000,0.005048,35.84,35.87,400,35.62,,0.005048,0.007006,0.002629
12950,20140917,6211,TZY,ISHARES TRUST,,35.78,35.8,-35.79,0,-0.001395,35.78,35.8,400,,,-0.001395,0.000767,0.000647
12950,20140918,6211,TZY,ISHARES TRUST,,35.918,35.97,35.97,2559,0.005029,35.95,35.97,400,35.918,,0.005029,0.004409,0.001191
12950,20140919,6211,TZY,ISHARES TRUST,,35.88,36.0427,35.88,2214,-0.002502,35.86,35.88,400,36.03,,-0.002502,-0.002437,-0.005559
12950,20140922,6211,TZY,ISHARES TRUST,,35.59,35.85,35.59,2488,-0.008083,35.59,35.61,400,35.85,,-0.008083,-0.010107,-0.012492
12950,20140923,6211,TZY,ISHARES TRUST,,35.4434,35.54,35.4434,1378,-0.004119,35.37,35.39,400,35.51,,-0.004119,-0.00606,-0.005388
12950,20140924,6211,TZY,ISHARES TRUST,,35.36,35.52,35.51,1067,0.001879,35.58,35.6,400,35.36,,0.001879,0.006975,0.00427
12950,20140925,6211,TZY,ISHARES TRUST,,35.09,35.53,35.09,2227,-0.011828,35.1,35.12,400,35.53,,-0.011828,-0.015568,-0.011709
12950,20140926,6211,TZY,ISHARES TRUST,,35.3,35.3,35.3,1077,0.005985,35.3,35.32,400,35.3,,0.005985,0.008145,0.005564
12950,20140929,6211,TZY,ISHARES TRUST,,35.04,35.16,35.16,3612,-0.003966,35.16,35.18,400,35.06,,-0.003966,-0.002491,-0.001821
12950,20140930,6211,TZY,ISHARES TRUST,,35.029,35.029,35.029,341,-0.003726,35.05,35.07,400,35.029,,-0.003726,-0.004126,-0.006171
12950,20141001,6211,TZY,ISHARES TRUST,,34.5,34.87,34.69,19843,-0.009678,34.64,34.65,400,34.5,,-0.009678,-0.013034,-0.012903
12950,20141002,6211,TZY,ISHARES TRUST,,34.16,34.54,34.51,3025,-0.002394,34.48,34.49,400,34.54,,-0.005189,0.000709,0.003202
12950,20141003,6211,TZY,ISHARES TRUST,,34.57,34.57,34.57,1753,0.001739,34.69,34.71,400,34.57,,0.001739,0.009064,0.004702
12950,20141006,6211,TZY,ISHARES TRUST,,34.69,34.71,34.69,1718,0.003471,34.72,34.74,400,34.69,,0.003471,-0.001612,-0.003952
12950,20141007,6211,TZY,ISHARES TRUST,,34.3,34.63,34.3,5120,-0.011242,34.25,34.27,400,34.63,,-0.011242,-0.014995,-0.012758
12950,20141008,6211,TZY,ISHARES TRUST,,34.228,34.79,34.79,45911,0.014286,34.77,34.79,400,34.228,,0.014286,0.015646,0.009438
12950,20141009,6211,TZY,ISHARES TRUST,,34.11,34.6899,34.19,24161,-0.017246,34.07,34.11,400,34.6899,,-0.017246,-0.02125,-0.019907
12950,20141010,6211,TZY,ISHARES TRUST,,33.67,34.08,33.67,5643,-0.015209,33.66,33.7,400,34.08,,-0.015209,-0.013428,-0.0133
12950,20141013,6211,TZY,ISHARES TRUST,,33.66,33.6601,33.66,2593,-0.000297,33.66,33.69,400,33.6601,,-0.000297,-0.015503,-0.007357
12950,20141014,6211,TZY,ISHARES TRUST,,33.833,33.87,33.86,1931,0.005942,33.75,33.89,400,33.87,,0.005942,0.002329,0.002918
12950,20141015,6211,TZY,ISHARES TRUST,,,,,,,,,,,,,-0.004577,0.002762
