PERMNO,date,SICCD,TICKER,COMNAM,NMSIND,BIDLO,ASKHI,PRC,VOL,RET,BID,ASK,SHROUT,OPENPRC,NUMTRD,RETX,vwretx,ewretx
11955,20080102,4953,WMI,WASTE MANAGEMENT INC DEL,,32.15,32.93,32.26,3059700,-0.01255,32.29,32.31,508346,32.9,,-0.01255,-0.011965,-0.006655
11955,20080103,4953,WMI,WASTE MANAGEMENT INC DEL,,31.77,32.65,32.26,3201900,0,32.24,32.26,508346,32.3,,0,-0.000957,-0.004569
11955,20080104,4953,WMI,WASTE MANAGEMENT INC DEL,,30.9,32.58,31.05,6205700,-0.037508,31.05,31.06,508346,32.31,,-0.037508,-0.025651,-0.022428
11955,20080107,4953,WMI,WASTE MANAGEMENT INC DEL,,31.18,32.22,31.57,5027200,0.016747,31.54,31.6,508346,31.18,,0.016747,0.000177,-0.001906
11955,20080108,4953,WMI,WASTE MANAGEMENT INC DEL,,31.39,32.045,31.73,4873900,0.005068,31.65,31.74,508346,31.7,,0.005068,-0.017246,-0.014073
11955,20080109,4953,WMI,WASTE MANAGEMENT INC DEL,,30.86,31.75,31.16,4505300,-0.017964,31.15,31.16,508346,31.47,,-0.017964,0.009933,-0.000568
11955,20080110,4953,WMI,WASTE MANAGEMENT INC DEL,,30.89,31.86,31.64,3605300,0.015404,31.62,31.65,508346,30.99,,0.015404,0.008375,0.009638
11955,20080111,4953,WMI,WASTE MANAGEMENT INC DEL,,31.15,31.47,31.23,4531200,-0.012958,31.26,31.29,508346,31.31,,-0.012958,-0.013966,-0.011448
11955,20080114,4953,WMI,WASTE MANAGEMENT INC DEL,,31.22,32.58,32.27,3902000,0.033301,32.24,32.25,508346,31.42,,0.033301,0.010449,0.007768
11955,20080115,4953,WMI,WASTE MANAGEMENT INC DEL,,31.57,32.24,31.81,4135900,-0.014255,31.82,31.84,508346,31.93,,-0.014255,-0.024743,-0.018449
11955,20080116,4953,WMI,WASTE MANAGEMENT INC DEL,,31.28,31.9,31.61,4115600,-0.006287,31.59,31.61,508346,31.61,,-0.006287,-0.006756,-0.000147
11955,20080117,4953,WMI,WASTE MANAGEMENT INC DEL,,30.6,31.99,30.62,3433800,-0.031319,30.58,30.63,508346,31.6,,-0.031319,-0.027749,-0.021664
11955,20080118,4953,WMI,WASTE MANAGEMENT INC DEL,,29.88,30.86,29.98,5180000,-0.020901,30,30.02,508346,30.77,,-0.020901,-0.005592,-0.007332
11955,20080122,4953,WMI,WASTE MANAGEMENT INC DEL,,27.57,29.57,29.15,5603100,-0.027685,29.13,29.15,508346,28.52,,-0.027685,-0.009456,-0.010386
11955,20080123,4953,WMI,WASTE MANAGEMENT INC DEL,,28.04,30.55,30.52,6353200,0.046998,30.49,30.56,508346,28.35,,0.046998,0.019772,0.018187
11955,20080124,4953,WMI,WASTE MANAGEMENT INC DEL,,29.79,30.91,30.73,6013100,0.006881,30.69,30.7,508346,30.44,,0.006881,0.012535,0.011062
11955,20080125,4953,WMI,WASTE MANAGEMENT INC DEL,,30.59,31.21,30.95,3707300,0.007159,30.94,30.95,508346,31.07,,0.007159,-0.013001,-0.001545
11955,20080128,4953,WMI,WASTE MANAGEMENT INC DEL,,30.65,31.45,31.34,2787300,0.012601,31.36,31.37,508346,30.65,,0.012601,0.017161,0.013493
11955,20080129,4953,WMI,WASTE MANAGEMENT INC DEL,,31.26,31.59,31.49,2324800,0.004786,31.45,31.46,508346,31.47,,0.004786,0.006287,0.007579
11955,20080130,4953,WMI,WASTE MANAGEMENT INC DEL,,31.29,32.19,31.57,3001400,0.00254,31.5,31.54,508346,31.35,,0.00254,-0.005471,-0.002636
11955,20080131,4953,WMI,WASTE MANAGEMENT INC DEL,2,30.99,32.61,32.41,4585200,0.026608,32.39,32.41,508346,31.14,,0.026608,0.014823,0.015102
11955,20080201,4953,WMI,WASTE MANAGEMENT INC DEL,,32.38,33.23,33.14,3069900,0.022524,33.1,33.11,508346,32.46,,0.022524,0.015966,0.015673
11955,20080204,4953,WMI,WASTE MANAGEMENT INC DEL,,32.77,33.45,33.38,2736400,0.007242,33.32,33.34,508346,33.15,,0.007242,-0.009007,-0.003053
11955,20080205,4953,WMI,WASTE MANAGEMENT INC DEL,,32.22,33.08,32.23,4316600,-0.034452,32.25,32.26,508346,32.86,,-0.034452,-0.030929,-0.021632
11955,20080206,4953,WMI,WASTE MANAGEMENT INC DEL,,32.2,32.82,32.52,4584700,0.008998,32.52,32.59,508346,32.39,,0.008998,-0.008268,-0.007339
11955,20080207,4953,WMI,WASTE MANAGEMENT INC DEL,,31.91,32.59,32.28,4212300,-0.00738,32.32,32.33,508346,32.41,,-0.00738,0.007562,0.005105
11955,20080208,4953,WMI,WASTE MANAGEMENT INC DEL,,31.98,32.87,32.66,4212000,0.011772,32.64,32.65,508346,32.05,,0.011772,-0.002103,-0.002793
11955,20080211,4953,WMI,WASTE MANAGEMENT INC DEL,,31.91,32.72,32.16,3008000,-0.015309,32.16,32.18,508346,32.72,,-0.015309,0.005764,0.002776
11955,20080212,4953,WMI,WASTE MANAGEMENT INC DEL,,32.25,33.3,33.13,3132700,0.030162,33.05,33.08,508346,32.25,,0.030162,0.00623,0.004074
11955,20080213,4953,WMI,WASTE MANAGEMENT INC DEL,,33.38,34.14,34.04,4339700,0.027468,33.98,34,508346,33.99,,0.027468,0.014027,0.01276
11955,20080214,4953,WMI,WASTE MANAGEMENT INC DEL,,33.83,34.53,33.91,3757100,-0.003819,33.85,33.87,508346,34.33,,-0.003819,-0.013234,-0.013663
11955,20080215,4953,WMI,WASTE MANAGEMENT INC DEL,,33.18,33.85,33.51,2943700,-0.011796,33.51,33.52,508346,33.75,,-0.011796,-0.000498,-0.004099
11955,20080219,4953,WMI,WASTE MANAGEMENT INC DEL,,33.51,34.14,33.83,2572300,0.009549,33.8,33.81,508346,33.83,,0.009549,0.000535,0.002507
11955,20080220,4953,WMI,WASTE MANAGEMENT INC DEL,,33.35,34.01,33.89,2234100,0.001774,33.91,33.92,508346,33.6,,0.001774,0.008783,0.00497
11955,20080221,4953,WMI,WASTE MANAGEMENT INC DEL,,33.33,34.08,33.4,2616000,-0.014458,33.4,33.41,508346,34.08,,-0.014458,-0.012067,-0.009713
11955,20080222,4953,WMI,WASTE MANAGEMENT INC DEL,,33.09,33.92,33.88,2289300,0.014371,33.89,33.92,508346,33.5,,0.014371,0.006707,0.000367
11955,20080225,4953,WMI,WASTE MANAGEMENT INC DEL,,33.61,34.3,34.25,4047900,0.010921,34.22,34.23,508346,33.96,,0.010921,0.015038,0.013319
11955,20080226,4953,WMI,WASTE MANAGEMENT INC DEL,,34.07,34.64,34.44,3170500,0.005547,34.47,34.49,508346,34.15,,0.005547,0.008214,0.009566
11955,20080227,4953,WMI,WASTE MANAGEMENT INC DEL,,33.93,34.59,34.07,4009400,-0.010743,34.03,34.04,508346,34.45,,-0.010743,-0.000963,-0.000165
11955,20080228,4953,WMI,WASTE MANAGEMENT INC DEL,,33.67,34.01,33.83,3339200,-0.007044,33.82,33.84,508346,33.85,,-0.007044,-0.007812,-0.008768
11955,20080229,4953,WMI,WASTE MANAGEMENT INC DEL,2,32.75,33.73,32.83,3119000,-0.02956,32.88,32.92,495350,33.73,,-0.02956,-0.026168,-0.020187
11955,20080303,4953,WMI,WASTE MANAGEMENT INC DEL,,32.64,33.2,33.11,2913600,0.008529,33.14,33.16,495350,32.85,,0.008529,-0.000485,-0.005238
11955,20080304,4953,WMI,WASTE MANAGEMENT INC DEL,,32.77,33.27,33.03,3279300,-0.002416,33.03,33.04,495350,32.87,,-0.002416,-0.004804,-0.006747
11955,20080305,4953,WMI,WASTE MANAGEMENT INC DEL,,32.95,33.85,33.85,4160600,0.024826,33.83,33.84,495350,32.95,,0.024826,0.006594,0.003172
11955,20080306,4953,WMI,WASTE MANAGEMENT INC DEL,2,32.55,33.7,32.63,4212600,-0.028065,32.53,32.64,495350,33.59,,-0.036041,-0.022149,-0.021506
11955,20080307,4953,WMI,WASTE MANAGEMENT INC DEL,,32.25,32.89,32.53,4597000,-0.003065,32.56,32.59,495350,32.44,,-0.003065,-0.008779,-0.007707
11955,20080310,4953,WMI,WASTE MANAGEMENT INC DEL,,32.5,32.9,32.58,4282500,0.001537,32.62,32.67,495350,32.5,,0.001537,-0.01825,-0.020884
11955,20080311,4953,WMI,WASTE MANAGEMENT INC DEL,,32.83,33.86,33.47,3674700,0.027317,33.44,33.45,495350,33.25,,0.027317,0.035732,0.026985
11955,20080312,4953,WMI,WASTE MANAGEMENT INC DEL,,33.51,34,33.7,3769900,0.006872,33.66,33.67,495350,33.6,,0.006872,-0.00733,-0.00462
11955,20080313,4953,WMI,WASTE MANAGEMENT INC DEL,,33.06,33.63,33.44,4541700,-0.007715,33.41,33.42,495350,33.6,,-0.007715,0.007226,0.007298
11955,20080314,4953,WMI,WASTE MANAGEMENT INC DEL,,31.94,33.82,32.48,6238400,-0.028708,32.49,32.52,495350,33.72,,-0.028708,-0.020023,-0.018222
11955,20080317,4953,WMI,WASTE MANAGEMENT INC DEL,,31.89,33.39,33.06,5029600,0.017857,33,33.06,495350,32.14,,0.017857,-0.015035,-0.020983
11955,20080318,4953,WMI,WASTE MANAGEMENT INC DEL,,33.31,34.13,34.1,5730800,0.031458,34.08,34.1,495350,33.62,,0.031458,0.039537,0.028376
11955,20080319,4953,WMI,WASTE MANAGEMENT INC DEL,,33.05,34.46,33.06,3941000,-0.030498,33.05,33.07,495350,34.2,,-0.030498,-0.026107,-0.017168
11955,20080320,4953,WMI,WASTE MANAGEMENT INC DEL,,32.76,33.39,33.32,4463200,0.007864,33.28,33.35,495350,33.16,,0.007864,0.021158,0.014501
11955,20080324,4953,WMI,WASTE MANAGEMENT INC DEL,,33.32,33.92,33.76,3013200,0.013205,33.8,33.81,495350,33.5,,0.013205,0.017582,0.021668
11955,20080325,4953,WMI,WASTE MANAGEMENT INC DEL,,33.69,34.33,34.26,3322200,0.01481,34.24,34.26,495350,33.84,,0.01481,0.005698,0.010797
11955,20080326,4953,WMI,WASTE MANAGEMENT INC DEL,,33.96,34.5,34.45,3863400,0.005546,34.4,34.42,495350,34.15,,0.005546,-0.006485,-0.002807
11955,20080327,4953,WMI,WASTE MANAGEMENT INC DEL,,33.66,34.64,33.78,2657900,-0.019449,33.77,33.78,495350,34.47,,-0.019449,-0.010373,-0.004944
11955,20080328,4953,WMI,WASTE MANAGEMENT INC DEL,,33.77,34.17,33.85,2103300,0.002072,33.85,33.94,495350,34.05,,0.002072,-0.008038,-0.007315
11955,20080331,4953,WMI,WASTE MANAGEMENT INC DEL,2,33.25,33.92,33.56,4043800,-0.008567,33.48,33.56,493865,33.79,,-0.008567,0.005286,0.005196
11955,20080401,4953,WMI,WASTE MANAGEMENT INC DEL,,33.7,34.38,34.31,3558000,0.022348,34.27,34.28,493865,33.79,,0.022348,0.032086,0.020874
11955,20080402,4953,WMI,WASTE MANAGEMENT INC DEL,,34.3,34.9,34.73,3122900,0.012241,34.67,34.7,493865,34.44,,0.012241,0.000222,0.003193
11955,20080403,4953,WMI,WASTE MANAGEMENT INC DEL,,34.42,34.88,34.78,2127200,0.00144,34.7,34.76,493865,34.73,,0.00144,0.002665,0.001693
11955,20080404,4953,WMI,WASTE MANAGEMENT INC DEL,,34.34,34.97,34.83,2035000,0.001438,34.86,34.87,493865,34.88,,0.001438,0.00195,0.002778
11955,20080407,4953,WMI,WASTE MANAGEMENT INC DEL,,34.59,34.98,34.86,1805400,0.000861,34.85,34.86,493865,34.98,,0.000861,0.001712,0.0018
11955,20080408,4953,WMI,WASTE MANAGEMENT INC DEL,,34.5,34.95,34.82,1923900,-0.001147,34.83,34.84,493865,34.68,,-0.001147,-0.003404,-0.002727
11955,20080409,4953,WMI,WASTE MANAGEMENT INC DEL,,34.12,34.96,34.29,2127600,-0.015221,34.29,34.3,493865,34.9,,-0.015221,-0.009046,-0.011542
11955,20080410,4953,WMI,WASTE MANAGEMENT INC DEL,,33.88,34.3,34.17,1969300,-0.0035,34.07,34.17,493865,34.23,,-0.0035,0.005403,0.005008
11955,20080411,4953,WMI,WASTE MANAGEMENT INC DEL,,33.55,34.08,33.8,2839300,-0.010828,33.83,33.85,493865,33.62,,-0.010828,-0.019628,-0.01591
11955,20080414,4953,WMI,WASTE MANAGEMENT INC DEL,,33.33,34.17,33.91,1304600,0.003254,33.84,33.94,493865,33.72,,0.003254,-0.002586,-0.004434
11955,20080415,4953,WMI,WASTE MANAGEMENT INC DEL,,33.89,34.35,33.99,2162200,0.002359,33.98,34,493865,34.01,,0.002359,0.005073,0.002118
11955,20080416,4953,WMI,WASTE MANAGEMENT INC DEL,,34.3,35.03,35.03,3810600,0.030597,35,35.01,493865,34.34,,0.030597,0.024085,0.017852
11955,20080417,4953,WMI,WASTE MANAGEMENT INC DEL,,34.67,35.05,34.9,1874500,-0.003711,34.92,34.94,493865,34.99,,-0.003711,-0.001228,-0.002075
11955,20080418,4953,WMI,WASTE MANAGEMENT INC DEL,,35.17,35.91,35.76,2952400,0.024642,35.72,35.74,493865,35.29,,0.024642,0.016548,0.012443
11955,20080421,4953,WMI,WASTE MANAGEMENT INC DEL,,35.24,35.75,35.42,2180100,-0.009508,35.41,35.43,493865,35.64,,-0.009508,-0.000578,-0.001629
11955,20080422,4953,WMI,WASTE MANAGEMENT INC DEL,,34.89,35.43,35.1,1511500,-0.009034,35.09,35.12,493865,35.34,,-0.009034,-0.009319,-0.01285
11955,20080423,4953,WMI,WASTE MANAGEMENT INC DEL,,34.98,35.48,35.31,1580400,0.005983,35.29,35.3,493865,35.3,,0.005983,0.00111,0.002084
11955,20080424,4953,WMI,WASTE MANAGEMENT INC DEL,,35.015,35.66,35.35,2580700,0.001133,35.32,35.33,493865,35.43,,0.001133,0.005058,0.007845
11955,20080425,4953,WMI,WASTE MANAGEMENT INC DEL,,35.13,35.598,35.46,2261000,0.003112,35.5,35.52,493865,35.47,,0.003112,0.006915,0.005692
11955,20080428,4953,WMI,WASTE MANAGEMENT INC DEL,,35.25,35.77,35.37,1896300,-0.002538,35.4,35.41,493865,35.59,,-0.002538,0.000154,0.003586
11955,20080429,4953,WMI,WASTE MANAGEMENT INC DEL,,35.58,36.16,35.71,2162600,0.009613,35.77,35.79,493865,35.78,,0.009613,-0.005712,-0.004917
11955,20080430,4953,WMI,WASTE MANAGEMENT INC DEL,2,35.82,36.65,36.1,3355000,0.010921,36.03,36.04,490678,35.85,,0.010921,-0.001607,0.00166
11955,20080501,4953,WMI,WASTE MANAGEMENT INC DEL,,36.12,36.89,36.58,3143800,0.013296,36.6,36.63,490678,36.12,,0.013296,0.01437,0.010829
11955,20080502,4953,WMI,WASTE MANAGEMENT INC DEL,,36.31,36.96,36.64,1695400,0.00164,36.59,36.61,490678,36.69,,0.00164,0.00324,0.000327
11955,20080505,4953,WMI,WASTE MANAGEMENT INC DEL,,36.17,36.7,36.24,2027700,-0.010917,36.26,36.28,490678,36.7,,-0.010917,-0.002711,-0.001239
11955,20080506,4953,WMI,WASTE MANAGEMENT INC DEL,,35.81,36.45,36.43,2296900,0.005243,36.4,36.42,490678,36.25,,0.005243,0.008366,0.006164
11955,20080507,4953,WMI,WASTE MANAGEMENT INC DEL,,36.28,36.92,36.28,3187900,-0.004118,36.3,36.33,490678,36.52,,-0.004118,-0.016185,-0.011755
11955,20080508,4953,WMI,WASTE MANAGEMENT INC DEL,,36.3,36.915,36.67,2141300,0.01075,36.65,36.75,490678,36.45,,0.01075,0.004532,0.001917
11955,20080509,4953,WMI,WASTE MANAGEMENT INC DEL,,36,36.64,36.43,1911400,-0.006545,36.39,36.4,490678,36.64,,-0.006545,-0.004717,-0.000676
11955,20080512,4953,WMI,WASTE MANAGEMENT INC DEL,,36.26,36.9,36.9,1140200,0.012901,36.87,36.88,490678,36.6,,0.012901,0.010944,0.010765
11955,20080513,4953,WMI,WASTE MANAGEMENT INC DEL,,36.53,37.156,36.81,1487500,-0.002439,36.82,36.91,490678,36.9,,-0.002439,0.000545,0.002291
11955,20080514,4953,WMI,WASTE MANAGEMENT INC DEL,,36.81,37.58,37.41,2017900,0.0163,37.38,37.39,490678,37.04,,0.0163,0.00289,0.00187
11955,20080515,4953,WMI,WASTE MANAGEMENT INC DEL,,37.14,37.49,37.48,2144600,0.001871,37.44,37.46,490678,37.31,,0.001871,0.011029,0.008057
11955,20080516,4953,WMI,WASTE MANAGEMENT INC DEL,,37.01,37.65,37.43,1567400,-0.001334,37.39,37.4,490678,37.5,,-0.001334,0.002414,0.001076
11955,20080519,4953,WMI,WASTE MANAGEMENT INC DEL,,36.6,37.31,36.76,2696500,-0.0179,36.75,36.77,490678,37.3,,-0.0179,-0.000322,-0.000502
11955,20080520,4953,WMI,WASTE MANAGEMENT INC DEL,,36.52,36.91,36.8,1953800,0.001088,36.83,36.84,490678,36.66,,0.001088,-0.005988,-0.003529
11955,20080521,4953,WMI,WASTE MANAGEMENT INC DEL,,36.4235,37.06,36.65,2967500,-0.004076,36.6,36.69,490678,36.76,,-0.004076,-0.015421,-0.009184
11955,20080522,4953,WMI,WASTE MANAGEMENT INC DEL,,36.58,37.21,37,1712000,0.00955,37.01,37.07,490678,36.76,,0.00955,0.002786,0.003248
11955,20080523,4953,WMI,WASTE MANAGEMENT INC DEL,,36.53,37.3,37.02,3301800,0.000541,37.03,37.04,490678,36.9,,0.000541,-0.011557,-0.007309
11955,20080527,4953,WMI,WASTE MANAGEMENT INC DEL,,36.75,37.55,37.4,6260800,0.010265,37.41,37.43,490678,36.96,,0.010265,0.004893,0.006116
11955,20080528,4953,WMI,WASTE MANAGEMENT INC DEL,,37.14,37.579,37.38,1968800,-0.000535,37.42,37.43,490678,37.36,,-0.000535,0.005529,0.003347
11955,20080529,4953,WMI,WASTE MANAGEMENT INC DEL,2,36.78,37.8,37.51,4639100,0.010701,37.48,37.61,490678,37.23,,0.003478,0.004276,0.005167
11955,20080530,4953,WMI,WASTE MANAGEMENT INC DEL,2,37.43,38,37.93,4608800,0.011197,37.84,37.86,490678,37.51,,0.011197,0.003063,0.004872
11955,20080602,4953,WMI,WASTE MANAGEMENT INC DEL,,37.52,38,37.76,4412600,-0.004482,37.78,37.83,490678,37.79,,-0.004482,-0.009077,-0.008391
11955,20080603,4953,WMI,WASTE MANAGEMENT INC DEL,,37.66,38.15,37.9,5357700,0.003708,37.87,37.88,490678,37.92,,0.003708,-0.00488,-0.001854
11955,20080604,4953,WMI,WASTE MANAGEMENT INC DEL,,37.78,38.5,38.03,4475900,0.00343,38.07,38.08,490678,37.85,,0.00343,-0.001235,0.001266
11955,20080605,4953,WMI,WASTE MANAGEMENT INC DEL,,37.83,38.54,38.49,4697700,0.012096,38.43,38.44,490678,38.02,,0.012096,0.020182,0.014676
11955,20080606,4953,WMI,WASTE MANAGEMENT INC DEL,,37.67,38.26,37.71,4799800,-0.020265,37.67,37.7,490678,38.26,,-0.020265,-0.026786,-0.019893
11955,20080609,4953,WMI,WASTE MANAGEMENT INC DEL,,37.81,38.45,38.21,5955800,0.013259,38.13,38.21,490678,37.81,,0.013259,-0.000607,-0.007792
11955,20080610,4953,WMI,WASTE MANAGEMENT INC DEL,,37.89,38.65,38.31,5205100,0.002617,38.28,38.3,490678,38.07,,0.002617,-0.005005,-0.005391
11955,20080611,4953,WMI,WASTE MANAGEMENT INC DEL,,36.91,38.25,36.95,6657400,-0.0355,36.92,36.94,490678,38.01,,-0.0355,-0.015416,-0.0153
11955,20080612,4953,WMI,WASTE MANAGEMENT INC DEL,,36.95,38.22,37.86,4897300,0.024628,37.86,37.87,490678,36.95,,0.024628,0.00133,0.000751
11955,20080613,4953,WMI,WASTE MANAGEMENT INC DEL,,37.72,39.1,39.06,5826700,0.031696,39.08,39.1,490678,38.07,,0.031696,0.014676,0.012188
11955,20080616,4953,WMI,WASTE MANAGEMENT INC DEL,,38.115,38.79,38.47,4595400,-0.015105,38.37,38.49,490678,38.59,,-0.015105,0.00327,0.0054
11955,20080617,4953,WMI,WASTE MANAGEMENT INC DEL,,38.45,39.05,38.55,4626400,0.002079,38.53,38.54,490678,38.7,,0.002079,-0.00395,-0.00434
11955,20080618,4953,WMI,WASTE MANAGEMENT INC DEL,,38.25,39.18,38.95,5784100,0.010376,39,38.99,490678,38.25,,0.010376,-0.008296,-0.008457
11955,20080619,4953,WMI,WASTE MANAGEMENT INC DEL,,38.57,39.25,39.1,4400900,0.003851,39.07,39.11,490678,38.95,,0.003851,0.002225,0.002649
11955,20080620,4953,WMI,WASTE MANAGEMENT INC DEL,,38.18,39.16,38.3,3854900,-0.02046,38.32,38.34,490678,39.15,,-0.02046,-0.01753,-0.013931
11955,20080623,4953,WMI,WASTE MANAGEMENT INC DEL,,37.88,38.87,38.58,6503000,0.007311,38.62,38.63,490678,38.62,,0.007311,-0.000866,-0.0091
11955,20080624,4953,WMI,WASTE MANAGEMENT INC DEL,,37.89,38.79,38.04,6532100,-0.013997,38.09,38.11,490678,38.46,,-0.013997,-0.006253,-0.009897
11955,20080625,4953,WMI,WASTE MANAGEMENT INC DEL,,38.41,38.99,38.7,6599400,0.01735,38.65,38.78,490678,38.43,,0.01735,0.006097,0.007233
11955,20080626,4953,WMI,WASTE MANAGEMENT INC DEL,,37.3,38.4,37.38,2960600,-0.034109,37.4,37.41,490678,38.16,,-0.034109,-0.026496,-0.019562
11955,20080627,4953,WMI,WASTE MANAGEMENT INC DEL,,37.03,37.68,37.24,4266900,-0.003745,37.22,37.22,490678,37.34,,-0.003745,-0.002526,-0.005772
11955,20080630,4953,WMI,WASTE MANAGEMENT INC DEL,2,37.07,38,37.71,7101700,0.012621,37.64,37.78,490678,37.29,,0.012621,-0.00105,-0.005719
11955,20080701,4953,WMI,WASTE MANAGEMENT INC DEL,,36.55,37.19,37.06,4840600,-0.017237,37.06,37.07,490678,37.04,,-0.017237,0.001689,-0.006391
11955,20080702,4953,WMI,WASTE MANAGEMENT INC DEL,,36.28,37.34,36.35,3651800,-0.019158,36.36,36.48,490678,37.25,,-0.019158,-0.021045,-0.018159
11955,20080703,4953,WMI,WASTE MANAGEMENT INC DEL,,36.31,36.9,36.46,2700000,0.003026,36.39,36.43,490678,36.53,,0.003026,-0.002429,-0.006075
11955,20080707,4953,WMI,WASTE MANAGEMENT INC DEL,,35.5,36.68,36.02,3769500,-0.012068,35.95,35.96,490678,36.68,,-0.012068,-0.008618,-0.011669
11955,20080708,4953,WMI,WASTE MANAGEMENT INC DEL,,35.73,36.59,36.54,3228500,0.014436,36.54,36.6,490678,35.98,,0.014436,0.016773,0.018279
11955,20080709,4953,WMI,WASTE MANAGEMENT INC DEL,,36.23,37.08,36.49,3325800,-0.001368,36.51,36.54,490678,36.54,,-0.001368,-0.019455,-0.01426
11955,20080710,4953,WMI,WASTE MANAGEMENT INC DEL,,36.33,37.05,36.97,3439800,0.013154,36.98,37.04,490678,36.57,,0.013154,0.007645,0.002266
11955,20080711,4953,WMI,WASTE MANAGEMENT INC DEL,,36.25,36.96,36.61,3660900,-0.009738,36.64,36.64,490678,36.6,,-0.009738,-0.008381,-0.003414
11955,20080714,4953,WMI,WASTE MANAGEMENT INC DEL,,34.05,36.32,34.49,10344300,-0.057908,34.5,34.49,490678,35.75,,-0.057908,-0.008219,-0.012361
11955,20080715,4953,WMI,WASTE MANAGEMENT INC DEL,,33.34,34.93,34.68,9783900,0.005509,34.71,34.74,490678,34.89,,0.005509,-0.011511,-0.009229
11955,20080716,4953,WMI,WASTE MANAGEMENT INC DEL,,34.32,35.35,35.28,5112900,0.017301,35.28,35.29,490678,34.67,,0.017301,0.023954,0.026472
11955,20080717,4953,WMI,WASTE MANAGEMENT INC DEL,,34.71,35.62,35.56,4970400,0.007937,35.5,35.55,490678,35.15,,0.007937,0.009637,0.016398
11955,20080718,4953,WMI,WASTE MANAGEMENT INC DEL,,34.9,35.6,35.51,5009400,-0.001406,35.47,35.49,490678,35.29,,-0.001406,0.000346,0.000861
11955,20080721,4953,WMI,WASTE MANAGEMENT INC DEL,,35.35,36.14,35.87,3704200,0.010138,35.87,35.88,490678,35.47,,0.010138,0.003955,0.0069
11955,20080722,4953,WMI,WASTE MANAGEMENT INC DEL,,35.49,36.72,36.56,4008800,0.019236,36.57,36.59,490678,35.49,,0.019236,0.011076,0.015126
11955,20080723,4953,WMI,WASTE MANAGEMENT INC DEL,,36.34,36.95,36.75,4609800,0.005197,36.71,36.72,490678,36.68,,0.005197,0.001821,0.006569
11955,20080724,4953,WMI,WASTE MANAGEMENT INC DEL,,35.99,36.92,36.03,3489200,-0.019592,36.04,36.05,490678,36.62,,-0.019592,-0.024336,-0.018647
11955,20080725,4953,WMI,WASTE MANAGEMENT INC DEL,,35.66,36.23,35.75,2951500,-0.007771,35.7,35.72,490678,36.05,,-0.007771,0.005536,0.006369
11955,20080728,4953,WMI,WASTE MANAGEMENT INC DEL,,34.8,35.65,35.07,6444000,-0.019021,35.15,35.17,490678,35.65,,-0.019021,-0.016527,-0.013761
11955,20080729,4953,WMI,WASTE MANAGEMENT INC DEL,,34.96,36.3999,35.92,3438600,0.024237,35.92,35.97,490678,36,,0.024237,0.021117,0.016734
11955,20080730,4953,WMI,WASTE MANAGEMENT INC DEL,,35.51,36.16,35.8,3122800,-0.003341,35.76,35.79,490678,36.07,,-0.003341,0.016377,0.006677
11955,20080731,4953,WMI,WASTE MANAGEMENT INC DEL,2,35.47,36.06,35.54,3414000,-0.007263,35.52,35.54,490463,35.87,,-0.007263,-0.011859,-0.002778
11955,20080801,4953,WMI,WASTE MANAGEMENT INC DEL,,35.37,36.02,35.67,3437300,0.003658,35.63,35.64,490463,36.02,,0.003658,-0.005198,-0.000741
11955,20080804,4953,WMI,WASTE MANAGEMENT INC DEL,,35.55,36.34,35.99,4059600,0.008971,35.97,35.98,490463,35.59,,0.008971,-0.013405,-0.012228
11955,20080805,4953,WMI,WASTE MANAGEMENT INC DEL,,35.75,36.67,36.22,3499900,0.006391,36.22,36.24,490463,36.23,,0.006391,0.024378,0.013398
11955,20080806,4953,WMI,WASTE MANAGEMENT INC DEL,,34.92,36.12,35.34,4989800,-0.024296,35.37,35.39,490463,36.12,,-0.024296,0.005406,0.006504
11955,20080807,4953,WMI,WASTE MANAGEMENT INC DEL,,34.83,35.42,35.01,3841100,-0.009338,35.03,35.04,490463,35.12,,-0.009338,-0.016912,-0.012611
11955,20080808,4953,WMI,WASTE MANAGEMENT INC DEL,,35.01,36.04,36.01,3251900,0.028563,35.99,36.01,490463,35.03,,0.028563,0.019173,0.015813
11955,20080811,4953,WMI,WASTE MANAGEMENT INC DEL,,35.67,36.73,36.11,3045200,0.002777,36.08,36.1,490463,35.78,,0.002777,0.006503,0.01065
11955,20080812,4953,WMI,WASTE MANAGEMENT INC DEL,,35.12,36.28,35.38,3161200,-0.020216,35.39,35.4,490463,36.28,,-0.020216,-0.009666,-0.005693
11955,20080813,4953,WMI,WASTE MANAGEMENT INC DEL,,35,35.64,35.22,2421800,-0.004522,35.18,35.19,490463,35.27,,-0.004522,-0.00044,0.002201
11955,20080814,4953,WMI,WASTE MANAGEMENT INC DEL,,34.21,35.68,34.61,4289000,-0.01732,34.6,34.61,490463,35.05,,-0.01732,0.00503,0.006533
11955,20080815,4953,WMI,WASTE MANAGEMENT INC DEL,,34.25,34.93,34.78,3824700,0.004912,34.76,34.78,490463,34.44,,0.004912,0.001245,-0.000882
11955,20080818,4953,WMI,WASTE MANAGEMENT INC DEL,,34.81,35.29,34.98,2247000,0.00575,34.99,35,490463,35,,0.00575,-0.013473,-0.00993
11955,20080819,4953,WMI,WASTE MANAGEMENT INC DEL,,34.31,35.11,34.44,2566400,-0.015437,34.44,34.45,490463,34.83,,-0.015437,-0.008943,-0.011751
11955,20080820,4953,WMI,WASTE MANAGEMENT INC DEL,,34.2,34.75,34.62,2336900,0.005226,34.67,34.7,490463,34.57,,0.005226,0.006771,0.002565
11955,20080821,4953,WMI,WASTE MANAGEMENT INC DEL,,33.6,34.77,34.68,2217400,0.001733,34.63,34.65,490463,34.65,,0.001733,0.00314,-0.00224
11955,20080822,4953,WMI,WASTE MANAGEMENT INC DEL,,34.9,35.37,35.2,1592500,0.014994,35.15,35.17,490463,34.9,,0.014994,0.009437,0.009536
11955,20080825,4953,WMI,WASTE MANAGEMENT INC DEL,,34.69,35.22,34.74,2230800,-0.013068,34.76,34.77,490463,35.07,,-0.013068,-0.01855,-0.015117
11955,20080826,4953,WMI,WASTE MANAGEMENT INC DEL,,34.14,34.98,34.84,2213400,0.002878,34.81,34.84,490463,34.51,,0.002878,0.003549,0.00287
11955,20080827,4953,WMI,WASTE MANAGEMENT INC DEL,,34.63,35.11,34.9,1683600,0.001722,34.88,34.9,490463,34.71,,0.001722,0.009412,0.00805
11955,20080828,4953,WMI,WASTE MANAGEMENT INC DEL,2,34.72,35.39,35.27,1764300,0.018338,35.27,35.28,490463,34.72,,0.010602,0.014185,0.013313
11955,20080829,4953,WMI,WASTE MANAGEMENT INC DEL,2,35.04,35.47,35.18,1954700,-0.002552,35.13,35.14,490463,35.16,,-0.002552,-0.011719,-0.003495
11955,20080902,4953,WMI,WASTE MANAGEMENT INC DEL,,35.16,36.31,35.37,2466000,0.005401,35.38,35.46,490463,35.41,,0.005401,-0.007076,-0.003574
11955,20080903,4953,WMI,WASTE MANAGEMENT INC DEL,,34.81,35.3,35.01,4714500,-0.010178,34.97,34.98,490463,35.29,,-0.010178,-0.003312,-0.000519
11955,20080904,4953,WMI,WASTE MANAGEMENT INC DEL,,34.28,35.09,34.28,3570700,-0.020851,34.29,34.31,490463,34.835,,-0.020851,-0.028948,-0.021621
11955,20080905,4953,WMI,WASTE MANAGEMENT INC DEL,,34.01,34.97,34.89,3576700,0.017795,34.85,34.86,490463,34.08,,0.017795,0.003797,-0.000339
11955,20080908,4953,WMI,WASTE MANAGEMENT INC DEL,,34.93,35.91,35.35,3280600,0.013184,35.34,35.35,490463,35.53,,0.013184,0.014721,0.007628
11955,20080909,4953,WMI,WASTE MANAGEMENT INC DEL,,34.4,35.59,34.42,2378800,-0.026308,34.43,34.46,490463,35.43,,-0.026308,-0.034941,-0.028945
11955,20080910,4953,WMI,WASTE MANAGEMENT INC DEL,,34.17,35.06,34.78,2692400,0.010459,34.75,34.76,490463,34.78,,0.010459,0.008484,0.003445
11955,20080911,4953,WMI,WASTE MANAGEMENT INC DEL,,34.2,35.02,34.99,2636300,0.006038,34.97,35.02,490463,34.6,,0.006038,0.010642,-0.003328
11955,20080912,4953,WMI,WASTE MANAGEMENT INC DEL,,34.58,35.45,35.32,2916000,0.009431,35.28,35.3,490463,34.85,,0.009431,0.005322,0.004843
11955,20080915,4953,WMI,WASTE MANAGEMENT INC DEL,,34.48,35.5,34.79,2797300,-0.015006,34.83,34.89,490463,34.75,,-0.015006,-0.045674,-0.039367
11955,20080916,4953,WMI,WASTE MANAGEMENT INC DEL,,33.28,34.84,34.56,5016300,-0.006611,34.54,34.54,490463,34.36,,-0.006611,0.015157,0.003354
11955,20080917,4953,WMI,WASTE MANAGEMENT INC DEL,,33.2,34.5,33.86,4671800,-0.020255,33.89,33.92,490463,33.98,,-0.020255,-0.045503,-0.040954
11955,20080918,4953,WMI,WASTE MANAGEMENT INC DEL,,33.32,34.48,34.09,5312500,0.006793,33.94,34.13,490463,34.11,,0.006793,0.043916,0.041432
11955,20080919,4953,WMI,WASTE MANAGEMENT INC DEL,,33.49,36.16,34.91,4278800,0.024054,34.88,34.9,490463,35.2,,0.024054,0.04599,0.04939
11955,20080922,4953,WMI,WASTE MANAGEMENT INC DEL,,34.25,35.15,34.41,2730100,-0.014323,34.46,34.47,490463,34.85,,-0.014323,-0.036817,-0.026898
11955,20080923,4953,WMI,WASTE MANAGEMENT INC DEL,,32.86,34.4,33.01,3868300,-0.040686,33,33.01,490463,34.4,,-0.040686,-0.015644,-0.012863
11955,20080924,4953,WMI,WASTE MANAGEMENT INC DEL,,32.4,33.35,32.86,2547500,-0.004544,32.71,32.97,490463,33.19,,-0.004544,-0.003315,-0.00926
11955,20080925,4953,WMI,WASTE MANAGEMENT INC DEL,,33.01,33.68,33.38,2366900,0.015825,33.38,33.4,490463,33.4,,0.015825,0.016532,0.008804
11955,20080926,4953,WMI,WASTE MANAGEMENT INC DEL,,32.44,33.38,33.29,2461800,-0.002696,33.31,33.32,490463,32.98,,-0.002696,-0.002251,-0.008583
11955,20080929,4953,WMI,WASTE MANAGEMENT INC DEL,,31.05,33.43,31.5,4713900,-0.05377,31.2,32.21,490463,33.05,,-0.05377,-0.082589,-0.061315
11955,20080930,4953,WMI,WASTE MANAGEMENT INC DEL,2,31.2,32.09,31.49,5263200,-0.000317,31.49,31.5,490463,32.05,,-0.000317,0.046616,0.027735
11955,20081001,4953,WMI,WASTE MANAGEMENT INC DEL,,30.5,31.5,31.04,5193600,-0.01429,31,31.02,490463,31.42,,-0.01429,-0.005829,-0.004764
11955,20081002,4953,WMI,WASTE MANAGEMENT INC DEL,,30.49,31.9,31.58,5871500,0.017397,31.56,31.66,490463,30.8,,0.017397,-0.045779,-0.039139
11955,20081003,4953,WMI,WASTE MANAGEMENT INC DEL,,32.09,33.43,32.21,6597000,0.019949,32.12,32.2,490463,32.12,,0.019949,-0.014335,-0.016903
11955,20081006,4953,WMI,WASTE MANAGEMENT INC DEL,,30.11,32.39,31.39,5735900,-0.025458,31.4,31.44,490463,31.86,,-0.025458,-0.04243,-0.059337
11955,20081007,4953,WMI,WASTE MANAGEMENT INC DEL,,29.75,31.89,29.78,4531400,-0.05129,29.76,29.83,490463,31.78,,-0.05129,-0.057914,-0.047041
11955,20081008,4953,WMI,WASTE MANAGEMENT INC DEL,,28.68,30.52,28.96,6545300,-0.027535,28.92,28.93,490463,29.29,,-0.027535,-0.012011,-0.026977
11955,20081009,4953,WMI,WASTE MANAGEMENT INC DEL,,27.33,29.71,27.33,6106400,-0.056285,27.51,27.52,490463,29.18,,-0.056285,-0.072775,-0.063757
11955,20081010,4953,WMI,WASTE MANAGEMENT INC DEL,,24.51,27.97,25.76,10187400,-0.057446,26.16,26.18,490463,26.4,,-0.057446,-0.01221,-0.006893
11955,20081013,4953,WMI,WASTE MANAGEMENT INC DEL,,27.28,30.51,30.39,7631300,0.179736,30.19,30.25,490463,28.37,,0.179736,0.114836,0.107335
11955,20081014,4953,WMI,WASTE MANAGEMENT INC DEL,,29.923,32.97,31.08,7530200,0.022705,30.81,31.07,490463,32.64,,0.022705,-0.009051,-0.001721
11955,20081015,4953,WMI,WASTE MANAGEMENT INC DEL,,29.51,31,30.06,6556300,-0.032819,30.03,30.04,490463,31,,-0.032819,-0.089842,-0.070866
11955,20081016,4953,WMI,WASTE MANAGEMENT INC DEL,,28.57,32.33,29.89,7184300,-0.005655,29.85,29.86,490463,30.04,,-0.005655,0.039611,0.02952
11955,20081017,4953,WMI,WASTE MANAGEMENT INC DEL,,28.85,31.1,29.78,4907500,-0.00368,29.73,29.75,490463,29.3,,-0.00368,-0.002498,0.001614
11955,20081020,4953,WMI,WASTE MANAGEMENT INC DEL,,29.79,31.93,31.75,4408300,0.066152,31.77,31.98,490463,30.25,,0.066152,0.046506,0.035473
11955,20081021,4953,WMI,WASTE MANAGEMENT INC DEL,,30.45,31.65,30.6,3023100,-0.03622,30.57,30.58,490463,31.5,,-0.03622,-0.031481,-0.02072
11955,20081022,4953,WMI,WASTE MANAGEMENT INC DEL,,28.88,30.56,29.35,5316300,-0.04085,29.44,29.48,490463,30.06,,-0.04085,-0.059264,-0.048986
11955,20081023,4953,WMI,WASTE MANAGEMENT INC DEL,,27.82,30.6699,29.23,5609700,-0.004089,28.77,29.22,490463,29.54,,-0.004089,0.000813,-0.020324
11955,20081024,4953,WMI,WASTE MANAGEMENT INC DEL,,27,29,28.13,3630800,-0.037633,28.13,28.14,490463,27.48,,-0.037633,-0.033449,-0.031311
11955,20081027,4953,WMI,WASTE MANAGEMENT INC DEL,,26.71,28.29,26.71,3587200,-0.05048,26.73,26.75,490463,27.88,,-0.05048,-0.036947,-0.035395
11955,20081028,4953,WMI,WASTE MANAGEMENT INC DEL,,26.14,28.85,28.83,4909600,0.079371,28.77,28.8,490463,27.5,,0.079371,0.095262,0.050347
11955,20081029,4953,WMI,WASTE MANAGEMENT INC DEL,,28.46,31.46,29.6,6246700,0.026708,29.54,29.84,490463,28.46,,0.026708,0.001199,0.021377
11955,20081030,4953,WMI,WASTE MANAGEMENT INC DEL,,30.12,31.69,31.44,4033100,0.062162,30.81,31.42,490463,30.99,,0.062162,0.031799,0.03553
11955,20081031,4953,WMI,WASTE MANAGEMENT INC DEL,2,30.41,32.13,31.23,4296800,-0.006679,31.16,31.36,490571,31.49,,-0.006679,0.018079,0.033871
11955,20081103,4953,WMI,WASTE MANAGEMENT INC DEL,,30.56,31.65,30.87,2722700,-0.011527,30.82,30.87,490571,31.2,,-0.011527,-0.000679,0.008574
11955,20081104,4953,WMI,WASTE MANAGEMENT INC DEL,,31.42,32.8,32.74,4001500,0.060577,32.65,32.71,490571,31.62,,0.060577,0.038976,0.026518
11955,20081105,4953,WMI,WASTE MANAGEMENT INC DEL,,30.98,32.67,31.21,3960500,-0.046732,31.19,31.21,490571,32.36,,-0.046732,-0.051195,-0.03761
11955,20081106,4953,WMI,WASTE MANAGEMENT INC DEL,,29.3,31.68,29.53,5402000,-0.053829,29.51,29.53,490571,30.54,,-0.053829,-0.049316,-0.038225
11955,20081107,4953,WMI,WASTE MANAGEMENT INC DEL,,29.48,30.59,30.59,5938600,0.035896,30.52,30.53,490571,29.8,,0.035896,0.026164,0.014395
11955,20081110,4953,WMI,WASTE MANAGEMENT INC DEL,,30.29,31.59,30.68,3285100,0.002942,30.63,30.66,490571,30.8,,0.002942,-0.013397,-0.019251
11955,20081111,4953,WMI,WASTE MANAGEMENT INC DEL,,29.26,30.87,30.26,3227600,-0.01369,30.27,30.28,490571,30.32,,-0.01369,-0.024388,-0.028206
11955,20081112,4953,WMI,WASTE MANAGEMENT INC DEL,,29.09,30.18,29.24,3667600,-0.033708,29.24,29.3,490571,29.76,,-0.033708,-0.053998,-0.054534
11955,20081113,4953,WMI,WASTE MANAGEMENT INC DEL,,28.18,31.34,31.33,6235600,0.071477,30.72,31.31,490571,29.36,,0.071477,0.067871,0.048289
11955,20081114,4953,WMI,WASTE MANAGEMENT INC DEL,,30.72,32.72,31.2,5708400,-0.004149,31.23,31.24,490571,31.03,,-0.004149,-0.043809,-0.039664
11955,20081117,4953,WMI,WASTE MANAGEMENT INC DEL,,29.6,30.87,30.03,5918700,-0.0375,30,30.02,490571,30.87,,-0.0375,-0.024027,-0.022115
11955,20081118,4953,WMI,WASTE MANAGEMENT INC DEL,,29.73,31.39,31.39,5520300,0.045288,31.25,31.3,490571,30.03,,0.045288,0.005539,-0.010832
11955,20081119,4953,WMI,WASTE MANAGEMENT INC DEL,,29.68,31.6,29.73,5413500,-0.052883,29.71,29.74,490571,31.35,,-0.052883,-0.064102,-0.064622
11955,20081120,4953,WMI,WASTE MANAGEMENT INC DEL,,28.68,30.88,29,7576100,-0.024554,28.77,29.16,490571,29.45,,-0.024554,-0.070146,-0.067122
11955,20081121,4953,WMI,WASTE MANAGEMENT INC DEL,,28,29.78,29.69,7714300,0.023793,29.72,29.74,490571,29.55,,0.023793,0.060934,0.033422
11955,20081124,4953,WMI,WASTE MANAGEMENT INC DEL,,29.45,30.8412,30.37,5556000,0.022903,30.2,30.33,490571,30.26,,0.022903,0.06607,0.063574
11955,20081125,4953,WMI,WASTE MANAGEMENT INC DEL,,28.7,31.47,29.93,6732600,-0.014488,29.87,29.99,490571,30.96,,-0.014488,0.009516,0.015273
11955,20081126,4953,WMI,WASTE MANAGEMENT INC DEL,2,27.61,29.5,28.37,7414800,-0.043101,28.33,28.34,490571,28.99,,-0.052122,0.038034,0.051933
11955,20081128,4953,WMI,WASTE MANAGEMENT INC DEL,2,28.29,29.29,29.2,1980900,0.029256,29.13,29.14,490571,28.29,,0.029256,0.010075,0.019966
11955,20081201,4953,WMI,WASTE MANAGEMENT INC DEL,,27.48,29.01,27.56,5430800,-0.056164,27.55,27.58,490571,29.01,,-0.056164,-0.089446,-0.078335
11955,20081202,4953,WMI,WASTE MANAGEMENT INC DEL,,27.66,28.65,28.38,4776700,0.029753,28.39,28.42,490571,28.4,,0.029753,0.037575,0.035171
11955,20081203,4953,WMI,WASTE MANAGEMENT INC DEL,,28.02,29.94,29.69,7092700,0.046159,29.64,29.65,490571,28.16,,0.046159,0.023612,0.014519
11955,20081204,4953,WMI,WASTE MANAGEMENT INC DEL,,28.99,30.24,29.35,4774600,-0.011452,29.33,29.35,490571,29.24,,-0.011452,-0.030168,-0.021918
11955,20081205,4953,WMI,WASTE MANAGEMENT INC DEL,,27.97,29.75,29.7,4724900,0.011925,29.66,29.67,490571,28.71,,0.011925,0.036081,0.025995
11955,20081208,4953,WMI,WASTE MANAGEMENT INC DEL,,29.61,30.68,30.18,3372700,0.016162,30.12,30.13,490571,30,,0.016162,0.040252,0.0378
11955,20081209,4953,WMI,WASTE MANAGEMENT INC DEL,,29.86,30.9,30.15,3860500,-0.000994,30.09,30.11,490571,30.28,,-0.000994,-0.02238,-0.014945
11955,20081210,4953,WMI,WASTE MANAGEMENT INC DEL,,29.27,30.62,30.26,5445800,0.003648,30.18,30.3,490571,30.36,,0.003648,0.015014,0.021801
11955,20081211,4953,WMI,WASTE MANAGEMENT INC DEL,,29.33,30.45,29.46,3202900,-0.026438,29.41,29.46,490571,30.03,,-0.026438,-0.030236,-0.027158
11955,20081212,4953,WMI,WASTE MANAGEMENT INC DEL,,28.57,29.98,29.91,2988200,0.015275,29.85,29.9,490571,28.94,,0.015275,0.010463,0.017702
11955,20081215,4953,WMI,WASTE MANAGEMENT INC DEL,,29.7,31.01,30.17,2690600,0.008693,30.2,30.3,490571,31.01,,0.008693,-0.013903,-0.019502
11955,20081216,4953,WMI,WASTE MANAGEMENT INC DEL,,29.98,32.09,31.72,4500600,0.051376,31.68,31.7,490571,30.43,,0.051376,0.052815,0.046585
11955,20081217,4953,WMI,WASTE MANAGEMENT INC DEL,,30.81,31.89,31.42,3630900,-0.009458,31.42,31.44,490571,31.44,,-0.009458,-0.004899,0.010663
11955,20081218,4953,WMI,WASTE MANAGEMENT INC DEL,,30.83,32.19,31.24,3088600,-0.005729,31.2,31.24,490571,31.67,,-0.005729,-0.02057,-0.012006
11955,20081219,4953,WMI,WASTE MANAGEMENT INC DEL,,31.11,32.73,31.21,4234400,-0.00096,31.22,31.23,490571,32.73,,-0.00096,0.003762,0.003476
11955,20081222,4953,WMI,WASTE MANAGEMENT INC DEL,,30.83,31.54,31.49,2444100,0.008972,31.35,31.51,490571,30.93,,0.008972,-0.019253,-0.013129
11955,20081223,4953,WMI,WASTE MANAGEMENT INC DEL,,30.46,31.98,30.72,2467200,-0.024452,30.62,30.76,490571,31.69,,-0.024452,-0.007876,-0.008267
11955,20081224,4953,WMI,WASTE MANAGEMENT INC DEL,,30.59,31.14,30.9,610900,0.005859,30.84,30.87,490571,30.99,,0.005859,0.004067,0.004547
11955,20081226,4953,WMI,WASTE MANAGEMENT INC DEL,,30.68,31.38,30.96,799100,0.001942,30.9,30.93,490571,31.07,,0.001942,0.007159,0.010885
11955,20081229,4953,WMI,WASTE MANAGEMENT INC DEL,,30.51,31,30.83,1452000,-0.004199,30.78,30.8,490571,31,,-0.004199,-0.004742,-0.015756
11955,20081230,4953,WMI,WASTE MANAGEMENT INC DEL,,30.93,32.44,32.44,4204400,0.052222,32.38,32.43,490571,31.05,,0.052222,0.024607,0.021245
11955,20081231,4953,WMI,WASTE MANAGEMENT INC DEL,2,32.04,33.3,33.14,3970500,0.021578,33.08,33.12,490571,32.04,,0.021578,0.017386,0.034415
11955,20090102,4953,WMI,WASTE MANAGEMENT INC DEL,,32.73,33.96,33.78,3451400,0.019312,33.73,33.77,490571,33.1,,0.019312,0.0303,0.038221
11955,20090105,4953,WMI,WASTE MANAGEMENT INC DEL,,33.38,33.98,33.57,3217700,-0.006217,33.56,33.62,490571,33.7,,-0.006217,-0.000602,0.016737
11955,20090106,4953,WMI,WASTE MANAGEMENT INC DEL,,32.88,33.99,33.08,3423500,-0.014596,33.01,33.07,490571,33.83,,-0.014596,0.011287,0.03362
11955,20090107,4953,WMI,WASTE MANAGEMENT INC DEL,,32.42,33.06,32.57,4711900,-0.015417,32.53,32.66,490571,32.91,,-0.015417,-0.030862,-0.022326
11955,20090108,4953,WMI,WASTE MANAGEMENT INC DEL,,32.12,33.26,33.18,3163900,0.018729,33.16,33.17,490571,32.37,,0.018729,0.00625,0.011791
11955,20090109,4953,WMI,WASTE MANAGEMENT INC DEL,,32.62,33.66,32.73,3080800,-0.013562,32.72,32.73,490571,33.37,,-0.013562,-0.02242,-0.018761
11955,20090112,4953,WMI,WASTE MANAGEMENT INC DEL,,32.17,32.75,32.54,2892600,-0.005805,32.51,32.52,490571,32.72,,-0.005805,-0.025562,-0.026627
11955,20090113,4953,WMI,WASTE MANAGEMENT INC DEL,,32.04,32.53,32.32,3669200,-0.006761,32.26,32.3,490571,32.5,,-0.006761,0.00343,0.003321
11955,20090114,4953,WMI,WASTE MANAGEMENT INC DEL,,31.01,32.14,31.43,4011000,-0.027537,31.45,31.5,490571,32,,-0.027537,-0.035271,-0.035146
11955,20090115,4953,WMI,WASTE MANAGEMENT INC DEL,,30.5,32.41,32.39,5364200,0.030544,32.38,32.39,490571,30.65,,0.030544,0.004583,0.00556
11955,20090116,4953,WMI,WASTE MANAGEMENT INC DEL,,31.68,32.78,32.39,6339200,0,32.31,32.39,490571,32.78,,0,0.008429,0.008781
11955,20090120,4953,WMI,WASTE MANAGEMENT INC DEL,,31.42,32.47,31.54,4018800,-0.026243,31.56,31.57,490571,32.01,,-0.026243,-0.055283,-0.051546
11955,20090121,4953,WMI,WASTE MANAGEMENT INC DEL,,31.42,32.75,32.64,4354700,0.034876,32.63,32.65,490571,31.92,,0.034876,0.043054,0.036035
11955,20090122,4953,WMI,WASTE MANAGEMENT INC DEL,,31.24,32.77,32.57,4275900,-0.002145,32.55,32.59,490571,32.23,,-0.002145,-0.018295,-0.021994
11955,20090123,4953,WMI,WASTE MANAGEMENT INC DEL,,31.56,32.63,32.08,3906600,-0.015044,32.04,32.06,490571,32.01,,-0.015044,0.006841,0.003358
11955,20090126,4953,WMI,WASTE MANAGEMENT INC DEL,,32,33.07,32.58,3791700,0.015586,32.54,32.57,490571,32.1,,0.015586,0.006125,0.010055
11955,20090127,4953,WMI,WASTE MANAGEMENT INC DEL,,32.43,33,32.74,3320600,0.004911,32.75,32.76,490571,32.81,,0.004911,0.011294,0.010029
11955,20090128,4953,WMI,WASTE MANAGEMENT INC DEL,,32.51,33.4,32.84,3797300,0.003054,32.75,32.83,490571,33.24,,0.003054,0.033594,0.03037
11955,20090129,4953,WMI,WASTE MANAGEMENT INC DEL,,31.644,32.785,31.81,4323100,-0.031364,31.83,31.86,490571,32.66,,-0.031364,-0.032894,-0.028987
11955,20090130,4953,WMI,WASTE MANAGEMENT INC DEL,2,31,32.1,31.19,4091100,-0.019491,31.16,31.18,490571,32.06,,-0.019491,-0.02079,-0.012876
11955,20090202,4953,WMI,WASTE MANAGEMENT INC DEL,,29.9,31.16,30.26,5782100,-0.029817,30.23,30.24,490571,30.88,,-0.029817,-0.001103,0.001473
11955,20090203,4953,WMI,WASTE MANAGEMENT INC DEL,,29.8,30.75,30.64,4219500,0.012558,30.57,30.62,490571,30.5,,0.012558,0.01431,0.008913
11955,20090204,4953,WMI,WASTE MANAGEMENT INC DEL,,29.9,31.15,30,4782500,-0.020888,29.95,30.03,490571,30.83,,-0.020888,-0.005041,-0.004255
11955,20090205,4953,WMI,WASTE MANAGEMENT INC DEL,,29.14,30.02,29.48,6078400,-0.017333,29.42,29.5,490571,29.8,,-0.017333,0.015462,0.011872
11955,20090206,4953,WMI,WASTE MANAGEMENT INC DEL,,29.31,29.88,29.75,4393600,0.009159,29.69,29.72,490571,29.43,,0.009159,0.027644,0.026639
11955,20090209,4953,WMI,WASTE MANAGEMENT INC DEL,,29,30.02,29.5,4466900,-0.008403,29.48,29.5,490571,29.68,,-0.008403,0.001197,0.000726
11955,20090210,4953,WMI,WASTE MANAGEMENT INC DEL,,28.29,29.5,28.3,5109200,-0.040678,28.28,28.39,490571,29.31,,-0.040678,-0.046047,-0.035136
11955,20090211,4953,WMI,WASTE MANAGEMENT INC DEL,,28.32,29.03,28.45,4651700,0.0053,28.42,28.49,490571,28.5,,0.0053,0.006879,0.004182
11955,20090212,4953,WMI,WASTE MANAGEMENT INC DEL,,27.6,29.61,29.26,7120900,0.028471,29.23,29.24,490571,29.61,,0.028471,0.002453,-0.000841
11955,20090213,4953,WMI,WASTE MANAGEMENT INC DEL,,28.93,29.7,29.3,4481000,0.001367,29.31,29.31,490571,28.96,,0.001367,-0.008898,-0.002143
11955,20090217,4953,WMI,WASTE MANAGEMENT INC DEL,,27.84,29.15,28.63,5140300,-0.022867,28.63,28.68,490571,28.59,,-0.022867,-0.0454,-0.041936
11955,20090218,4953,WMI,WASTE MANAGEMENT INC DEL,,28.4,29.03,28.54,4861200,-0.003143,28.54,28.55,490571,28.63,,-0.003143,-0.003958,-0.011852
11955,20090219,4953,WMI,WASTE MANAGEMENT INC DEL,,28.31,28.92,28.4,3088500,-0.004905,28.37,28.4,490571,28.73,,-0.004905,-0.011584,-0.015205
11955,20090220,4953,WMI,WASTE MANAGEMENT INC DEL,,28,28.81,28.57,5185700,0.005986,28.54,28.55,490571,28.01,,0.005986,-0.011943,-0.020079
11955,20090223,4953,WMI,WASTE MANAGEMENT INC DEL,,27.45,28.93,27.54,5316700,-0.036052,27.55,27.57,490571,28.84,,-0.036052,-0.036197,-0.030867
11955,20090224,4953,WMI,WASTE MANAGEMENT INC DEL,,27.21,28.54,28.41,6275300,0.03159,28.36,28.38,490571,27.72,,0.03159,0.040176,0.037721
11955,20090225,4953,WMI,WASTE MANAGEMENT INC DEL,,27.72,28.7,27.97,4387300,-0.015488,27.95,27.97,490571,28.41,,-0.015488,-0.010877,-0.015701
11955,20090226,4953,WMI,WASTE MANAGEMENT INC DEL,,27.348,28.27,27.39,3501000,-0.020737,27.4,27.43,490571,28.2,,-0.020737,-0.012328,-0.00725
11955,20090227,4953,WMI,WASTE MANAGEMENT INC DEL,2,26.08,27.31,27,7557200,-0.014239,27.01,27.02,491462,27.14,,-0.014239,-0.019093,-0.010485
11955,20090302,4953,WMI,WASTE MANAGEMENT INC DEL,,25.79,26.83,25.81,6955300,-0.044074,25.81,25.85,491462,26.48,,-0.044074,-0.049856,-0.055772
11955,20090303,4953,WMI,WASTE MANAGEMENT INC DEL,,25,26.29,25.27,6899100,-0.020922,25.29,25.3,491462,25.5,,-0.020922,-0.006341,-0.013959
11955,20090304,4953,WMI,WASTE MANAGEMENT INC DEL,,24.5,25.72,24.61,7635800,-0.026118,24.62,24.63,491462,25.525,,-0.026118,0.025591,0.029521
11955,20090305,4953,WMI,WASTE MANAGEMENT INC DEL,2,23.22,24.27,23.4,6562700,-0.037383,23.4,23.43,491462,24.14,,-0.049167,-0.041898,-0.049146
11955,20090306,4953,WMI,WASTE MANAGEMENT INC DEL,,22.82,24.17,23.26,5929000,-0.005983,23.25,23.26,491462,23.58,,-0.005983,0.001402,-0.002324
11955,20090309,4953,WMI,WASTE MANAGEMENT INC DEL,,22.1,23.25,22.23,6210800,-0.044282,22.22,22.23,491462,23.07,,-0.044282,-0.01247,-0.016503
11955,20090310,4953,WMI,WASTE MANAGEMENT INC DEL,,22.29,23.07,22.85,6985600,0.02789,22.83,22.87,491462,22.4,,0.02789,0.063308,0.062493
11955,20090311,4953,WMI,WASTE MANAGEMENT INC DEL,,22.72,23.72,23.38,5035000,0.023195,23.36,23.37,491462,23.05,,0.023195,0.003688,0.004968
11955,20090312,4953,WMI,WASTE MANAGEMENT INC DEL,,23.24,24.57,24.4,4541200,0.043627,24.32,24.37,491462,23.24,,0.043627,0.041657,0.050889
11955,20090313,4953,WMI,WASTE MANAGEMENT INC DEL,,23.83,24.67,24.07,3517000,-0.013525,24.03,24.04,491462,24.55,,-0.013525,0.005981,0.009467
11955,20090316,4953,WMI,WASTE MANAGEMENT INC DEL,,23.9,24.6919,24.01,4045400,-0.002493,24.02,24.01,491462,24.37,,-0.002493,-0.004807,0.001224
11955,20090317,4953,WMI,WASTE MANAGEMENT INC DEL,,23.9,25.05,25.05,4863400,0.043315,25.01,25.04,491462,24.07,,0.043315,0.030986,0.030329
11955,20090318,4953,WMI,WASTE MANAGEMENT INC DEL,,24.44,25.8,25.25,4732000,0.007984,25.18,25.24,491462,24.95,,0.007984,0.022323,0.034035
11955,20090319,4953,WMI,WASTE MANAGEMENT INC DEL,,25.67,26.17,25.86,4455400,0.024158,25.86,25.87,491462,25.94,,0.024158,-0.007998,0.007594
11955,20090320,4953,WMI,WASTE MANAGEMENT INC DEL,,25.07,26.43,25.11,5309000,-0.029002,25.13,25.14,491462,25.98,,-0.029002,-0.020405,-0.014321
11955,20090323,4953,WMI,WASTE MANAGEMENT INC DEL,,25.36,26,25.9,4310600,0.031462,25.86,25.9,491462,25.56,,0.031462,0.068898,0.064724
11955,20090324,4953,WMI,WASTE MANAGEMENT INC DEL,,25.51,26.07,25.77,2769400,-0.005019,25.72,25.73,491462,25.69,,-0.005019,-0.020005,-0.016143
11955,20090325,4953,WMI,WASTE MANAGEMENT INC DEL,,25.32,26.5,25.74,4778000,-0.001164,25.75,25.76,491462,25.91,,-0.001164,0.008934,0.017629
11955,20090326,4953,WMI,WASTE MANAGEMENT INC DEL,,25.5,26.63,26.6,5186000,0.033411,26.55,26.6,491462,25.91,,0.033411,0.025219,0.035754
11955,20090327,4953,WMI,WASTE MANAGEMENT INC DEL,,25.81,26.33,25.9,2947400,-0.026316,25.88,25.89,491462,26.31,,-0.026316,-0.021848,-0.021833
11955,20090330,4953,WMI,WASTE MANAGEMENT INC DEL,,25.08,25.67,25.32,3721800,-0.022394,25.32,25.33,491462,25.46,,-0.022394,-0.036284,-0.031938
11955,20090331,4953,WMI,WASTE MANAGEMENT INC DEL,2,25.29,26,25.6,4107700,0.011058,25.56,25.57,491919,25.58,,0.011058,0.014239,0.020124
11955,20090401,4953,WMI,WASTE MANAGEMENT INC DEL,,25.05,25.94,25.59,4848600,-0.000391,25.56,25.57,491919,25.32,,-0.000391,0.01693,0.015614
11955,20090402,4953,WMI,WASTE MANAGEMENT INC DEL,,25.69,26.75,26.17,5106900,0.022665,26.13,26.13,491919,26.13,,0.022665,0.031671,0.038943
11955,20090403,4953,WMI,WASTE MANAGEMENT INC DEL,,25.72,26.4999,26.43,5570400,0.009935,26.42,26.43,491919,26.22,,0.009935,0.011581,0.012668
11955,20090406,4953,WMI,WASTE MANAGEMENT INC DEL,,25.78,26.69,26.59,2739100,0.006054,26.61,26.62,491919,26.24,,0.006054,-0.009847,-0.007253
11955,20090407,4953,WMI,WASTE MANAGEMENT INC DEL,,25.78,26.34,25.97,2588500,-0.023317,25.95,25.96,491919,26.14,,-0.023317,-0.025075,-0.020181
11955,20090408,4953,WMI,WASTE MANAGEMENT INC DEL,,25.74,26.11,25.98,2482700,0.000385,25.91,26.01,491919,26.02,,0.000385,0.013077,0.01741
11955,20090409,4953,WMI,WASTE MANAGEMENT INC DEL,,25.94,27.4,26.25,3523500,0.010393,26.21,26.22,491919,26.57,,0.010393,0.039408,0.045828
11955,20090413,4953,WMI,WASTE MANAGEMENT INC DEL,,26.03,26.77,26.6,2799200,0.013333,26.56,26.57,491919,26.15,,0.013333,0.003853,0.007148
11955,20090414,4953,WMI,WASTE MANAGEMENT INC DEL,,26.26,26.84,26.68,2947900,0.003008,26.68,26.69,491919,26.31,,0.003008,-0.019521,-0.012781
11955,20090415,4953,WMI,WASTE MANAGEMENT INC DEL,,26.6,26.97,26.95,2949900,0.01012,26.91,26.92,491919,26.61,,0.01012,0.012403,0.013558
11955,20090416,4953,WMI,WASTE MANAGEMENT INC DEL,,26.4,27.12,26.84,3319000,-0.004082,26.8,26.82,491919,26.99,,-0.004082,0.016053,0.020349
11955,20090417,4953,WMI,WASTE MANAGEMENT INC DEL,,26.84,27.58,27.48,4439300,0.023845,27.51,27.48,491919,26.96,,0.023845,0.006017,0.013748
11955,20090420,4953,WMI,WASTE MANAGEMENT INC DEL,,26.95,27.5,27.4,3859800,-0.002911,27.37,27.43,491919,27.13,,-0.002911,-0.044772,-0.042046
11955,20090421,4953,WMI,WASTE MANAGEMENT INC DEL,,27.26,27.71,27.57,3439600,0.006204,27.56,27.57,491919,27.32,,0.006204,0.022662,0.028919
11955,20090422,4953,WMI,WASTE MANAGEMENT INC DEL,,26.91,27.48,27.05,3609100,-0.018861,27.03,27.04,491919,27.29,,-0.018861,-0.005814,0.005351
11955,20090423,4953,WMI,WASTE MANAGEMENT INC DEL,,26.25,26.99,26.67,4121500,-0.014048,26.68,26.69,491919,26.99,,-0.014048,0.009201,0.001693
11955,20090424,4953,WMI,WASTE MANAGEMENT INC DEL,,26.53,27.09,26.89,3263200,0.008249,26.86,26.87,491919,26.83,,0.008249,0.018991,0.021483
11955,20090427,4953,WMI,WASTE MANAGEMENT INC DEL,,26.46,27.37,26.6,4360300,-0.010785,26.61,26.64,491919,26.65,,-0.010785,-0.011385,-0.011724
11955,20090428,4953,WMI,WASTE MANAGEMENT INC DEL,,26.38,27.3,26.98,3979200,0.014286,26.99,27.01,491919,26.41,,0.014286,-0.002949,0.004866
11955,20090429,4953,WMI,WASTE MANAGEMENT INC DEL,,26.57,27.989,26.94,6568100,-0.001483,26.91,26.94,491919,27,,-0.001483,0.024343,0.028455
11955,20090430,4953,WMI,WASTE MANAGEMENT INC DEL,2,26.42,27.42,26.67,4931700,-0.010022,26.65,26.67,492002,27.23,,-0.010022,-0.0005,0.00418
11955,20090501,4953,WMI,WASTE MANAGEMENT INC DEL,,26.01,26.87,26.17,6568400,-0.018748,26.18,26.19,492002,26.6,,-0.018748,0.005911,0.008345
11955,20090504,4953,WMI,WASTE MANAGEMENT INC DEL,,26.22,26.95,26.83,4751900,0.02522,26.84,26.85,492002,26.41,,0.02522,0.035854,0.037603
11955,20090505,4953,WMI,WASTE MANAGEMENT INC DEL,,26.61,26.94,26.88,5062200,0.001864,26.89,26.9,492002,26.69,,0.001864,-0.003555,0.00262
11955,20090506,4953,WMI,WASTE MANAGEMENT INC DEL,,26.725,27.12,26.95,4744900,0.002604,26.94,26.95,492002,27.12,,0.002604,0.015732,0.01504
11955,20090507,4953,WMI,WASTE MANAGEMENT INC DEL,,26.4,27.46,26.65,5033300,-0.011132,26.65,26.66,492002,27.46,,-0.011132,-0.015612,-0.011422
11955,20090508,4953,WMI,WASTE MANAGEMENT INC DEL,,26.75,27.45,27,4393500,0.013133,26.99,27,492002,26.95,,0.013133,0.027314,0.033944
11955,20090511,4953,WMI,WASTE MANAGEMENT INC DEL,,26.62,26.99,26.86,3015000,-0.005185,26.84,26.85,492002,26.75,,-0.005185,-0.020973,-0.006886
11955,20090512,4953,WMI,WASTE MANAGEMENT INC DEL,,26.6,27.01,26.88,3155200,0.000745,26.85,26.86,492002,27.01,,0.000745,-0.002699,-0.005804
11955,20090513,4953,WMI,WASTE MANAGEMENT INC DEL,,26.5,26.95,26.6,2825400,-0.010417,26.6,26.61,492002,26.6,,-0.010417,-0.031544,-0.03735
11955,20090514,4953,WMI,WASTE MANAGEMENT INC DEL,,26.53,27.25,27.05,3828500,0.016917,27.01,27.03,492002,26.53,,0.016917,0.012324,0.01352
11955,20090515,4953,WMI,WASTE MANAGEMENT INC DEL,,26.62,27.21,26.83,3864500,-0.008133,26.84,26.85,492002,26.98,,-0.008133,-0.010763,-0.008228
11955,20090518,4953,WMI,WASTE MANAGEMENT INC DEL,,26.85,27.88,27.86,3982400,0.03839,27.87,27.87,492002,27.01,,0.03839,0.032821,0.034404
11955,20090519,4953,WMI,WASTE MANAGEMENT INC DEL,,28.03,28.88,28.56,5018500,0.025126,28.54,28.56,492002,28.68,,0.025126,0.000372,0.004793
11955,20090520,4953,WMI,WASTE MANAGEMENT INC DEL,,28.28,28.88,28.3,4218500,-0.009104,28.31,28.3,492002,28.8,,-0.009104,-0.001901,0.000185
11955,20090521,4953,WMI,WASTE MANAGEMENT INC DEL,,27.87,28.9,28.15,2969100,-0.0053,28.15,28.21,492002,28.21,,-0.0053,-0.016788,-0.013953
11955,20090522,4953,WMI,WASTE MANAGEMENT INC DEL,,28.052,28.53,28.23,2500300,0.002842,28.25,28.26,492002,28.24,,0.002842,-0.000131,0.000876
11955,20090526,4953,WMI,WASTE MANAGEMENT INC DEL,,27.77,28.8,28.45,3868900,0.007793,28.46,28.48,492002,28.27,,0.007793,0.028112,0.027208
11955,20090527,4953,WMI,WASTE MANAGEMENT INC DEL,,28,28.71,28.04,3800400,-0.014411,28.05,28.1,492002,28.51,,-0.014411,-0.017454,-0.010206
11955,20090528,4953,WMI,WASTE MANAGEMENT INC DEL,2,27.27,28.11,27.65,4492200,-0.003566,27.62,27.64,492002,27.99,,-0.013909,0.014908,0.008145
11955,20090529,4953,WMI,WASTE MANAGEMENT INC DEL,2,27.3,27.97,27.59,4212800,-0.00217,27.67,27.68,492002,27.83,,-0.00217,0.014736,0.014954
11955,20090601,4953,WMI,WASTE MANAGEMENT INC DEL,,27.9,28.9,28.88,4579400,0.046756,28.84,28.88,492002,27.93,,0.046756,0.026965,0.029159
11955,20090602,4953,WMI,WASTE MANAGEMENT INC DEL,,28.56,29,28.73,3544400,-0.005194,28.69,28.72,492002,28.62,,-0.005194,0.003088,0.006465
11955,20090603,4953,WMI,WASTE MANAGEMENT INC DEL,,28.31,28.75,28.69,3045400,-0.001392,28.69,28.72,492002,28.5,,-0.001392,-0.017411,-0.010969
11955,20090604,4953,WMI,WASTE MANAGEMENT INC DEL,,28.37,28.89,28.49,3191600,-0.006971,28.49,28.51,492002,28.73,,-0.006971,0.013493,0.019853
11955,20090605,4953,WMI,WASTE MANAGEMENT INC DEL,,28.2,28.83,28.28,3476200,-0.007371,28.32,28.31,492002,28.65,,-0.007371,-0.003171,0.001178
11955,20090608,4953,WMI,WASTE MANAGEMENT INC DEL,,27.59,28.27,27.96,3505000,-0.011315,27.96,27.97,492002,28.24,,-0.011315,-0.002809,-0.003627
11955,20090609,4953,WMI,WASTE MANAGEMENT INC DEL,,27.63,28.06,27.83,2418700,-0.004649,27.79,27.8,492002,28.02,,-0.004649,0.005445,0.008643
11955,20090610,4953,WMI,WASTE MANAGEMENT INC DEL,,27.8,28.2,28.11,3048000,0.010061,28.12,28.12,492002,28,,0.010061,-0.00288,-0.002354
11955,20090611,4953,WMI,WASTE MANAGEMENT INC DEL,,28.16,28.88,28.56,2444900,0.016008,28.58,28.59,492002,28.19,,0.016008,0.006898,0.010297
11955,20090612,4953,WMI,WASTE MANAGEMENT INC DEL,,28.19,28.67,28.6,2111500,0.001401,28.61,28.63,492002,28.48,,0.001401,-0.001398,-0.002662
11955,20090615,4953,WMI,WASTE MANAGEMENT INC DEL,,27.91,28.58,28.13,2789500,-0.016434,28.16,28.17,492002,28.37,,-0.016434,-0.025422,-0.023442
11955,20090616,4953,WMI,WASTE MANAGEMENT INC DEL,,27.54,28.19,27.73,3194800,-0.01422,27.69,27.71,492002,28.19,,-0.01422,-0.013129,-0.011502
11955,20090617,4953,WMI,WASTE MANAGEMENT INC DEL,,27.73,28.35,28.02,3899200,0.010458,28.03,28.05,492002,27.87,,0.010458,-0.003043,-0.001974
11955,20090618,4953,WMI,WASTE MANAGEMENT INC DEL,,27.9,28.58,28.29,3026300,0.009636,28.3,28.31,492002,28.16,,0.009636,0.006488,0.002944
11955,20090619,4953,WMI,WASTE MANAGEMENT INC DEL,,28.09,28.71,28.22,3963900,-0.002474,28.19,28.2,492002,28.54,,-0.002474,0.004042,0.006121
11955,20090622,4953,WMI,WASTE MANAGEMENT INC DEL,,27.51,28.5,27.62,2967400,-0.021261,27.63,27.64,492002,28.1,,-0.021261,-0.033272,-0.033507
11955,20090623,4953,WMI,WASTE MANAGEMENT INC DEL,,27.13,27.8,27.16,3105500,-0.016655,27.13,27.14,492002,27.65,,-0.016655,0.002132,-0.002855
11955,20090624,4953,WMI,WASTE MANAGEMENT INC DEL,,27.17,27.88,27.63,3467800,0.017305,27.6,27.61,492002,27.31,,0.017305,0.008894,0.008541
11955,20090625,4953,WMI,WASTE MANAGEMENT INC DEL,,27.33,28.45,28.32,3400700,0.024973,28.29,28.4,492002,27.5,,0.024973,0.021569,0.02192
11955,20090626,4953,WMI,WASTE MANAGEMENT INC DEL,,27.88,28.41,28.26,6480700,-0.002119,28.18,28.2,492002,28.19,,-0.002119,0.000649,0.009455
11955,20090629,4953,WMI,WASTE MANAGEMENT INC DEL,,28.19,28.59,28.52,3390100,0.0092,28.51,28.52,492002,28.3,,0.0092,0.007658,0.002581
11955,20090630,4953,WMI,WASTE MANAGEMENT INC DEL,2,27.98,28.6,28.16,2818600,-0.012623,28.18,28.19,492002,28.6,,-0.012623,-0.007815,-0.001845
11955,20090701,4953,WMI,WASTE MANAGEMENT INC DEL,,27.97,28.53,28.03,3293300,-0.004616,28.01,28.02,492002,28.26,,-0.004616,0.005924,0.011637
11955,20090702,4953,WMI,WASTE MANAGEMENT INC DEL,,27.37,27.98,27.4,2411400,-0.022476,27.42,27.45,492002,27.8,,-0.022476,-0.028214,-0.024559
11955,20090706,4953,WMI,WASTE MANAGEMENT INC DEL,,27.1,27.74,27.33,3259600,-0.002555,27.33,27.33,492002,27.3,,-0.002555,-0.001733,-0.008899
11955,20090707,4953,WMI,WASTE MANAGEMENT INC DEL,,26.86,27.35,26.89,2446500,-0.0161,26.9,26.91,492002,27.32,,-0.0161,-0.019557,-0.016017
11955,20090708,4953,WMI,WASTE MANAGEMENT INC DEL,,26.31,27,26.58,4397400,-0.011528,26.59,26.6,492002,26.94,,-0.011528,-0.004059,-0.011067
11955,20090709,4953,WMI,WASTE MANAGEMENT INC DEL,,26.47,26.9,26.78,3006500,0.007524,26.75,26.77,492002,26.69,,0.007524,0.004852,0.004944
11955,20090710,4953,WMI,WASTE MANAGEMENT INC DEL,,26.386,26.94,26.87,2335000,0.003361,26.83,26.85,492002,26.67,,0.003361,-0.003392,-0.000134
11955,20090713,4953,WMI,WASTE MANAGEMENT INC DEL,,26.83,27.2,27.17,2905000,0.011165,27.14,27.15,492002,26.99,,0.011165,0.023814,0.015919
11955,20090714,4953,WMI,WASTE MANAGEMENT INC DEL,,27.04,27.34,27.31,3002800,0.005153,27.29,27.3,492002,27.29,,0.005153,0.00725,0.008303
11955,20090715,4953,WMI,WASTE MANAGEMENT INC DEL,,27.33,27.77,27.71,2379300,0.014647,27.68,27.69,492002,27.59,,0.014647,0.031101,0.029538
11955,20090716,4953,WMI,WASTE MANAGEMENT INC DEL,,27.57,28.3,28.23,2521700,0.018766,28.21,28.22,492002,27.68,,0.018766,0.009434,0.008213
11955,20090717,4953,WMI,WASTE MANAGEMENT INC DEL,,27.81,28.2,28.09,2572200,-0.004959,28.12,28.13,492002,28.17,,-0.004959,-0.000101,-0.001883
11955,20090720,4953,WMI,WASTE MANAGEMENT INC DEL,,28.04,28.33,28.24,2321600,0.00534,28.22,28.23,492002,28.26,,0.00534,0.01348,0.015309
11955,20090721,4953,WMI,WASTE MANAGEMENT INC DEL,,27.9,28.66,28.09,2476600,-0.005312,28.1,28.1,492002,28.47,,-0.005312,0.002481,-0.001774
11955,20090722,4953,WMI,WASTE MANAGEMENT INC DEL,,27.91,29.13,28.84,4620100,0.0267,28.85,28.86,492002,27.91,,0.0267,0.000491,0.006205
11955,20090723,4953,WMI,WASTE MANAGEMENT INC DEL,,28.65,29.65,29.52,4737600,0.023578,29.54,29.55,492002,28.91,,0.023578,0.024188,0.022647
11955,20090724,4953,WMI,WASTE MANAGEMENT INC DEL,,28.97,29.59,29.39,2282800,-0.004404,29.37,29.37,492002,29.31,,-0.004404,0.004311,0.006532
11955,20090727,4953,WMI,WASTE MANAGEMENT INC DEL,,29.26,29.69,29.69,2259200,0.010208,29.67,29.68,492002,29.41,,0.010208,0.003427,0.007145
11955,20090728,4953,WMI,WASTE MANAGEMENT INC DEL,,29.36,29.92,29.42,3712700,-0.009094,29.45,29.43,492002,29.52,,-0.009094,-0.003765,0.001271
11955,20090729,4953,WMI,WASTE MANAGEMENT INC DEL,,29.1,29.68,29.48,3384800,0.002039,29.46,29.5,492002,29.25,,0.002039,-0.006683,-0.005267
11955,20090730,4953,WMI,WASTE MANAGEMENT INC DEL,,27.85,29.41,28.05,7812600,-0.048507,28.02,28.03,492002,28.75,,-0.048507,0.013275,0.01481
11955,20090731,4953,WMI,WASTE MANAGEMENT INC DEL,2,27.98,28.54,28.11,3981900,0.002139,28.08,28.1,492690,28.09,,0.002139,0.002659,0.004931
11955,20090803,4953,WMI,WASTE MANAGEMENT INC DEL,,27.648,28.4,28.39,3937400,0.009961,28.37,28.38,492690,28.27,,0.009961,0.017942,0.018979
11955,20090804,4953,WMI,WASTE MANAGEMENT INC DEL,,28.16,28.56,28.5,2847900,0.003875,28.48,28.49,492690,28.33,,0.003875,0.002464,0.006793
