Symbol,AAN,AIRM,AIRT,AL,AMCX,AMRC,ARCO,BAH,BBRG,BODY,CATO,CHEF,CHTR,CMRE,CRMT,DANG,DCIX,DGSE,DJCO,DLHC,DNKN,DSS,DXLG,ENT,ENV,FAST,FISV,FLT,FRAN,GLBS,GMAN,GMLP,GMT,GNC,HBP,HTLD,HVT,IKGH,IMKTA,KSU,LABL,MATX,MGM,MMYT,P,PTSI,PWX,QUAD,RPXC,SAVE,SERV,SIG,SIXD,SKYW,SWFT,TECD,TWMC,VRNG,WAIR,WERN,XRS,XUE
AAN,1,0.3625243746,0.2320006364,0.0232781613,0.1171439774,-0.1286143581,-0.0428065404,-0.0140221723,0.0408713277,0.0346356991,0.411606545,0.0288740094,0.0054121652,0.0891380193,0.3911557787,0.0324964113,0.0780651181,0.0820471932,-0.0400520662,0,-0.0296736777,0.0738720134,0,0,0.0396731586,0.48308183,0.5201632566,-0.009113714,-0.0870417875,0.0286097412,-0.0110271631,0.1317980935,0.5194697912,0.0908730262,0.1000605535,0.461922519,0.3804836948,0,0.423710633,0.5052048128,0.3841646871,0,0.4269109479,0.0449636875,-0.084216245,0.2159196546,0.1902129776,0.0195963383,-0.1167863626,-0.0265338534,0.0219317414,0.5141241283,0,0.3865178719,-0.0354781953,0.5227314597,0.0135176428,-0.0640171949,0.0119590357,0.451911145,0.0618003511,-0.1176174597
AIRM,0,1,0.136407448,-0.0256072663,0.0857544908,-0.1427863224,-0.1544513563,-0.0723997782,0.020570522,0.0177124567,0.4965861618,-0.0404316743,0.0125350237,-0.0363776303,0.4459151083,-0.0256446631,-0.0591062061,0.0787751096,0.0087875726,0,-0.0881785319,-0.0383604574,0,0,0.0850686871,0.4335094131,0.4824828374,0.0571653838,-0.1270574763,0.0461267754,-0.0125149023,0.1170646758,0.5066080928,0.1397273177,0.0073352322,0.4789341003,0.4186637464,0,0.4678558481,0.4611653933,0.4321499772,0,0.3871765197,0.0509700355,0.0366611173,0.259049604,0.1729625021,0.0412612768,0.0286512667,0.0176967393,0.0290207745,0.4377078834,0,0.4449280475,-0.054131367,0.452754058,0.0361161526,-0.0369399357,-0.1387328744,0.4643220846,0.0562711519,-0.0842486717
AIRT,0,0,1,0.0638789164,-0.0195668809,-0.0015753848,-0.0777203905,0.0414239596,0.088611113,-0.0109451583,0.1102779048,-0.1995515242,-0.0215828692,-0.0236158504,0.1424796903,0.0864222844,0.0201324531,0.0211068743,0.0318309356,0,-0.0130541587,0.14294726,0,0,0.0241621339,0.1204861425,0.1912042465,0.1090212152,0.0214582497,0.1147311114,0.0162418015,0.082563634,0.2022259655,0.0323855676,0.0172786421,0.1447379745,0.1442400698,0,0.188167849,0.2127780339,0.099601348,0,0.2045856465,-0.0141804548,0.091586648,0.1523629737,0.0482628451,-0.0006135294,0.0596171624,-0.0193693241,-0.0220039518,0.1973052524,0,0.130369113,0.0441778754,0.1857363167,0.0428294761,-0.0389362801,-0.0643898171,0.1385541473,-0.1591321478,-0.0102554285
AL,0,0,0,1,0.1017199417,-0.0548012245,-0.1006083865,-0.0094794608,0.1766253982,-0.1765324538,-0.0358021743,0.017306268,-0.0431418569,-0.1036409559,-0.0569086409,0.0941819533,-0.0750032467,-0.0325338196,0.0215919801,0,0.1546675549,-0.2076279344,0,0,-0.0554459584,-0.0006963835,0.0185461698,0.0281296807,0.0089038965,-0.125236712,0.0385672282,0.0018762752,0.0053871709,-0.0395751662,0.0960091047,8.50616438266E-005,-0.0180153211,0,-0.0954492173,-0.0717867505,-0.0120534808,0,-0.0097605652,-0.0050830504,-0.06914541,-0.0329293013,0.1379819723,0.0201571888,0.0465135554,-0.0685619369,-0.0293960751,0.0218005599,0,-0.0104771248,0.0670296146,-0.0075734511,-0.0398711164,-0.0952331928,0.1586914673,-0.0120125733,-0.0628325055,0.0352800409
AMCX,0,0,0,0,1,-0.1149875956,0.014514241,0.0995283726,0.070859702,-0.0917982693,-0.024933269,-0.0838703177,0.0947853728,-0.0480136019,0.0399039327,-0.0447703427,0.018304734,0.058775112,0.0466740165,0,0.1064578068,0.0138911155,0,0,-0.0507225686,-0.0115616585,-0.1079927771,-0.0074163756,-0.161607646,0.054523883,0.0111177063,-0.0500170515,-0.0317644707,0.0844166432,0.1982129627,-0.1424332165,0.0043216407,0,0.0067340843,-0.1293507855,0.0173346184,0,-0.1102937522,0.0340669646,0.0602292364,-0.0275232196,0.147241868,-0.0167303571,0.0360007319,-0.1781677402,0,-0.0803414606,0,0.0654255154,0.1330281749,-0.0360259138,-0.0371636512,-0.0503382351,-0.0441784694,-0.0924116746,-0.0136257968,-0.0307280438
AMRC,0,0,0,0,0,1,-0.0428889864,-0.1102389805,0.0227113762,0.0431206696,-0.027659111,0.0858753575,0.038418199,-0.1089364695,-0.082465176,-0.038687311,0.0091348591,-0.0179355092,-0.0099795073,0,-0.0126563065,-0.100218288,0,0,-0.0104090784,-0.0329396946,-0.0419889264,-0.0640558866,0.0977617532,0.0413444867,0.0451988808,-0.0484631476,-0.0144834768,0.0703994089,-0.0139354422,-0.0267858344,-0.0289287645,0,-0.0294599491,-0.0111984774,-0.0895644849,0,-0.1174922082,-0.0451657894,-0.0985368939,-0.0258568206,0.0118809365,-0.037943199,0.0327233041,-0.0138435169,0.0403207275,-0.0143396563,0,-0.0117143182,0.0825534537,-0.0244448276,-0.032189386,0.0062279206,0.0603902899,-0.0170154422,-0.0231875038,-0.0481205429
ARCO,0,0,0,0,0,0,1,-0.006779929,-0.0289548858,-0.107278831,-0.0739002627,-0.0004887019,-0.0224450741,-0.0777038947,-0.0816668067,-0.0240305385,0.0063206517,0.0228675649,-0.1245860273,0,0.0032916005,0.0275486804,0,0,-0.1418755806,-0.0614248523,-0.0836451718,-0.0770055815,0.0887090594,0.1084889764,0.0028342265,0.012946905,0.0283157071,-0.0294001557,-0.0200618606,-0.0833327132,-0.1023654641,0,-0.029740687,-0.0812491309,-0.0859139361,0,-0.0708745022,-0.006421871,0.0854754082,-0.1455319601,-0.0913721167,-0.0757978601,-0.0274677424,-0.0150628526,0.0249618276,-0.1377895362,0,-0.0878695899,0.1669257728,-0.0460776993,-0.167312011,0.0307143488,-0.0102461809,-0.1706783151,0.1297769576,-0.1153020784
BAH,0,0,0,0,0,0,0,1,-0.0027959603,0.0031188711,-0.0758838882,-0.0954667776,-0.0414568383,-0.1279305753,-0.0676715608,0.0947802864,-0.0618016536,-0.0490943921,0.0012734686,0,0.014163706,-0.0981513893,0,0,-0.0473634364,-0.0268671253,-0.1157855137,0.0143492924,0.2108835124,0.0099933301,-0.0469909477,-0.0889228646,-0.0891568681,-0.0355770209,0.0007944639,-0.1493055323,-0.0565741212,0,-0.1251333353,-0.1111316698,-0.0308318133,0,-0.0321707248,-0.0221829111,-0.0781336612,-0.1562606262,0.0346506286,-0.0209232514,0.010959287,0.0533937546,0.0249037442,0.0233542556,0,-0.1300588959,0.044724654,-0.0810746705,0.0455776772,0.0506356561,0.0154425976,-0.1246643726,-0.0398418995,0.0985073057
BBRG,0,0,0,0,0,0,0,0,1,0.0638548957,0.0809554664,0.0696892935,-0.0386685885,-0.0109729729,0.0073739993,0.037312467,-0.0355131229,0.0870862705,-0.1136877082,0,0.1004834655,0.0398836267,0,0,-0.0476864598,0.0320798603,0.0317904942,-0.0879559567,-0.0420620805,-0.0524018486,-0.067415574,-0.0284997849,0.0046621645,-0.0855527544,-0.0553301435,0.0694865028,-0.0219057973,0,0.0221765283,0.0899828742,0.0254300998,0,0.10828685,0.0481392953,-0.0313861488,-0.0405850874,0.0569314579,0.0249050396,-0.0103970904,-0.0076654206,-0.0081737622,0.0708660241,0,-0.0125443007,-0.069670892,0.0506557003,-0.0501386118,-0.0525771163,0.1327243801,0.1354253988,-0.0871279662,0.0352521661
BODY,0,0,0,0,0,0,0,0,0,1,0.0454686417,0.0558496116,-0.0159403412,0.0518303149,0.0709619799,-0.0812186376,0.0533767567,0.1013034782,-0.0424248152,0,-0.0015667767,-0.0735052866,0,0,-0.1385379374,0.0285345852,0.0686200252,-0.0251146751,-0.0518064261,-0.0245689576,-0.104076104,0.092423619,-0.0246574548,0.0491829058,0.0246827162,0.1123361423,0.0142814258,0,0.0399471434,0.0107986959,-0.0001660745,0,0.0713016586,-0.0989882264,-0.0102785329,0.0128269556,-0.0177096027,-0.0714899804,-0.0187452843,0.0158179473,-0.0451514032,0.0851389709,0,0.0141012443,-0.0097223744,-0.0097108781,-0.0944912443,0.0815368331,0.0132276997,0.0731946324,0.0177795015,0.0738690664
CATO,0,0,0,0,0,0,0,0,0,0,1,0.0876388644,-0.0217414932,0.0121487183,0.4756710042,0.0001581193,-0.0256639186,0.0760727882,-0.0121776687,0,-0.0591900312,-0.0164878995,0,0,0.0274694044,0.5744496003,0.5871830784,0.0492063986,0.0815048577,0.0129727453,-0.0284985665,-0.0831292297,0.5783605286,0.0843120469,0.1119913084,0.5215023044,0.4783099385,0,0.5470838535,0.5010676729,0.4120529889,0,0.4674569085,0.0374775201,0.022143505,0.2488407878,0.1247923493,0.0380513656,0.1610797959,0.1100400878,0.0366418701,0.5063968216,0,0.5127937318,-0.0102497243,0.5273565743,0.0406288401,-0.0200305545,-0.0760554768,0.5497689169,0.0286453509,-0.0416426594
CHEF,0,0,0,0,0,0,0,0,0,0,0,1,0.0721371638,-0.0668923787,-0.0012645792,0.0684333829,0.098450171,-0.0320984669,-0.1473138483,0,-0.1181902915,-0.0956529636,0,0,0.0807283222,0.0064337355,-0.1843820255,-0.1068908233,-0.0769579565,-0.0550440484,-0.045210209,-0.0474398723,-0.0496914124,0.0687299453,0.2095984954,0.0818869468,-0.0297781933,0,-0.0268383001,-0.0395848553,-0.057016903,0,-0.0433130967,0.0137653746,-0.0850853766,-0.0386504601,-0.0369541959,0.0232211323,-0.1230672343,-0.0715484238,0,-0.0049929725,0,-0.0417915712,-0.0156883695,-0.06613598,0.000387951,0.0297273255,0.3715928138,0.0628920361,-0.0911221264,-0.0265922926
CHTR,0,0,0,0,0,0,0,0,0,0,0,0,1,0.0670581127,0.008368632,0.0596166143,0.1017251959,-0.0218737392,-0.0486001209,0,0.1696178924,0.0946751074,0,0,-0.0383550354,-0.0574120354,-0.0100157717,0.076704783,0.091041476,0.0807024239,0.0511457578,0.0373701911,-0.0863950503,0.0745441171,-0.0071214751,-0.0537542251,-0.0434283611,0,-0.0351968464,0.0112499182,0.0045685146,0,0.0990820861,0.0081944118,-0.1281332393,-0.0261938968,0.0058251813,0.0440696303,-0.0062430546,-0.0922409974,-0.0945659843,-0.0386363818,0,0.0161431114,-0.0042998804,-0.0522900605,0.0623240171,-0.1135163852,0.0730991365,-0.0257398589,-0.0043144508,-0.0192879524
CMRE,0,0,0,0,0,0,0,0,0,0,0,0,0,1,0.0147055931,-0.0303717002,-0.0455683527,0.0735268785,0.0316831345,0,0.0444468392,0.2194793642,0,0,0.0181646329,0.0277184285,0.1107367682,0.0523260308,0.0196967716,-0.0042740257,0.0483767349,-0.0483150381,0.0464518194,0.0307292976,0.0524906797,0.0600074238,0.0439375415,0,0.0220461885,0.0139674951,0.0579253805,0,0.0966415928,-0.0674815407,-0.1047807464,-0.0213663574,0.0265440763,0.0175493432,0.0046796749,0.0336052188,-0.1036720338,0.015921456,0,0.010373386,-0.0318422274,0.0797535199,0.0010234027,-0.0142820096,0.002246727,0.0705456166,0.0068365163,0.0524675158
CRMT,0,0,0,0,0,0,0,0,0,0,0,0,0,0,1,0.046327027,0.0096096567,0.1134611455,-0.0504165104,0,-0.0634024961,0.0947395415,0,0,0.0084440796,0.426539994,0.465711551,0.0750514514,-0.1582354665,0.0477598274,-0.0268898255,0.1076515961,0.4776800893,0.1379102792,0.002210225,0.3961980643,0.400306796,0,0.4479356103,0.4415072261,0.4330013896,0,0.4416889418,0.0513009025,0.0043199276,0.1816510384,0.0860357078,0.0232106199,0.1027248684,0.0915452847,0.0094554235,0.4124995644,0,0.4209990319,-0.0363610112,0.4665350117,-0.0067193668,-0.0609956087,-0.034204311,0.374295685,-0.0165733728,-0.0328252158
DANG,0,0,0,0,0,0,0,0,0,0,0,0,0,0,0,1,0.0741376912,0.0311490559,-0.1332421348,0,-0.0047904544,-0.1176231791,0,0,-0.0256872183,0.012663941,-0.0363387403,-0.1153183243,0.0133940446,-0.0198754255,0.0757028263,-0.0623210464,-0.0553414852,0.0354474378,0.0375889902,-0.0544381338,-0.1190751266,0,-0.1327830889,-0.0882864849,-0.096227039,0,0.0079183474,-0.0053314274,0.014495969,0.0010156618,0.0066821111,-0.0123802447,0.0382710443,0.0392497597,0.0293728792,-0.0528077728,0,-0.035378825,-0.0935382209,-0.0581523799,0.0484935082,-0.0979621829,-0.0028814235,-0.14846935,0.0249937982,-0.0390016155
DCIX,0,0,0,0,0,0,0,0,0,0,0,0,0,0,0,0,1,0.0548309329,0.0367444125,0,-0.1167921193,-0.0597289173,0,0,-0.0552828156,0.0694768234,0.0040340881,-0.0448579069,0.0498762819,-0.0015222027,-0.0452170798,0.0385953435,0.0549418377,-0.0547609983,0.0040829294,0.0022922333,-0.0876108041,0,-0.0117033768,0.0150663007,-0.0554931861,0,0.0981625185,-0.0323351528,-0.0724027021,0.0880976066,4.70955805682E-005,0.1386508096,0.0064486585,0.0399033603,0.0603864739,-0.0729228716,0,-0.0448287857,-0.1458542355,-0.0402650986,0.0565243184,-0.0020351644,-0.1087856424,-0.0657082428,-0.1337544107,0.0193247857
DGSE,0,0,0,0,0,0,0,0,0,0,0,0,0,0,0,0,0,1,-0.0275998524,0,0.1769840415,0.0910463611,0,0,0.0203076006,0.1100679063,0.0959300352,-0.0544731184,-0.0563582838,0.077937657,-0.0713413651,-0.1473309891,0.1256587349,-0.0545144528,0.1177916388,0.1079049648,0.0676565743,0,0.1062462868,0.0926463579,0.1721128932,0,0.1350262316,-0.0275604701,0.1007401342,0.0418824975,0.0095931979,0.0284875636,0.0529268674,0.1025405161,-0.0478799501,0.0885650712,0,0.1122387862,0.073666019,0.1465496445,0.0056187409,-0.0697926966,-0.0105586095,0.1186750364,0.1505708552,0.0401117878
DJCO,0,0,0,0,0,0,0,0,0,0,0,0,0,0,0,0,0,0,1,0,-0.0282510976,0.1049655875,0,0,0.0079766892,-0.004588404,0.0195612987,0.0613176059,-0.0021451309,-0.0220771117,0.0529141113,-0.0616770727,0.0498887784,-0.0766287442,0.0299084605,0.017020091,0.0112799782,0,-0.0020269645,0.0010377159,-0.0362871501,0,0.0063902842,0.028474998,-0.0204411064,0.1191825105,0.0419633434,0.0351546903,-0.1174880079,0.0256207499,0.0894935757,0.0440235448,0,-0.0041574785,-0.1115872798,0.0118749822,0.0392085235,0.1606941364,-0.1154265996,0.0269934014,0.057503318,0.0620396329
DLHC,0,0,0,0,0,0,0,0,0,0,0,0,0,0,0,0,0,0,0,0,0,0,0,0,0,0,0,0,0,0,0,0,0,0,0,0,0,0,0,0,0,0,0,0,0,0,0,0,0,0,0,0,0,0,0,0,0,0,0,0,0,0
DNKN,0,0,0,0,0,0,0,0,0,0,0,0,0,0,0,0,0,0,0,0,1,-0.1809256954,0,0,0.0584815613,0.0307509943,0.0150812135,0.0096581466,-0.1210544877,0.071398156,-0.0296328963,0.0150932688,-0.0059954153,-0.0213265161,0.155481295,-0.0337888869,0.004084752,0,-0.0383432277,-0.0869531143,0.0603068242,0,-0.0368051882,0.0605072014,-0.0425269303,-0.113123086,0.1252534982,-0.1165688647,0.0561237485,-0.1683239432,0,0.0371585945,0,-0.0038499971,0.1234417992,-0.0180842101,-0.0976263697,0.1376904897,-0.0174698896,-0.0630210527,-0.1110790012,-0.0116308717
DSS,0,0,0,0,0,0,0,0,0,0,0,0,0,0,0,0,0,0,0,0,0,1,0,0,0.0245716937,0.0825392081,0.047659249,0.0610573474,-0.0334059258,-0.0068103055,0.1758666801,0.0502814613,0.0296397595,-0.0943688538,-0.0039356907,0.1106481919,0.0726346997,0,0.0037450388,0.0581671593,0.0537868755,0,0.1197384733,-0.0429352388,0.0370569542,0.1608617532,-0.0976148377,-0.0172572203,-0.0662079971,0.0956091426,0,0.0427765643,0,0.0546629064,-0.0531670561,0.0058900617,0.080997538,0.1118970925,-0.1607174486,0.1071548263,-0.0253026604,0.0183210479
DXLG,0,0,0,0,0,0,0,0,0,0,0,0,0,0,0,0,0,0,0,0,0,0,0,0,0,0,0,0,0,0,0,0,0,0,0,0,0,0,0,0,0,0,0,0,0,0,0,0,0,0,0,0,0,0,0,0,0,0,0,0,0,0
ENT,0,0,0,0,0,0,0,0,0,0,0,0,0,0,0,0,0,0,0,0,0,0,0,0,0,0,0,0,0,0,0,0,0,0,0,0,0,0,0,0,0,0,0,0,0,0,0,0,0,0,0,0,0,0,0,0,0,0,0,0,0,0
ENV,0,0,0,0,0,0,0,0,0,0,0,0,0,0,0,0,0,0,0,0,0,0,0,0,1,0.0520377135,-0.0103927562,0.0518113616,-0.0262108051,0.0316501366,-0.0285041643,0.0653085442,0.053028174,-0.0075939773,0.0385082898,0.0743381546,0.0516703711,0,0.074243952,0.0226980635,0.0041831267,0,-0.0014489935,0.0274800963,0.0059108451,0.0700443486,-0.0032761327,0.0030847244,0.0667214357,0.0427484896,-0.0364205522,0.0311014368,0,0.0287939524,-0.0490783163,0.0691109756,0.0621266857,0.0041162734,0.0125273628,0.0984926066,-0.0034715443,-0.0617160772
FAST,0,0,0,0,0,0,0,0,0,0,0,0,0,0,0,0,0,0,0,0,0,0,0,0,0,1,0.6683859038,0.0848990373,-0.1668552623,0.0426970253,-0.0852575311,0.0123726485,0.6889026968,0.1006497295,0.0240553758,0.6082301884,0.5115164138,0,0.5259040198,0.6445157189,0.4866013783,0,0.5751204731,0.0488797821,0.0050307715,0.2938235331,0.1369441528,-0.0310074599,-0.0081345337,0.0769576811,0.0952396679,0.6251460456,0,0.5390089441,-0.0537744371,0.6587837837,0.0405168643,0.0119022567,-0.038566746,0.5931832918,0.0670660804,-0.0255056196
FISV,0,0,0,0,0,0,0,0,0,0,0,0,0,0,0,0,0,0,0,0,0,0,0,0,0,0,1,0.1320001054,-0.0209873164,-0.0255545254,-0.0137419686,0.0462850975,0.6676431359,0.0957308896,0.0044622057,0.6008364696,0.5009042601,0,0.5652101596,0.6384765499,0.5059366492,0,0.5876450384,0.0181366235,0.0082835937,0.3168933155,0.1586631138,0.0384858017,-0.0512777374,0.025335976,0.0602641304,0.5931874996,0,0.58777098,-0.0687954071,0.6702897797,0.0625785751,-8.49255408426E-005,-0.0500421802,0.5768650112,0.0094029269,-0.1391359451
FLT,0,0,0,0,0,0,0,0,0,0,0,0,0,0,0,0,0,0,0,0,0,0,0,0,0,0,0,1,-0.1045245923,-0.0481896081,0.165351426,-0.1369371951,0.0970486432,-0.0159222428,-0.0308711733,0.102769583,0.060549916,0,0.1126560047,0.0184776659,0.14609574,0,0.0427036041,0.005022287,-0.1468143769,0.0587015651,-0.0264092353,-0.1480169301,0.1172837352,0.039629077,-0.093471859,0.0939803614,0,0.0783750857,0.0145077139,0.1089938513,-0.0649986254,0.0834330799,0.0509621015,0.0971370534,0.0476559523,-0.0938915976
FRAN,0,0,0,0,0,0,0,0,0,0,0,0,0,0,0,0,0,0,0,0,0,0,0,0,0,0,0,0,1,0.0055828911,-0.0669458735,-0.0575230249,-0.1195455673,-0.1508991708,-0.1236146954,-0.0435190391,-0.1587802011,0,-0.0442633861,-0.0838762031,-0.0512995063,0,-0.0274327706,-0.222156106,0.0696172029,-0.206519445,-0.1041885672,0.0449342464,0.1236210355,-0.0647803867,0,-0.1307158818,0,-0.0170637694,0.0780636497,-0.0674751482,-0.0988344221,-0.0599153265,-0.012744758,-0.0770909066,0.055608418,0.0157142692
GLBS,0,0,0,0,0,0,0,0,0,0,0,0,0,0,0,0,0,0,0,0,0,0,0,0,0,0,0,0,0,1,0.0632895754,-0.0925054404,0.0519434027,-0.0678592709,0.0131497971,-0.0006088608,-0.0036768813,0,0.0464337857,0.0795634046,-0.0620292847,0,0.0397555398,-0.1998836657,-0.1900808947,0.0279324337,-0.0199330054,0.0871361694,0.0536152998,0.1352630472,-0.0714826961,-0.0267694452,0,0.009735935,0.0401391339,-0.0270690548,0.0590226977,0.1283890124,0.0786337807,-0.0185196004,-0.0110666293,0.0278376971
GMAN,0,0,0,0,0,0,0,0,0,0,0,0,0,0,0,0,0,0,0,0,0,0,0,0,0,0,0,0,0,0,1,0.0293977333,-0.0334399995,-0.0406552955,0.0625499266,-0.1015284314,-0.038157363,0,-0.0141549974,-0.0788111317,-0.0302726533,0,-0.0106971465,0.0216524273,-0.055473431,-0.025298578,-0.0382233776,-0.0680383721,-0.1968453365,0.1092591095,0.0039363341,-0.01371299,0,0.0285561936,-0.0203038288,0.029405803,-0.0104361106,0.0393174894,-0.0730546098,-0.1551980898,-0.0406933905,-0.0863120814
GMLP,0,0,0,0,0,0,0,0,0,0,0,0,0,0,0,0,0,0,0,0,0,0,0,0,0,0,0,0,0,0,0,1,-0.0662542748,0.0539938731,0.0789562391,0.0501298151,0.1063661963,0,0.0762908001,0.0423586488,0.0160012422,0,0.1205616666,0.1778152127,0.1236619367,0.0771190499,0.0481646039,0.094301381,-0.0493242464,0.0397062486,-0.0609176005,0.0604645361,0,-0.0297194953,-0.1430650727,0.1165319702,-0.0481654782,0.1127819452,-0.0999885209,0.02626716,0.0827717126,0.0030725417
GMT,0,0,0,0,0,0,0,0,0,0,0,0,0,0,0,0,0,0,0,0,0,0,0,0,0,0,0,0,0,0,0,0,1,0.0825737648,0.0425463668,0.6187323458,0.5342984889,0,0.5689924528,0.7222412172,0.5267127516,0,0.5432955049,0.0508477691,0.0124984746,0.3007266111,0.1600684417,-0.0147662516,-0.0154161576,0.0658450108,0.0621265301,0.628978835,0,0.6021206847,-0.0489796795,0.6667950498,0.0781909246,0.0045665978,-0.0984922958,0.649468756,0.0097560876,-0.0669639586
GNC,0,0,0,0,0,0,0,0,0,0,0,0,0,0,0,0,0,0,0,0,0,0,0,0,0,0,0,0,0,0,0,0,0,1,0.1542816553,0.067427371,0.172347169,0,0.1418927648,0.0341902114,0.0286262468,0,0.0121302321,0.0022297162,0.0256239878,-0.0550999426,-0.0499060906,-0.0475120076,0.0078834079,-0.0870904382,-0.0542821814,0.06124228,0,0.0403289668,-0.0067651076,0.0586890532,-0.0111112047,-0.118707014,-0.0374431133,0.0028245683,0.0484494928,-0.1080408818
HBP,0,0,0,0,0,0,0,0,0,0,0,0,0,0,0,0,0,0,0,0,0,0,0,0,0,0,0,0,0,0,0,0,0,0,1,0.0496576703,0.0249411124,0,0.0519186082,-0.0136595802,-0.0028371304,0,0.0271873053,0.015290363,-0.1109845749,0.0420234191,0.0520512258,-0.0864245145,-0.0252969004,-0.0592519342,-0.0192244305,0.0643659721,0,0.0564648394,0.0743599835,0.0087646797,0.090446525,-0.0079767692,-0.0730101946,0.0233975194,-0.0214937832,0.0224887271
HTLD,0,0,0,0,0,0,0,0,0,0,0,0,0,0,0,0,0,0,0,0,0,0,0,0,0,0,0,0,0,0,0,0,0,0,0,1,0.4926072172,0,0.5003515994,0.6120214843,0.4552677629,0,0.4838265195,0.0490791103,-0.0212104512,0.3146687385,0.0733467846,-0.0663457582,-0.0656151122,0.0105786133,0.0236687612,0.5370115953,0,0.4735976036,0.0101416833,0.5896367394,0.054832263,-0.0027298258,0.0554129285,0.7652967734,0.0688113383,-0.060978061
HVT,0,0,0,0,0,0,0,0,0,0,0,0,0,0,0,0,0,0,0,0,0,0,0,0,0,0,0,0,0,0,0,0,0,0,0,0,1,0,0.4979135011,0.4876306617,0.395292042,0,0.4079416756,0.1173656612,-0.0604176963,0.2926527307,0.1404919805,-0.0462746096,0.0696503732,-0.0421117171,0.1141554601,0.4405321506,0,0.4500777251,-0.0171630837,0.4746397791,0.0571758678,0.0297951767,-0.0603843298,0.4948666903,0.0332761107,-0.088832147
IKGH,0,0,0,0,0,0,0,0,0,0,0,0,0,0,0,0,0,0,0,0,0,0,0,0,0,0,0,0,0,0,0,0,0,0,0,0,0,0,0,0,0,0,0,0,0,0,0,0,0,0,0,0,0,0,0,0,0,0,0,0,0,0
IMKTA,0,0,0,0,0,0,0,0,0,0,0,0,0,0,0,0,0,0,0,0,0,0,0,0,0,0,0,0,0,0,0,0,0,0,0,0,0,0,1,0.5604557405,0.4687172495,0,0.4640546472,0.0246379483,0.0063578478,0.273856471,0.1883886571,-0.0272553794,0.0295280723,0.0689912848,0.0505081853,0.4860334227,0,0.5544671365,-0.0188588016,0.5392810958,0.0929628065,0.059486872,-0.0618901568,0.4888472958,0.0296322818,-0.0422765751
KSU,0,0,0,0,0,0,0,0,0,0,0,0,0,0,0,0,0,0,0,0,0,0,0,0,0,0,0,0,0,0,0,0,0,0,0,0,0,0,0,1,0.4944566413,0,0.5935066506,0.0442240774,-0.0687202474,0.322232782,0.1244076992,-0.009870828,0.0493443919,0.0957987204,0.1127185358,0.6062316362,0,0.5431653057,-0.0493991495,0.6280538081,0.1408883126,0.0293437663,0.0486416535,0.65566295,0.0300900505,-0.0169906743
LABL,0,0,0,0,0,0,0,0,0,0,0,0,0,0,0,0,0,0,0,0,0,0,0,0,0,0,0,0,0,0,0,0,0,0,0,0,0,0,0,0,1,0,0.3871989541,0.0882171295,-0.0419946575,0.2315752928,0.1100321799,0.0163163484,0.0430582641,-0.0642093998,0.0739032018,0.4684613419,0,0.4764708219,-0.044689696,0.4880283164,0.0398000178,-0.0235804848,-0.066121618,0.4533996171,0.0493651817,-0.0343084982
MATX,0,0,0,0,0,0,0,0,0,0,0,0,0,0,0,0,0,0,0,0,0,0,0,0,0,0,0,0,0,0,0,0,0,0,0,0,0,0,0,0,0,0,0,0,0,0,0,0,0,0,0,0,0,0,0,0,0,0,0,0,0,0
MGM,0,0,0,0,0,0,0,0,0,0,0,0,0,0,0,0,0,0,0,0,0,0,0,0,0,0,0,0,0,0,0,0,0,0,0,0,0,0,0,0,0,0,1,0.0471721027,0.0614689195,0.241190483,0.1014633774,-0.0688066753,-0.0352282745,0.0554299915,0.053646579,0.5136003123,0,0.481024353,-0.0309179183,0.532569241,0.099197674,-0.0521265603,-0.1241228605,0.5155666811,0.0874119129,-0.0046289078
MMYT,0,0,0,0,0,0,0,0,0,0,0,0,0,0,0,0,0,0,0,0,0,0,0,0,0,0,0,0,0,0,0,0,0,0,0,0,0,0,0,0,0,0,0,1,0.0964889784,0.0496116858,0.0344125238,-0.1060161089,-0.0434972521,-0.0088595908,0.0023825011,0.0658233465,0,0.058048889,-0.0053991736,0.1097760516,-0.0531575808,-0.113976238,-0.2106783673,0.0665218352,0.0404222642,-0.0119908599
P,0,0,0,0,0,0,0,0,0,0,0,0,0,0,0,0,0,0,0,0,0,0,0,0,0,0,0,0,0,0,0,0,0,0,0,0,0,0,0,0,0,0,0,0,1,0.0193976175,-0.0569606209,0.1634686516,0.0574948724,-0.1406139008,0.0338758866,-0.0266001059,0,-0.0133653615,0.0604721182,0.0249964224,-0.0838658597,-0.0094356088,0.0018587442,-0.0296695795,0.112453985,0.0006010387
PTSI,0,0,0,0,0,0,0,0,0,0,0,0,0,0,0,0,0,0,0,0,0,0,0,0,0,0,0,0,0,0,0,0,0,0,0,0,0,0,0,0,0,0,0,0,0,1,-0.0022183625,-0.0013107375,-0.1080307813,-0.0271941523,0.0839411603,0.2398820392,0,0.2536614503,-0.098058074,0.2756920265,0.1338073003,0.0422232072,0.0337840664,0.305340247,0.0147755744,0.0249595424
PWX,0,0,0,0,0,0,0,0,0,0,0,0,0,0,0,0,0,0,0,0,0,0,0,0,0,0,0,0,0,0,0,0,0,0,0,0,0,0,0,0,0,0,0,0,0,0,1,-0.028829719,0.0578769292,-0.0444420258,-0.1311267806,0.1473893102,0,0.0899533013,-0.0128265079,0.1870954707,0.0142141418,0.0564559645,-0.0511897733,0.107130979,-0.03091811,-0.0084409885
QUAD,0,0,0,0,0,0,0,0,0,0,0,0,0,0,0,0,0,0,0,0,0,0,0,0,0,0,0,0,0,0,0,0,0,0,0,0,0,0,0,0,0,0,0,0,0,0,0,1,0.0390485375,-0.0661106355,-0.0239236893,-0.1018678799,0,0.0659881757,-0.0225124641,-0.0280723467,-0.0467098928,0.0469008256,0.0501030199,-0.0567718787,0.0034239865,-0.0589865507
RPXC,0,0,0,0,0,0,0,0,0,0,0,0,0,0,0,0,0,0,0,0,0,0,0,0,0,0,0,0,0,0,0,0,0,0,0,0,0,0,0,0,0,0,0,0,0,0,0,0,1,0.0084347621,-0.1103766554,-0.1598069151,0,0.0921301849,0.0622088564,-0.0228908525,-0.0601378339,0.0327576304,-0.0820701966,0.0185790043,0.1087355258,0.0356972154
SAVE,0,0,0,0,0,0,0,0,0,0,0,0,0,0,0,0,0,0,0,0,0,0,0,0,0,0,0,0,0,0,0,0,0,0,0,0,0,0,0,0,0,0,0,0,0,0,0,0,0,1,-0.0346318638,0.066078707,0,0.0033775449,-0.1495272927,0.0737023933,0.0256636687,0.021078218,0.0427585872,0.0863832794,-0.0013569875,-0.0078448046
SERV,0,0,0,0,0,0,0,0,0,0,0,0,0,0,0,0,0,0,0,0,0,0,0,0,0,0,0,0,0,0,0,0,0,0,0,0,0,0,0,0,0,0,0,0,0,0,0,0,0,0,1,0.0466599615,0,0.0511222802,0.0046085436,0.063229676,0.1581778063,0.0216817983,0,0.0470467457,-0.0298503008,0.0037704592
SIG,0,0,0,0,0,0,0,0,0,0,0,0,0,0,0,0,0,0,0,0,0,0,0,0,0,0,0,0,0,0,0,0,0,0,0,0,0,0,0,0,0,0,0,0,0,0,0,0,0,0,0,1,0,0.4538523542,-0.0163694884,0.5853279679,0.0820860129,-0.0587597944,-0.0649752452,0.5766852945,0.0593363288,-0.0267769478
SIXD,0,0,0,0,0,0,0,0,0,0,0,0,0,0,0,0,0,0,0,0,0,0,0,0,0,0,0,0,0,0,0,0,0,0,0,0,0,0,0,0,0,0,0,0,0,0,0,0,0,0,0,0,0,0,0,0,0,0,0,0,0,0
SKYW,0,0,0,0,0,0,0,0,0,0,0,0,0,0,0,0,0,0,0,0,0,0,0,0,0,0,0,0,0,0,0,0,0,0,0,0,0,0,0,0,0,0,0,0,0,0,0,0,0,0,0,0,0,1,-0.069889534,0.5231265543,0.0293422671,0.0288207627,-0.0979482508,0.4933185203,0.0207355497,-0.028969368
SWFT,0,0,0,0,0,0,0,0,0,0,0,0,0,0,0,0,0,0,0,0,0,0,0,0,0,0,0,0,0,0,0,0,0,0,0,0,0,0,0,0,0,0,0,0,0,0,0,0,0,0,0,0,0,0,1,0.0119033886,0.0286124491,-0.0195531455,-0.0797053202,-0.0203428011,0.0938879671,-0.1023857893
TECD,0,0,0,0,0,0,0,0,0,0,0,0,0,0,0,0,0,0,0,0,0,0,0,0,0,0,0,0,0,0,0,0,0,0,0,0,0,0,0,0,0,0,0,0,0,0,0,0,0,0,0,0,0,0,0,1,0.0366877828,0.0459646484,-0.0823925936,0.564459285,0.1123146604,-0.0935398037
TWMC,0,0,0,0,0,0,0,0,0,0,0,0,0,0,0,0,0,0,0,0,0,0,0,0,0,0,0,0,0,0,0,0,0,0,0,0,0,0,0,0,0,0,0,0,0,0,0,0,0,0,0,0,0,0,0,0,1,-0.0649148049,0.0485015837,0.0643152858,-0.0041938475,-0.0137716781
VRNG,0,0,0,0,0,0,0,0,0,0,0,0,0,0,0,0,0,0,0,0,0,0,0,0,0,0,0,0,0,0,0,0,0,0,0,0,0,0,0,0,0,0,0,0,0,0,0,0,0,0,0,0,0,0,0,0,0,1,0.0258482043,-0.0474330205,0.0234022091,0.0968911198
WAIR,0,0,0,0,0,0,0,0,0,0,0,0,0,0,0,0,0,0,0,0,0,0,0,0,0,0,0,0,0,0,0,0,0,0,0,0,0,0,0,0,0,0,0,0,0,0,0,0,0,0,0,0,0,0,0,0,0,0,1,0.0853051015,-0.2598998693,0.087046176
WERN,0,0,0,0,0,0,0,0,0,0,0,0,0,0,0,0,0,0,0,0,0,0,0,0,0,0,0,0,0,0,0,0,0,0,0,0,0,0,0,0,0,0,0,0,0,0,0,0,0,0,0,0,0,0,0,0,0,0,0,1,0.0348564974,-0.0025519914
XRS,0,0,0,0,0,0,0,0,0,0,0,0,0,0,0,0,0,0,0,0,0,0,0,0,0,0,0,0,0,0,0,0,0,0,0,0,0,0,0,0,0,0,0,0,0,0,0,0,0,0,0,0,0,0,0,0,0,0,0,0,1,-0.04944088
XUE,0,0,0,0,0,0,0,0,0,0,0,0,0,0,0,0,0,0,0,0,0,0,0,0,0,0,0,0,0,0,0,0,0,0,0,0,0,0,0,0,0,0,0,0,0,0,0,0,0,0,0,0,0,0,0,0,0,0,0,0,0,1
